ফ্যাশনের জগতে নতুনত্বের মূল্য অপরিসীম। আর তা যদি মানুষের মাঝে জনপ্রিয় হয়ে ওঠে তাহলে তো কথাই নেই। এবার তেমনই এক ব্যতিক্রমী ফ্যাশনের ট্রেন্ড দেখা যাচ্ছে, যার নাম ফিশটেইল ভ্রু।
মানুষের মুখমণ্ডলের একটি অন্যতম অংশ জুড়ে রয়েছে ভ্রু। আর সাজের জন্য ভ্রুকে অনেকেই সুন্দর করে বিন্যাস করতে পারেন।
শুধু মাছের লেজের মতো ফিশটেইল ভ্রুই নয়, আরও কয়েক রকমের ভ্রুর সাজ জনপ্রিয় হয়ে উঠেছে অনলাইনে। বেশ কয়েকজন বিউটি ব্লগার ব্যতিক্রমী এ সাজগুলো অনলাইনে পোস্ট করেছেন।
অনলাইনে অনেকেই এসব সাজ পছন্দ করছেন। কেউ কেউ অবশ্য বিরুপ মন্তব্যও করছেন।
