সিঁড়ি দিয়ে ওঠা নামা করার সময় সারা শরীরে রক্তের প্রবাহ এতটা বেড়ে যায় যে রক্তচাপ স্বাভাবিক মাত্রায় নেমে আসতে সময় লাগে না। সেই সঙ্গে হার্ট অ্যাটাক এবং স্ট্রোকের মতো মারণ রোগে আক্রান্ত হওয়ার আশঙ্কাও কমে। এখানেই শেষ নয়, সিঁড়ির সঙ্গে বন্ধুত্ব পাতালে মেলে আরও অনেক শারীরিক উপকার। 
মনকে চাঙ্গা করে তোলে কথাটা শোনার পর নিশ্চয় অবাক হচ্ছেন, কিন্তু একথার মধ্যে কোনও ভুল নেই যে মন খারাপের প্রকোপ কমিয়ে মুডকে চাঙ্গা করে তুলতে সিঁড়ির ব্যবহার বিশেষ ভূমিকা পালন করে থাকে। আসলে সিঁড়ি দিয়ে ওঠা বা নামার সময় আমাদের মস্তিষ্কের অন্দরে এন্ডোরফিন নামক "ফিল গুড" হরমোনের ক্ষরণ বেড়ে যায়। ফলে স্বাভাবিকভাবেই মন চাঙ্গা হয়ে উঠতে সময় লাগে না। তাই তো এবার থেকে কাজের চাপে বা অন্য কারণে মন ক্ষতবিক্ষত হলেই সিঁড়ির সামনে এসে দাঁড়াবেন, দেখবেন নিমেষে সব ভালো লাগতে শুরু করবে।
একসঙ্গে দুটো সিঁড়ি ভাঙলে মিলবে বেশি উপকার একাধিক স্টাডিতে দেখা গেছে একটা সিঁড়ি দিয়ে ওঠার সময় একটা একটা করে সিঁড়ি ভাঙার পরিবর্তে যদি একসঙ্গে দুটো করে সিঁড়ি টোপকে টোপকে ওঠা যায়, তাহলে আরও বেশি উপকার মেলে। কারণ এমনটা করলে শরীরের অন্দরে উপকারি হরমোনের ক্ষরণ যেমন বেড়ে যায়, তেমনি শরীরের প্রতিটি পেশীর কর্মক্ষমতা বৃদ্ধি পায়। সেই সঙ্গে অক্সিজেন সমৃদ্ধ রক্তের সরবরাহ বেড়ে যায়। ফলে স্বাভাবিকভাবেই প্রতিটি অঙ্গের কর্মক্ষমতা বৃদ্ধি পায়।
জয়েন্টের কর্মক্ষমতা বাড়ে বয়সের সঙ্গে সঙ্গে আমাদের শরীর যেমন বুড়ো হতে থাকে, তেমনি জয়েন্টের সচলতাও কমতে শুরু করে। ফলে ব্যথা-যন্ত্রাণায় জীবন জর্জরিত হয়ে ওঠে। আপনি যদি না চান আপনার সঙ্গেও এমনটা হোক, তাহলে ভুলেও লিফট ব্যবহার করবেন না। পরিবর্তে সিঁড়ির সঙ্গে বন্ধুত্ব পাতাতে হবে। কারণ খেয়াল করে দেখবেন সিঁড়ি ব্যবহার করলে জয়েন্টের কর্মক্ষমতা বেড়ে যায়। ফলে শরীরের বয়স বাড়লেও তার প্রভাব জয়েন্টের উপর পরতে পারে না।
পায়ের পেশীর সচলচতা বৃদ্ধি পায় সিঁড়ি দিয়ে ওঠা-নামার সময় আমরা আমাদের গ্র্যাভিটির বিপরীত মুখি হই। তাই এই সময় নিজের ওজনকে সামলে একের পর এক ধাপ নিয়ে উপরে ওঠার সময় পায়ের পেশীর উপর চাপ পরতে থাকে। এমনটা দিনের পর দিন হতে থাকলে একদিকে যেমন পায়ের নিচের অংশের কর্মক্ষমতা বৃদ্ধি পায়। তেমনি পেটের পেশীর সচলতাও বাড়তে থাকে। ফলে বেলি ফ্যাট কমার সম্ভাবনা বৃদ্ধি পায়।
হাড়ের স্বাস্থ্যের উন্নতি ঘটে সিঁড়ি দিয়ে ওঠা নাম করলে বোন ডেনসিটির উন্নতি ঘটতে শুরু করে। ফলে স্বাভাবিকভাবেই হাড় শক্তপোক্ত হতে শুরু করে। সেই সঙ্গে আর্থ্রাইটিসের মতো রোগে আক্রান্ত হওয়ার আশঙ্কাও হ্রাস পায়। এই কারণেই তো ৪০-এর পর থেকে মহিলাদের লিফটের পরিবর্তে সিঁড়ি ব্যবহারের পরামর্শ দিয়ে থাকেন চিকিৎসকেরা।
জিমের সমান উপকার মেলে জিমে গিয়ে ৩০ মিনিট ঘাম ঝরালে যতটা উপকার পাওয়া যায়, ততটা না হলেও কিছু কম উপাকার পাওয়া যায় না সিঁড়ি ব্যবহার করলে। একাধিক কেস স্টাডিতে দেখা গেছে সিঁড়ি দিয়ে দ্রুত ওঠা-নামা করলে যে পরিমাণ ক্যালরি বার্ন হয়, তা অন্য কোনও এক্সারসাইজ করলে হয় না। তাই শারীরিক ভাবে চাঙ্গা থাকতে এবং ওজনকে নিয়ন্ত্রণে রাখতে সিঁড়ির সঙ্গে বন্ধুত্ব করতে ভুলবেন না যেন!
ওজন কমতে থাকে অতিরিক্ত ওজনের কারণে কি চিন্তায় রয়েছেন? তাহলে ভুলেও লিফটের দিকে পা বাড়াবেন না। কারণ একাধিক গবেষণায় দেখা গেছে নিয়মিত সিঁড়ি ভাঙার অভ্যাস করলে শারীরিক সচলচতা বৃদ্ধি পায়। সেই সঙ্গে শরীরে জমতে থাকা অতিরিক্ত ক্যালরি ঝরতে শুরু করে। ফলে স্বাভাবিকভাবেই ওজন কমার সম্ভাবনা বৃদ্ধি পায়, যা লিফট ব্যবহার করলে কখনই সম্ভব হত না।
