দিনের শুরুতে একটি পরিপূর্ণ খাদ্য তালিকা আপনাকে দিতে পারে সারাদিন সুস্থ ও সতেজ থাকার নিশ্চয়তা। তাই সুস্থ থাকতে, শরীরে সঠিক পুষ্টি জোগাতে কখনই সকালের নাস্তা বাদ দেয়া উচিত নয়। 
তবে শুধু পেটপুরে খেলেই হবে না, কী খাচ্ছেন সেটাও গুরুত্বপূর্ণ। বিশেষে করে শীতকালে যখন আমাদের এনার্জির মাত্রা এমনিতেই কিছুটা কম থাকে। এই খাবারগুলো সকালের নাস্তা হিসেবে যথেষ্ট প্রচলিত হলেও পুষ্টিগুণের কথা বিচার করে সকালের নাস্তায় না খাওয়াই ভাল। 
আমাদের জানতে হবে সকালের নাস্তায় কোন খাবারগুলো খাওয়া উচিত আর কোনগুলো নয়। ফ্লেভারড লো ফ্যাট ইয়োগার্ট বাজার থেকে কেনার সময় লেবেল পড়ে আমরা ভাবি লো ফ্যাট খাবার কিনছি। কিন্তু প্রকৃতপক্ষে এই সব ফ্লেভারড ইয়োগার্টে প্রচুর পরিমাণে চিনি ও কৃত্রিম উপাদান থাকে। এতে শুধু ওজন বাড়ার ঝুঁকিই নয়, বুকে শ্লেষ্মা জমার ঝুঁকিও থাকে। সবচেয়ে সহজে জলদি সকালের নাস্তা তৈরি করতে সিরিয়ালই ভরসা। সিরিয়াল যতটা পুষ্টিকর ভাবা হয় ততটা মোটেও নয়। এতে যেমন অ্যাডেড সুগার থাকে, তেমনই ফাইবার ও প্রোটিন থাকে না। সকালে ঘুম থেকে ওঠে ফ্রুট জুস খাওয়া খুব স্বাস্থ্যকর এই ভুল ধারণা অনেকেরই রয়েছে। ফ্রুট জুসের মধ্যে যেমন চিনি থাকে তেমনই রস বের করে নেয়ায় ফলের ফাইবার নষ্ট হয়ে যায়। ফলে ফ্রুট জুস খেলে একদিকে যেমন ডায়াবেটিসের আশঙ্কা থাকে তেমনই অন্যদিকে ওবেসিটির সমস্যাও দেখা দেয়। 
সকালের নাস্তা হিসেবে প্যানকেক বা ওয়াফল বেশ জনপ্রিয়। কিন্তু অতিরিক্ত রিফাইন্ড ফ্লাওয়ার ও চিনি থাকায় প্যানকেক খাওয়ার কিছুক্ষণ পরেই অলস ও ক্লান্ত লাগতে থাকে। সাধারণত রিফাইন্ড ময়দা, ভেজিটেবল অয়েল, ডিম ও চিনি দিয়ে তৈরি হয় মাফিন। সেই সঙ্গে থাকে চকোলেট চিপস ও হুইপড ক্রিমের টপিং। হাই সুগার ও হাই ক্যালোরি খাবার মাফিন। পুষ্টিগুণ কম। 
ব্রেকিংনিউজ/ এসএ 
