মানুষবিহীন এই রকেটটি ইন্টারন্যাশনাল স্পেস স্টেশন বা আইএসএস-এর উদ্দেশ্যে প্রায় যাত্রা শুরু করে দিয়েছিল। কিন্তু তার আগেই অভিযানের নিয়ন্ত্রণ কেন্দ্র থেকে নির্দেশনা আসে- ‘বাতিল, বাতিল, বাতিল!’। নিয়ন্ত্রণ কেন্দ্র থেকে পাশের ওয়ালপস আইল্যান্ডের নিষিদ্ধ থাকা এলাকায় পাঁচশ’ ফুট উচ্চতায় একটি ছোট আকাশযান শনাক্ত করা হয়।
পশ্চিম উপকূলীয় সময় রোববার সকাল ৭টা ১৪ মিনিটে এই রকেট উৎক্ষেপণের নতুন সময় নির্ধারণ করা হয় বলে বিবিসি’র প্রতিবেদনে উল্লেখ করা হয়।  
এই কার্গো রকেটটি ৩,৩৫৬ কেজি খাবার, আইএসএস-এর বৈজ্ঞানিক পরীক্ষার জন্য দরকারি যন্ত্রপাতি আর অন্যান্য সামগ্রীতে পূর্ণ ছিল।
