যুক্তরাষ্ট্রের নর্থওয়েস্টার্ন ইউনিভার্সিটি-এর বিজ্ঞানীরা গলায় পরিধেয় নতুন এই সেন্সর এনেছেন। কেউ নির্বাক হয়ে গেলে এই সেন্সর তা শনাক্ত ও চিকিৎসায় সহায়তা করবে। স্নায়বিক আঘাত বা স্ট্রোকের কারণে বাকশক্তি হারিয়ে ফেলার সমস্যাকে বাকরোধ বা অ্যাফেসিয়া বলা হয়। তারবিহীন এই ডিভাইসটি আক্রান্ত ব্যক্তির কণ্ঠের কম্পন শনাক্ত করে। এর মাধ্যমে ব্যক্তি স্বাভাবিক হয়েছেন কিনা আর চিকিৎসকের কাছে উচিৎ কিনা তা যাচাই করবে।
প্রযুক্তি সাইটটি বলেছে, এই সেন্সর একটি মাইক্রোফোনের তুলনায় শুধু সঠিকই নয় বরং তুলনামূলকভাবে আরও আরামদায়ক এবং এটি বেশিদিন টিকবে। এতে এমন কিছু উপাদান ব্যবহার করা হয়েছে যার ফলে গলার ত্বক ভাঁজ হলেও বিরক্ত লাগবে না।
এই সেন্সর কাউকে পুরোপুরি সুস্থ করে দেবে না, কিন্তু এটি আক্রান্ত ব্যক্তির সুস্থ হওয়ার প্রক্রিয়া দ্রুত করবে বলেই উল্লেখ করা হয়েছে প্রযুক্তি সাইটটির প্রতিবেদনে।
