গরম এলেই দুশ্চিন্তা বাড়ে অনেকের।কারণ গরম এলেই বাড়ে ঘামাচির অত্যাচার। অনেকে বিভিন্ন ধরণের পাউডার ব্যবহার করেও মেলে না প্রতিকার।ঘামাচির কারণে বিব্রত হন অনেকে।কারণ ঘামাচি চুলকানি যেন অসহ্যকর তেমনি আপনার স্বাভাবিক চলাফেরা ব্যহত হয়। আর দৈহিক সৌন্দর্য নষ্ট করে।
গরমে ঘাড়, পিঠ, গলা, হাত, মুখ সহ শরীরের নানা স্থানে লাল ছোট ছোট ঘামাচি দেখা দেয়। ঘামাচির কারণে অসহ্য রকম চুলকানিও হয়।
আসুন জেনে নেই ঘামাচি তাড়ানোর ঘরোয়া উপায়-
বরফের সেঁক
ঘামাচি প্রতিরোধে বরফ ভালো কাজ করে। বরফ একটি কাপড়ে পেঁচিয়ে ঘামাচির স্থানে ৫ থেকে ১০ মিনিট সেঁক দিন। এটি ঘামাচি মেরে ফেলে লাল হওয়া কমিয়ে দিয়ে থাকে।
বেসন
বেসন এবং পানি মিশিয়ে পেস্ট তৈরি করুন। এই পেস্টটি ঘামাচির স্থানে লাগিয়ে নিন। ১৫ মিনিট পর শুকিয়ে গেলে ঠাণ্ডা পানি দিয়ে ধুয়ে ফেলুন। এটি চুলকানি দূর করে ঘামাচি দূর করে দেবে।
মুলতানি মাটি
পাঁচ টেবিল চামচ মুলতানি মাটির সঙ্গে দুই অথবা তিন টেবিল চামচ গোলাপ জল মিশিয়ে ঘন পেস্ট তৈরি করুন। এই পেস্টটি ঘামাচির স্থানে লাগিয়ে নিন। শুকিয়ে গেলে ঠান্ডা পানি দিয়ে ধুয়ে ফেলুন।
নিম
এক মুঠো নিমপাতা গুঁড়ো করে পেস্ট তৈরি করে নিন। এই পেস্টটি ঘামাচির স্থানে লাগিয়ে নিন। শুকিয়ে গেলে ঠাণ্ডা পানি দিয়ে ধুয়ে ফেলুন। এটি সপ্তাহে একবার ব্যবহার করুন। এছাড়া এক মুঠো নিমের পাতা দুই কাপ পানিতে ২০ মিনিট ফুটিয়ে নিন। ঠাণ্ডা হলে এই পানিতে সুতির কাপড় ভিজিয়ে এটি ঘামাচির স্থানে লাগিয়ে রাখুন। এটি দিনে চার থেকে পাঁচবার করুন।
