প্রতিদিন সকালে ঘুম থেকে উঠে বেড়ে যায় কর্মজীবী মানুষের ব্যস্ততা। আর এই ব্যস্ততা যেমন বেড়ে যায়, তেমনি বেড়ে যায় গাড়ি, জ্যাম আর সড়ক দুর্ঘটনা। এই দুর্ঘটনা থেকে রক্ষা পেতে আমাদের মাথা ঠাণ্ডা রেখে চালাতে হয় গাড়ি। কারণ আপনার সচেতনতাই রক্ষা করতে পারে হাজারো মানুষের জীবন।
অনেকে মানছে না ট্রাফিক আইন। হরহামেশাই ঘটছে দুর্ঘটনা, প্রাণ হারাচ্ছেন চালক ও আরোহী। তাই একটুখানি সচেতনতাই পারে আপনাকে দুর্ঘটনা এবং আইনি ঝামেলা থেকে মুক্ত রাখতে।অনেকে আবার ফাঁকা রাস্তা পেয়ে বেপরোয়া গাড়ি চালাতে চেষ্টা করেন। যার ফল হয় ভয়াবহ। প্রাণহানি ঠেকাতে সাবধানে গাড়ি চালাতে হবে। মনে রাখবেন একটি দুর্ঘটনা সারা জীবনের কান্না।
বিশ্লেষকরা বলছেন, অল্প দক্ষ বা অদক্ষ চালক দিয়ে গাড়ি চালানোই সড়ক দুর্ঘটনার অন্যতম প্রধান কারণ। বেপরোয়া গাড়ি চালাতে গিয়ে যাতে জীবনহানি না হয়, সেদিকে অবশ্যই খেয়াল রাখতে হবে। পরিবার সবসময়ই চায় আপনি এবং আপনার প্রিয় গাড়ি দুটোই থাকুক নিরাপদ।
নিরাপদে গাড়ি চালানোর জন্য একটি গুরুত্বপূর্ণ বিষয় গাড়ির সিট বেল্ট বাঁধা। প্রত্যেকটি দেশেই সিট বেল্ট বেঁধে গাড়ি চালানোর বাধ্যবাধকতা রয়েছে। সিট বেল্ট বেঁধে গাড়ি চালান।অবশ্যই মনে রাখবেন, শুধু আপনি নন আপনার সঙ্গে থাকা যাত্রীদেরও সিট বেল্ট বাঁধতে বাধ্য করবেন। সিট বেল্ট বেঁধে গাড়ি চালানো এবং গাড়িতে চড়া দুটোই নিরাপদ ড্রাইভিংয়ের জন্য গুরুত্বপূর্ণ।
নিরাপদ ড্রাইভিংয়ের জন্য যা প্রয়োজন আপনার মনোযোগ। আপনি যখনই গাড়ি চালাবেন খেয়াল রাখবেন আপনার মনোযোগ যেন গাড়ি এবং রাস্তার দিকেই থাকে। কখনই গাড়ি এবং রাস্তা থেকে মনোযোগ সরাবেন না। একটু অমনোযোগী ড্রাইভিংয়ের কারণে ঘটতে পারে মর্মান্তিক দুর্ঘটনা।
অল্প দক্ষ বা অদক্ষ চালক দিয়ে কখনোই গাড়ি চালানো ঠিক নয়। কারণ বেশি দুর্ঘটনা ঘটে থাকে অদক্ষ চালকের জন্য। তাই এক্ষেত্রে গাড়ির মালিদের সচেতন হতে হবে।
রাস্তা বিশ্লেষণ বা রোড স্ক্যানিং নিরাপদ ড্রাইভিংয়ের জন্য খুবই গুরুত্বপূর্ণ। আপনি যখন গাড়ি চলাবেন তখন অবশ্যই আপনার চলার রাস্তাটিকে ভালোভাবে বিশ্লেষণ করবেন। গাড়ি চালানোর সময় রাস্তা-সম্পর্কিত যে বিষয়গুলো আপনাকে অবশ্যই খেয়াল করতে হবে সেগুলো হলো- রাস্তায় গাড়ির পরিমাণ, রাস্তার লেনের পরিমাণ, রাস্তার গঠনগত অবস্থা, রাস্তার প্রশস্ততা।
গাড়ি চালানোর সময় কখনই হুটহাট করে গাড়ির গতিসীমা বাড়াবেন বা কমাবেন না। হুটহাট গাড়ির গতি বাড়ানো বা কমানো প্রায়শই বড় দুর্ঘটনার কারণ হয়ে দাঁড়ায়। তাই যতদূর সম্ভব এই বিষয়টি মেনে গাড়ি চালানোর চেষ্টা করবেন।
গাড়িতে চড়ে অনেক যাত্রী আছেন যারা ভাড়া ছাড়াও বিভিন্ন বিষয় নিয়ে ড্রাইভারের সঙ্গে কথা বলা থেকে শুরু করে হাতাহাতির পর্যায়ে চলে যান- এটি কোনোভাবেই ঠিক নয়। গাড়ি চলানোর সময় কথা বলা থেকে বিরত থাকুন।
০৭. প্রতিযোগিতা
অনেক সময় প্রতিযোগিতা করে অনেক ড্রাইভার গাড়ি চালিয়ে থাকেন। এটি সড়ক দুর্ঘটনার অন্যতম কারণ। তাই ঠাণ্ডা মাথায় গাড়ি চালান। আর মনে রাখবেন আপনি গাড়ি চালানোর প্রতিযোগিতায় নামেননি, নিরাপদে নিজ গন্তব্যে পৌঁছাতে গাড়ি চালাচ্ছেন।
প্রত্যেকটি গাড়ির দুটি লুকিং গ্লাস থাকে। একটি ডান হাতের পাশে আরেকটি বাম হাতের পাশে। গাড়ি চালানোর সময় লুকিং গ্লাস দেখা জরুরি। কারণ আপনার পাশ দিয়ে কোন গাড়ি যাচ্ছে- তা আপনি সহজেই দেখতে পারবেন। আর নিরাপদে গাড়ি চালাতে পারবেন।
গাড়ি চালানোর সময় চালক নেশাগ্রস্ত থাকার কারণে দুর্ঘটনা ঘটে। আমাদের দেশের বেশির ভাগ পাবলিক বাসের দুর্ঘটনার কারণ নেশাগ্রস্ত চালক। তাই নেশাগ্রস্ত অবস্থায় গাড়ি চালাবেন না।
