ব্রিটিশ ট্যাবলয়েড মিরর জানিয়েছে, সুপারস্টার ভ্লগার (ভিডিও ব্লগার) আর মার্কিন লেট নাইট টক শো কারপুল কারাওকে’র নামে অনেক পর্নোগ্রাফিক কনটেন্ট আপলোড করা হচ্ছে ইউটিউবে। 
পর্ন বা পাইরেটেড কনটেন্টে নিষেধাজ্ঞার বিষয়ে গুগল মালিকানাধীন ভিডিও শেয়ারিং সাইট ইউটিউব-এর কঠোর কমিউনিটি নীতিমালা রয়েছে। কিন্তু টরেন্টফ্রিক-এর এক প্রতিবেদন অনুযায়ী, এখন অনেক আপলোডাকারী এই নিষেধাজ্ঞা মানছেন না।
সরবরাহকারীরা এসব ভিডিও প্রকাশ্যে প্রদর্শনের পরিবর্তে প্রাপ্তবয়স্কদের জন্য গুগল সার্ভারে রেখে তাদের নিজস্ব সার্ভারে তাদের সাইটের সরাসরি লিংক রেখে দেন। যেহেতু গুগল ভিডিও ডটকম ডোমেইন সার্ভারে সংরক্ষিত থাকে, তাই এসব ভিডিও কখনও ইউটিউবে প্রকাশ করা হয় না। তাছাড়া ইউটিউবে কপিরাইট সংরক্ষণে কনটেন্ট আইডি নামের বাইপাস সিস্টেম রয়েছে। কিন্তু এখন এই ব্যবস্থায় যদি কোনো পাইরেটেড ভিডিও খুঁজে পাওয়া যায় এমনকি বন্ধও করে দেওয়া হয়, তার পরেও সপ্তাহ জুড়ে থেকে যাচ্ছে এমন ভিডিও।   
“ইউটিউব এখনও বড় রকমের গোলকধাঁধায় রয়েছে এখানে। নিজস্ব ভিডিও শেয়ারিং সেটিংয়ের সুবিধা নিয়ে কপিরাইট ভঙ্গকারীরা সুবিধা নিচ্ছে প্রতিনিয়ত। তারা ভিডিও আপলোড আর সংরক্ষণ করছে আর লাভ পেতে থার্ড-পার্টি ওয়েবসাইটে এগুলো ব্যবহারও করছে”- বলা হয় ক্যালিফোর্নিয়াভিত্তিক পর্ন নির্মাতা ড্রিমরুম-এর পক্ষ থেকে।   
