বিশ্বের সবচেয়ে বড় সার্চ ইঞ্জিন গুগলে ২০১৬ সাল জুড়ে সবচেয়ে বেশি অনুসন্ধান করা বিষয়গুলোর তালিকা প্রকাশ করেছে প্রতিষ্ঠানটি, এ নিয়ে প্রতিবেদন প্রকাশ করেছে বিবিসি।
বিশ্বব্যাপী এ বছর গুগল সাইটে সবচেয়ে বেশি সন্ধান করা বিষয়গুলোর সেরা ১০-
১. পোকিমন গো 
২. আইফোন ৭
৩. ডোনাল্ড ট্রাম্প
৪. প্রিন্স
৫. পাওয়ারবল
৬. ডেভিড বাউয়ি
৭. ডেডপুল
৮. অলিম্পিকস
৯. স্লিথার ডট আইও
১০. সুইসাইড স্কোয়াড
যুক্তরাজ্যের তালিকায় সেরা ১০-
১. ইউরো ২০১৬
২. পোকিমন গো
৩. ডেভিড বাউয়ি
৪. ডোনাল্ড ট্রাম্প
৫. প্রিন্স
৬. ব্রেক্সিট
৭. অ্যালান রিকম্যান
৮. অলিম্পিকস
৯. মার্কিন প্রেসিডেন্ট নির্বাচন
