একই ধরনের আরেক মামলায় একই দেশের আরেক প্রযুক্তি জায়ান্ট মাইক্রোসফটের জন্য বিপরীত দিকে রায় দিয়েছিল দেশটির এক ফেডারেল আপিল আদালত, জানিয়েছে রয়টার্স।
যুক্তরাষ্ট্রের ফিলাডেলফিয়ায় শুক্রবার এই রায় দেন বিচারক টমাস রুয়েটার। রায়ে জানানো হয়, দেশীয় মামলার অংশ হিসেবে এফবিআই যাতে স্থানীয়ভাবে যাচাই করতে পারে সেজন্য বিদেশী সার্ভার থেকে ইমেইল হস্তান্তর করা  ‘বাজেয়াপ্ত’ হিসেবে বিবেচিত হবে না।
বিচারক জানান, এই রায়ের কারণ হচ্ছে এই ডেটা চাওয়ার ক্ষেত্রে কোনো “অর্থপূর্ণ হস্তক্ষেপ ছিল না।”
এ নিয়ে এক বিবৃতিতে গুগলের পক্ষ থেকে বলা হয়েছে, “এই মামলার ক্ষেত্রে বিচারক মামলার বিবরণী আমলে নেননি, আর আমরা এই সিদ্ধান্তের বিরুদ্ধে আপিলের পরিকল্পনা করেছি। আমরা এ ধরনের পরোয়ানা ঠেকাতে চেষ্টা অব্যাহত রাখব।”
আয়ারল্যান্ড-এর রাজধানী ডাবলিন-এর এক সার্ভারে মাইক্রোসফটের জমা করা ইমেইল হস্তান্তরে প্রতিষ্ঠানটিকে জোর করা যাবে না- এমন রায়ের সাত মাসেরও কম সময়ের মধ্যে নতুন এই রায় এল। 
এই দুই মামলাই যুক্তরাষ্ট্রের ‘স্টোরড কমিউনিকেশনস অ্যাক্ট’-এর অধীনে পরোয়ানা ইসু সম্পর্কিত ছিল।
আদালতে দাখিল করা দলিলে গুগল জানায়, মাঝে মধ্যে নেটওয়ার্ক পারফর্ম্যান্স উন্নত করতে ইমেইলগুলো আলাদা করে ফেলা হয়, আর নির্দিষ্টভাবে ইমেইলগুলো কোথায় রাখা তা জানা নেই।
