যুক্তরাষ্ট্রের ন্যাশনাল হাইওয়ে ট্রাফিক সেইফটি অ্যাডমিনিস্ট্রেশন (এনএইচটিএসএ) তাদের তদন্ত করার পর তারা গাড়ির ত্রুটি সম্পর্কিত কোনো প্রমাণ পায়নি। সেই ভিত্তিতে টেসলা-কে মার্কিন বাজার থেকে সরিয়ে নিতে কোনো সরকার থেকে কোনো আদেশ দেওয়া হচ্ছে না, জানিয়েছে বিবিসি।
দুর্ঘটনায় নিহত চালকের নাম ছিল জোশুয়া ব্রাউন, তার গাড়ি একটি পণ্যবাহী ট্রাকের সঙ্গে সংঘর্ষ হয় এবং সেই সময় গাড়িটি অটোপাইলট বা স্বচলিত ফিচারে ছিল।
টেসলা তাদের একটি বিবৃতিতে জানায়, তারা অটোপাইলট ডিজাইন করা হয়েছে চালকদের সহায়তা করার জন্য। ফিচারটি এমনভাবে তৈরি করা হয়েছে যেখানে গাড়িটি মোটরওয়ে তে ব্যবহার করা হবে এবং স্বনিয়ন্ত্রিত ভাবে গাড়িগুলো রাস্তার লেন পরিবর্তন করবে এবং যানবাহন দেখলে পরিবর্তন আনবে।
