বৃহস্পতিবার কোয়ালকমের পক্ষ থেকে বলা হয়, প্রতিষ্ঠানটির কাছ থেকে চীনা প্রতিষ্ঠানগুলো তিন বছরে অন্তত দুইশ’ কোটি ডলার মূল্যের উপাদান কিনতে আগ্রহ প্রকাশ করেছে।
চীনের বেইজিংয়ে কোয়ালকম আয়োজিত এক অনুষ্ঠানে প্রতিষ্ঠানটি এই চুক্তির তথ্য প্রকাশ করে। অনুষ্ঠানে প্রতিষ্ঠানটির চেয়ারম্যান ও প্রধান নির্বাহী উপস্থিত ছিলেন বলে রয়টার্স-এর প্রতিবেদনে উল্লেখ করা হয়। 
সম্প্রতি ফেইসবুক অধীনস্থ ভিআর হেডসেট নির্মাতা প্রতিষ্ঠান অকুলাস-এর পক্ষ থেকে বলা হয়, তারা কোয়ালকমের সঙ্গে ঘনিষ্ঠভাবে কাজ করছে আর নিজেদের মোবাইল ভিআর হেডসেটের জন্য তারা কোয়ালকমের স্ন্যাপড্রাগন ৮২১ চিপসেট ব্যবহার করছে।
