বিশ্বের দ্বিতীয় বৃহত্তম অর্থনীতির দেশ হওয়ায় চীনে ব্যবসার পরিধি বাড়ানোর পরিকল্পনা করছে প্রতিষ্ঠানটি। শেনজেনে আরঅ্যান্ডডি সেন্টার খোলার ব্যাপারে বেইজিংয়ে অ্যাপল সেন্টারের মতো একই পরিকল্পনা রয়েছে প্রতিষ্ঠানটির, জানিয়েছে রয়টার্স।
সাম্প্রতিক সময়ে চীনা স্মার্টফোনের বাজারে দেশটির আঞ্চলিক প্রতিষ্ঠান হুয়াওয়ে, ওপ্পো এবং ভিভো-র মতো প্রতিষ্ঠানগুলো অ্যাপলের আইফোনের বাজার শেয়ার কমিয়ে দিয়েছে। তাই দেশটিতে ব্যবসায় আগের অবস্থান ফিরে পেতেই সেখানে আরঅ্যান্ডডি সেন্টার বাড়ানোর লক্ষ্যে আগাচ্ছে অ্যাপল।
দক্ষিণ চীনের দেশীয় উদ্ভাবনী অনুষ্ঠানে সেখানকার জ্যেষ্ঠ কর্মকর্তাদের সঙ্গে এক সাক্ষাতকারে শেনজেন আরঅ্যান্ডডি সেন্টারের ঘোষণা দেন অ্যাপল প্রধান টিম কুক।
কুপার্টিনোভিত্তিক অ্যাপলের মুখপাত্র জস রজেনস্টোক বলেন, “বেইজিং সেন্টারের সঙ্গে শেনজেন সেন্টার দেশটির আঞ্চলিক অংশীদার এবং ইনিভার্সিটিগুলোর সঙ্গে তাদের সম্পর্ক আরও মজবুত করবে।”
