গেল ৭ সেপ্টেম্বর অ্যাপল ইভেন্টে অ্যাপল ডিভাইসের জন্য নিনটেনডো'র বানানো জনপ্রিয় গেইম সুপার মারিও রান উন্মোচন করে অ্যাপল। এর মাধ্যমে প্রথমবারের মতো মোবাইল ডিভাইসে আসে গেইমটি। সফরে নিনটেনডো প্রেসিডেন্ট তাতসুমি কিমিশিমা আর সুপার মারিও'র সহ-নির্মাতা শিগেরু মিয়মোতো-এর সঙ্গে প্রায় এক ঘণ্টা বৈঠক করেন কুক, জানিয়েছেন জাপানি প্রতিষ্ঠানটির একজন মুখমাত্র কেনিচি সুগিমোতো। বৈঠক শেষে কুক-এর টুইট করা এক ছবিতে দেখা যায়, তিনি মিয়ামোতো আর গেউম ডিজাইনার তাকাশি তেজুকা'র সঙে খেলছেন। 
জাপানে অ্যাপলের এক প্রতিনিধিকে অনুরোধ করা হলেও তিনি এ নিয়ে কোনো মন্তব্য করেননি।
এ দিকে টোকিও স্টক এক্সচেঞ্জে নিনটেনডো'র শেয়ারমূল্য ২.৬ শতাংশ বৃদ্ধি পেয়েছে বলে জানিয়েছে ব্লুমবার্গ। বছরের পর বছর নিজেদের নিজস্ব হার্ডওয়্যারের জন্য গেইম ছাড়ার কৌশল অবলম্বনের পর, প্রতিষ্ঠানটি স্মার্টফোন দুনিয়ায় আসায় বিনিয়োগকারীরা আনন্দ প্রকাশ করেছেন। 
