গ্রাহকরা প্রিঅর্ডারএ৮ প্লাস ডটকম ভিজিট করে বা যেকোন স্যামসাং স্টোর, গ্রামীণফোন সেন্টার ও জিপি অনলাইন শপ থেকে ১১ জানুয়ারি, ২০১৮ থেকে ৩১ জানুয়ারি, ২০১৮ পর্যন্ত হ্যান্ডসেটটি প্রি-অর্ডার করতে পারবেন।
প্রি-অর্ডার করার মাধ্যমে গ্রাহকরা ৬২,৯০০ টাকায় হ্যান্ডসেটটি কিনতে পারবেন এবং প্রি-অর্ডার পিরিয়ড শেষে হ্যান্ডসেটটি পাওয়া যাবে ৬৫,৯০০ টাকা মূল্যে। প্রিমিয়াম ডিজাইনের সঙ্গে হ্যান্ডসেটটি পাওয়া যাবে কালো এবং অর্কিড গ্রে রং-এ, জানিয়েছে প্রতিষ্ঠানটি। 
গ্যালাক্সি এ৮ প্লাস প্রি-অর্ডার করার মাধ্যমে গ্রাহকরা গ্রামীণফোনের পক্ষ থেকে ৪২জিবি পর্যন্ত ইন্টারনেট বান্ডল ও স্যামসাং-এর ‘নেভার মাইন্ড’ অফারটি উপভোগ করতে পারবেন এবং নাজিমগড় রিসোর্ট-এ ৩৫ শতাংশ ও আর্টিসানে ২০ শতাংশ ছাড় উপভোগ করার সুযোগ পাবেন।
