২০১৬ সালের ডিসেম্বরে আইফোন নির্মাতা প্রতিষ্ঠানটির বিরুদ্ধে মামলা দায়ের করে এক সময় মোবাইল ফোন বাজারে আধিপত্য বিস্তার করা প্রতিষ্ঠানটি। এই মামলায় নোকিয়া দাবি করে, ডিসপ্লে, ইউজার ইন্টারফেইস আর ভিডিও এনকোডিংসহ অ্যাপল ৩২টি পেটেন্ট লঙ্ঘন করেছে। এখন দুই প্রতিষ্ঠান একটি চুক্তি সই করেছে, যার ফলে অ্যাপল এই প্রযুক্তিগুলো ব্যবহার করতে পারবে আর নোকিয়া এর জন্য নগদ অর্থ গ্রহণ করবে। 
সেইসঙ্গে অ্যাপল তাদের খুচরা বিক্রির দোকানগুলোতে নোকিয়ার স্বাস্থ্যবিষয়ক পণ্যগুলো রাখবে, বলা হয়েছে রয়টার্স-এর প্রতিবেদনে।
এ চুক্তির আর্থিক শর্তাবলী নিয়ে প্রতিষ্ঠানদুটি বিস্তারিত কোনো তথ্য প্রকাশ করেনি। কিন্তু একজন বিশ্লেষকের মতে, এর মাধ্যমে নোকিয়া লাখ লাখ ডলার পাবে।
বিশ্লেষণা প্রতিষ্ঠান ওয়াইজহার্ভার-এর বিশ্লেষক কিথ ম্যালিনসন বলেন, “এটি বাৎসরিকভিত্তিক চুক্তি, তাই এটি সম্ভবত কোটি ডলার মূল্যের হবে।” 
“অ্যাপলের ব্যবসায়ের দিকে তাকালে… এ খাতের এক হিসাব অনুযায়ী ২০১৬ সালে তারা আইফোন বিক্রি করে ১৪ হাজার কোটি ডলার আয় করেছে।”
