মার্কিন সংবাদমাধ্যম সিএনবিসি’র প্রতিবেদনে বলা হয়, মঙ্গলবার থেকে দুবাই ট্যাক্সি কর্পোরেশন-এর সঙ্গে মিলে উবারওয়ান নামের নতুন এক অপশন চালু করেছে উবার। এই অপশনের অধীনে চলতি বছর সেপ্টেম্বরে ৫০টি টেসলা মডেল এক্স আর মডেল এস গাড়ি যোগ করা হয়েছে।
উবার ব্যবহারকারীরা  বাড়তি ভাড়া পরিশোধের মাধ্যমে এই স্বচালিত প্রযুক্তির গাড়িগুলো ব্যবহার করতে পারবেন।
২০১৮ ও ২০১৯ সালের মধ্যে নিজেদের বহরে আরও দেড়শ’ টেসলা গাড়ি যুক্ত করার লক্ষ্য স্থির করেছে দুবাই ট্যাক্সি কর্পোরেশন।
