এই চুক্তি নিয়ে কোনো আর্থিক তথ্য প্রকাশ করা না হলেও নোকিয়ার পক্ষ থেকে বলা হয়, চতুর্থ প্রান্তিক থেকে নোকিয়া এই পেটেন্ট লাইসেন্স-এর আয় পাওয়া শুরু করবে। সম্প্রতি অ্যাপল, স্যামসাং, ইলেকট্রনিকস, এলজি আর শিয়াওমিসহ বিভিন্ন স্মার্টফোন নির্মাতা প্রতিষ্ঠানের সঙ্গে লাইসেন্সিং চুক্তি করেছে এক সময় মোবাইল ফোন বাজারে আধিপত্য বিস্তার করা প্রতিষ্ঠানটি।
রয়টার্স-এর প্রতিবেদনে বলা হয়, নোকিয়ার মোট আয়ের ৯০ শতাংশেরও বেশি টেলিযোগাযোগ নেটওয়ার্ক সামগ্রী বিভাগ থেকে আসে। কিন্তু বর্তমানে প্রতিষ্ঠানটির লাইসেন্সিং ব্যবসা অনেক বেশি লাভজনক হয়ে উঠছে।
চলতি মাসেই নোকিয়াকে ১৩ কোটি ৭০ লাখ ডলার পরিশোধে ব্ল্যাকবেরিকে আদেশ দেয় এক আন্তর্জাতিক সালিশি আদালত। সেইসঙ্গে নোকিয়া’র বিরুদ্ধে অন্য আরেকটি পেটেন্ট লঙ্ঘন মামলা করা হবে বলে জানায় কানাডীয় প্রতিষ্ঠান ব্ল্যাকবেরি।
