কন নামের এই প্রতিষ্ঠানের দাবি অ্যাপলের অ্যাপ স্টোর লোগো চীনা প্রতিষ্ঠানটির লোগো’র সঙ্গে প্রায় মিলে যায়। চীনা প্রতিষ্ঠানটি ২০১১ সাল থেকে তাদের ট্রেডমার্ক ব্যবহার করছে আর ২০১২ সালে এটি নিবন্ধন করে, বেইজিংয়ের ডংচেং ডিসট্রিক্ট পিপল’স কোর্ট-এ এ তথ্য প্রকাশ করা হয়। এই আদালতই অ্যাপলের বিরুদ্ধে মামলাটি গ্রহণ করেছে।
চীনের রাষ্ট্রীয় সংবাদ সংস্থা শিনহুয়া’র প্রতিবেদনে বলা হয়, এই কপিরাইট মামলায় কন অ্যাপলের কাছ থেকে এক লাখ ইউয়ান বা ১৫,২০০ ডলার ক্ষতিপূরণ চেয়েছেন। সেইসঙ্গে আইফোন আর আইপ্যাড-এর মতো লঙ্ঘনকারী ডিভাইসগুলো নিয়ে নির্দেশনা আর প্রকাশ্যে ক্ষমা চাইতেও দাবি করা হয়েছে বলে উল্লেখ করা হয় আইএএনএস-এর প্রতিবেদনে।
কন-এর দাবি দুটি লোগো একজন সাধারণ ক্রেতার কাছে দেখতে একই মনে হবে।  
