ইইউ নিয়ন্ত্রকদের রায়ে বলা হয়েছে আয়ারল্যান্ডের সঙ্গে অ্যাপল-এর করা আয়কর চুক্তিটি অবৈধ ছিল এবং এর জন্য রেকর্ড পরিমান জরিমানার রায় দিয়েছে ইইউ --বলা হয়েছে বিবিসির প্রতিবেদনে।
এর বিপরীতে অ্যাপলের দাবি, ইইউয়ের রায় নজিরবিহীন এবং বিশেষ লক্ষ্য স্থির করে এই রায় প্রণয়ন করা হয়েছে।
আয়ারল্যান্ডও দাবি করেছে এই রায়ের মাধ্যমে আয়ারল্যান্ডের সার্বভৌমত্ব ক্ষুন্ন করা হয়েছে। আয়ারল্যান্ড এই সিদ্ধান্ত পুনর্বিবেচনা করার দবি করেছে।
অ্যাপলের ইউরোপীয় সদর দপ্তর আয়ারল্যান্ডে, যেখানে কর্পোরেট করের হার ১২.৫ শতাংশ।   কিন্তু অ্যাপল সেখানে কর দেয় এক শতাংশেরও কম। আগস্টে কমিশন জানায়, আয়ারল্যান্ড এই প্রতিষ্ঠানকে অন্যান্য ব্যবসা প্রতিষ্ঠানের চেয়ে বেশি ছাড় দিচ্ছে। আয়ারল্যান্ডের অর্থমন্ত্রী সোমবার এক বিবৃতিতে জোরালোভাবে বলেন,  ইউরোপিয়ান কমিশন ‘সংশ্লিষ্ট তথ্যাদি আর আইরিশ আইনকে’ ভুল বুঝেছেন।  
কর ব্যবস্থা থেকে ছাড় নিয়ে ইউরোপিয়ান ইউনিয়নের লক্ষ্যে পরিণত হয়েছে এমন প্রতিষ্ঠান কেবল অ্যাপল একা নয়।
