স্পেসএক্স ও টেসলার প্রধান নির্বাহী মাস ২০১৬ সালে বোরিং কোম্পানির ধারণা দেন। রাস্তায় গাড়ির জ্যামে বিরক্ত হয়ে এমন ধারণা টুইট করেছিলেন এই মার্কিন প্রকৌশলী ও উদ্যোক্তা।
উদ্ভাবনী ধারণা দিতে খ্যাত মাস্ক তার এই ধারণায় বলেন, তার স্বপ্ন হচ্ছে কয়েকটি সুড়ঙ্গ তৈরি করা যেগুলো দিয়ে মানুষ ও গাড়ি কোনো যানজট ছাড়াই পার করা যাবে। সুড়ঙ্গের ভেতর দিয়ে গাড়ি চালানো হবে এমনটা নয়। বরং এটিকে একটি পডের উপর বসান হবে, আর ওই পড চলবে একটি নেটওয়ার্কে।
কিন্তু গাড়িকে মাটির নিচ দিয়ে চলাতে হলে একটি গাড়ির একটি এলিভেটর বা লিফট প্রয়োজন হবে- বলা হয়েছে মার্কিন সংবাদমাধ্যম সিএনবিসি’র প্রতিবেদনে।
চলতি বছর জুনে মাস্ক বলেন, প্রথম এলিভেটরটি এখন প্রায় প্রস্তুত। বুধবার ইনস্টাগ্রামে তিনি একটি টেসলা গাড়ি দিয়ে এই ধারণাটি দেখিয়েছেন।
গাড়িটি একটি পৃষ্ঠের উপর দিয়ে চলে যা সুড়ঙ্গটিতে নিচে গিয়ে নেটওয়ার্কে যুক্ত হয়।
চলতি মাসে এক প্রতিবেদনে বলা হয়, মাস্ক-এর দেওয়া এক ভবিষ্যৎ প্রযুক্তির ধারণা নিয়ে এবার একটি গুরুত্বপূর্ণ পরীক্ষা চালাতে যাচ্ছেন প্রকৌশলীরা। বায়ুশূন্য একটি নলের ভেতর দিয়ে বিশেষ পডে করে যাত্রী ও মালামাল পাঠানোর ‘হাইপারলুপ’ নামের এই ধারণা বাস্তবায়িত হলে যোগাযোগ খাতে বৈপ্লবিক পরিবর্তন আসবে বলেই আশা করা হচ্ছে।
