অ্যাপলের এই সম্প্রসারণ যুক্তরাষ্ট্রের ইউনিভার্সিটি অফ ওয়াশিংটন-এর সঙ্গে প্রতিষ্ঠানটির সম্পর্ক আরও মজবুত করবে বলে জানিয়েছে মার্কিন সংবাদমাধ্যম সিএনবিসি। বৃহস্পতিবার বিশ্ববিদ্যালয়টি অ্যাপলের মেশিন লার্নিং দলের সদস্য কার্লোস গুয়েস্ট্রিন-এর নামে ১০ লাখ ডলার বৃত্তিদানের ঘোষণা দেয়।
এক বিবৃতিতে গুয়েসট্রিন এই বিশ্ববিদ্যালয় থেকে ‘চমৎকার মেধা’ উঠে আসার কথা জানান। যাদের হাতের কাছেই প্রধান কার্যালয় থাকা অ্যামাজন আর মাইক্রোসফট-এর মতো সুযোগ রয়েছে। বড় প্রতিষ্ঠানগুলোতে শীর্ষ এআই গবেষকদের লোভ দেখানোর বিষয়টি এত বেশি প্রতিযোগিতামূলক হয়ে পড়েছে যে কিছু বিশ্ববিদ্যালয়কে কর্মী ধরে রাখতেই হিমশিম খেতে হচ্ছে, ২০১৬ সালে এক প্রতিবেদনে এমনটা জানিয়েছিল মার্কিন সাময়িকী ইকোনমিস্ট।
অ্যাপলের এই সম্প্রসারণের বিষয়ে প্রথম প্রতিবেদন প্রকাশ করা গিকওয়্যার-কে গুয়েস্ট্রিন বলেন, “বারটা অনেক উঁচুতে, কিন্তু আমাদের এই উঁচু বার ধরতে পারছে এমন লোকদের খুঁজে পাওয়া মাত্রই দ্রুত আমরা তাদের নিয়োগ দিতে যাচ্ছি, এটা আনন্দের।”
অ্যাপলের এআই গবেষণা বিশ্বজুড়ে চলছে। তবে, ক্যালিফোর্নিয়ার বাইরে শেষ দুই বছরে ওয়াশিংটন অঙ্গরাজ্যেই অ্যাপল কর্মীদের সবচেয়ে দ্রুত সংখ্যা বৃদ্ধি দেখা গেছে বলে জানিয়েছে প্রতিষ্ঠানটি।
