এ জোটের সদস্যরা হচ্ছে- বিশ্বের সবচেয়ে বড় সামাজিক যোগাযোগের মাধ্যম ফেইসবুক, ই-কমার্স জায়ান্ট অ্যামাজন, ওয়েব জায়ান্ট গুগল, সফটওয়্যার জায়ান্ট মাইক্রোসফট আর কম্পিউটার নির্মাতা প্রতিষ্ঠান আইবিএম। এই পাঁচ মার্কিন প্রতিষ্ঠান মিলে গড়ে তুলেছে একটি নতুন অলাভজনক সংগঠন। এই সংগঠন শিক্ষাবিদ আর নৈতিকতা বিশেষজ্ঞদের সঙ্গে মিলে এআই প্রযুক্তি উন্নয়নে সর্বোন্নত অনুশীলন করার চেষ্টা চালাবে বলে জানিয়েছে মার্কিন সংবাদমাধ্যম সিএনএন।
বুধবার উন্মোচিত হওয়া এই গ্রুপের নাম দেওয়া হয়েছে 'পার্টনারশিপ অন আর্টিফিসিয়াল ইনটেলিজেন্স টু বেনিফিট পিপল অ্যান্ড সোসাইটি', যার বাংলা মানে দাঁড়ায়- 'মানুষ ও সমাজের উন্নতির জন্য কৃত্রিম বুদ্ধিমত্তাবিষয়ক জোট'।
এক বিবৃতিতে অ্যামাজনের মেশিন লার্নিং বিজ্ঞান আর মূল মেশিন লার্নিং বিভাগের পরিচালক রাফ হারব্রিচ বলেন, "গ্রাহকদের বিশ্বাস আর সমাজের উন্নতির আলোচনায় এই খাতে আমরা সর্বোচ্চ ও সর্বোন্নত কিছু করছি- এই বিষয়টি এই জোট নিশ্চিত করবে।"
অলাভজনক সংগঠনটি বিজ্ঞানী সম্প্রদায় আর শিক্ষাবিদদেরও এর সঙ্গে সম্পৃক্ত করতে আগ্রহ প্রকাশ করেছে।
মার্কিন প্রযুক্তি বাজারের বড় এই প্রতিষ্ঠানগুলো জোট বাধলেও, এতে অংশ নেয়নি অ্যাপল আর টেসলা।
