উভয়পক্ষের আইনজীবীরা অসলো জেলা আদালতকে পাঠানো এক যৌথ চিঠিতে এক সপ্তাহের মধ্যে মামলা তুলে নেওয়ার ইচ্ছাপোষণ করেছেন, জানিয়েছেন আদালতের এক মুখপাত্র।
গাড়ি মালিকদের এই মামলা নিয়ে লড়ছিল অসলোভিত্তিক আইন প্রতিষ্ঠান উইকবোর্গ রেইন। এই প্রতিষ্ঠানের ক্যাসপার নিগার্ড রয়টার্স-কে জানান,  একটি মীমাংসা হয়ে গেছে এবং এই মামলা নিষ্পত্তি পেয়েছে।
ক্যাসপার নিগার্ড এই মীমাংসার বিস্তারিত তথ্য প্রকাশে অস্বীকৃতি জানিয়েছেন।
নরওয়েভিত্তিক ব্যবসায় দৈনিক ড্যাগেনস নায়েরিংস্লিভ জানান, রোববার টেসলা প্রতি গাড়ি মালিককে ৬৫ হাজার নরওয়েইজিয়ান ক্রোন প্রদানে সম্মত হয়েছে, অংকটা তাদের দাবির প্রায় অর্ধেক। এই অর্থে রাজী না হলে তাদেরকে বিকল্প অপশন হিসাবে গাড়ি আপগ্রেড করার সুযোগ দেওয়া হয়েছে।
রয়টার্স-এর অনুরোধের জবাবে টেসলা তাৎক্ষণিকভাবে কোনো মন্তব্য করেনি।
