এক বিবৃতিতে প্রতিষ্ঠানটি বলেছে, নতুন এই ল্যাপটপগুলো আরও পাতলা ও হালকা। এগুলোতে ব্যবহার করা হয়েছে অষ্টম প্রজন্মের ইনটেল-কোর প্রসেসর। 
এই ডিভাইসগুলোতে উইন্ডোজ হ্যালো আর ক্যামেরা নিরাপত্তা ব্যবস্থা ‘থিংকশাটার’এর জন্য বিস্তৃত ফেসিয়াল রিকগনশিন ব্যবস্থা আনা হয়েছে। 
থিংকপ্যাড এল সিরিজে লেনোভো ‘ইয়োগা’ সিরিজের নকশা রাখা হয়েছে আর এতে ব্যবহার করা হয়েছে ১৩ ইঞ্চি পর্দা।
নতুন এই ডিভাইসগুলোতে ইউএসবি টাইপ-সি পাওয়ার অ্যাডাপ্টার রাখা হয়েছে বলে উল্লেখ করা হয় আইএএনএস-এর প্রতিবেদনে।
প্রতিষ্ঠানটির দাবি, লেনোভো ‘থিংকপ্যাড এক্স৩৮০ ইয়োগা’-তে আনা হয়েছে ‘র‌্যাপিড চার্জ’ প্রযুক্তি। এই প্রযুক্তির ফলে এটি ৪০ মিনিটে ৮০ শতাংশ চার্জ নিতে পারে।
