অ্যাপল আইফোনের সব নতুন সংস্করণ সবসময় সেপ্টেম্বরে মুক্তি দেয়। কিন্তু এভাবে মুক্তির তারিখ ফাঁস হওয়ায় মুক্তির দিনটিতে আগ্রহী মানুষদের লাইন দীর্ঘ করবে এমনটাই ধারণা করছে সবাই,মন্তব্য ব্রিটিশ দৈনিক ইনডিপেনডেন্ট-এর।
চলতি বছর আইফোনের দু’টি মডেল মুক্তি পাচ্ছে বলে ধারণা করা হচ্ছে। মডেল দুইটির সাংকেতিক নাম 'সোনোরা' আর 'ডস পালোস'। ব্লাস জানান, নতুন ফোনগুলোর কোনোটিই গুজবে বলা সেই 'প্রো- মডেল' নয়, যাতে ডুয়াল লেন্সের মত বিশেষ ফিচার থাকার কথা ছিল।
ব্লাস এর আগে জানিয়েছিলেন, এ বছরের শেষের দিকে মুক্তি পাওয়া আইফোনের নাম মোটেও আইফোন ৭ হবে না।
তথাকথিত এই আইফোন ৭ নিয়ে এর আগে অনেক গুজবই শোনা গেছে। এটি বাহ্যিক দিক থেকে বর্তমানের আইফোন ৬এস আর ৬এস প্লাসের মতোই দেখতে হবে, কিন্তু এর উন্নত ক্যামেরা থাকতে পারে, গোপন অ্যান্টেনা লাইনসহ পেছনে নতুন নকশাও থাকতে পারে এতে এমনটাও শোনা গেছে।
বাকিসব ঠিকঠাক থাকলেও এতে কোনো হেডফোন পোর্ট না রাখার সম্ভাবনা রয়েছে।
চলতি বছর জুনে “নোহোয়ারএলস’-এর সম্পাদক স্টিভ হেমারস্টোফার নতুন আইফোন ৭-এর কিছু ছবি প্রকাশ করেছেন। বিগত বছরগুলোতেও তিনি কয়েকবার সঠিকভাবে প্রি-রিলিজ যন্ত্রাংশগুলো ফাঁস করেছেন।
