বিবিসি জানায়, ডাউনিং স্ট্রিট-এ কুক মে’র সঙ্গে সাক্ষাৎ করেন। সে সময় তিনি ব্রিটিশ প্রধানমন্ত্রীকে বলেন, ইউরোপিয়ান ইউনিয়ন ছাড়ার পর যুক্তরাজ্য “পুরো ঠিক” অবস্থায় থাকবে বলেই তার ধারণা।
এ নিতে মন্তব্যের জন্য তাৎক্ষণিকভাবে অ্যাপলের সঙ্গে কোনো যোগাযোগ করা যায়নি বলে জানিয়েছে রয়টার্স।
২০১৬ সালে অ্যাপল জানায়, তারা তাদের লন্ডন-এর প্রধান কার্যালয় ব্যাটারসি পাওয়ার স্টেশন-এ নিয়ে যাচ্ছে। ব্রেক্সিট ভোটের পরও বড় প্রতিষ্ঠানগুলো দেশটিতে বিনিয়োগ করছে- এই যুক্তির একটি প্রমাণ হিসেবে ওই উদ্যোগের প্রশংসা করে দেশটির সরকার।
