অনলাইন বুটার সার্ভিস হচ্ছে সাইবার আক্রমণকারীদের দেওয়া একটি সেবা, যার মাধ্যমে অনলাইনে ডিডিওএস আক্রমণ করা যায়।
এই বেআইনি ব্যবসায়টি ক্রেতাদের জন্য সাবস্ক্রিপশন ফি নেওয়ার অনুমতি দিয়ে থাকে। কত সেকেন্ড সময় ধরে আক্রমণ করা হবে তার উপর এই ফি নির্ধারিত হয়। এই সেবা দিয়ে বিটকয়েন-এর মাধ্যমে ছয় লাখ ডলারেরও বেশি আয় করে ওই দুই যুবক, জানিয়েছে মার্কিন প্রযুক্তি সাইট ভার্জ।
সংবাদমাধ্যমটির এক প্রতিবেদনে বলা হয় ‘বিগত কয়েক বছর ধরে ইন্টারনেটে ডিডিওস আক্রমণ চলে আসছে’। ওই দুই যুবক ২০১৬ সালের এপ্রিল থেকে জুলাই মাস পর্যন্ত ২৭ কোটি ৭০ লাখ সেকেন্ডের ডিডিওএস আক্রমণে সহায়তা দেয়। ব্রায়ান ক্রেবস নামের এক প্রতিবেদক এই তথ্যগুলো ফাঁস করার পরে তার নিজের সাইটটিও ডিডিওএস হামলার স্বীকার হয়। তিনি এক সপ্তাহ সময় ধরে দুই যুবক সম্পর্কে প্রতিবেদনগুলো প্রচার করেন।
দুই যুবকের পরিচয় বের করা খুব কঠিন ছিল না। বুটার সার্ভিসের সেবাটি ইসরায়েলি যে কোনো ওয়েবসাইটে আক্রমণ করার জন্য নিষিদ্ধ ছিল। বুটার কাস্টমার সার্ভিস ফিচার ছিল এমন যে, কেউ যখন আক্রমণ করে তখন তাদের সাইটের অ্যাডমিনিস্ট্রেটরের কাছে টেক্সট মেসেজ চলে যায়। সেই দুই যুবকেরও নাম গিয়েছিল কেননা তাদের ইমেইলের ডোমেইনও সরাসরি বুটার সার্ভিস এর কাছে নিবন্ধিত ছিল।
