১৭০ কোটি ডলারের অংকটা অক্টোবরের নথিতেও অপরিবর্তিত রয়েছে বলে জানিয়েছে রয়টার্স।
টেসলা জানিয়েছে, বছরের শেষনাগাদ তারা পাঁচশ' কোটি ডলার মূল্যমানের উৎপাদন কেন্দ্রে ব্যাটারি প্রস্তুত শুরু করার প্রত্যাশা করছে। ব্যাটারিগুলো শুরুর দিকে টেসলার বিভিন্ন পণ্যে ব্যবহৃত হবে এবং এরপর তাদের গাড়ির জন্য ব্যবহার করা হবে।
প্যানাসনিক টেসলার জন্য ১৬০ কোটি ডলার ব্যয় করে ব্যাটারি উৎপাদন করার পরিকল্পনা করছে।
