সম্প্রতি মার্কিন ওয়াশিংটন পোস্ট-এর প্রতিবেদনে বলা হয়, টুইটার এখনও এই ফিচার নিয়ে পরীক্ষা চালাচ্ছে, আর যদি এটি আনা হয় তবে এটি টুইটের পাশে থাকা ড্রপ-ডাউন মেনুতে একটি ট্যাব হিসেবে দেখা যাবে।
নতুন এই টুল ৩০ কোটিরও বেশি ব্যবহারকারীর প্রতিষ্ঠানটিকে ভুয়া অ্যাকাউন্ট, প্লাটফর্মটি ব্যবহার করে নিয়োগ কার্যক্রম চালানো উগ্রপন্থী ও নারী ও সংখ্যালঘুদের বিরুদ্ধে ঘৃণামূলক বিবৃতি ঠেকাতে সহায়তা করবে, বলা হয়েছে আইএএনএস-এর প্রতিবেদনে।
অন্যদিকে টুইটার বলেছে, এই ফিচার আনতে “বর্তমানে তাদের কোনো পরিকল্পনা নেই।” প্রতিষ্ঠানটির মুখপাত্র এমিলি হোরনে বলেন, “এমন কোনো ধরনের সেবা আনার কোনো পরিকল্পনা এখন নেই।”
চলতি বছর জুনে এক ব্লগ পোস্টে টুইটার বলে, তারা নতুন টুল তৈরি করছে। তবে এ প্রচেষ্টা নিয়ে বিস্তারিত কিছু প্রকাশ করা হয়নি।
জুনে এক ব্লগ পোস্টে প্রতিষ্ঠানটির নীতিমালাবিষয়ক ভাইস প্রেসিডেন্ট কলিন ক্রওয়েল বলেন, টুইটার “প্রতারণামূলক আচরণ শনাক্তে কঠোর চেষ্টা চালাচ্ছে।”
