ব্যবসা-বাণিজ্যবিষয়ক মার্কিন সাইট বিজনেস ইনসাইডার-এর প্রতিবেদনে বলা হয়, গবেষণায় অংশ নেওয়াদের মধ্যে প্রায় অর্ধেক বা ৪৭ শতাংশ বলেছেন তাদের পছন্দের সামাজিক মাধ্যম হচ্ছে স্ন্যাপচ্যাট। ইনস্টাগ্রামে ক্ষেত্রে হারটা ২৪ শতাংশ আর ফেইসবুকের নয় শতাংশ। এক্ষেত্রে অনেক পিছিয়ে আছে টুইটার আর পিন্টারেস্ট, তাদের ক্ষেত্রে অংকটা যথাক্রমে ৭ ও ১ শতাংশ।
যুক্তরাষ্ট্রের ৪৪টি অঙ্গরাজ্যে চালানো এই জরিপে ৬১০০ কিশোর-কিশোরী অংশ নিয়েছে। তাদের মধ্যে ৫৪ শতাংশই ছিলেন কিশোর আর তাদের গড় বয়স ১৬ বছর।
স্ন্যাপচ্যাটের জন্য সুখবর হচ্ছে এই অ্যাপটির প্রতি কিশোরদের আগ্রহ বেড়েই চলছে।
২০১৫ সালের বসন্তেই পছন্দের তালিকায় স্ন্যাপচ্যাটে কিশোরের হার ছিল মাত্র ১১ শতাংশ। সেখান থেকে বেড়ে এখন এই মাত্রায় এসে পৌঁছেছে। টুইটারের কাছ থেকে সবচেয়ে বেশি বাজার হাতিয়ে নিয়েছে স্ন্যাপচ্যাট, সেই সঙ্গে স্ন্যাপচ্যাটের কাছে বাজার হারিয়েছে ফেইসবুক আর ইনস্টাগ্রামও।
স্ন্যাপচ্যাটের অনেক জনপ্রিয় ফিচার নকল করেছে ইনস্টাগ্রাম আর এর মালিক প্রতিষ্ঠান ফেইসবুক। কিন্তু তবুও স্ন্যাপচ্যাটের ব্যবহারকারীর সংখ্যার এর কোনো প্রভাব পড়েনি বলেই ভাষ্য পাইপার জেফরি’র।
এই জরিপে আরও দেখা যায়, স্ন্যাপচ্যাট ব্যবহারকারীদের ৯০ শতাংশেরও বেশি ইনস্টাগ্রাম ব্যবহার করেন। 
