যাত্রী পরিবহনের জন্য নয় স্বচালিত যুদ্ধ জাহাজ বানিয়েছে মার্কিন ডিফেন্স অ্যাডভান্সড রিসার্চ প্রজেক্টস এজেন্সি (ডারপা)। শীঘ্রই শত্রুর সাবমেরিন অনুসরণের কাজে ব্যবহার করা হতে পারে এই স্বচালিত জাহাজ, বলা হয়েছে সিএনবিসি’র প্রতিবেদনে।
নতুন জাহাজটির নাম বলা হয়েছে ‘সি হান্টার’। বেশ কয়েকবার সফল পরীক্ষার পর মার্কিন নৌবাহিনীকে একটি প্রোটোটাইপ পাঠিয়েছে ডারপা।
কোনো নাবিক ছাড়াই সমুদ্রে কয়েক মাস চলতে পারবে জাহাজটি। ১৩২ ফুট দৈর্ঘ্যের সি হান্টার সর্বোচ্চ ২৭ নটিকাল মাইল বেগে চলতে পারবে বলে প্রতিবেদনে উল্লেখ করা হয়।
২০১২ সাল থেকে জাহাজটি তৈরির কাজ চলছিল। এটি তৈরিতে ব্যয় হয়েছে দুই কোটি মার্কিন ডলার।
চলতি বছরের শেষ দিকে জাহাজটি দিয়ে অপারাশেন চালু করা হতে পারে বলে জানিয়েছে ডারপা।
