"যুক্তরাজ্য এবং বিদেশে অন্যান্য ইন্টারনেট সেবাদাতাদের মতো আমরা মিরাই নামের ভাইরাসের সম্ভাব্য প্রভাব পর্যালোচনা করতে পদক্ষেপ গ্রহণে কাজ শুরু করতে যাচ্ছি", ও ক্ষেত্রে বাড়তি নিয়ন্ত্রণ রাখার বিষয়টি নিশ্চিত করে এমনটাই বলা হয় টকটক-এর পক্ষ থেকে।
মিরাই একটি ক্ষতিকারক সফটওয়্যার, যা অক্টোবরে টুইটার এবং স্পটিফাইসহ বিশ্বের পরিচিত কিছু ওয়েবসাইটে ব্যবহারকারীদের প্রবেশ অবরুদ্ধ করে দেয় বলে জানায় রয়টার্স।
এক সাইবার আক্রমণে চলতি সপ্তাহের রোববার ব্রিটেনের পোস্ট অফিসের প্রায় ১০,০০০ গ্রাহক ক্ষতিগ্রস্থ হন। বৃহস্পতিবার পোস্ট অফিস থেকে দেওয়া এক বিবৃতিতে এই খবর জানা যায়।
প্রতিষ্ঠানটি বলে, "যদিও এতে আমাদের সেবা দিতে সমস্যা হয়েছে, তবে কোনো ব্যক্তিগত ডিভাইস বা তথ্য নিয়ে আপস করা হয়নি। আমরা এই সমস্যার উৎপত্তি চিহ্নিত করেছি এবং ইতোমধ্যে সমাধান বাস্তবায়ন নিশ্চিত করেছি।"
মঙ্গলবার জার্মান সরকার ও বাণিজ্যিক নিরাপত্তা বিশেষজ্ঞরা জানিয়েছেন, ডয়চে টেলিকম গ্রাহকদের রাউটিং ডিভাইস হ্যাক করার প্রচেষ্টার ফলে ইন্টারনেট বিভ্রাটের ভুক্তভোগী হন লাখ লাখ ব্যবহারকারী।
