বারবারা স্ট্রাইসেন্ড তার কম্পিউটারের সমস্যার সমাধানে বিভিন্ন আইটি পরামর্শকের সঙ্গে কথা বললেও কেউই তার কম্পিউটারের সমস্যা সমাধান করতে পারেননি। পরে তৎকালীন অ্যাপল প্রধান স্টিভ জবসকেই সাহায্যের জন্য ফোন দেন তিনি। তবে, ব্রিটিশ দৈনিক গার্ডিয়ানের প্রতিবেদন বলছে জবস নিজেও তার কম্পিউটারের সমস্যা সমাধানে ব্যর্থ হন বলে তিনি জানিয়েছেন।
গুড মর্নিং ব্রিটেন নামের এক টেলিভিশন অনুষ্ঠানে স্ট্রাইসেন্ড বলেন, “আমি আমার কম্পিউটারের কিছু একটা সমস্যা সমাধান করতে পারছিলাম না, কোনো আইটি ব্যক্তিও নয়। তাই আমি বললাম, আপনি কি আমাকে ফোনে স্টিভ জবসকে দিতে পারেন?”
তিনি আরও বলেন, “আমি যথেষ্ট নিশ্চিত, আমি এই সমস্যার কথা তাকে জানিয়েছিলাম এবং তিনিও এটি সমাধান করতে পারেন নি। তিনি আমাকে তার আইটি পরামর্শককে ধরিয়ে দেন, তিনিও সেটি সমাধান করতে পারেননি। এটা মজার ব্যাপার ছিলো।”
জনপ্রিয় এই সংগীত শিল্পীর জন্য অ্যাপল প্রধানকে ফোন দেওয়াটা দৈনন্দিন ব্যাপার হয়েই দাঁড়িয়েছে। এ সপ্তাহে প্রতিষ্ঠানটির প্রধান নির্বাহী টিম কুক-কে ফোন দেন তিনি। অ্যাপলের পার্সোনাল অ্যাসিসটেন্ট ‘সিরি’ নিয়ে অভিযোগ জানাতেই তাকে ফোন দেন স্ট্রাইসেন্ড।
সিরি তার নাম ভুলভাবে উচ্চারণ করে বলে অভিযোগ জানান তিনি। তিনি জানান সিরি তার নামের স্ট্রাইসেন্ড ভূল উচ্চারণ করে। এখানে একটি স্বল্পমাত্রার ‘এস’ উচ্চারিত হবে, অনেকটা সমূদ্র তীরের স্যান্ড(বালি)-এর মত।
