‘ডক্টরস অ্যাপয়েন্টমেন্ট’ নামের নতুন এই সেবার মাধ্যমে বাংলালিংক গ্রাহকরা ফোন কলের মাধ্যমে বিশেষজ্ঞ চিকিৎসকদের অ্যাপয়েন্টমেন্ট নিতে পারবেন বলে জানিয়েছে বাংলালিংক।
বাংলালিংক নম্বর থেকে ৭৮৯ ডায়াল করে এই সেবা পাওয়া যাবে। ফোন কলের মাধ্যমে স্বাস্থ্যসেবাদাতারা গ্রাহকদের প্রাথমিক স্বাস্থ্য পরামর্শ দেওয়ার পাশাপাশি তাদের শারীরিক অবস্থা ও অবস্থানের ভিত্তিতে চিকিৎসকদের অ্যাপয়েন্টমেন্ট দেবেন।
সপ্তাহের ৭ দিন ২৪ ঘন্টাই চালু থাকবে এই সেবা। আর এ সেবা নিতে গ্রাহকদের প্রতি মিনিটে গুণতে হবে পাঁচ টাকা।
