গুগল তাদের নিজেদের সার্চ ইঞ্জিনের সার্চ ফলাফলে প্রতিদ্বন্দ্বী প্রতিষ্ঠানগুলোর তুলনায় নিজের শপিং সার্ভিসকে বাড়তি সুবিধা দিচ্ছিল বলে অভিযোগ আনা হয়েছিল।
গুগলের বিরুদ্ধে প্রায় ছয় বছর আগে এই অভিযোগটি আনা হয় যা এখনও বিচারাধীন অবস্থায় আছে। ১৪ অক্টোবর এই অভিযোগের বিপরীতে প্রতিষ্ঠানের জবাব দেওয়ার দিনক্ষণ নির্ধারণ করা ছিল, কিন্তু গুগল আরও বাড়তি সময়ের জন্য আবেদন করে। ৭ নভেম্বর পরবর্তী শুনানির দিন ধার্য করা হয়েছে বলে জানিয়েছেন ইউরোপিয়ান ইউনিয়নের একজন মুখপাত্র।
“গুগল মামলার নথিপত্র সঠিকভাবে পর্যালোচনার জন্য আর কিছু সময়ের আবেদন করে। এর প্রেক্ষিতে কমিশন আবেদনের যৌক্তিকতা ও কারণ বিশ্লেষণ করে শুনানির সময়সীমা বৃদ্ধির সিদ্ধান্ত গ্রহন করে”-বলেন তিনি।
এ ছাড়াও ২৬ অক্টোবর অনলাইন বিজ্ঞাপন অনুসন্ধানে প্রতিদ্বন্দ্বীদের দমিয়ে রাখার অভিযোগে এবং ৩১ অক্টোবর গুগলের মোবাইল অপারেটিং সিস্টেম অ্যান্ড্রয়েড প্রতিদ্বন্দ্বীদের চাপের মুখে রেখে নিজেদের আধিপত্যের অপব্যবহার করছে এমন আরেকটি অভিযোগের বিরুদ্ধে গুগলকে ইউরোপিয়ান কমিশনের সামনে জবাবদিহি করতে হবে।
ইইউ অ্যান্টিট্রাস্ট অ্যান্ড্রয়েড ও শপিং মামলার অভিযোগপত্র অনুযায়ী গুগলের বিরুদ্ধে প্রতিবন্ধকতা আরোপসহ বড় অংকের জরিমানা করতে পারে- এমনটাই ধারণা প্রকাশ করেছে রয়টার্স।
