কারও বিনা অনুমতিতে প্রতিশোধ নেওয়ার জন্য তার কোনো অন্তরঙ্গ বা একান্ত ব্যক্তিগত ছবি বা ভিডিও বা অন্য কোনো কনটেন্ট ফাঁস করাকে প্রতিশোধমূলক পর্ন বা ‘রিভেঞ্জ পর্ন’ বলা হয়। 
সাজাপ্রাপ্ত ওই ব্যক্তি রিকি চিও অবসর নেওয়ার আগে একটি ক্যাসিনোর ব্যবস্থাপক হিসেবে কাজ করতেন। চিও’র সমকামী সঙ্গী তার সঙ্গে সম্পর্ক ছিন্ন করতে চেয়েছিলেন। এরই জের ধরে ওই সঙ্গীর অন্তরঙ্গ ছবি ফাঁস করে দেন তিনি। এ ঘটনায় চিওকে ১০ মাসের কারাদণ্ড ও তিনশ’ পাউন্ড ক্ষতিপূরণ দিতে বলা হয়েছে। সেই সঙ্গে তাকে মামলার খরচ হিসেবে ১২শ’ পাউন্ডও গুণতে হবে। তার কারাদণ্ড দুই বছরের জন্য স্থগিত রাখা হয়েছে। এর মধ্যে তিনি শর্ত ভঙ্গ করলে দণ্ড কার্যকর করা হবে। 
চিও তার সঙ্গীর ৫২ বছর বয়সী স্ত্রী আর এক বন্ধুকে ওই অন্তরঙ্গ ছবিগুলো দেখিয়েছিলেন বলে উল্লেখ করা হয় বিবিসি’র প্রতিবেদনে।
মামলার রায়ে বিচারক ডেভিড ডিক্সন চিও’র এই কর্মকাণ্ডকে “নিষ্ঠুর, অপ্রয়োজনীয়, আর বিব্রত করার জন্য করা” বলে আখ্যা দিয়েছেন।
যুক্তরাজ্যের ডনক্যাস্টার-এর অধিবাসী চিও ‘প্রতিশোধমূলক পর্নবিষয়ক’ দুটি অভিযোগ আর হয়রানির একটি অভিযোগ স্বীকার করে নিয়েছেন।
শেফিল্ড ক্রাউন কোর্ট-এ চিও আর বাদীর বক্তব্য শোনা হয়। আইনি কারণে বাদীর নাম প্রকাশ করা হয়নি। চিও আর ওই বাদী ২০১৬ সালের মে থেকে সম্পর্কে জড়ান। এ সম্পর্ক শুরুর পর বাদী তার স্ত্রীকে ছেড়ে চিও’র সঙ্গে বসবাস শুরু করেন।
বাদীর দাবি, তিনি যখন তার স্ত্রীর কাছে ফিরতে চান চিও বাদীর স্ত্রীকে অন্তরঙ্গ ছবিগুলো দেখাবেন বলে বাদীকে হুমকি দেন। এই হুমকি পেয়ে বাদী চিও’র সঙ্গে থাকতে রাজি হন।
২০১৬ সালের ডিসেম্বরে বাদী চিও-কে ছেড়ে চলে গেলে, চিও ডনক্যাস্টার শহরে তাকে খোঁজা শুরু করেন। এমন পরিস্থতিতে এক ট্যাক্সি চালককে ছবিগুলো দেখান চিও।
চলতি বছর ১ জানুয়ারি চিও বাদীর স্ত্রীর উদ্দেশ্যে পাঠানো একটি খামে করে ছবিগুলো বাদীর বাড়ির দরজায় পাঠিয়ে দেন।
আইনজীবী গার্ডিয়াল সিং বলেছেন, “আসামী বিদ্বেষ থেকে এমন কাজ করতে উৎসাহিত হন।”
বিচারক ডেভিড ডিক্সন বলেন, “ওই ছবিগুলো অন্তরঙ্গ আর তাদের ব্যক্তিগত আর এগুলো কাউকে দেখানোর কোনো কারণ নেই।”
