ফ্লিকার-এর দেওয়া তথ্যমতে তাদের সেবা ব্যবহার করেন এমন আলোকচিত্রীদের ৫৪ শতাংশ অ্যাপলের ডিভাইস ব্যবহার করেন। স্মার্টফোন, ডিএসএলআর, পয়েন্ট-অ্যান্ড-শুট এবং মিররলেস সব ধরনের ক্যামেরা নিয়েই করা হয়েছে এই তালিকা-- খবর প্রযুক্তিবিষয়ক সাইট সিনেট-এর।
সাধারণত ফ্লিকার-এ আপলোডকৃত ছবির ৫০ শতাংশ ধারণ করা হয় স্মার্টফোন থেকে। এই হোস্টিংয়ে ডিএসএলআর ব্যবহারকারীর সংখ্যা ৩৩ শতাংশ, পয়েন্ট-অ্যান্ড-শুট ব্যবহারকারীর সংখ্যা ১২ শতাংশ এবং মিররলেস ক্যামেরা ব্যবহারকারীর সংখ্যা চার শতাংশ।
ফ্লিকার জানায়, জনপ্রিয়তায় শীর্ষ ১০ ক্যামেরার নয়টি আইফোন ক্যামেরা। শীর্ষ তিন স্থানে রয়েছে যথাক্রমে আইফোন ৬, আইফোন ৬এস এবং আইফোন ৫এস।
আইফোন বাদে শীর্ষ দশ ক্যামেরা তালিকায় নবম স্থানে রয়েছে ক্যানন ৫ডি মার্ক থ্রি। ব্র্যান্ড হিসেবে দ্বিতীয় স্থানে রয়েছে ক্যানন। শীর্ষ ১০০ ডিভাইসের ২৩ শতাংশ রয়েছে এই ব্র্যান্ডের দখলে। আর তৃতীয় স্থানে থাকা নাইকন-এর দখলে আছে ১৮ শতাংশ ডিভাইস।
আগের বছরগুলোতে প্রায় একই হারে বাড়তে দেখা গেছে অ্যাপল ফটোগ্রাফির অবস্থান। ২০১৬ সালে ৪৭ শতাংশ ডিভাইস নিয়ে ফ্লিকারের জনপ্রিয় ব্র্যান্ড ছিল অ্যাপল। আর ২০১৫ সালেও ৩০ শতাংশ ডিভাইস নিয়ে শীর্ষস্থানে ছিল প্রতিষ্ঠানটি।
