২০১৪ সালের ২৫০ কোটি মার্কিন ডলারে ‘ক্রিয়েশন/সার্ভাইভাল’ নামে গেইমটি কিনে নেয় মার্কিন সফটওয়্যার জায়ান্ট মাইক্রোসফট। এ যাবৎ ১৪ কোটি ৪০ লাখ কপি বিক্রি হয়েছে গেইমটির। আর গেইমটির ব্যবহারকারীর সংখ্যা সাত কোটি ৪০ লাখ-- বলা হয়েছে মার্কিন প্রকাশনা বিজনেস ইনসাইডার-এর প্রতিবেদনে।
সম্প্রতি এক সাক্ষাৎকারে এই তথ্য দিয়েছেন মাইক্রোসফট-এর মাইনক্রাফট দলের নতুন প্রধান। তিনি বলেন মাইনক্রাফট-এর মান অনুযায়ীও এই সংখ্যাটি ব্যতিক্রম।
শুরু থেকেই ভালো জনপ্রিয়তা পেয়েছে গেইমটি। ওয়ার্ক-ইন-প্রগ্রেস গেইম হিসেবে প্রথমে এটি চালু করা হয়। গেইমটি একাই তৈরি করেন মারকাস পারসন।
অসমাপ্ত গেইম হিসেবেই এটি তৈরি করেন পারসন। ২০১৪ সালে গেইমটি বিক্রি করলেও মাইক্রোসফট-এ যোগ দেননি তিনি। এখনও লাখো গ্রাহক গেইমটির আগের সংস্করণ কিনছেন বলে প্রতিবেদনে উল্লেখ করা হয়েছে।
