বিবিসি জানায়, ২০১৫ সালে ক্যালিফোর্নিয়ার মনটারি কাউন্টিতে ২,৯০০ একর এলাকা জুড়ে ৮৫ কোটি ডলার ব্যয়ে নির্মিত ১৩০ মেগাওয়াট পুনঃব্যবহারযোগ্য শক্তি উৎপাদনে সক্ষম অ্যাপলের এ প্রকল্পে উৎপন্ন শক্তি বৃহস্পতিবার বাজারমূল্যে বিক্রির অনুমোদন দেন ওয়াশিংটন ডিসি-এর নীতিনির্ধারকেরা।
অ্যাপল জানায়, এ প্রকল্পে উৎপন্ন শক্তি দিয়ে এ অঞ্চলে অবস্থিত দোকান, অফিস ও তথ্যকেন্দ্রসহ মোট ৬০ হাজার ভবনের বিদ্যুৎ চাহিদা মেটানো সম্ভব হবে। পুনঃব্যবহারযোগ্য শক্তি উৎপাদনের মাধ্যমে কার্বন ফুটপ্রিন্টের মাত্রা কমানোই এ প্রকল্পের মুখ্য উদ্দেশ্য বলে জানায় প্রতিষ্ঠানটি।
ফেডারেল এনার্জি রেগুলেটরি কমিশন-এর বরাতে বিবিসি জানায়, নেভাডা ও অ্যারিজোনায় প্রতিষ্ঠানটির যথাক্রমে ২০ ও ৫০ মেগাওয়াট ক্ষমতাসম্পন্ন একই ধরনের আরও দুটি প্রকল্প রয়েছে।
রিনিউএবল এনার্জি অ্যাসোসিয়েশন-এর প্রধান নীতিনির্ধারক জেমস কোর্ট অ্যাপলের এ প্রকল্পকে "বিশাল এক ইতিবাচক পদক্ষেপ" হিসেবে উল্লেখ করে বলেন, "একটি গ্যাস পাওয়ার স্টেশন যেখানে ২০০ থেকে ৪০০ মেগাওয়াট শক্তি উৎপাদনে সক্ষম, সেখানে অ্যাপলের এ ক্ষমতা যথেষ্ট।"
অ্যাপল ছাড়াও আরও কিছু নেতৃস্থানীয় প্রযুক্তি প্রতিষ্ঠান পুনঃব্যবহারযোগ্য শক্তি নিয়ে কাজ করছে। ২০১৫ সালের জুনে গুগল সুইডেন ও নরওয়ের দুটি উইন্ড ফার্ম থেকে ২৩৬ মেগাওয়াট এনার্জি ক্যাপাসিটি কিনে নেয়। এ বছরের ফেব্রুয়ারিতে মাইক্রোসফট ফ্যাসিলিটির তাপমাত্রা কমানোর সময় শক্তির শোষণ কমাতে সমুদ্র তলদেশবর্তী তথ্যকেন্দ্র নিয়ে গবেষণা চালানোর ঘোষণা দেয়।
