কোনো ইলেকট্রনিক ডিসপ্লেতে পিক্সেলের অনিয়মিত ব্যবহারের কারণে ডিসপ্লে’র কোনো অংশ স্থায়ীভাবে বিবর্ণ হয়ে গেলে এই সমস্যাকে স্ক্রিন বার্ন-ইন ডাকা হয়।
অ্যান্ড্রয়েড নিয়ে বিভিন্ন পরামর্শ দিতে বিশেষজ্ঞদের সাইট অ্যান্ড্রয়েড সেন্ট্রাল-এর বিশেষজ্ঞ অ্যালেক্স ডোবি সর্বপ্রথম টুইটারে এই ত্রুটির কথা উল্লেখ করেন, খবর মার্কিন সাইট ভার্জ-এর।
ওই টুইটে ডোবি বলেন, “হয়তো সাতদিন পুরোপুরি ব্যবহারের পরই পিক্সেল ২ এক্সএল-এ কোনো বাজে ওলেড বার্ন-ইন সমস্যা দেখা যাবে।”
