বঙ্গবন্ধু আন্তর্জাতিক সম্মেলন কেন্দ্রের কার্নিভাল হলে আয়োজিত তিন দিনব্যাপি এই এক্সপো চলবে ০৫ আগস্ট, ২০১৭ পর্যন্ত।
স্যামসাং মোবাইল বাংলাদেশ এই এক্সপো-এর স্যামসাং প্যাভিলিয়নে জে সিরিজের নতুন সংস্করণ গ্যালাক্সি জে৭ ম্যাক্স এবং গ্যালাক্সি জে৭ নেক্সট নিয়ে এসেছে।
ঈদ অফারসহ প্যাভিলিয়নে রয়েছে একটি এক্সক্লুসিভ এক্সপেরিয়েন্স জোন। এতে একটি গিয়ার ভিআর চেয়ার রয়েছে, যেখানে দর্শনার্থীরা রোমাঞ্চকর অভিজ্ঞতা অর্জন করতে পারবেন।
