২০১৭ সালের জুন মাসে সাধারণ নির্বাচনের পর থেকে অক্টোবর পর্যন্ত ব্রিটিশ পার্লামেন্ট থেকে ২৪৪৭৩ বার পর্ন সাইটে প্রবেশের চেষ্টা করা হয়েছে। হিসাব অনুযায়ী পার্লামেন্ট নেটওয়ার্কে যুক্ত কম্পিউটার এবং অন্যান্য ডিভাইসগুলো থেকে প্রতিদিন গড়ে প্রায় ১৬০ বার পর্নসাইটে যাওয়ার চেষ্টা করা হয়েছে- খবর দ্য গার্ডিয়ান-এর।
ওয়েস্টমিনিস্টারে যৌন কেলেঙ্কারির ঘটনার পর প্রধানমন্ত্রী টেরিজা মে ‘ডি ফ্যাক্টো ডেপুটি’ ডামিয়ান গ্রিন-কে বহিষ্কার করেন। ২০০৮ সালে পার্লামেন্ট অফিসের কম্পিউটারে পুলিশ পর্নোগ্রাফি পেয়েছে, এ নিয়ে ‘বিভ্রান্তিকর’ বিবৃতি দেওয়ায় তাকে বহিষ্কার করা হয়। ওই কেলেঙ্কারির ঘটনা সামনে আসার পরই পার্লামেন্টে পর্নোগাফি সাইটে প্রবেশের তথ্য প্রকাশ করা হয়েছে।
ফ্রিডম অফ ইনফরমেশন-এর অনুরোধের পর এই তথ্য প্রকাশ করা হয়। সেপ্টেম্বরে এই সংখ্যা আরও বাড়তে দেখা গেছে। লর্ড এবং কমন্স হাউস থেকে ওই মাসে ৯৪৬৭ বার পর্ন সাইটে প্রবেশের চেষ্টা করা হয়েছে বলে প্রতিবেদনে জানিয়েছে ভারতীয় সংবাদমাধ্যম আইএএনএস।
পার্লামেন্ট কর্তৃপক্ষ বলছেন এর মধ্যে বেশির ভাগ চেষ্টাই ইচ্ছাকৃত ছিল না। প্রকাশিত তথ্যে আরও দেখা গেছে সাম্প্রতিক বছরগুলোতে পর্নোগ্রাফিক ওয়েবসাইটে প্রবেশের চেষ্টা কিছুটা কমেছে।
