দেশটিতে এ নিয়ে অ্যাপলের মোট গবেষণা কেন্দ্রের সংখ্যা হবে চারটি। চলতি বছরের শেষ দিকে এ চারটি গবেষণা কেন্দ্র চালু হওয়ার কথা রয়েছে-- তথ্য রয়টার্স-এর।
এবার চীনের শাংহাই ও শুঝৌ-তে দু’টি গবেষণা কেন্দ্র খুলবে অ্যাপল। এর আগে ঘোষণা দেওয়া কেন্দ্র দুটি’র একটি বেইজিংয়ে আর অপরটি শেনজেন-এ।
দেশটিতে গবেষণার জন্য ৫০ কোটি ৮০ লাখ মার্কিন ডলার বিনিয়োগ করার কথা রয়েছে অ্যাপলের। নতুন গবেষণা কেন্দ্র দু’টিতে কী নিয়ে গবেষণা করা হবে তা নিয়ে বিস্তারিত জানায়নি প্রতিষ্ঠানটি।
আগের বছর ডিসেম্বরে হার্ডওয়ার নির্মাণ স্থান হিসেবে চীনের রাজধানী বেইজিংয়ে সাড়ে চার কোটি ডলার খরচে দেশটিতে নিজেদের প্রথম গবেষণা কেন্দ্র বানানোর কথা জানায় অ্যাপল।
