যুক্তরাষ্ট্রের লাস ভেগাসে শুরু হয়েছে ভোক্তা ইলেকট্রনিকস পণ্য প্রদর্শনী অনুষ্ঠান সিইএস-এর এবারের আসর সিইএস ২০১৮। এই আয়োজনেই নতুন এই টিভি উন্মোচন করা হয়।
নিজেদের নতুন প্রজন্মের স্মার্ট টিভিগুলো বুদ্ধিমত্তায় আগের চেয়ে এগিয়ে থাকবে বলে প্রতিশ্রুতি দিয়েছে স্যামসাং। এই টিভিগুলোতে থাকবে প্রতিষ্ঠানটির ভয়েস অ্যাসিস্ট্যান্ট বিক্সবি ফিচার। কোনো ব্যবহারকারীর যদি একটি স্যামসাং স্মার্ট ফ্রিজ থাকে আর তার ভেতরে যদি ক্যামেরা যুক্ত থাকে, তবে বিক্সবিকে বললে সে ব্যবহারকারীকে ফ্রিজের ভেতরে কী আছে তা টিভিতে দেখিয়ে দেবে।
স্যামসাং জানিয়েছে, এর মডিউলার প্রযুক্তি বিশেষায়িত আকারের টিভি অর্ডার করার সুযোগ দেয়। এর কারণ হচ্ছে টিভির ডিসপ্লে অনেকগুলো ছোট মডিউলার দিয়ে বানানো হয়। এ কারণে চাইলে অপ্রচলিত আকারেও টিভির ডিসপ্লে বানানো যায়। এ নিয়ে নিজেদের উপস্থাপনের শুরুতেই খাটো আর পাশে অনেক বেশি বড় আকারের টিভি দেখায় প্রতিষ্ঠানটি।
মাইক্রো-এলইডি ডিসপ্লেতে রয়েছে সেলফ-এমিটিং এলইডি। এর ফলে কোনো ব্যাকলাইট ছাড়াই এটি উজ্জ্বল ছবি দেখাতে সক্ষম বলে প্রতিবেদনে উল্লেখ করা হয়।      
