কেনার জন্য ইতোমধ্যে গুগল স্টোরে পাওয়া শুরু হলেও ২৪৯ ডলার মূল্যের এই ক্যামেরা তাৎক্ষণিক সরবরাহ করা হবে না বলে আইএএনএস-এর প্রতিবেদনে উল্লেখ করা হয়েছে।
শনিবার প্রযুক্তি সাইট ৯টু৫গুগল-এর এক প্রতিবেদনে বলা হয়, “সবচেয়ে দ্রুত সহজ চালান ব্যবস্থা বাছাইয়ের মাধ্যমে ২৭ ফেব্রুয়ারির মধ্য এটি সরবরাহ করা হবে।”
এই ক্যামেরা নিজে নিজেই স্বয়ংক্রিয়ভাবে পরিস্থিতি অনুযায়ী এর রেজুলিউশন ঠিক করে নিতে পারে। সেই সঙ্গে ফ্রেইমে দৃশ্যের আরও বেশিকিছু আনতে এতে একটি ১৩০ ডিগ্রি লেন্স রাখা হয়েছে।
প্রতিবেদনে আরও বলা হয়, “এই ক্যামেরায় রয়েছে ‘মোমেন্ট আইকিউ’, এটি হচ্ছে একটি অনবোর্ড ও অফলাইন লার্নিং মডেল। সেই সঙ্গে এতে রয়েছে একটি ভিজুয়াল প্রসেসিং ইউনিট যা স্বয়ংক্রিয়ভাবে সঠিক মুখভঙ্গি, আলো, ফ্রেইমিং শনাক্তের মাধ্যমে অর্থপূর্ণ ছবি ধারণে সক্ষম।”
