ওয়াল স্ট্রিট জার্নাল-এর প্রতিবেদনে বলা হয়, এদিন তিনটি নতুন আইফোন উন্মোচন করতে পারে অ্যাপল। আইফোন ৮-এর সঙ্গে আইফোন ৭ ও ৭ প্লাস-এর আপডেটেড সংস্করণ আইফোন ৭এস ও ৭এস প্লাস উন্মোচন করা হতে পারে।
ধারণা করা হচ্ছে আইফোন ৮-এ বড় ধরনের পরিবর্তন আনবে অ্যাপল। কিন্তু বরাবরের ‘এস’ সিরিজের মতো আইফোন ৭এস ও ৭এস প্লাস-এ বাহ্যিক পরিবর্তন আনা হবে না বলে ধারণা করা হচ্ছে-- খবর ভারতীয় সংবাদম্যাধ্যম আইএএনএস-এর।
এর আগে আইফোন ৬-এর পর নকশায় খুব বেশি পরিবর্তন দেখা যায়নি আইফোনের। কিন্তু আইফোনে ৮-এ অনেক পরিবর্তন আসবে বলে শোনা যাচ্ছে।
ফাঁস হওয়া ছবিতে দেখা গেছে সামনের পুরোটা অংশ জুড়ে পর্দা রাখা হয়েছে। ওপরের দিকে পর্দার কিছুটা অংশ বাদ দিয়ে সেখানে ক্যামেরা ও অন্যান্য সেন্সর বসানো হয়েছে। যেহেতু সামনে থেকে হোম বাটন বাদ দেওয়া হয়েছে তাই ধারণা করা হচ্ছে ওপরের ওই অংশেই নেভিগেশন বাটন রাখা হবে।
প্রাথমিকভাবে ধারণা করা হয়েছিল পর্দার মধ্যেই ফিঙ্গারপ্রিন্ট সেন্সর ব্যবহার করা হবে আইফোন ৮-এর। কিন্তু ফাঁস হওয়া ছবিতে দেখা গেছে ডিভাইসের পেছেন অ্যাপল লোগো-এর নিচে ফিঙ্গারপ্রিন্ট সেন্সর রাখা হয়েছে।
এছাড়া আইফোন ৭-এর মতো ডুয়াল ক্যামেরা দেখা গেছে আইফোন ৮-এ। তবে, আড়াআড়ি না রেখে এবার লম্বালম্বিভাবে ডুয়াল ক্যামেরা বসানো হয়েছে এতে।
 পুরো বেজেলহীন এই আইফোন ৮-এর পর্দার অনুপাত বলা হচ্ছে ১৮.৫:৯। আইফোন ৮ থেকে বাদ দেওয়া হতে পারে টাচ আইডি, এমনটাও জানিয়েছেন প্রযুক্তি বিশ্লেষক মিং-চি কুও।
ফিঙ্গারপ্রিন্ট স্ক্যানারের পরিবর্তে আইফোন ৮-এ স্যামসাংয়ের মতো ফেইস আনলক প্রযুক্তি ব্যবহার করা হতে পারে। তবে, নতুন আইফোন থেকে টাচ আইডি পুরোপুরি বাদ দেওয়া হচ্ছে কিনা তা স্পষ্ট করে বলেননি কুও।
তিনি বলেন, “জুলাইতে বিশ্লেষকরা আইফোন ৮-এর যে স্ট্যান্ডআউট ফিচারগুলো প্রকাশ করেছেন এত এমবেডেড টাচ আইডি বাদ দেওয়া হয়েছে। কিন্তু এর মানে এই নয় যে অ্যাপলও তাদের সঙ্গে মিলে একই উদ্যোগ নিয়েছে।”
