সম্প্রতি চীনা 'কিন সিকিউরিটি ল্যাব'-এর একদল গবেষক টেসলা মডেল এস গাড়ি দূর থেকে নিয়ন্ত্রণ করতে সফল হয়। ১৯ কিলোমিটার দূর থেকেই দলটি গাড়ি চলাকালীন সময় এটির ব্রেক চাপতে সক্ষম হয় বলে, জানিয়েছে বিবিসি।
শুধু ব্রেকই নয় ল্যাপটপ ব্যবহার করে তারা চাবি ছাড়াই গাড়ির দরজা খুলতে পারে। পরীক্ষার সময় চালকের আসনে অন্য কেউ থাকা সত্ত্বেও গাড়ির পেছনের সিটে বসে হ্যাকার গাড়ির নিয়ন্ত্রণ নেয় বলে জানানো হয়।
হ্যাকার ল্যাপটপ ব্যবহার করে গাড়ি লেইন পরিবর্তনের সময় পেছনে দেখার আয়না এবং চলন্ত অবস্থায় ট্রাঙ্কও খুলতে সক্ষম হয়েছে।
কয়েক মাস গবেষণার পর দলটি টেসলার গাড়ি হ্যাকে সফল হয়। এ সপ্তাহে কিন সিকিউরিটি ল্যাবের পক্ষ থেকে তাদের এই প্রচেষ্টার একটি ভিডিও পোস্ট করা হয় ইউটিউবে। তবে, হ্যাকের এই ঘটনা জনগণের সামনে আসার আগেই হ্যাকার দলটি টেসলাকে বিষয়টি জানায়।
এরই প্রেক্ষিতে গাড়িতে জরুরী ভিত্তিতে সফটওয়্যার আপডেট এনেছে টেসলা। নতুন এই আপডেটের ফলে গাড়িতে এমন হ্যাকের ঝুঁকি থাকবে না বলে আশা করা হচ্ছে।
