দৈনিকটির বরাত দিয়ে রয়টার্স জানিয়েছে ২০১৭ সালের জানুয়ারি থেকে মার্চ প্রান্তিকে আইফোনের উৎপাদন ১০ শতাংশ কমানো হবে। সরবরাহকারীদের তথ্য হিসাব করেই এই প্রতিবেদন প্রকাশ করা হয়েছে বলে জানানো হয়।
চলতি বছরের জানুয়ারি থেকে মার্চ প্রান্তিকেও উৎপাদন ৩০ শতাংশ নামিয়েছে প্রতিষ্ঠানটি। খবর প্রকাশের সময় অ্যাপলের শেয়ার মূল্য ০.৮৪ শতাংশ কমেছে বলেও জানানো হয়।
এ বছর আইফোন বিক্রির হারও কমেছে প্রতিষ্ঠানটির। ৬ এপ্রিল ২০১৬ এবং ২০১৭ অর্থবছরে আইফোন বিক্রির পরিমাণের হিসাব প্রকাশ করে বিটিআইজি। ওই হিসাব অনুযায়ী প্রথমবারের মতো ব্যাবসায়িক পতনের মুখে পড়েছে অ্যাপল।
সে সময় বিটিআইজি-এর কর্মকর্তা ওয়াল্টার পাইয়েক বলেন, "আমাদের আশা অনুযায়ী ২০১৫-এর চতুর্থ প্রান্তিকে নতুন স্মার্টফোন ব্যাবহারের হার কম এবং মার্চ প্রান্তিকে এটি আরও কমছে।" মোবাইল সেবাদাতা প্রতিষ্ঠান ভেরাইজন, এটিঅ্যান্ডটি, টি-মোবাইল এবং স্প্রিন্ট এই শীর্ষ চার প্রতিষ্ঠানের তথ্য বিবেচনা করে ঐ হিসাব প্রকাশ করে বিটিআইজি।
আইফোন বিক্রির হার কমলেও এ বছরই শত কোটি আইফোন বিক্রির মাইলফলক ছুঁয়েছে অ্যাপল।
আইফোনে গ্রাহকের চাহিদা কমার জন্য আগের কয়েকটি আইফোনের ডিজাইনে খুব বেশি পরিবর্তন না আনাকে কারণ হিসেবে দেখছেন অনেকেই। তবে নতুন আইফোন ৮-এ এবার বড় পরিবর্তনের আভাস পাওয়া যাচ্ছে।
