নিজেদের ব্যবস্থা ক্ষতিগ্রস্থ হয়েছে বলেই বিশ্বাস প্রতিষ্ঠানটির। তবে, এই হ্যাকে খেলোয়াড়দের লগইন তথ্য কোনো স্থান থেকে চুরি করা হয়েছে বলে ধারণা করছেন  তারা। 
ক্ষতিগ্রস্থ অ্যাকাউন্টগুলো থেকে কোনো অর্থ সরানো হয়নি বলেও জানিয়েছে প্রতিষ্ঠানটি। তবে, ৫০টিরও কম অ্যাকাউন্টে সন্দেহজনক কার্যক্রম দেখা গেছে বলে জানানো হয়েছে, খবর বিবিসি’র। 
যুক্তরাজ্যের তথ্য কমিশনার-এর কার্যালয় এ নিয়ে একটি তদন্ত চালু করার কথা জানিয়েছে। এক মুখপাত্র বলেন, “কেইমলট এই লঙ্ঘনের প্রতিবেদন দাখিল করেছে এবং আমরা তা যাচাই করেছি। আমরা কেইমলটের সঙ্গে কথা বলব।” 
“ডেটা সুরক্ষা আইন অনুযায়ী ব্যাক্তিগত ডেটা নিরাপদ রাখতে প্রতিষ্ঠানগুলো যা পারে সব করতে হবে- এর মধ্যে সাইবার আক্রমণ ঠেকানোও রয়েছে, এখানে আমরা এমনটা হতে দেখেনি, আমরা পদক্ষেপ নিতে পারি”, যোগ করেন তিনি।
