

উপকরণ: পাকা কলা ১টি। পাকাআম ১টি। মিষ্টি দই ১ কাপ। পানি ২ গ্লাস। বরফকুচি পছন্দ মতো। চিনি স্বাদমতো।
পদ্ধতি: কলা, আম, দই, চিনি এক গ্লাস পানি দিয়ে ভালো করে ব্লেন্ড করুন। আবার বাকি পানি দিয়ে ব্লেন্ড করে নিন।
প্রয়োজনে পানি দিয়ে লাচ্ছি পাতলা করে নেবেন যদি বেশি ঘন মনে হয়।
গ্লাসে ঢেলে বরফকুচি দিয়ে ঠান্ডা ঠান্ডা পরিবেশ করুন।
সমন্বয়ে: ইশরাত জে. মৌরি।
আরও রেসিপি
লিচুর স্কোয়াশ
পোড়া আমের লাচ্ছি
কুলফির স্বাদে ম্যাঙ্গো লাচ্ছি
পিংঙ্ক ম্যাংগো লাচ্ছি
সল্টেড মিন্ট লাচ্ছি
