কার্নিভাল’য়ের নতুন বিক্রয়কেন্দ্র


ফেব্রুয়ারি জুড়ে ২১ শতাংশ ছাড়ে কেনা যাবে কার্নিভাল’য়ের সকল পোশাক।
- বিজ্ঞপ্তি।
মোহাম্মাদপুরে লা রিভের বিক্রয়কেন্দ্র


১৭ ফেব্রুয়ারি মোহাম্মাদপুরের বিক্রয়কেন্দ্র উদ্বোধন করেন লা রিভ’য়ের ডিরেক্টর ক্রিয়েটিভ অ্যান্ড ডিজাইন মন্নুজান নার্গিস।
এই উপলক্ষে র‌্যাম্প শো আয়োজন করে প্রতিষ্ঠানটি। যার মাধ্যমে লা রিভ’য়ের বসন্ত/গ্রীষ্মকালীন ২০১৮ কালেকশন প্রদর্শন করা হয়।
পোশাক ছাড়াও অন্যান্য আয়োজন যেমন- ব্যাগ, ঘড়ি, বেল্ট, জুয়েলারী ইত্যাদি সামগ্রীও পাওয়া যাবে।
- বিজ্ঞপ্তি।
গ্রামীণ ইউনিক্লোর স্প্রিং কালেকশন
বসন্ত উপলক্ষ্যে বিভিন্ন নকশার পোশাক নিয়ে এসেছে এই প্রতিষ্ঠান। রয়েছে ছেলেদের বিভিন্ন নতুন শার্ট, দাম ৯৯০ টাকা। এছাড়াও ১,৪৯০ টাকায় পাওয়া যাচ্ছে ডিজাইন শার্ট। মেয়েদের জন্য রয়েছে কামিজ ১,৬৯০ টাকায়, শর্ট কামিজ ১,৪৯০ টাকা, লং ড্রেস ১,৯৯০ টাকা, প্রিন্টেড পালাজ্জো ১,০৯০   টাকা, রিবন টাই শার্ট ১,২৯০ টাকায়। এছাড়াও নিয়মিত পোশাকের মধ্যে রয়েছে শার্ট, জিন্স, মেয়েদের কামিজ ও সফট অ্যান্ড স্ট্রেচ বক্সার ব্রিফস, ট্যাংক টপ, লেগিংস ও পালাজ্জো।
- বিজ্ঞপ্তি।
শাড়ি মিউজিয়াম’য়ের বাসন্তি আয়োজন


তাদের বিক্রয়কেন্দ্রগুলো রয়েছে- বসুন্ধরা সিটির লেভেল ৪, মিরপুর বেনারসি পল্লী ও গুলশান পিংক সিটি বেজমেন্টে।
- বিজ্ঞপ্তি।
স্প্রিং কালেকশন নিয়ে আইকনিক ফ্যাশন গ্যারেজ


এছাড়া ধানমণ্ডি, উত্তরা, বনানী ১১ ও যমুনা ফিউচার পার্কের বিক্রয়কেন্দ্রগুলোতে থাকছে শর্ত সাপেক্ষে মূল্যছাড়।
- বিজ্ঞপ্তি।
সৌন্দর্য চর্চায় লেজার সেবা
ডা. ঝুমু খান’স লেজার মেডিক্যাল সব বয়সি নারী-পুরুষের জন্য সৌন্দর্য চর্চায় নিয়ে এসেছে লেজার সেবা। সার্জারি ছাড়াই অতিরিক্ত ওজন কমানো ও বডি শেইপিং, হেয়ার ট্রিটমেন্ট, অবাঞ্ছিত লোম, ব্রণ ও ব্রণের গর্ত, ত্বকে বয়সের ছাপ, তিল বা আঁচিল সমস্যা দূর করা যাবে এই সেবার মাধ্যমে। এগুলো ব্যথাহীন, সহজ ও পার্শ্বপ্রতিক্রিয়াহীন। এছাড়াও রয়েছে হরমোন অ্যানালাইসিস, স্কিন অ্যানালাইসিস এবং ফ্যাট অ্যানালাইসিস। ফেইসবুক: facebook/lasermedicalcenter
- বিজ্ঞপ্তি।
নতুন খাবারের ঘ্রাণ


