জীবনযাপনবিষযক একটি ওয়েবসাইটে আলু, টমেটো, মেথি ইত্যাদি সহজলভ্য জিনিস ব্যবহার করে দাগ দূর করার কিছু সহজ উপায় তুলে ধরা হয়।
আলু: রয়েছে ‘ক্যাটেকোলেইস’ নামের একটি এনজাইম যা প্রাকৃতিক ব্লিচিং উপাদান হিসেবে পরিচিত। আলু পাতলা করে কেটে পোড়া অংশের উপর ঘষে নিন। দিনে তিনবার এই পদ্ধতি অনুসরণ করুন। দাগ দূর করার পাশাপাশি আলুর রস হালকা পোড়া ক্ষত সারিয়ে তুলতেও সাহায্য করবে।
টমেটো: এই লাল সবজিতে আছে পটাসিয়াম, ক্যালসিয়াম, ভিটামিন এ এবং সি। এই সবগুলো উপাদান দাগ হালকা করতে সাহায্য করে এবং ত্বকে আর্দ্রতা যুগিয়ে সুস্থ রাখতে সহায়তা করে। টমেটোর রস ত্বক শীতল করে। তাই অল্প পোড়াভাব সারিয়ে তুলতে পারে। দিনে দুবার পোড়া অংশে টমেটো কেটে এর রস হালকা করে ঘষে নিলে উপকার পাওয়া যাবে।
মেথি: রয়েছে প্রচুর পুষ্টিগুণ এবং অ্যান্টিঅক্সিডেন্ট, যা ত্বক সুস্থ করে দাগ দূর করতে সাহায্য করে। আধা কাপ মেথি সারা রাত পানিতে ভিজিয়ে রাখুন। সকালে ভেজানো মেথির মিহি পেস্ট তৈরি করে আধা ঘণ্টা ত্বকে লাগিয়ে ঠাণ্ডা পানি দিয়ে ধুয়ে ফেলুন। ভালো ফলাফলের জন্য দিনে দুবার ব্যবহার করুন।
