পুষ্টিবিজ্ঞানের তথ্যানুসারে স্বাস্থ্যবিষয়ক একটি ওয়েবসাইটে প্রকাশিত প্রতিবেদনে জানানো হয়, কিছু ফলে যেমন শর্করার পরিমাণ বেশি থাকে তেমনি কিছু ফলে কম।
তাই স্বাস্থ্যসচেতনতার অংশ হিসেবে চিনিজাতীয় খাবার খাওয়া কমিয়ে ফল খাওয়ার পরিমাণ বাড়ানোর আগে জেনে নিন কোন ফলে চিনির পরিমাণ বেশি আর কোন ফলে কম।
আম
একটি আমে গড়ে ৪৫ গ্রাম শর্করা থাকে। তাই যারা ওজন কমাতে চাইছেন কিংবা ডায়বেটিস নিয়ন্ত্রণে রাখতে চাইছেন তাদের কখনও একটি পুরো আম একবারে খাওয়া উচিত হবে না। ফালি করে কেটে কয়েক টুকরা খেয়ে বাকিটা পরে খেতে পারেন।
আঙুর


চেরি


নাসপাতি


তরমুজ


কলা


এবার আসা যাক চিনি কম থাকে এমন ফলের তালিকায়।
অ্যাভোকাডো


পেয়ারা


ফুটি
মাঝারি আকারের এই ফলে প্রায় ৫ গ্রাম চিনি ও ২৩ গ্রাম ক্যালরি পেটে যাবে।
পেঁপে


স্ট্রবেরি


ছবি: রয়টার্স ও নিজস্ব।
আরও পড়ুন
খোসাতেও পুষ্টি  
দাঁতের সমস্যায় ফল  
ত্বকের জন্য উপকারী ফল  
বিষণ্ণতা রোধে ফল  
