তাছাড়া শিশুর শারীরিক, মানসিক এবং সার্বিক আচরণের উন্নতি ঘটায়। জানিয়েছে শিশুপালন-বিষয়ক একটি ওয়েবসাইট—
সত্যিকার আনন্দ উপভোগ: বর্তমান যুগের শিশুরা অনেক বেশি প্রযুক্তি নির্ভর। তারা দিনের একটা বড় সময় কাটিয়ে দেয় ব্যাটারি চালিত খেলনা, মোবাইল, গেইমস এবং অ্যাপস নিয়ে। একটা সত্যিকার প্রাণী শিশুটিকে ঘুরে বেড়ানো এবং পরিশ্রম করার জন্য খানিকটা বাধ্যই করবে। কখনও নিজের গণ্ডি থেকে বের না হওয়া শিশুও একটা প্রাণীর জন্য দৌড়াতে তাকে খাওয়াতে যত্ন করতে চাইবে এবং এটা উপভোগও করবে।
হাসিখুশি শৈশব: সমীক্ষায় দেখা গিয়েছে, যারা ছোটবেলায় কোনো না কোনো প্রাণী পেলেছেন তাদের মানসিক চাপ নেওয়ার ক্ষমতা অন্যদের থেকে বেশি হয়। তারা যখন পোষা প্রাণীর সঙ্গে সময় কাটায় তখন তাদের দেহে মন ভালো রাখার হরমোন বেশি পরিমাণে নিঃসৃত হয়। যা তাদের অন্য সব সমস্যা থেকে মুক্ত থাকতে সহায়তা করে।
আদরের বন্ধু: লোমশ শরীরের প্রাণীরা জড়িয়ে ধরে আহ্লাদ করার জন্য একদম আদর্শ। এই আদর দুজনের মধ্যে একটা নিঃস্বার্থ ভালোবাসার অনুভূতি জাগায়। অন্যভাবে দেখলে এরা সত্যিকার জীবনে নরম আদুরে খেলনা যাদের জড়িয়ে ধরে আদর করা যায়।
