রূপচর্চাবিষয়ক একটি ওয়েবসাইটে নখ শক্ত ও মজবুত করার কিছু টিপস উল্লেখ করা হয়।
জলপাইয়ের তেল ও লেবুর রস: খানিকটা জলপাইয়ের তেলের সঙ্গে কয়েক ফোঁটা লেবুর রস মিশিয়ে নখে মালিশ করে সারা রাত রাখতে হবে। নখ ভাঙার সমস্যার সমাধানে এটি বেশ উপকারী।
অ্যাপেল সাইডার ভিনিগার: এক কাপ পরিমাণ পানিতে অ্যাপেল সাইডার ভিনিগার মিশিয়ে ১০ মিনিট নখ ভিজিয়ে রাখুন। এই ভিনিগারে রয়েছে পটাশিয়াম, ম্যাগনেসিয়াম, ক্যালসিয়াম। এই উপাদান নখ মজবুত করতে সাহায্য করে এবং যে কোনো সংক্রমণ রোধে সহায়তা করে।
