জোছনা না থাকলে বোধহয় পৃথিবী তার অর্ধেক সৌন্দর্য থেকে বঞ্চিত হত।
নিস্তব্ধ পাহাড়ি কুটিরে একটা রাত কাটানোর স্বপ্ন দেখছিলাম অনেকদিন থেকে। মে মাসের ঝাঁঝালো একদুপুরে এমন সুযোগ পেয়ে গেলাম। ওই সময়ে পাহাড়ে বৃষ্টিবাহী মেঘের আনাগোনাও শুরু হওয়াতে এই সময়টাকেই বেছে নিলাম।








এই অদ্ভুত নিস্তব্ধ রাত্রিতে শিশিরের গন্ধ, আরও নানান বৃক্ষরাজির গন্ধ নিচ্ছিলাম প্রাণভরে। দীর্ঘ রাত বসে থাকলাম মন্ত্রমুগ্ধের মতো।



