সম্পর্কের সুস্বাস্থ্য ধরে রাখতে চাইলে কিছু অভ্যাস যুক্ত করতে হবে প্রতিদিনের তালিকায়।
সম্পর্ক ও লাইফস্টাইলবিষয়ক একটি ওয়েবসাইটের প্রতিবেদনে সম্পর্ক সুন্দর রাখতে সাহায্য করবে এমনই কিছু দৈনন্দিন অভ্যাসের বিষয় উল্লেখ করা হয়।
একে অপরের সঙ্গে কথা বলুন: একটি সম্পর্কে একে অপরের সঙ্গে কথা বলা অত্যন্ত গুরুত্বপূর্ণ। দীর্ঘ দিনের সম্পর্কের ক্ষেত্রে একটা সময় গিয়ে দেখা যায় যে কথা হারিয়ে যাচ্ছে। তবে সম্পর্কের সৌন্দর্য ধরে রাখতে দিনে অন্তত কয়েক ঘণ্টা একে অপরের সঙ্গে কথা বলা উচিত, তা হতে পারে যে কোনো বিষয় নিয়ে।
এছাড়াও একসঙ্গে গান শুনুন, ঘর গোছান এবং যখন দূরে থাকবেন তখন ফোনে এবং সামাজিক যোগাযোগ মাধ্যমে একে অপরের খোঁজ খবর নিন।
একসঙ্গে খাবার খান: ব্যস্ত জীবনে একে অপরের সঙ্গে সময় মিলানো দুষ্কর। তারপরও দিনের মূল খাবারগুলো একসঙ্গে খাওয়া উচিত। সকালে কাজে যাওয়ার আগে এক সঙ্গে নাস্তা করুন। দুপুরের খাবার একসঙ্গে খাওয়ার সুযোগ নাও হতে পারে। তবে রাতের খাবার একসঙ্গে খাওয়া উচিত।
একসঙ্গে খাবার খেলে বাড়তি সময় একসঙ্গে কাটানো যায়।
সিনেমা দেখুন: প্রতিদিন সময় না পেলেও সপ্তাহের ছুটির দিনগুলো এবং কাজ শেষে জলদি ঘরে ফিরতে পারলে একসঙ্গে সিনেমা দেখুন। বেছে নিন হাসির সিনেমা। কারণ সারাদিনের কাজের চাপ কাটিয়ে উঠে কিছু সময় একসঙ্গে হাসাহাসি করলে ভালো লাগবে।
