স্বাস্থ্যবিষয়ক একটি ওয়রবসাইটে আদা চায়ের উপকারিতা ব্যাখ্যা করা হয়।
সর্দি কাশি উপশমে: সর্দি-কাশি উপশমে আদার উপকারিতা বাড়িয়ে বলার কিছু নেই। নাক দিয়ে পানি পড়া কমাতে ও শ্বাসযন্ত্র থেকে কফ দূর করতে আদা চা উপকারী।
হজম সহায়ক ও রুচি বাড়ায়: খাবারে অনীহা দূর করতে আদা সাহায্য করে। হজমে সহায়ক এনজাইমসমূহ নিঃসরণ ঘটিয়ে খাদ্য পরিপাকেও সহায়তা করে আদা।
হজমের সমস্যা নিরাময়: হজম প্রক্রিয়া উন্নত করে আদা সরাসরি হজমের সমস্যা দূর করতে সহায়তা করে ।
কোষ্ঠকাঠিন্য নিরাময়: নিয়মিত আদা খেলে কোষ্ঠকাঠিন্য দূর করতে সাহায্য করে। এছাড়াও পরিপাকতন্ত্রে জম্মে থাকা বিষাক্ত গ্যাস বা হজম না হওয়া খাবার দূর করতেও সহায়তা করে।
সতেজতা: আদা চা অবসাদ দূর করে শরীর ও মনকে চাঙ্গা ভাব আনে।
উষ্ণতা: শীত মৌসুমে দেহের তাপমাত্রা বাড়ায় আদা চা।
রক্তপ্রবাহ সচল করতে: আদা চায়ে আছে দেহ উষ্ণ করার ক্ষমতা। এভাবে এটি রক্ত সঞ্চালনও ঠিক রাখে। বসে কাজ করার অভ্যাস যাদের তাদের রক্তসঞ্চালন প্রায়ই বাধাগ্রস্ত হয়। আদা চা এই সমস্যা দূর করতে সাহায্য করে।
