রূপচর্চাবিষয়ক একটি ওয়েবসাইটে জানানো হয় অনেকদিন পর্যন্ত ম্যানিকিউরের প্রভাব ধরে রাখতে চাইলে রয়েছে পাঁচ উপায়।
- নখে ‘বেইস কোট’ দেওয়ার আগে অতিরিক্ত তেল অপসারণের জন্য সাদা ভিনিগারে তুলা ভিজিয়ে ভালো মতো নখ ঘষে নিতে হবে। তবে অভ্যাসবসত নখ ভেজানো যাবে না। কারণ, এর ফলে নখ প্রসারিত ও সংকুচিত হয়ে যায়। তখন নেইলপলিশ লাগালে তা দেখতে ভালো লাগে না।
- নখে ‘বেইস কোট’ গোড়া থেকেই সঠিকভাবে লাগানো উচিত। না হলে এটি উঠে যাওয়ার সম্ভাবনা বেশি থাকে।
- নখের উপরিভাগে উজ্জ্বল কোট ব্যবহার করা উচিত। 
- নিয়মিত নখে ‘কিউটিক্যাল অয়েল’ ব্যবহার করতে হবে।
