রেসিপি দিয়েছেন ইসরাত জাহান বীথি।
স্পঞ্জ কেকের জন্য: ডিম ৩টি (কুসুম ও সাদা অংশ আলাদা করা)। ময়দা আধা কাপ (মেজারিং কাপের)। গুঁড়াচিনি আধা কাপ থেকে একটু কম। বেইকিং পাউডার আধা চা-চামচ। স্ট্রবেরি এসেন্স আধা চা-চামচ। গোলাপি খাবার রং সামান্য। প্লাস্টিক পেপার ১টি (কেকের আকার থেকে একটু বড় করে কেটে নেবেন)
পদ্ধতি: ময়দা, বেইকিং পাউডার একসঙ্গে চেলে নিন। ডিমের সাদা অংশ ও কুসুম আলাদা করে দুইটি পরিষ্কার বাটিতে রাখুন।
ওভেনের বেইকিং ট্রেতে বেইকিং পেপার বিছিয়ে অল্প করে তেল মাখিয়ে নিন। ইলেকট্রিক ওভেনে ১৮০ ডিগ্রি সেলসিয়াস তাপমত্রায় ১০ মিনিট প্রি হিট করুন।
ইলেকট্রিক বিটার দিয়ে ডিমের সাদা অংশ দুতিন মিনিট বিট করুন। যখন ডিমের সাদা অংশ ফোম হতে শুরু করবে তখন অল্প অল্প করে অর্ধেক গুঁড়াচিনি দিয়ে আরও পাঁচ থেকে সাত মিনিট বিট করুন। তারপর ডিমের ফোমের বাটিটা এক পাশে রাখুন। 
এবার ডিমের কুসুমের সঙ্গে বাকি গুঁড়াচিনি, খাবার রং ও স্ট্রবেরি এসেন্স মিশিয়ে খুব ভালো করে বিট করুন। যখন কুসুমের রং অনেকটা সাদাটে, ঘন ও ফোমের মতো হয়ে আসবে তখন এই কুসুমের মিশ্রণে আগে করে রাখা ডিমের সাদা অংশের ফোম মিশিয়ে হালকা ভাবে এক মিনিট বিট করে নিন।
এখন ডিমের মিশ্রণে চেলে রাখা ময়দা অল্প অল্প করে দিয়ে একটি কাঠের চামচ অথবা স্পেচুলা দিয়ে খুবই হালকা ভাবে মেশান। এভাবে দুতিন বারে ময়দা মিশিয়ে বেইকিং ট্রেতে সমান করে কেকের মিশ্রণ ঢেলে আগে থেকে প্রি হিট করা ওভেনের মাঝের তাকে বসিয়ে ১৫ মিনিট বেইক করুন।
তারপর একটা টুথপিক কেকের মাঝে ঢুকিয়ে পরখ করে দেখুন হয়েছে কিনা। টুথপিকের গায়ে কিছু লেগে না থাকলে বুঝতে হবে কেক হয়ে গেছে।


কেকসহ প্লাস্টিক পেপার একপাশ থেকে রোলের মতো করে মুড়িয়ে নিন। একদম ঠাণ্ডা হওয়া পর্যন্ত এভাবেই মোড়ানো অবস্থায় রেখে দেবেন।
ঠাণ্ডা হলে আস্তে করে কেকটা খুলে এর উপরে কিছু বাটার ক্রিম মাখিয়ে আবার আগের মতো মুড়িয়ে ফেলতে হবে। তবে এবার মোড়ানোর সময় পেপার ছাড়া শুধু কেকটা রোলের মতো মোড়াতে হবে।
তারপর পেপার দিয়ে কেকটা ঢেকে কিছুক্ষণের জন্য রেফ্রিজারেইটরে রেখে ঠাণ্ডা করে নিন।
তারপর বাটার ক্রিমস্টার নজেল লাগানো পাইপিং ব্যাগে ভরে নিয়ে রোল করা কেকের উপরে লম্বা করে ডিজাইন করে পছন্দ মতো চকলেট কার্ল অথবা চেরি দিয়ে সাজিয়ে নিলেই মজাদার সুইস রোল তৈরি হয়ে যাবে।


পদ্ধতি: একটা বাটিতে মাখন নিয়ে চার থেকে পাঁচ মিনিট বিট করতে হবে। মাখন কিছুটা ক্রিমি হয়ে আসলে অল্প অল্প করে চিনি দিতে হবে আর বিট করতে হবে। চিনি দেওয়া শেষ হলে এসেন্স দিয়ে দিন।
