মহাখালী ডিওএইচএস’য়ের কসমস গ্যালারিতে ২২ ডিসেম্বর থেকে শুরু হওয়া এই মেলা চলবে ৩০ ডিসেম্বর পর্যন্ত চলবে।
এই আয়োজনের অন্যতম উদ্যোক্তা ‘জেন্টেলম্যান্স ওয়াড্রোব’য়ের প্রতিষ্ঠাতা ও ক্রিয়েটিভ ডিরেক্টর শাবাব দ্বীন শারেক দাবি করেন, ছেলেদের ফ্যাশন নিয়ে এ ধরনের মেলা এটিই প্রথম।
এবার পাঁচটি ‘অনলাইন শপ’ নিয়ে এই উদ্যোগের পথ যাত্রা।  সেগুলো হল- জেন্টেলম্যান্স ওয়ারড্রোব, ঢাকা বুট বার্ন, স্ট্রিট ল, সুয়েনো এবং সারটোরিয়াল। মেলায় ক্রেতারা পাবেন স্যুট, শার্ট, প্যান্ট, টাইসহ আরও অনেক কিছু।
