ব্যয় যাতে আয়ত্তের মধ্যে থাকে সেই উপায় জানিয়েছে লাইফস্টাইলবিষয়ক একটি ওয়েবসাইট।
কার্ডে পেমেন্ট না করা: ডেবিট বা ক্রেডিট কার্ড দিয়ে বিল পরিশোধ করা সহজ। তবে এতে অভ্যস্ত হয়ে গেলে খরচের হিসাব রাখা সম্ভব হয় না। পাশাপাশি নগদ টাকা খরচ করলেই যে আপনি কৃপণ হয়ে যাবেন এমনটাও নয়।
অব্যবহৃত বৈদ্যুতিক যন্ত্র বন্ধ রাখা: কিছু বৈদ্যুতিক যন্ত্রে বিদ্যুৎ সংযোগ দেওয়া থাকলে ব্যবহার না করলেও তা বিদ্যুৎ অপচয় করে। পরিমাণে কম হলেও এই যন্ত্রগুলো আপনার বিদ্যুৎ খরচ বাড়ায়।
পুরানো অব্যবহৃত জিনিস বিক্রি করে দেওয়া: পুরানো জিনিস ব্যবহার না করলেও তার মায়া কাটাতে কষ্ট হয় অনেকের। তবে প্রয়োজন না থাকলে এগুলো বিক্রি করে দিন। এত যেমন বাড়তি কিছু পয়সা পাবেন, তেমনি নতুন কোনো শখ পূরণ করতেও আর্থিক সহযোগিতা পাবেন।
ভাউচার ও ডিসকাউন্ট অফার সম্পর্কে জানা: যে কোনো কিছু কেনার আগে ওই পণ্যে কোথাও কোনো মূল্যছাড় চলছে কীনা বা ব্যবহারযোগ্য কোনো গিফট ভাউচার পাওয়া যাবে কীনা খোঁজ নিতে পারেন। নিত্য প্রয়োজনীয় জিনিসগুলো কেনার জন্য দোকানের মূল্যছাড়ের জন্য অপেক্ষা করতে পারেন।
অপ্রয়োজনীয় খরচ বন্ধ করা: অনলাইনে খবর পড়লে বাসায় সংবাদপত্র নেওয়া বাদ দিন। ব্যায়ামাগারে নিয়মিত না গেলে সদস্যপদ বাতিল করে দিন। এ ধরনের আরও কোনো পয়োজনীয় খরচ থাকলে সেগুলো বন্ধ করতে হবে।
