তিনি দিয়েছে উষ্ণ মৌসুমে শীতল স্বাদের দুটি পানীয়র রেসিপি।
কোল্ড কফি
উপকরণ: দুই গ্লাস ঠাণ্ডা ফুলক্রিম দুধ। আপনার পছন্দের ইনস্ট্যান্ট কফি ২ টেবিল-চামচ। স্বাদমতো চিনি। আধা  গ্লাস বরফগুঁড়া। ৩ টেবিল-চামচ ফ্রেশ ক্রিম।
পদ্ধতি: একটি ব্লেন্ডারে সব উপকরণ একসঙ্গে নিন। ভালমতো মেশান। এখন পরিবেশন গ্লাসে ঢেলে উপরে বরফগুঁড়া ও ফ্রেশ ক্রিম দিয়ে পরিবেশন করুন কোল্ড কফি।


