রেসিপি দিয়েছেন আফরোজ সাইদা।
উপকরণ: আম ৫ কেজি। চিনি ৩ কেজি। ভিনিগার ১ বোতল (৬৫০ মি.লি.)। শুকনামরিচ ২৪, ২৫টি। আদাকুচি ৬ টেবিল-চামচ। লবণ স্বাদ মতো।
পদ্ধতি: আম ছিলে ধুয়ে কিছুক্ষণ পানিতে ভিজিয়ে রাখুন। তারপর কিউব করে কেটে ধুয়ে পানি ঝরিয়ে নিন।  শুকনামরিচ কাঁচি দিয়ে চিকন করে কেটে দানা বাদ দিন। আদা চিকন করে কুচি করুন। তারপর চুলায় হাঁড়িতে চিনি ও ভিনিগার দিয়ে সব বসান।
যদি আচারে লাল লাল ভাব আনতে চান তবে চিনি কিছুটা কমিয়ে খেজুরের গুড় দিতে পারেন। এরপর শুকনা মরিচ, আদা ও লবণ দিতে হবে।
জ্বাল দিয়ে ঘন হয়ে আসলে, তাতে আমের টুকরা দিয়ে দিন। সিরা ঘন হয়ে আসলে চুলার আঁচ কিছুক্ষণ কমিয়ে রাখতে হবে।
