জীবনে আমাদের একজন এমন বন্ধু সবারই দরকার হয় যার কাছে সব কথা প্রাণ খুলে বলা যায়, মনের সব দুঃখ নিমিষেই দূর করা যায়! তবে সব কথা সবার জন্য নয়।
সংসারে কিছু কথা থাকে খুবই গোপন যা শোবার ঘরের চার দেওয়ালের বাইরে নেওয়াই ঠিক নয়। আমেরিকার একজন বিবাহবিষয়ক পরামর্শদাতা এবং ‘ব্রেকিং দ্য আর্গুমেন্ট সাইকেল: হাও টু স্টপ ফাইটিং উইদআউট থেরাপি’ বইয়ের লেখক শ্যারন রিভকিন একটি ওয়েবসাইটে জানান, এমন তিনটি গোপন বিষয় যেগুলো গোপন রাখা সম্পর্কের জন্য মঙ্গলকর।
যৌনজীবনের গোপনীয়তা: যৌনজীবন নিয়ে উত্তেজনাকর অনেক তথ্যই বন্ধুদের মধ্যে আদান প্রদান করা হয়। তবে সেই তথ্য যদি নিজেদের সম্পর্কে হয় তবে সেটা নিজেদের পর্যন্তই রাখা ভালো। বন্ধুর কাছে খুলে বলা সঙ্গীর জন্য অস্বস্তিকর হতে পারে। একান্ত যদি কোনো তথ্য বা পরামর্শ করার প্রয়োজন থাকে তবে তা সঙ্গীকে জানিয়ে নেওয়া ভালো। অন্তত কতটুকু পর্যন্ত বললে সঙ্গী বিব্রত হবে না এটা জেনে নেওয়া উচিত।
সঙ্গীর আয় এবং ব্যয়: অনেক মানুষই অর্থনৈতিক আলোচনা করতে ভালোবাসেন। তবে এই ধরণের আলোচনায় ঘরের তথ্য বাইরে চলে যায়। বিশেষজ্ঞরা বলেন, কে কতটা আয় করল এটা কাউকেই জানানো ঠিক নয়। সঙ্গীরটা তো বটেই, নিজেরটাও নয়।
যার সঙ্গে আলোচনা করা হচ্ছে সেও এই আলোচনা পছন্দ না করতে পারে। কার আয় বা ব্যয় কতটা এটা হঠাৎ না বুঝে কারও সামনে আলোচনা করলে সেও বিব্রত হতে পারে।
