রাজধানীর ইস্টার্ন প্লাজার সাইম প্লাসের স্বত্বাধিকারী মো: কামাল হোসেন পরামর্শ দিতে গিয়ে বলেন, “বাজারে এখন বিশেষ ধরনের মোবাইল কভার পাওয়া যায়। এগুলো ব্যবহার করলে মোবাইলে পানি ঢোকার সম্ভাবনা অনেকটাই কমে যায়।”
ভেজা মোবাইল রক্ষার বেশ কিছু সহজ উপায়ও জানালেন মো: কামাল হোসেন।
খুলে ফেলুন ব্যাটারি আর সিম
মোবাইল ভিজে গেলে সবার আগে যে কাজটি করবেন তা হচ্ছে ফোন থেকে ব্যাটারি খুলে ফেলুন। এটি করলে ফোনে শর্ট সার্কিট হওয়ার সম্ভাবনা কমে আসে। ব্যাটারির সঙ্গে সিম কার্ডটিও বের করে রাখুন। কারণ ভিজে যাওয়া সিম কার্ডও নষ্ট হতে পারে।
দ্রুত শুকানোর ব্যবস্থা করুন
ফোনের বাইরে লেগে থাকা পানি মুছতে ব্যবহার করুন পেপার টাওয়েল বা শুকনা কাপড়। ভ্যাকুয়াম ক্লিনারের সাহায্যেও শুকাতে পারেন মোবাইল। তবে এক্ষেত্রে সবচেয়ে বড় সমস্যা হচ্ছে ভ্যাকুয়াম ক্লিনারের বাতাসের সঠিক মাত্রা ঠিক করে নেওয়া। তাই ভ্যাকুয়াম ক্লিনারে অভ্যস্থ না থাকলে এড়িয়ে চলুন এ উপায়। আবার সবার বাড়িতে এই যন্ত্র থাকেও না।
হেয়ার ড্রায়ার দিয়েও শুকাতে পারবেন মোবাইল। সেক্ষেত্রে ব্যাটারি খোলা অবস্থায় একটু উঁচু থেকে হেয়ার ড্রায়ার ধরে ফোন শুকানোর চেষ্টা করতে হবে। শুকানোর পর ফোন সঙ্গে সঙ্গে চালু করবেন না। বরং পরদিন সার্ভিস সেন্টারে নিয়ে ফোনের অবস্থা সম্পর্কে নিশ্চিত হয়ে নিন।
ভালোভাবে শুকানোর জন্য ফোনের বাইরের কেসিং, কভার ইত্যাদি অবশ্যই খুলে রাখুন।
তবে ওভেন, মাইক্রোওভেন বা সূর্যের তাপে মোবাইল ফোন শুকানোর চেষ্টা করবেন না। এতে ক্ষতিগ্রস্ত হতে পারে, অনেক ক্ষেত্রে ফোন সম্পূর্ণ নষ্ট হয়ে যেতে পারে।
ভিজে যাওয়া মোবাইল থেকে পানি ঝরাতে অনেকেই ফোন জোরে ঝাঁকি দিয়ে থাকেন। এমনটিও করা উচিত নয়। তবে মৃদুভাবে ঝাঁকালে কোনো ক্ষতির সম্ভবনা নেই।
রাখতে পারেন চালের মধ্যে
চালের বস্তা বা পাত্রের মধ্যে কয়েকদিনের জন্য ফেলে রাখুন ভেজা মোবাইল। এ সময় ফোন চালু করবেন না বা ব্যাটারি লাগাবেন না। ভেজা জিনিসের পানি শুষে নেওয়ার ক্ষমতা রাখে চাল। তাই এ প্রক্রিয়াতেও ভিজে যাওয়া মোবাইল শুকিয়ে নিতে পারেন।
মনে রাখা জরুরি
যদি দোকানপাট বন্ধ হয়ে যাওয়ার পর বৃষ্টি বা অন্য কোনো কারণে মোবা্ইল ফোন ভিজে যায়, অথবা অন্য যে কোনো কারণে যদি সার্ভিস সেন্টারে সঙ্গে সঙ্গে নিয়ে যাওয়ার উপায় না থাকে, তবে শুকানোর পরও মোবাইল চালু করবেন না। সময় সুযোগ মতো সার্ভিস সেন্টারে গিয়ে নিশ্চিত হয়ে নিন ফোনের অবস্থা।
সার্ভিস সেন্টারের ক্ষেত্রে যে ব্র্যান্ডের ফোন সেখানে নিয়ে যাওয়াই হবে বুদ্ধিমানের কাজ। যদিও খরচা একটু বেশিই পড়বে সেখানে।
স্বল্পদামে ফোন ঠিক করতে সাধারণ সার্ভিস সেন্টারের সেবাও নিতে পারে। বাড়ির আশপাশের মোবাইলের দোকানগুলোতেই পাবেন এ সেবা।
তবে মোবাইল সার্ভিস করানোর আগে সেখানের কাজের মান, দক্ষতা সম্পর্কে নিশ্চিত হওয়া খুবই জরুরি।
