চুল পড়া রোধে দারুণ কার্যকর একটি উপাদান হল পেঁয়াজ, জানিয়েছেন অ্যারোমা থেরাপিস্ট শিবানী দে।
তিনি বলেন, “পেঁয়াজের রস মাথায় নতুন চুল গজাতেও সাহায্য করে। মাথার ত্বকে রক্ত সঞ্চালন বাড়ায় এবং জীবাণুমুক্ত রাখতে সাহায্য করে।”
একটি বড় পেঁয়াজ ভালো করে পিষে ছাঁকনি দিয়ে ছেঁকে রস বের করে নিতে হবে। তারপর এই রস পুরো মাথার ত্বক ও চুলে লাগিয়ে একঘণ্টা অপেক্ষা করার পরামর্শ দেন শিবানী।
পেঁয়াজের গন্ধ বেশ তীব্র, যদি সহ্য না হয় তবে পেঁয়াজের রসের সঙ্গে গোলাপ জল মেশানো যেতে পারে। একঘণ্টা পর মাথা শ্যাম্পু দিয়ে ভালোভাবে পরিষ্কার করে নিতে হবে।
চুল পড়ার পরিমাণের উপর নির্ভর করে সপ্তাহে দুইবার পেঁয়াজের রস ব্যবহার করা যাবে।
ক্ষতিগ্রস্ত ও দুর্বল চুলে পুষ্টি যোগাতে সাহায্য করে কলা। কলা একটি প্রাকৃতিক উপাদান যা চুলের গোড়ার ক্ষতি রোধ করার মাধ্যমে গোড়া শক্ত করতে সাহায্য করে। এটি চুলের দুর্বল গোড়ায় শক্তি যোগায় এবং শক্ত হয়ে বেড়ে উঠতে সাহায্য করে।
এছাড়া এতে থাকা আয়রন ও ভিটামিন চুলে যোগায় পুষ্টি, জানান শিবানী দে।
একটি কলা এবং এক টেবিল চামচ মধু দিয়ে চুলে পুষ্টি যোগানোর একটি প্যাক তৈরি করে নেওয়া যায়।
প্রথমে একটি অতিরিক্ত পাকাকলা ভালোভাবে চটকে নিতে হবে। এরপর এতে এক টেবিল-চামচ মধু মিশিয়ে চুলে লাগাতে হবে। বিশেষ করে চুলের গোড়ায়। মাস্কটি ১৫ থেকে ২০ মিনিট রেখে হালকা গরম পানি দিয়ে ধুয়ে ফেলুন।
চুল পড়া কমানোর জন্য রয়েছে আরও কিছু ঘরোয়া পদ্ধতি।
- এক কাপ সরিষার তেলের সঙ্গে চার চামচ মেহেদি পাতা সিদ্ধ করুনবে। এই তেল ঠাণ্ডা করে বোতলে সংরক্ষণ করতে হবে। প্রতিদিন চুলে এবং তালুতে এই তেল হালকাভাবে মালিশ করে কিছুক্ষণ পর চুল ধুয়ে ফেলতে হবে। এই তেল চুলের গোড়া মজবুত করতে সাহায্য করে।
- প্রতিদিন চুলের গোড়া বা মাথা হালকা হাতে মালিশ করলে মাথার তালুতে রক্ত চলাচল বৃদ্ধি পায়। আর এটি চুলের স্বাস্থ্যের জন্য বেশ উপকারী।
- মাথার যে অংশে চুলের পরিমাণ কম, সেখানে এক টুকরা পেঁয়াজ নিয়ে ঘষতে হবে। এর উপর মধু দিতে হবে। এটি চুলের গোড়া মজবুত করার একটি প্রাকৃতিক উপায়।
- একটি ডিমের কুসুমের সঙ্গে খানিকটা মধু ভালোভাবে মিশিয়ে চুলের গোড়ায় লাগাতে হবে। আধা ঘণ্টা অপেক্ষা করে ধুয়ে ফেলতে হবে।
- ১০০ গ্রাম পরিমাণ আমলা, রিঠা ও শিকাকাই নিয়ে দুই লিটার পানিতে জ্বাল দিতে হবে যতক্ষণ না পানির পরিমাণ অর্ধেকে নেমে আসে। এই পানি ঠাণ্ডা করে চুল ধোয়ার জন্য ব্যবহার করতে হবে। এটি চুল পড়া রোধের একটি প্রাকৃতিক উপায়।
 
চুল আয়রনের ভুলগুলো
চুলের আগা ফাটা
