অনেকেই সঠিকভাবে স্মোকি আই মেইকআপ করতে জানেন না। ব্রিটিশ ট্যাবলয়েড মিরর ডটকো ডটইউকে’তে প্রকাশিত একটি প্রতিবেদনে স্মোকি আই লুক তৈরির কিছু সহজ ধাপ তুলে ধরা হয়।
- স্মোকি আইয়ের মূল হল হালকা এবং গাঢ় রংয়ের আইশ্যাডোর সঠিক ব্যবহার। আর স্মোকি আইয়ের ক্ষেত্রে ব্যবহৃত শ্যাডোগুলো যেন নিখুঁতভাবে ব্লেন্ড করা হয় সেদিকেও খেয়াল রাখতে হবে।
- স্মোকি আইয়ের জন্য কাছাকাছি শেইডের হালকা থেকে গাঢ় তিনটি আইশ্যাডো রং বেছে নিতে হবে।
- চোখে লিড বা পাপড়ির উপরে শ্যাডো ব্যবহারের শুরুতে সব থেকে হালকা রংয়ের শ্যাডো বেইজ হিসেবে ব্যবহার করতে হবে। এরপর লিডের উপরে বা ক্রিজ অংশে অ্যাশ বা মাঝারি রংয়ের শ্যাডো লাগাতে হবে। আর খেয়াল রাখতে হবে যেন হালকা রংয়ের সঙ্গে গাঢ় শেইড ভালো মতো মিশে যায়।
- এরপর চোখের বাইরের কোণায় সব থেকে গাঢ় রংটি ব্যবহার করতে হবে। এক্ষেত্রেও খেয়াল রাখতে হবে যেন অন্য রং দু’টির সঙ্গে গাঢ় রংটি ভালোভাবে মিশে যায়।
- আর চোখের ভিতরের কোণায় উপরে এবং নিচে হালকা রংয়ের শ্যাডো ব্যবহার করতে হবে। এতে চোখ উজ্জ্বল ও বড় দেখাবে।


- সব শেষে চোখের পাপড়িতে মাশকারা লাগিয়ে নিতে হবে।
ছবির মডেল- সামিয়া সায়িদ। মেইকওভার- তানজিমা শারমিন মিউনি। পোশাক- সাদা কালো। ছবি : ই স্টুডিও।
মাস্কারার সঠিক ব্যবহার
আকর্ষণীয় ভ্রু
শুষ্ক মৌসুমে উজ্জ্বল চুল
