যারা সেরা রাঁধুনী ১৪২৪ প্রতিযোগিতায় অংশ নেওয়ার জন্য আবেদন করছেন তাদের প্রাথমিক বাছাই প্রক্রিয়া শুরু হচ্ছে ৪ ডিসেম্বর থেকে।
বাছাই প্রক্রিয়ার তারিখ, স্থান ও সময়  
বগুড়া: অডিশন ৪ ডিসেম্বর, মালতীনগরে অবস্থিত বগুড়া কনভেনশন সেন্টার। সকাল ৯টা থেকে বিকাল ৫টা।
রাজশাহী: অডিশন ৬ ডিসেম্বর, রাজশাহী জেলা শিল্পকলা একাডেমি। সকাল ৯টা থেকে বিকাল ৫টা।
