ভাত নিয়ে প্রচলিত কিছু ভুল ধারণা সম্পর্কে জানিয়েছে খাদ্য ও পুষ্টিবিষয়ক একটি ওয়েবসাইট।  
ভাত ওজন বাড়ায় না: বাংলাদেশ ছাড়াও পৃথিবীর অনেক দেশেই ভাত খাওয়া হয় নিয়মিতই। জাপানিদের কথাই ধরুন, তারা প্রতিদিন কমপক্ষে একটি ভাত-প্রধান খাবার খাবেই। আর থালায় ভাতের একটি দানা থেকে যাওয়াকেও তারা বেয়াদবি মনে করেন। তারপরও জাপানিদের মুটিয়ে যাওয়ার হার সবচাইতে কম। এমনকি ফিলাডেলফিয়ার টেম্পল ইউনিভার্সিটির একজন জাপানি গবেষক ও তার সহকর্মীর গবেষণায় ভাতে এমন একটি উপাদান পাওয়া কথা জানিয়েছে, যা হৃদরোগ প্রতিরোধ করে। জাপানে হৃদরোগে মৃত্যুর হার কম হওয়ার সম্ভবত এটাই কারণ।
গ্লাইসেমিক ইনডেক্স (জিআই): একটি নির্দিষ্ট খাবার রক্তে গ্লুকোজের পরিমাণ কত দ্রুত এবং কী পরিমাণ বৃদ্ধি করে তার মানদণ্ডকে বলা গ্লাইসেমিক ইনডেক্স বা জিআই। ভাতের ‘জিআই’য়ের মাত্রা অনেক বেশি।
অর্থাৎ ভাত রক্তে গ্লুকোজের পরিমাণ অতি দ্রুত অনেক বেশি বাড়িয়ে দিতে পারে। তারমানে এই নয় যে খাদ্যাভ্যাস থেকে ভাতকে তালাক দিতে হবে।
সমাধান হল, ভাতের সঙ্গে খেতে হবে ‘জিআই’য়ের মাত্রা কম এমন খাবার যেমন- রাজমা, ডাল, ডিম, মাংস, ঘি ইত্যাদি। ফলে খাবারের ‘জিআই’য়ের মাত্রায় ভারসাম্য থাকবে।
