প্রসাধনী কেনার জন্য সহজ কয়েকটি টিপস দিয়েছেন ভারতের লুমিয়ার ডার্মাটলজির বিভাগের পরিচালক ডা. কিরাণ লোহিয়া।
* সবসময় ময়েসচারাইজরের খোঁজ করুন। যেগুলো মুখে ব্ল্যাক হেডস তৈরি করবে না। ফলে ব্রণ হওয়ার সম্ভাবনা কমে যায়।
* ক্রিমের পরিবর্তে লোশন বা জেল ব্যবহার করুন। এতে ত্বক উজ্জ্বল দেখাবে।
*  হাত মুখ ধোয়ার জন্য স্যালিসিলিক এসিড যুক্ত প্রসাধনী বা সাবানজাতীয় পণ্য ব্যবহার করুন। এটা ত্বকের অতিরিক্ত তেল দূর করে, ব্রণ বা ব্ল্যাক হেডস হওয়ার হাত থেকে রক্ষা করে।
* ২৮ বছর হওয়ার পর খেয়াল করবেন ত্বকে আগের চাইতে বেশি ময়েসচারাইজারের প্রয়োজন পড়ছে। এই বয়সে অনেকের বলিরেখাও পড়ে, যা থেকে পরিত্রাণ পাওয়ার চেষ্টাও চলে। তাই সবসময় ভিটামিন সি, রেটিনল, রেটিনাইল, পালমিটেট, ল্যাকটিক অ্যাসিড বা গ্লাইকোলিক অ্যাসিড সমৃদ্ধ প্রসাধনী ব্যবহার করুন।
এগুলো বলিরেখা প্রতিরোধে ভালো কাজ করে।
* সবসময় সানস্ক্রিন ব্যবহার করুন।
 
