ভারতের দিল্লিতে অবস্থিত ককুনা সেন্টার ফর অ্যাসথেটিক ট্রান্সফরমেশন কেন্দ্রের কনসালটেন্ট প্লাস্টিক এবং রিকনস্ট্রাকটিভ সার্জন ড.স্বপ্না ভি রশ্মি ব্রণ এড়ানোর কিছু উপায় তুলে ধরেন স্বাস্থ্যবিষয়ক একটি ওয়েবসাইটের প্রতিবেদনে।
সঠিক খাদ্যাভ্যাস: ফ্লেক্সসিড, আখরোট, ডিম, ব্রোকলি ইত্যাদি খাবারে প্রচুর ওমেগা থ্রি রয়েছে যা ব্রণের সমস্যা কমাতে সাহায্য করে। এছাড়া তাজা ফল ও শাকসবজি প্রতিদিনের খাবারের তালিকায় রাখলে ত্বক ও স্বাস্থ্যের জন্য উপযোগী। এছাড়া অ্যান্টিঅক্সিডেন্ট সমৃদ্ধ গ্রিন টি’ও ব্রণের সমস্যা উপশমে কার্যকর।
এড়িয়ে চলবেন যেসব খাবার: অতিরিক্ত শর্করা বা চিনি সমৃদ্ধ খাবার এবং তৈলাক্ত খাবার থেকে ব্রণ হতে পারে। এছাড়া ঝাল-মসলা এবং দুগ্ধজাত খাবার বেশি খেলেও ত্বকের সমস্যা হয়ে থাকে। এই ধরনের খাবার যতটা এড়িয়ে চলা যাবে ততই ত্বকে ব্রণের সমস্যা কমবে।
