এই সুস্বাদু পায়েসের রেসিপি দিয়েছেন তাবাসসুম মুমু।
উপকরণ
আপেল ৩টি। তরল দুধ ১ লিটার। চিনি আধা কাপ বা স্বাদ অনুযায়ী। পোলাওয়ের চাল ২ টেবিল-চামচ। এলাচ ৩টি। দারুচিনি ১টি। 
পদ্ধতি
আপেলের উপরের ছোকলাগুলো ছিলে কুচি কুচি করে কেটে নিন। এবার একটি প্যান চুলায় বসিয়ে আপেলকুচি আর চিনি দিয়ে নাড়তে থাকুন যতক্ষণ না আপেলের রস বের না হয়ে আসে।
ভালোভাবে রান্না করে রস বের করবেন। তা নাহলে দুধে মেশালে দুধ ছানা ছানা হয়ে যাবে।
এবার অন্য হাঁড়িতে দুধ জ্বাল দিন। সঙ্গে এলাচ আর দারুচিনি দিয়ে ঘন করবেন। দুধ ঘন হয়ে গেলে চাল দিয়ে দিন। কিছুক্ষণ পর আপেল-চিনির ঘন মিশ্রণটা দুধে দিয়ে দিন।
এবার ভালো করে নাড়তে থাকুন। ফুটতে দিন। আপনি কতটুকু ঘন করবেন সেটার উপর আপনার রান্নার সময়টা নির্ভর করবেন। অর্থাৎ বেশি ঘন করতে চাইলে বেশি সময় জ্বালে রাখবেন। তবে নাড়তে ভুলবেন না।
রান্না হয়ে গেলে ঠাণ্ডা করে পরিবেশন করুন।
কাওনের পায়েস
