প্রতিদিনের খাদ্য তালিকায় যে কোনো একটি ফল থাকলে মন্দ হয় না। আর চাইলে প্রতিদিনের খাবারে আনারস রাখা যেতেই পারে। এটি দামেও সস্তা এবং আমাদের দেশে বেশ সহজলভ্য। তাছাড়া এতে আছে এমন কিছু পুষ্টি উপাদান যা আমাদের শরীরের জন্যও প্রয়োজনীয়।
স্বাস্থ্যবিষয়ক একটি ওয়েবসাইটে আনারসের উপকারিতা সম্পর্কে একটি প্রতিবেদন প্রকাশিত হয়।
ভিটামিন ও খনিজ লবণ
আনারসে প্রচুর পরিমাণে ভিটামিন ও খনিজ লবণ থাকে। এরমধ্যে রয়েছে ভিটামিন এ, ভিটামিন সি, ক্যালসিয়াম, ফসফরাস এবং পটাশিয়াম। আনারস একটি আঁশযুক্ত ফল যা থেকে প্রযোজনীয় ফাইবার বা আঁশ ও ক্যালরি পাওয়া যায়। সবচেয়ে বড় কথা হল, আনারসে ফ্যাট ও কোলেস্টেরলের পরিমাণ কম। তাই যারা ওজন কমাতে চান তাদের জন্য আনারস খুবই উপকারী।
ঠাণ্ডা ও কাশি প্রতিরোধ করে
আনারসে ভিটামিন সি’য়ের পরিমাণ বেশি থাকায় এটি ভাইরাসজনিত ঠাণ্ডা ও কাশি প্রতিরোধে সাহায্য করে। আনারসের ব্রোমেলেইন নামক উপাদান ঠাণ্ডা ও কাশি প্রতিকার করতেও সাহায্য করে। যদি ঠাণ্ডা-কাশি বেশি হয় তাহলে ডাক্তারের ওষুধের পাশাপাশি আনারস খেলে দ্রুত উপকার পাওয়া যাবে।


হাড় গঠন ও সবল রাখার জন্য আনারসের সুনাম আছে। কারণ হাড় ও কোষের টিস্যু বা কোষকলা গঠন করার জন্য প্রয়োজনীয় ম্যাঙ্গানিজ পাওয়া যায় আনারসে। যদি নিয়মিত এক কাপ পরিমাণ আনারস খাওয়া যায় তবে তা থেকে দেহের প্রয়োজনীয় ম্যাঙ্গানিজের ৭৩ শতাংশ পাওয়া যাবে।
দাঁত ও মাড়ির সুস্থতা
দাঁত দুর্বল হওয়ার অন্যতম কারণ মাড়ির দুর্বলতা। দাঁত ও মাড়ি সুস্থ রাখতে প্রতিদিন আনারস খাওয়া যেতে পারে। কারণ আনারস দাঁত মজবুত করে ও মাড়ি সুস্থ রাখতে সাহায্য করে।
রেটিনার সুস্থতা
রেটিনা অক্ষিপটের সুস্থতা বজায় রাখতে আনারস সাহায্য করে। ম্যাকুলার ডিজেনারেশন রোগের কারণে প্রথমে দৃষ্টি শক্তি হ্রাস পায় ও পরে রেটিনা বা অক্ষিপটের ক্ষতি হয়। এর ফলে লেখাপড়া, কোন কিছু চিনতে না পারা এবং অন্যান্য দৈনন্দিন কাজ করা কষ্টকর হয়ে দাঁড়ায়। প্রতিদিন আনারস খাওয়ার অভ্যাস গড়ে তুললে এই রোগের সম্ভাবনা ৩৬ শতাংশ কমে আসবে। কারণ এই ফলে আছে বেটা ক্যারটিন যা চোখের জন্য উপকারী।
আর্থ্রাইটিস দূর করে
আনারস গেঁটেবাত ও এর ব্যাথা দূর করতে সাহায্য করে। পাশাপাশি হাড়ও সুস্থ রাখে।
হজমে সাহায্য করে
আনারসের ব্রোমেলেইন হজমে সাহায্যকারী বিভিন্ন রসকে অ্যাসেডিক হতে দেয় না। তাছাড়া আনারসে প্রোটিন পরিপাকের উপাদান থাকে যা দেহের হজম ক্রিয়া বৃদ্ধি করে। তাই বদহজমের সমস্যা থাকলে আনারস খেলে উপকার পাওয়া যায়।
দারুচিনির যত গুণ
লবণের বিশেষ ব্যবহার
কমলার পুষ্টিগুণ
কিশমিশের উপকারিতা
