রেসিপি দিয়েছেন আনার সোহেল।
উপকরণ: হাড় ছাড়া মাংস আধা কেজি। সয়া সস ২ টেবিল-চামচ (মেরিনেইট করার সময় ১ টেবিল-চামচ বাকিটা পরে দিতে হবে)। ওয়েস্টার সস ১ টেবিল-চামচ। রেড গার্লিক সস ১ টেবিল-চামচ। আদা বাটা ১ চা-চামচ। রসুনবাটা ১ চা-চামচ। গোলমরিচগুঁড়া আধা চা-চামচ। লালমরিচ-গুঁড়া আধা চা-চামচ। গরম মসলা আধা চা-চামচ। লবণ স্বাদ মতো। চিনি আধা চা-চামচ। পেঁয়াজ মোটাকুচি আধা কাপ। কাঁচামরিচ ফালি ৪,৫টি (দানা ফেলে দিতে হবে।)। ক্যাপসিকাম ১টি বড় (মোটা করে কাটা)। পেঁয়াজপাতা-কুচি ২ টেবিল-চামচ। কর্নফ্লাওয়ার ২ টেবিল-চামচ। সয়াবিন তেল ২ টেবিল-চামচ।
ভিনিগার সস: ভিনিগার ১ টেবিল-চামচ, শুকনামরিচ-কুচি ২টি, রসুন ছেঁচা ৫,৬টি কোয়া। সব মিশিয়ে রাখুন।
পদ্ধতি: মাংস পাতলা করে কেটে ধুয়ে পানি ঝরিয়ে নিন। এবার মাংসের সঙ্গে লবণ পরিমাণ মতো, আদা ও রসুন বাটা, গোলমরিচগুঁড়া, কর্নফ্লাওয়ার, সয়া এবং ওয়েস্টার সস দিয়ে মেখে কমপক্ষে এক ঘণ্টা রেখে দিতে হবে।
তবে আগের দিন রাতে মেরিনেইট করে রাখলে ভালো।
মাংসগুলো প্যানে নিয়ে চুলায় মাঝারি আঁচে রান্না করতে হবে সিদ্ধ হওয়া পর্যন্ত। মাঝে মাঝে নেড়ে দিতে হবে। যেন তলায় লেগে না যায়। প্রয়োজনে এক কাপ পানি দিয়ে দিন।
মাংস সিদ্ধ হয়ে পানি শুকায় আসলে নামিয়ে নিন।
এখন সিজলিংয়ের পালা: সিজলিং প্যান গরম করুন। যাদের সিজলিং প্লেট নেই তারা সাধারণ প্লেটে সার্ভ করতে পারেন।
অন্য একটি ননস্টিক প্যান চুলায় দিয়ে তেল গরম করে, ভিনিগার সসটি দিয়ে নাড়ুন কিছুক্ষণ।


এবার রান্না করা মাংস দিয়ে নেড়ে নেড়ে ভাজতে থাকুন। রেড গার্লিক সস ও ১ টেবিল-চামচ সয়া সস দিয়ে নেড়ে ভাজুন। চিনি ও কাঁচামরিচ দিয়ে নেড়ে মিশান।
১ টেবিল-চামচ কর্নফ্লাওয়ার আধা কাপ পানিতে গুলিয়ে মাংসে দিয়ে মিশিয়ে দিন। এবার পেঁয়াজপাতা-কুচি দিয়ে নামিয়ে নিন।
