রেসিপি দিয়েছেন ফারাহ তানজীন সুবর্ণা
পটলের ভর্তা
উপকরণ: পটল ৭,৮টি (খোসা ছাড়ানো, দানা ফেলা)। পেঁয়াজ ১টি, কুচি করা। কাঁচামরিচ ৩,৪টি কুচি করা। ধনেপাতা কুচি করা ১ চা-চামচ। সরিষার তেল বা আচারের তেল প্রয়োজন মতো।


কচুর  ভর্তা
উপকরণ: কচুর গোড়ার অংশ ৮ থেকে ১০ ইঞ্চি আকারের। ছোটচিংড়ি ১ মুঠ। বড় পেঁয়াজ ১টি, মোটা করে কাটা। রসুন ৩ কোয়া। শুকনামরিচ ৪,৫টি। আস্তসরিষা আধা চা-চামচ। লবণ স্বাদ মতো। সরিষার তেল পরিমাণ মতো।


প্যানে তেল গরম করে প্রথমে চিংড়িগুলো ভেজে তুলুন। শুকনামরিচও মচমচে করে ভেজে তুলে রাখতে হবে। এইবার সরিষার ফোঁড়ন দিয়ে পেঁয়াজ আর রসুন হালকা করে ভেজে আগেই পুড়িয়ে, কেটে রাখা কচু আর লবণ দিয়ে ভেজে নিতে হবে।
এবার সব ভাজা উপকরণ একসঙ্গে মিশিয়ে শিলপাটা বা মিক্সিতে বেটে নিলেই ভর্তা তৈরি।
বরবটির ভর্তা
উপকরণ: বরবটি ২৫০ গ্রাম। পেঁয়াজ ১টি, মোটা করে কাটা। রসুন ২ কোয়া। কাঁচামরিচ ৩,৪টি। ধনেপাতা ১ চা-চামচ। লবণ স্বাদ মতো। তেল টালার জন্য যতটুকু লাগবে। আচারের তেল প্রয়োজন মতো।


শিলপাটা বা মিক্সিতে ধনেপাতাসহ বেটে আচারের তেল মেখে নিলেই ভর্তা তৈরি।
চাইলে দুতিনটি চিংড়ি মাছও তেলে ভেজে এই ভর্তার সঙ্গে বেটে নিয়ে ভর্তাকে আরও সুস্বাদু করে তুলতে পারেন।
একটা বিষয় মনে রাখবেন এই ভর্তা তৈরির সময় বরবটি কখনও ঢেকে সিদ্ধ করবেন না, বা কম আঁচে সিদ্ধ করবেন না। এতে রঙ নষ্ট হয়ে যায়।
সমন্বয়ে: ইশরাত মৌরি।
মেথি চিকেন ও আচারি বেগুন ভর্তা
ভর্তা-ভাজা
বেগুন টমেটো ভর্তা
