বয়সের সঙ্গে সঙ্গে এবং ওজন পরিবর্তনের কারণে মেয়েদের পায়ের মাপেও পরিবর্তন আসে।
ব্রিটিশ ট্যাবলয়েড ফিমেলফার্স্ট ডটকম-এর এক প্রতিবেদন থেকে জানা যায়, বেশ কিছু ভুল ধারণার কারণে মেয়েরা হিলজুতা কিনতে ভুল করে থাকেন। বেশিরভাগ ক্ষেত্রেই ‘আনফিট’ হিল কিনেন। 
প্রতিবেদনে হিল বা জুতা কেনার আগে তিনটি বিষয় খেয়াল রাখার বিষয়ে জোর দেওয়া হয়।
- বেশিরভাগ মেয়েই মনে করেন, নতুন জুতা একটু টাইট কেনাই ভালো। কারণ জুতা পুরান হলে কিছুটা ঢিলা হয়ে যাবে। আর এ ধারণা থেকে অনেকেই কিছুটা টাইট জুতা কিনে থাকেন। দেখা গেছে, বেশিরভাগ ক্ষেত্রেই সেই জুতাজোড়া অতটা আরামদায়ক হয় না। তাই সবসময় সঠিক পায়ের মাপে জুতা কিনতে হয়।
তাছাড়া সাধারণত বেশিরভাগেরই একটি পা কিছুটা বড় থাকে। তাই জুতা কেনার সময়, যে পা’টি বড় সেটার মাপে জুতা কিনতে হয়।
- কখনোই সকালে জুতা বা হিলজুতা কেনা উচিত নয়। কারণ দিন শেষে পা কিছুটা ফুলে যায়। তাই দিন শেষে বা বিকালে জুতা কেনা হলে, সঠিক মাপের জুতা কেনা যায়।
