বাংলাদেশ গার্হস্থ্য অর্থনীতি কলেজের খাদ্য ও পুষ্টিবিজ্ঞান বিভাগের প্রধান ফারাহ মাসুদা বলেন, “শাকসবজি শরীর সুস্থ রাখে ও রোগ প্রতিরোধ ক্ষমতা বাড়ায়। মৌসুমি ফসল বরাবরই নিজ মৌসুমের রোগের প্রতিরোধক হিসেবে কাজ করে। তাই মৌসুম অনুযায়ী শাকসবজি খাওয়া প্রত্যেকের জন্যই অপরিহার্য।”
শিমের পুষ্টিগুণ সম্পর্কে ফারাহ মাসুদা জানান,
প্রতি ১০০ গ্রাম শিমে ৮৬.১ গ্রাম জলীয় অংশ আছে। এতে খনিজ উপাদান রয়েছে ০.৯ গ্রাম, আঁশ ১.৮ গ্রাম ও ক্যালোরি বা খাদ্যশক্তি রয়েছে ৪৮ কিলো ক্যালোরি। এছাড়াও শিমে ৩.৮ গ্রাম প্রোটিন, ৬.৭ গ্রাম শর্করা, ২১০ মি.গ্রাম ক্যালসিয়াম ও ১.৭ মি.গ্রাম লৌহ পাওয়া যায়।
এইসকল উপাদান ছাড়াও শিম জিঙ্ক, ভিটামিন সি ও নানা রকম খনিজ উপাদানে সমৃদ্ধ।
শিমে রয়েছে নানান উপকারিতা।
* রোগ প্রতিকার ও রোগ প্রতিরোধের ক্ষমতা আছে।
* খনিজ উপাদানে সমৃদ্ধ হওয়ায় শিম চুল পড়া কমাতে সাহায্য করে ও চুলের স্বাস্থ্য ভালো রাখে।
* কোষ্ঠকাঠিন্য দূর করে ও কোলন ক্যান্সার প্রতিরোধ করে।
* গর্ভবতী মহিলা ও শিশুর অপুষ্টি দূর করতে শিম বেশ উপকারী।
* নিয়মিত শিম খেলে তা ত্বকের আর্দ্রতা ধরে রাখতে সাহায্য করে।
* শিমে সিলিকনজাতীয় উপাদান থাকে যা হাড় সুগঠিত করে।
* কোলেস্টেরলের মাত্রা কমাতে ও শর্করার মাত্রা নিয়ন্ত্রণ করে ডায়াবেটিস নিয়ন্ত্রণে রাখতে শিম সাহায্য করে।
* নিয়মিত শিম খেলে হৃদরোগের ঝুঁকি অনেকটাই কমে আসে।
* শিমের ফুল রক্ত আমাশয় দূর করতে সাহায্য করে।
* শিমের দানায় ভিটামিন বি সিক্স ভালো পরিমাণে থাকায় তা স্নায়ুতন্ত্র সুস্থ রাখে ফলে স্মৃতিশক্তি বৃদ্ধি পায়।
