ওটসের এমনই অসংখ্য পুষ্টিগুণ রয়েছে যা অনেকেরই জানা নেই। তাই সকলেরই খাবারের তালিকায় ওটস রাখা উপকারী। ওটসের এমনই কিছু পুষ্টিগুণের বিষয়ে উল্লেখ করা হয় স্বাস্থ্যবিষয়ক ওয়েবসাইটের একটি প্রতিবেদনে।
পুষ্টিগুণে ভরপুর
ওটসে রয়েছে প্রচুর পরিমাণে ফাইবার, লৌহ, প্রোটিন, ভিটামিন বি। বিশেষত ওটসে রয়েছে ভিটামিন বি ১ যা শরীরে কার্বোহাইড্রেট হজমে সাহায্য করে। তাছাড়া প্রতি গ্রাম ওটসে রয়েছে প্রচুর ক্যালসিয়াম, লৌহ, ম্যাগনেসিয়াম, জিঙ্ক, কপার, ম্যাঙ্গানিজ, থিয়ামিন, ভিটামিন ই ইত্যাদি। যা অন্যান্য শস্যজাতীয় খাবারের তুলনায় বেশি।
কম পরিমাণে ফ্যাট
ওটসে প্রাকৃতিকভাবে ফ্যাটের পরিমাণ কম থাকে। তাছাড়াও রয়েছে উপকারী ফ্যাটি অ্যাসিড।
কোলেস্টেরল কমায়
ওটসে রয়েছে বেটা গ্লুকান নামক বিশেষ ধরনের ফাইবার যা শরীরে কোলেস্টেরলের পরিমাণ কমাতে কার্যকর ভূমিকা পালন করে। প্রতিদিন এক বোল বা তিন গ্রাম ওটস খেলে তা প্রায় আট থেকে ২৩ শতাংশ কোলেস্টেরল কমাতে সাহায্য করে।
হৃদপিণ্ডের জন্য উপকারী ওটস
রয়েছে বিশেষ ধরনের অ্যান্টিঅক্সিডেন্ট উপাদান যা ‘এলডিএল কলেস্টেরল’য়ের ক্ষতি হওয়ার ঝুঁকি কমায়। আর এতে হৃদরোগের ঝুঁকিও কমে।
রক্তচাপ নিয়ন্ত্রণ
অতিরিক্ত মানসিক চাপ বা দুশ্চিন্তার কারণে উচ্চ রক্তচাপের ঝুঁকি কমায় ওটস।
রোগ প্রতিরোধ ক্ষমতা বৃদ্ধি
ওটসের বেটা-গ্লুকান শরীরের রোগপ্রতিরোধ ক্ষমতা বৃদ্ধি করে। শরীরে ব্যাক্টেরিয়া জনিত ইনফেকশন রোধেও সাহায্য করে ওটস। তাছাড়া ডায়বেটিসের ক্ষেত্রেও উপকারী। দিনের শুরুতে রক্তের শর্করা নিয়ন্ত্রণে রাখতে উপযোগী খাবার খেয়ে দিন শুরু করলে তা সারাদিন রক্তের শর্করা নিয়ন্ত্রণে রাখতে সাহায্য করে।
ক্যান্সার দমনে সাহায্য করে
ওটসের ফাইটোকেমিকল ক্যান্সার দমনে কার্যকর ভূমিকা পালন করে।
হজমে সাহায্যকারী
হজম ক্ষমতা বৃদ্ধিতে সাহায্য করে ওটস। যারা কোষ্ঠকাঠিন্য বা হজমের সমস্যায় ভুগছেন, তাদের জন্য ওটস দারুণ উপকারী।
ওজন কমাতে সহায়ক
ওটস খাওয়ার পর দীর্ঘসময় পেট ভরা ভাব অনুভূত হয়। ফরে অনেকটা সময় খাওয়ার প্রয়োজন পড়ে না।
