রেসিপি দিয়েছেন ইশরাত সুলতানা খান।
উপকরণ: মুরগির বুকের মাংস ১ টুকরা, সরিষাবাটা ১ টেবিল-চামচ। রসুনবাটা ১ চা-চামচ। সয়া সস ১ টেবিল-চামচ। গোলমরিচের গুঁড়া আধা চা-চামচ। লালমরিচের গুঁড়া ১ টেবিল-চামচ। লবণ সামান্য। তেল ১ টেবিল-চামচ। স্পেশাল বারবিকিউ সস ২,৩ টেবিল-চামচ।
স্পেশাল বারবিকিউ সস তৈরি: তেল ২ টেবিল চামচ। সরিষাবাটা ১ টেবিল চামচ। চিনি অথবা মধু আধা কাপ। রসুন মিহিকুচি ২ চা-চামচ। শুকনা লালমরিচ দানা ফেলে দিয়ে কুচি করা ৬,৭টি। সয়া সস ১/৪ কাপ। ভিনিগার ১ টেবিল চামচ।

