রেসিপি দেখে পরিমাণ মতো সব মিশিয়ে ফ্রিজে রাখলেই হয়ে যাবে এই কেক। চমৎকার ওরিও চিজ কেকের রেসিপি দিয়েছেন আতিয়া হোসেন তনি।
উপকরণ
১০ থেকে ১২টি ওরিও বিস্কুট (নিচের বেইজের জন্য)। আরও ছয় থেকে ১০টি ওরিও বিস্কুট অথবা ইচ্ছামতো উপরে সাজিয়ে দেওয়ার জন্য। ২ টেবিল-চামচ গলিয়ে নেওয়া মাখন। ২০০ মিলি হুইপিং ক্রিম। আধা কাপ ক্রিম চিজ। ২ টেবিল-চামচ আইসিং সুগার। আধা চা-চামচ ভ্যানিলা এসেন্স। স্প্রিংফর্ম (আলাদা করা যায় এমন একটি প্যান বাজারে পাবেন) বা কেক প্যান।
পদ্ধতি
বেইজ তৈরি
প্রথমে ওরিও বিস্কুটগুলো একটি প্লাস্টিকের প্যাকেটে নিয়ে ভারি কিছু দিয়ে গুঁড়া করে নিতে হবে। এরপর বাটিতে নিয়ে এরসঙ্গে মাখন ভালো মতো মিশিয়ে কেক প্যানে ঢেলে চেপে চেপে সমান করে দিতে হবে। এটাই বেইজ। এরপর ফ্রিজে রেখে দিন।
কেক তৈরি


এরপর অন্য একটি পাত্রে এই মিশ্রণ কিছুটা আলাদা করে রেখে বাকি মিশ্রণে কিছু ওরিয় বিস্কুট ভেঙে দিন।
এখন এই মিশ্রণ আগে তৈরি করে রাখা বেইজের উপর দিয়ে স্প্যাচুলা দিয়ে সমান করে ছড়িয়ে দিন।
আলাদা করে রাখা হুইপিং ক্রিম আর চিজের মিশ্রণ উপরে ছড়িয়ে দিন সমান করে। ফ্রিজে চার থেকে ছয় ঘণ্টার জন্য রেখে দিন।
তারপর স্প্রিং খুলে মোল্ড সরিয়ে উপরে ওরিয় বিস্কুট দিয়ে সাজিয়ে পরিবেশন করুন।
সমন্বয়ে: ইশরাত মৌরি।
অরেঞ্জ কেক
ফ্রুট কেক
রেড ভেলভেট কেক
বানানা মার্বেল কেক
হার্ট চকলেট কেক
রেইনবো কেক
