পোশাক কিনতে গিয়ে অনেক সময়ই দোটানায় ভুগতে হয়। অথচ নিজের কী প্রয়োজন তা জানা থাকলে কেনাকাটায় খুব বেশি সময় ব্যয় করতে হয় না।
মিরর ডটকো ডটইউকে’র এক প্রতিবেদনে আরামদায়ক এবং শারীরিক গঠনের সঙ্গে মানিয়ে পোশাক বাছাইয়ের কিছু টিপস দেওয়া হয়। অন্যের সামনে নিজেকে আত্মবিশ্বাসীভাবে তুলে ধরতেও সঠিক পোশাক বেছে নিতে হয়।


আপেল আকৃতির শরীর যাদের তাদের, পেটে মেদের পরিমাণ বেশি থাকে। তাদের উচিত ঢোলা কাপড় বেছে নেওয়া, যা পেটের কাছে এঁটে থাকবে না। ছোট হাতার ও লম্বায় ছোট পোশাক তাদের জন্য মানানসই।
সোজা আকৃতি
যাদের শরীরের উপরের এবং নিচের অংশ অনেকটা সমান তাদের এমন পোশাক বেছে নেওয়া উচিত যাতে দৈহিক গঠন ‘কার্ভি’ মনে হয়। এক্ষেত্রে নিচের দিকে ফোলানো, ‘স্লিমিং শোল্ডার’ ইত্যাদি পোশাক বেছে নেওয়া যেতে পারে।
বালুঘড়ির মতো গঠন


নাশপাতির আকৃতি
নাশপাতির মতো দৈহিক গঠন যাদের তাদের শরীরের নিচের অংশে মেদের পরিমাণ বেশি থাকে। অন্যদিকে কাঁধ এবং কোমর পর্যন্ত চিকন থাকে। তারা চাইলেই স্লিভলেস পোশাক বেছে নিতে পারেন। তাছাড়া তাদের জন্য লম্বা স্কার্ট বেশ ভালো। এতে তাদের নিচের মোটাভাব অতোটা চোখে পড়বে না।
গরমে পোশাকের রং
বর্ষায় যেমন পোশাক
