আর এই তথ্য গবেষণা করে বের করছেন একদল ফরাসি গবেষক।
তাদের গবেষণায় দেখা গেছে, যেসব পুরুষ মসলাদার খাবার বেশি খেতে ভালোবাসেন তাদের শরীরে টেসটসটেরনের মাত্রা বেশি থাকে। আর এই টেসটসটেরন নাকি যৌন ক্রিয়ায় সহায়ক। 
১৮ থেকে ৪৪ বছরের ১১৪ জন পুরুষের ওপর ইউনিভার্সিটি অব গ্রনবেলের বিজ্ঞানীরা এই নিরীক্ষা চালান।
তাদেরকে মসলাদার ম্যাশ পটাটো (আলু ভর্তা) খেতে দেওয়া হয় ঝাল সস আর লবণ দিয়ে। কারা বেশি ঝাল সস দিয়ে খাবার খায় সেদিকে গবেষকরা নজর রাখেন। আর যারা বেশি ঝাল সস দিয়ে খাবার খেয়েছেন তাদের লালা সংগ্রহ করেন টেসটসটেরনের মাত্রা নিরূপণ করার জন্য।
তারা দেখতে পান যে ঝাল সস ও টেসটসটেরনের মাত্রার সঙ্গে পরিষ্কার অর্থেই পারস্পরিক সম্পর্ক রয়েছে।
এই গবেষণাপত্রের সহরচয়িতা লরেন্ত বেগের উদ্ধৃতি দিয়ে টেলিগ্রাফ জানায়, নিয়মিত মসলাদার খাবার টেসটসটেরনের মাত্রা বাড়িয়ে দিতে সাহায্য করে। তবে এটা কীভাবে কাজ করে তা এখনও জানা যায়নি। 
টেসটসটেরনের মাত্রা কমের সঙ্গে আলস্য অথবা বিষাদগ্রস্ত হওয়ার সম্পর্ক রয়েছে।
'সাম লাইক ইট হট' নামের এই গবেষণাপত্র ফিজিওলজি অ্যান্ড বিহেইভিয়র জার্নালে প্রকাশিত হয়েছে।
অফিসে প্রেম!
'ডেইট' সফল করার পন্থা
