রেসিপি দিয়েছেন বীথি জগলুল।
উপকরণ: সরিষা ফুল আড়াইশো গ্রাম। পেঁয়াজ মিহিকুচি (কিমা) বড় ২টি। কাঁচামরিচ মিহিকুচি ২,৩টি (ঝাল বুঝে)। আদা ও রসুন বাটা ১ চা-চামচ করে। হলুদগুঁড়া আধা চা-চামচ। ধনে ও জিরা গুঁড়া আধা চা-চামচ করে। আস্ত জিরা ১ চা-চামচ। চালের গুঁড়া প্রয়োজন মতো। লবণ স্বাদ মতো। সরিষার তেল ভাজার জন্য।
পদ্ধতি: ঝাঁজরিতে ফুল নিয়ে ধুয়ে পানি ঝরিয়ে কুচি করে নিন।


আঁচ মৃদু থেকে মাঝারি করে সময় নিয়ে মচমচে হওয়া পর্যন্ত এবং দুপিঠ সোনালি করে ভাজবেন। তাপর পেপার টাওয়েলের ওপর উঠিয়ে রাখুন।
একইভাবে সব ভেজে নিন।
