রূপচর্চাবিষয়ক একটি ওয়েবসাইটে চুল বাঁধার আগে করণীয় কিছু বিষয় উল্লেখ করা হয়। এখানে সেগুলো তুলে ধরা হলো।
- চুল দেখতে বেশি লাগবে এমন শ্যাম্পু কন্ডিশনার ব্যবহার করে চুল ধুয়ে নিতে হবে। তবে চুল ধোয়ার সময় না পেলে চুল বেঁধে নেওয়াই বুদ্ধিমানের কাজ।
- চুল বাঁধার আগে চুলে খানিকটা সিরাম মেখে নিতে হবে। চুল দু’ভাগ করে নিয়ে এরপর চুলে সিরাম লাগিয়ে নিতে হবে। এতে চুল নিয়ন্ত্রণে থাকবে এবং বিভিন্ন স্টাইল করতে সুবিধা হবে।
- চুল বাঁধলেই তো আর হবে না, তা যেন দীর্ঘ সময় একই রকম থাকে এবং চুল খুলে না যায় সে ব্যবস্থাও করতে হবে। আর চুলের বিভিন্ন স্টাইল ধরে রাখতে সব থেকে বেশি উপযোগী ববি পিন। আড়াআড়িভাবে একটা ববি পিনের উপর অন্যটি আটকে দিলে তা শক্তভাবে চুল আটকে রাখবে। পাশাপাশি ববি পিনে খানিকটা হেয়ার স্প্রে করলেও তা চুলের সঙ্গে আটকে থাকবে।
- চুলের স্টাইল অনেকটা সময় ধরে রাখতে এবং উশকোখুশকোভাব দূর করতে হেয়ার স্প্রে বা হালকা জেল ব্যবহার করা যায়। চুল বাঁধার পর হেয়ার স্প্রে ব্যবহারে চুল এলোমেলো হবে না। তাছাড়া চুল বাঁধার আগে সিরাম ব্যবহার করলেও চুল গোছানো থাকবে।
