রূপচর্চাবিষয়ক একটি ওয়েবসাইটে জানানো হয়, ত্বকের স্বাভাবিক আভা থেকে হাঁটু ও কনুইয়ের রং গাঢ় হওয়ার কারণ হতে পারে চামড়ার রঞ্জক পদার্থের পরিবর্তন।
এই কালচেভাব দূর করার জন্য রয়েছে প্রাকৃতিক প্রতিকার।
- প্রাকৃতিক ব্লিচ হিসেবে লেবু বেশ জনপ্রিয়। শরীরের অসম রংয়ের সমস্যা দূর করতে লেবু ব্যবহার করা যেতে পারে। লেবুর রস কনুই এবং হাঁটুতে লাগিয়ে হালকা হাতে মালিশ করুন ১০ মিনিট। এরপর কুসুম গরম পানি দিয়ে ধুয়ে ফেলতে হবে। টানা কয়েক সপ্তাহ এই পন্থা অনুসরণে উপকার পাওয়া যাবে।
- দই ত্বকের জন্য বেশ উপকারী ময়েশ্চারাইজার। টক দই, ত্বক কোমল রাখার পাশাপাশি রং উজ্জ্বল করতেও সাহায্য করে। পরিমাণ মতো টক দইয়ের সঙ্গে ভিনিগার এবং চালের গুঁড়া মিশিয়ে হাঁটু ও কনুইতে মেখে ১৫ মিনিট অপেক্ষা করতে হবে। এরপর হালকা হাতে ঘষে কুসুম গরম পানি দিয়ে ধুয়ে ফেলুন।
- দুধের সঙ্গে পরিমাণ মতো বেইকিং সোডা মিশিয়ে ঘন পেস্ট তৈরি করে নিতে হবে। হাঁটু এবং কনুইয়ে লাগিয়ে পাঁচ মিনিট অপেক্ষা করে ধুয়ে ফেলুন। সপ্তাহে দুদিন ব্যবহারে উপকার পাওয়া যাবে।
