কোফতার জন্য: ডিম সিদ্ধ ৪টি। শুকনা সয়া বড়ি ২ কাপ। দুটি পাউরুটি (২ টেবিল-চামচ দুধে ভিজিয়ে রাখা)। পেঁয়াজবাটা ১/৪ কাপ। আদাবাটা ১ টেবিল-চামচ। রসুনবাটা ১ টেবিল-চামচ। মরিচগুঁড়া ১ টেবিল-চামচ। গরম মসলা ১ চা-চামচ। জিরাগুঁড়া আধা চা-চামচ। সাদা গোলমরিচ-গুঁড়া ১/৪ চা-চামচ। কালো গোলমরিচ ১/৪ চা-চামচ। লবণ আধা চা-চামচ বা পরিমাণ মতো।
কোফতা তৈরির পদ্ধতি: প্রথমে একটি সস প্যানে ভরে পানি ফুটতে দিন। পানি ফুটে উঠলে এতে এক চা-চামচ লবণ ও সয়া বড়ি ঢেলে ঘড়ি ধরে সাত মিনিট ফুটান।
একটি ঝাঁঝরির ওপর পরিষ্কার কাপড় বিছিয়ে সয়া বড়িগুলো ঢেলে পানি ঝরিয়ে নিন। একটু ঠাণ্ডা হলে কাপড় মুড়িয়ে হাত দিয়ে চেপে যতটা সম্ভব পানি বের করুন।
এই প্রক্রিয়ায় আরও একবার পানি ঝরিয়ে নিন।
ছেঁকে নেওয়া সয়াবড়ি, মরিচগুঁড়া, জিরাগুঁড়া, গরম মসলা, সাদা ও কালো গোলমরিচ গুঁড়া এবং লবণ দিয়ে কচলে  মাখিয়ে নিন।
একটি কড়াইতে এক চা-চামচ তেল নিয়ে এতে পেঁয়াজ, আদা ও রসুন বাটা দিয়ে কষিয়ে, মাখানো সয়া মিশ্রণ ঢেলে দিন।


গরম ডুবো তেলে সাবধানে প্রত্যেকটি ডিম ছেড়ে বাদামি করে ভেজে নিন। তুলে রাখার প্লেটে পেপার টাওয়েল বা টিস্যু দিয়ে রাখলে বাড়তি তেল শুষে নেবে।
ডিম-সয়ার বলগুলো ঠাণ্ডা হয়ে এলে তা লম্বালম্বিভাবে দু টুকরো করে কেটে ফেলুন।
গ্রেইভি বা ঝোলের জন্য: সয়াবিন তেল ১/৪ কাপ। রসুনবাটা ১ চা-চামচ। আদাবাটা ১ চা-চামচ। পেঁয়াজবাটা ১ টেবিল-চামচ। টমেটো-কুচি আধা কাপ। মরিচগুঁড়া আধা চা-চামচ। গরম মসলাগুঁড়া ১ চা-চামচ। টমেটো পিউরি বা সস ১/৩ কাপ। তেঁতুলে মাড় এক টেবিল-চামচ। গরম পানি দুই কাপ। শুকনা-মরিচ ২টি। জিরাগুঁড়া আধা চা-চামচ। চিনি আধা চা-চামচ।
অন্য একটি পাত্রে তেল গরম করে এর মধ্যে পেঁয়াজ আদা ও রসুন দিন।


