মামুন বিরিয়ানি হাউস
৮৩ নাজিমুদ্দিন রোড, ঢাকা।
বিশেষ খাবার : তেহারি। আস্ত মোরগ দিয়ে বল (প্রতি মাসের ৪ তারিখ)। বিরিয়ানি দাম ৩শ’ টাকা।
খোলা : সকাল ৮ থেকে রাত ৩টা।
আফতাব হোটেল
৮৩ নাজিমুদ্দিন রোড, ঢাকা।
বিশেষ খাবার : বাসমতি চালের ভুনা খিচুড়ি, দাম ১শ’ টাকা। ইলিশ খিচুড়ি ১৫০ টাকা। রুই খিচুড়ি ১৫০।   
খোলা : দুপুর ১২ থেকে রাত ৪টা।
ক্যান্ডেল লাইট রেস্টুরেন্ট
৮৩ নাজিমুদ্দিন রোড, ঢাকা।
বিশেষ খাবার : মাছ ৩৬০ টাকা। মিক্সড ভেজিটেবল ২৮০ টাকা। ফ্রাইড রাইস ২৪০ টাকা।
খোলা : দুপুর ১২টা থেকে রাত ১১টা।
নিরব হোটেল এন্ড রেস্টুরেন্ট
১১৩/২ নাজিমুদ্দিন রোড, ঢাকা।
বিশেষ খাবার : ব্রেইন ফ্রাই ও বিভিন্ন ধরনের ভর্তা-ভাজি।
খোলা : দুপুর ১২টা থেকে রাত ১২টা। রমজান মাস বন্ধ।
রয়্যাল হোটেল কাচ্চি
লালবাগ চৌরাস্তার মোড়।
বিশেষ খাবার : জাফ্রান বাদামের শরবত, চিকেন টিক্কা, লাবাঙ।
খোলা : সকাল ৯টা থেকে রাত ১২টা।
শমসের আলীর ভুনা খিচুড়ি
বংশাল চৌরাস্তা মোড়।
বিশেষ খাবার :  ভুনা খিচুড়ি।
খোলা : সকাল ৯টা থেকে রাত ১২টা।
মিয়াজি বিরিয়ানি
৩০/এ কাজী আলাউদ্দিন রোড, নাজিরা বাজার ঢাকা ১০০০।
খোলা : সকাল ১০টা থেকে রাত ১২টা।
বিসমিল্লাহ বটি কাবাব ঘর
৭/বি কাজী আলাউদ্দিন রোড ঢাকা ১০০০।
খোলা : দুপুর ১২ টা থেকে রাত ১২টা।
হাজীর বিরিয়ানি
৭০ কাজি আলাউদ্দিন রোড, নাজিরা বাজার, ঢাকা ১০০০।
বিশেষ খাবার : বিরিয়ানি বক্স ১৫০।
খোলা : ১২টা থেকে রাত ১০টা।
হোটেল আল রাজ্জাক
৩০ শহীদ নজরুল ইসলাম স্মরণী, ঢাকা।
বিশেষ খাবার : খাসির গ্লাসি ও কাচ্চি।
খোলা : দুপুর ১২টা থেকে রাত ১০ টা।
লালবাগের ভাটের মসজিদের কাবাব বন
৩৪/এ লালবাগ রোড, ঢাকা।
বিশেষ খাবার : কাবাব বন।
খোলা : দুপুর ১২টা থেকে রাত ১০টা।
কালাম’স কিচেন
৩৪/এ জনসন রোড, ঢাকা।
বিশেষ খাবার : ফ্রাইড রাইস, দাম ২২০ টাকা।
খোলা : সকাল ১০টা থেকে রাত ১২টা।
কাশ্মির কাচ্চি
৩৪/এ পাটুয়াটুলী, ঢাকা।
বিশেষ খাবার : কাচ্চি দাম ১২০ টাকা।
খোলা : দুপুর ১২টা থেকে রাত ১০টা।
বুদ্ধুর পুরি
ডালপট্টি মোড় সুত্রাপুর, ঢাকা।
বিশেষ খাবার : পুরি দাম ২ ও ৪ টাকা।
খোলা : সন্ধ্যা থেকে রাত ১০টা।
বিউটির লাচ্ছি
৩০/এ জনসন রোড, ঢাকা।
বিশেষ খাবার : লাচ্ছি ও লেবুর শরবত।
খোলা : সকাল ১০টা থেকে রাত ১২টা।
কলকাতা কাচ্চি ঘর
১৪ আবুল হাসনাত রোড, সাতরওজা ঢাকা।
বিশেষ খাবার : বাসমতি চালের কাচ্চি, দাম ১২০ টাকা।
খোলা : সকাল ১০টা থেকে রাত ১২টা।
মাখন বিরিয়ানি
রায় সাহেব বাজার মোড়।
বিশেষ খাবার : বিরিয়ানি, দাম ১২০ টাকা।
খোলা : সকাল ৮টা থেকে রাত ১২টা।
আল্লারদান বিরিয়ানি
২২ ডিস্টিলারি রোড গেন্ডারিয়া, ঢাকা ১২০৪।
বিশেষ খাবার : বিরিয়ানি।
খোলা থাকে : দুপুর ১২টা থেকে রাত ৩টা।
রহমানের কাবাব
২৮ ডিস্টিলারি রোড, গেন্ডারিয়া, ঢাকা।
বিশেষ খাবার : কাবাব।
খোলা : দুপুর ১২টা থেকে রাত ১২টা।
কাশ্মির কাচ্চি
৩৪/এ পাটুয়াটুলি, ঢাকা।
বিশেষ খাবার : কাচ্চি, দাম ১২০ টাকা।
খোলা : দুপুর ১২টা থেকে রাত ১২টা।
ঝুনুর পোলাও
১১ নারিন্দা রোড ঢাকা।
বিশেষ খাবার : পোলাও
খোলা : দুপুর ১২টা থেকে রাত ১২টা।
সুলতানের চা
ভিক্টোরিয়া পার্ক, সদরঘাট, ঢাকা।
বিশেষ খাবার : বিট লবণের লাল চা ও গুড়ের চা।
নুরানি শরবত
চকবাজার জামে মসজিদের নিচে
খোলা : দুপুর ১২টা থেকে রাত ১২টা।
সোনা মিয়ার দই
৩৩/এ রজনি চৌধুরী রোড, গেন্ডারিয়া, ঢাকা।
বিশেষ খাবার : টক ও মিষ্টি দই।
খোলা : সকাল ১০টা থেকে রাত ১২টা।
বিউটি বোর্ডিং
১ শ্রীশ দাস লেন, বাংলাবাজার ঢাকা।
বিশেষ খাবার : সরষে ইলিশ, বিভিন্ন ধরনের সবজি ও মাছ।
