লাইফস্টাইলবিষয়ক একটি ওয়েবসাইটে সাধারণ দাগ দূর করার কয়েকটি সহজ উপায় উল্লেখ করা হয়।
দ্রুত দাগ দূর করার উপায়
সুন্দর পোশাক পরে দাওয়াতে যাওয়ার পর অনেক সময় অসাবধানতার কারণে কাপড়ে সুপ বা খাবার পড়ে দাগ লেগে যেতেই পারে। এতে দুশ্চিন্তা করার কিছু নেই।
হাতের কাছে ক্লাব সোডা বা সোডাপানীয় থাকলে তাতে একটি পরিষ্কার কাপড় ভিজিয়ে দাগের উপর ঘষে নিলে দাগ অনেকটাই উঠে যাবে।
ঘাসের দাগ
মাঠে খেলাধুলার করতে গিয়ে বা বসে আড্ডা দিয়ে ওঠার সময় খেয়াল করলেন কাপড়ে ঘাসের দাগ বসে গেছে। এই দাগ দূর করতে বেশ কসরত করতে হয়। তবে একটি পুরানো টুথব্রাশ এবং সাদা পেস্ট ব্যবহার করেই এই দাগ দূর করা যায়।
প্রথমে দাগের উপর কিছুটা টুথপেস্ট নিয়ে ভেজা ব্রাশ দিয়ে দাগের উপর ঘষে নিতে হবে। যতক্ষণ না পুরোপুরি দাগ উঠে যাচ্ছে ততক্ষণ একই প্রক্রিয়ায় চেষ্টা করে যেতে হবে। এরপর সাধারণভাবে কাপড়টি ধুয়ে ফেললেই দাগ চলে যাবে।
রক্তের দাগ
হঠাৎ কেটে গেলে বা কোনো ক্ষত থেকে কাপড়ে রক্ত লাগতেই পারে। যা শুকিয়ে গেলে ওঠাতে বেশ বেগ পেতে হয়।
ওষুধ বা কেমিকলের দোকান থেকে থ্রি পার্সেন্ট হাইড্রোজেইন পারঅক্সাইড যোগাড় করুন। প্রথমে দাগ লাগা কাপড়টি হাইড্রোজেন পারঅক্সাইডে ভিজিয়ে রাখতে হবে। এরপর নখ বা মাখন লাগানোর ছুরি দিয়ে দাগের অংশটি ঘষে নিতে হবে। এরপর আরও খানিকটা হাইড্রোজেন পারঅক্সাইড দিয়ে ধুয়ে নিতে হবে। রক্ত শুকিয়ে যাওয়ার আগে ধুয়ে ফেললে ভালোভাবে দাগ উঠে যাবে।
এছাড়া আরেকটি উপায় হচ্ছে, দাগ লাগা কাপড়টি পানিতে ভিজিয়ে দাগের উপর লবণ ছড়িয়ে দিন। ভালোভাবে ঘষে নিলে লবণ দাগ দূর করতে সাহায্য করবে। এরপর সাধারণ সাবান বা ডিটারজেন্ট দিয়ে কাপড় ধুয়ে ফেলতে হবে।
কলারে দাগ
ঘামের কারণে শার্ট বা টি-শার্টের কলারে হলদে দাগ হয়ে যায়। এই দাগ দূর করতে দারুণ কার্যকর শ্যাম্পু। যেকোনো শ্যাম্পু নিয়ে কলারে লাগিয়ে ভালোভাবে ঘষে নিতে হবে। এরপর ভালোভাবে কাপড় ধুয়ে ফেলতে হবে।
লিপস্টিকের দাগ
মেইকআপের সময় অসাবধানতায় কাপড়ে লিপস্টিকের দাগ লেগে যেতে পারে। এরজন্য একটি সাদা রুটি নিয়ে ভিতরের সাদা অংশ গুঁড়া করে নিন। তারপর রুটির গুঁড়া লিপস্টিকের দাগের উপর ঘষে নিতে হবে। একটা সময় লিপস্টিক পুরোটাই উঠে আসবে। উঠে গেলে কাপড়ে লেগে থাকা গুঁড়া ঝেড়ে ফেলুন।
গ্রিজের দাগ
কাপড়ে গ্রিজ লেগে গেলে দাগের উপরে কর্নফ্লাওয়ার ছড়িয়ে দিন। কিছুক্ষণ এভাবেই রাখুন যেন কর্নফ্লাওয়ার গ্রিজ শুষে নিতে পারে। তারপর কর্নফ্লাওয়ার ঝেরে ভালোভাবে ধুয়ে ফেললেই হবে।
তেলের দাগ
মাথায় তেল দিয়ে ঘুমালে বা খাবার খাওয়ার সময় কয়েক ফোঁটা তেল পড়ে সাধের বালিশের কভার বা কাপড় নষ্ট হয়েছে। চিন্তা নেই। আছে সহজ উপাদান।
বালিশের কভারে লেগে থাকা তেলের দাগ দূর করতে সাধারণ শ্যাম্পু দিয়ে ধুয়ে ফেললেই হবে। পোশাকেও তাই।
এছাড়া মাথায় তেল দিয়ে ঘুমানোর সময় বালিশের উপর আলাদা একটি কাপড় দিয়ে ঘুমালে বালিশের কভারে তেলের দাগ লেগে যাওয়ার সম্ভাবনা থাকবে না।
কালির দাগ
কলমের কালি কাপড়ে লেগেছে! এই কালি দূর করতে অ্যালকহল ঘষে নিন। তাছাড়া একটি স্পঞ্জ দুধে ভিজিয়ে স্পঞ্জটি দাগের উপর ঘষে নিলেও কালির দাগ উঠে যাবে।
চায়ের দাগ
অসাবধানতায় কাপড়ে চা পড়ে যেতেই পারে। তবে খানিকটা চিনি ব্যবহার করেই এ বেপরোয়া দাগ দূর করা যায়।
খানিকটা পানিতে বেশি করে চিনি গুলিয়ে, এই পানি কাপড় বা টেবিলের যেখানে চা পড়েছে সেখানে ছড়িয়ে কিছুক্ষণ ভিজিয়ে রাখতে হবে। যতটা বেশি চিনি ব্যবহার করা হবে তত জলদি দাগ উঠে আসবে।
এরপর সাধারণ সাবান বা ডিটারজেন্ট দিয়ে কাপড় ধুয়ে ফেলতে হবে।
গরমের সাজপোশাক
শীতকাপড়ের সঠিক সংরক্ষণ
গর্ভকালীন পোশাক
