স্টাইলবিষয়ক একটি ওয়েবসাইটে চুলে তাৎক্ষণিক ফোলাভাব আনতে বেশ কার্যকর কিছু উপায় উল্লেখ করা হয়। এখানে সেসব বিষয় তুলে ধরা হল।
লেয়ার কাট: চুলের স্টাইল বা ছাঁট চুলের ধরনে পরিবর্তন আনতে বেশ কার্যকর। তাই যাদের চুল বেশি লেপ্টে থাকে মাথার সঙ্গে তাদের জন্য লেয়ার কাট বেশ উপযোগী। এতে চুল দেখতে কিছুটা ফোলা লাগবে।
ভলিউমিইজিং শ্যাম্পু ব্যবহার: যাদের চুল বেশি লেপ্টে থাকে তারা ‘ভলিউমাইজিং শ্যাম্পু’ বেছে নিতে পারেন। এতে চুল ফোলা লাগবে এবং বাউন্সি হবে।
চুল ঢিলা করে বাঁধা: গরমের মৌসুমে চুল না বেঁধে ঘর থেকে বের হওয়া দুষ্কর। তবে সবসময় চুল অতিরিক্ত শক্ত করে বেঁধে রাখলে চুলের গোড়া ক্ষতিগ্রস্ত হয়। আর এতে চুল আরও লেপ্টে থাকবে। তাই চুল মাঝে মধ্যে হালকাভাবে বেঁধে রাখতে হবে।
চুল উল্টে ব্লো-ড্রাই করা: চুল জলদি শুকানোর ক্ষেত্রে তোয়ালে দিয়ে বেশি ঘষাঘষি না করে সুতির তোয়ালে দিয়ে হালকাভাবে মুছে নিতে হবে। এরপর মোটা দাঁতের চিরুনি দিয়ে আঁচড়ে চুল উল্টে নিয়ে ব্লো-ড্রাই করে শুকিয়ে নিলে স্বাভাবিকের তুলনায় ফোলা লাগবে। তবে চুল ড্রায়ার দিয়ে শুকানোর পর ঠাণ্ডা হওয়া পর্যন্ত অপেক্ষা করে এরপর চুল আঁচড়ে নিতে হবে।
