মানসিকরোগ-বিষয়ক একটি ওয়েবসাইটের প্রতিবেদনে বেশ কয়েকটি গবেষণার ফলাফল থেকে জানানো হয়, ‘দেখা গেছে কোনো বিষয় নিয়ে আমরা যতটা না মানসিক চাপের মধ্যে রয়েছি তার থেকেও বেশি চিন্তিত থাকি কীভাবে মানসিক চাপ দূর করা যায়- সেটা নিয়ে।’
প্রতিবেদনে আরও উল্লেখ করা হয়, যারা অতিরিক্ত মানসিক চাপের মধ্য দিয়ে যান তাদের হৃদ-স্পন্দনের পরিমাণ তুলনামূলক কম থাকে। ফলে হৃদরোগের ঝুঁকি বৃদ্ধি পায়।
তাই মানসিক চাপ কমানোর জন্য চেষ্টা করতে হবে। আর সেজন্য রয়েছে বেশ কিছু সহজ কিন্তু কার্যকর পন্থা।
মেডিটেশন বা ধ্যান: মানসিক চাপ কমাতে অত্যন্ত কার্যকর ও পুরাতন উপায়। এটি মনের নেতিবাচক চিন্তা দূর করতে সাহায্য করে এবং মনোযোগ বৃদ্ধিতে সহায়তা করে। সব থেকে ভালো দিক হল যেকোনো স্থানে ধ্যান করা যায়। পছন্দ মতো জায়গায় চোখ বন্ধ করে প্রিয় কোনো স্মৃতি মনে করা বা স্থান কল্পনা করার মাধ্যমেই মেডিটেশন করা যায়।
সামাজিকতা: একাকিত্ব- মানসিক চাপ ও হতাশা বাড়িয়ে তোলে। তাই পরিবার ও বন্ধুর সঙ্গে সময় কাটানোর চেষ্টা করতে হবে। বন্ধু বা আপন কারও সঙ্গে সমস্যা নিয়ে আলাপ করলে সমস্যা নিয়ে দুঃশ্চিন্তা অনেকটাই কমে আসে।
গবেষণায় দেখা গেছে যারা একা থেকে অভ্যস্ত তাদের মধ্যে হতাশা বৃদ্ধি পেতে থাকে, এটি অনেকটা ধূমপানের মতোই রূপ নেয়। তাই ভালো থাকতে বন্ধু ও সামাজিকভাবে মেলামেশা বাড়াতে হবে।
খাওয়া দাওয়া করা: খালি পেটে হতাশা দূর করা সম্ভব নয়। তাই ভালো ও পুষ্টিকর খাদ্যাভ্যাস গড়ে তোলা উচিত। এক্ষেত্রে তাজাশাক, ওটমিল, দই, বাদাম, ডার্ক চকলেট, বেরিজাতীয় ফল বেশ উপযোগী।
পর্যাপ্ত ঘুম: ঘুম শরীরের বিশ্রামের পাশাপাশি মানসিকভাবেও শান্তি দেয়। ঘুমের সময় মস্তিষ্ক সব অগোছালো চিন্তাকে গুছিয়ে নিতে সাহায্য করে। তাই হতাশা কমাতে ভালো মতো ঘুমানো দরকার।
