‘কালার কারেকশন’ বা রংয়ের ভুল শুধরে নেওয়া মেইকআপের অন্যতম একটি কৌশল। ত্বকে যে অবাঞ্ছিত রং রয়েছে তা অন্য রং ব্যবহার করে লুকিয়ে ফেলাই হল ‘কালার কারেকশন’।
এটি মেইকআপের বেশ আধুনিক একটি পদ্ধতি। ইন্টারনেট এবং ইউটিউবের বদৌলতে যারা মেইকআপ করতে ভালোবাসেন তারা অনেকেই এখন এই বিষয়টি সম্পর্কে অবগত। তবে অনেকেই সঠিকভাবে কালার কারেকটিং বিষয়টি সম্পর্কে জানেন না আর এ কারণেই নানা রকম ভুল হয়ে থাকে। ফলে মেইকআপ সুন্দর হওয়ার বদলে আরও নষ্ট হয়। তাই এ সম্পর্কে আগে ভালোভাবে জেনে নেওয়া উচিত।
‘কালার কারেকশন’ কী এবং ঠিক কীভাবে করতে হয় এ সম্পর্কে পরামর্শ দেন ‘এনভি কসমেটিকস’য়ের কর্ণধার, মেইকআপ-শিল্পী ও প্রশিক্ষক ফারজান মিতু।
ফারজান বলেন, “এই পদ্ধতির মূল উদ্দেশ্য সঠিক রংয়ের প্রসাধনী ব্যবহার করে ত্বকের ‍খুঁতগুলো ঢেকে ফেলা। কালার কারেকশনের জন্য কনসিলার এবং প্রাইমার ব্যবহার করা হয়। শুরুর দিকে শুধু ত্বকের টোনেরই বিভিন্ন শেইডের কনসিলার পাওয়া যেতো। এখন বেগুনি, সবুজ, গোলাপি, হলুদ, কমলা এমনকি সাদা রংয়েরও কনসিলারও পাওয়া যায়। এমন রঙিন কনসিলারগুলো ‘কালার কারেক্টর’ নামে পরিচিত।”
তিনি বলেন, “চোখের নিচের কালি বা মুখের অবাঞ্ছিত দাগ একেক জনের ক্ষেত্রে একেক রকম হয়ে থাকে। তাই নিজের দাগের ধরণ বুঝে রঙিন কনসিলার বেছে নিতে হবে দাগ লুকানোর জন্য”, বললেন মিতু।
চোখের নিচের দাগ বা অন্যান্য দাগ-ছোপ ‘কারেকটিং কনসিলার’ দিয়ে ঢেকে তবেই মেইকআপের জন্য ত্বক প্রস্তুত করে নিতে হবে। তবে দাগ ঢেকে ফেলতে ব্যবহার করতে হবে সঠিক ‘কালার কারেকটিং কনসিলার’। তাই সঠিক রং কীভাবে বেছে নিতে হবে সে সম্পর্কে পরামর্শ দেন তিনি।


যেমন ধরা যাক লালচে ভাব লুকাতে ব্যবহার করতে হবে সবুজ রংয়ের কারেক্টর। অনেকের মুখে লালচে ছোপ বেশি থাকে তারা চাইলে সবুজাভাব প্রাইমার ব্যবহার করতে পারেন মেইকআপের শুরুতে। তাছাড়া ব্রণ বা অন্যান্য লালচে ছোপ ঢেকে ফেলতে অল্প পরিমাণে সবুজ কনসিলার ব্যবহার করা যেতে পারে।
বেগুনি রংয়ের কালার কারেক্টর ব্যবহার করা হয় ত্বকের হলদেটেভাব দূর করার জন্য। কারণ ‘কালার হুইল’য়ে বেগুনির বিপরিত রং হল হলুদ। উজ্জ্বল শ্যামলা থেকে শুরু করে আরও কিছুটা গাঢ় গায়ের রং যাদের, তাদের ক্ষেত্রে চোখের নিচের কালোদাগ এবং ত্বকের অন্যান্য কালচে দাগ ছোপ ঢেকে ফেলতে ব্যবহার করতে হবে কমলা রংয়ের কনসিলার।
যাদের গায়ের রং একটু ফর্সা তাদের অনেকের চোখের নিচের কালি অনেকটা নীলভ বা হালকা সবুজাভাব হয়ে থাকে। অর্থাৎ কিছুটা ফর্সা যারা তাদের অনেকের ক্ষেত্রেই চোখের নিচের কালি বেশি গাঢ় হয় না, তারা গোলাপি রংয়ের কনসিলার ব্যবহার করতে পারেন এই দাগ শুধরে নিতে।
যাদের গায়ের রং অনেকটাই ফর্সা তাদের মুখের হাইলাইটার হিসেবে ব্যবহার করা হয় সাদা কনসিলার। কন্টুয়ারিং ও ব্রোঞ্জার হিসেবে ত্বকের রংয়ের তুলনায় কয়েক শেইড গাঢ় বাদামি রংয়ের কনসিলার ব্যবহার করা উচিত। ত্বকের রংয়ের কনসিলার ব্যবহার করতে হবে হালকা দাগ বা ব্রণ লুকানোর জন্য।


