ভাকুর্তা, মধ্য ভাকুর্তা এবং হিন্দু ভাকুর্তা মিলে পুরো একটা ভাকুর্তা গ্রাম। এই ভাকুর্তা গ্রামকেই বলা হয়ে থাকে গহনার গ্রাম। এখানকার গহনা ও তার ডিজাইনে চলে সারা বাংলাদেশে।


ভাকুর্তা ইউনিয়নের গ্রাম ভাকুর্তা, মধ্যভাকুর্তা ও হিন্দু ভাকুর্তায় রয়েছে প্রায় হাজার পাঁচেক গহনার কারিগর। এসব কারিগর সারাদিন রাত বিভিন্ন ধরন ও নকশার গহনা তৈরিতে ব্যস্ত থাকেন। এখানে দেশি সাধারণ নকশার গহনার পাশাপাশি দেশবিদেশের বিভিন্ন ধরনের নকশাদার গহনাও পাওয়া যায়।
সাধারণ গহনার দোকানের পাশাপাশি দেশের বিভিন্ন ঐতিহ্যবাহি দোকান ঘর যেমন আড়ং, অঞ্জনস বা কে ক্রাফ্‌টও এখান থেকে তাদের গহনা সংগ্রহ করে থাকেন বলে জানা যায়।


