এবার শুধু দেখার পালা। চলছি আর দেখছি, কত সুন্দর এই দেশ আমার। কত চড়াই উৎরাই আর সবুজ বাঁশবন দেখে দেখে এগিয়ে চলা। ওহহো, কোথায় যাচ্ছি তাই তো বলা হয়নি। আমরা দু-বোন মিলে সাজেক যাচ্ছি। বহুদিন ধরে সাজেক নামে গন্তব্যটি মনের মধ্যে লালিত ছিল। তাই গত বছরের শেষ মাসে শেষ দুদিন আগে আমি আর বুশরা শান্তি পরিবহনের বাসে খাগড়াছড়ির উদ্দেশ্যে যাত্রা শুরু করে। পরদিন সকাল আটটায় দিঘিনালা পৌঁছি।
সেখানে নেমেই মনটা ভালো হয়ে গেলো। ততক্ষণে মফিজ ভাই আমাদের জন্য মহেন্দ্র নিয়ে চলে এসেছেন। তার সঙ্গে কথা বলে অটোতে উঠে দিঘিনালার এক আদিবাসি হোটেলে নাস্তা সেরে যাত্রা শুরু করতে করতে দশটা বেজে যায়।


মাইনি নদী দেখে আফসোস হয়, মাসালং নদীতে অল্প জল। এভাবেই পথ থেকে পথে এগিয়ে ঠিক সাড়ে তিন ঘণ্টা পর আমাদের বাহন সাজেকের রুইলুই পাড়া পৌঁছে।
শেষ পর্যন্ত সাজেক চলেই এলাম বলে বুশরা মহেন্দ্র থেকে নেমে পা রাখে রুইলুই পাড়ার মাটিতে। তবে আমরা রুইলুই পাড়ায় থাকবো না আগেই ঠিক হয়ে ছিল। এখানে রাস্তার ধারের এক রেস্তোরাঁয় দুপুরের খাবার খেয়ে আবার মহেন্দ্রতে চাপি। সেখান থেকে কংলাকপাড়া অল্প সময়ের গন্তব্য।


এখানে এক পাংখো পরিবারের সঙ্গে আমাদের সাজেক বসবাসের ব্যবস্থা হয়। কারবারি থান লেয়াং পাংখোয়া ও তার অসাধারণ পরিবারের গল্প আজীবন মনে থাকবে।
চারপাশে পর্যটক কোলাহল নেই। ছিমছাম নিরিবিল পরিবেশ। মফিজ ভাই আমাদের জন্য থাকা-খাওয়ার ভালো ব্যবস্থাই করেছিলেন। শুধু ভালো বলা যাবে না, বলতে হবে অতি-অসাধারণ।


কংলাক পাহাড়ের সর্বোচ্চ উচ্চতায় একবার ঘুরে এসে আমাদের রুমের পাশের ছোট্ট টিলা মতো জায়গা ঘেরা বাঁশঝারে বসে গল্প করি। এভাবেই রাত নামে, সে রাতে আকাশে ছিল আধ ফালি চাঁদ। চাঁদের আলোয় কখন আমরা কম্বলের তলে আশ্রয় নিলাম, সে মনে নেই। তবে, ভোর সাড়ে পাঁচটায় উঠে পড়েছিলাম বেশ মনে আছে।




আমরা সেখানে দাঁড়িয়ে পুরো সাজেক এলাকার অনেক দূর অবধি তাকাই। মনে হয় এ শুধু চেয়ে দেখার দিন। অপার মুগ্ধতা নিয়ে আমরা দুবোন মেঘে ঢাকা সাজেককে চেয়ে শুধু দেখলাম, দেখতেই থাকলাম আর অবাক হলাম!


সাজেক ভ্যালিতে আমাদের খাগড়াছড়ি হয়ে যেতে হলেও আসলে সাজেক পড়েছে রাঙামাটি জেলায়। তবে জেলা যাই হোক, সাজেক আপনাকে যেতে হবে খাগড়াছড়ি আর দিঘিনালা হয়ে।


মেঘে মোড়া রঙিন ক্যানভাসের সাজেক সৌন্দর্যের সঙ্গে এই পথ সৌন্দর্যটুকু বাড়তি পাওনা। আর একটা পাওনা হল মাসালং ও কাসালং নদী সৌন্দর্য উপভোগ। অবশ্য শুরুতেই আপনার সঙ্গে মাইনি নদীর দেখা হয়ে যাবে। আর শীতের তীব্রতায় ঝরনার পানি উধাও হলেও এক ঝলক হাজাছড়া ঝরনা দেখে আসতে পারবেন।






তাই নিরিবিলির খোঁজে কংলাক পাড়া চলে যান। একদু রাত বাস করে আসুন পাংখো বা লুসাইদের ঘরে, খুব ভালো লাগবে বলতে পারি। আমরা দুদিন ছিলাম, রুইলুই পাড়ায় বিকেলে কেবল বেড়াতে যেতাম। তবে যেখানেই থাকেন সে ব্যবস্থ্যা ঢাকা থেকেই করে যাবেন।
