রাবি: রাজশাহী বিশ্ববিদ্যালয়ের (রাবি) ব্যবসায় প্রশাসন ইনস্টিটিউটের (আইবিএ) অধ্যাপক হাছানাত আলীকে মারধরের প্রতিবাদে ও অভিযুক্ত ছাত্রের বিচার দাবিতে মানববন্ধন করেছে শিক্ষার্থীরা।
মঙ্গলবার (২৬ সেপ্টেম্বর) সকাল ১০টার দিকে বিশ্ববিদ্যালয়ের আইবিএ চত্বরে মানববন্ধন কর্মসূচি পালন করা হয়। পরে আবারো বেলা ১২টার দিকে একই দাবিতে বিশ্ববিদ্যালয়ের সিনেট ভবনের সামনে মানববন্ধন করে আইবিএ’র শিক্ষার্থীরা। মানববন্ধন শেষে বিশ্ববিদ্যালয়ের উপাচার্য ও আইবিএ’র পরিচালকের কাছে স্মারকলিপি জমা দেন তারা।
সোমবার (২৫ সেপ্টেম্বর) ইন্টার্নশিপের রিপোর্টে স্বাক্ষর করা নিয়ে অধ্যাপক হাছানাত আলীকে মারধর করেন তারই ছাত্র আবু নাহিদ মো. হায়দার । আবু নাহিদ এমবিএ (দিবা) ৯ম ব্যাচের শিক্ষার্থী।
