রংপুরের বেগম রোকেয়া বিশ্ববিদ্যালয় (বেরোবি) নয় বছরে পদার্পণ উপলক্ষে নানা কর্মসূচি পালন করেছে।
রংপুর: রংপুরের বেগম রোকেয়া বিশ্ববিদ্যালয় (বেরোবি) নয় বছরে পদার্পণ উপলক্ষে নানা কর্মসূচি পালন করেছে।
 
বুধবার (১৯ অক্টোবর) নানা কর্মসূচির মধ্যদিয়ে এ দিনটি উদযাপন করছে বিশ্ববিদ্যালয় প্রশাসন ও বিভিন্ন সামাজিক-সাংস্কৃতিক সংগঠন।
গত বুধবার (১২ অক্টোবর) ৮ বছর পূর্ণ করেছে বেরোবি। এ দিন পবিত্র আশুরার ছুটি থাকায় এক সপ্তাহ পর নয় বছর পূর্তি অনুষ্ঠান উদযান করেছে কর্তৃপক্ষ।
সকাল ১০টায় পতাকা উত্তোলন ও বেলুন-কবুতর উড়িয়ে দিনব্যাপী অনুষ্ঠান উদ্বোধন করেন বিশ্ববিদ্যালয়ের উপাচার্য অধ্যাপক ডক্টর নূর-উন-নবী।
পরে একটি র‌্যালি বের হয়। র‌্যালিটি নগরীর প্রধান প্রধান সড়ক প্রদক্ষিণ করে বিশ্ববিদ্যালয় প্রাঙ্গণে শেষ হয়।
