জবি: জগন্নাথ বিশ্ববিদ্যালয়ের (জবি) ২০১৭-১৮ শিক্ষাবর্ষের 'ডি' ইউনিটের (শাখা পরিবর্তন) স্নাতক (সম্মান) শ্রেণির ভর্তি পরীক্ষা অনুষ্ঠিত হয়েছে।
শুক্রবার (২০ অক্টোবর) বিকেল ৩ থেকে ৪ টা পর্যন্ত মোট ১২টি কেন্দ্রে একযোগে এ পরীক্ষা অনুষ্ঠিত হয়।
এবার ‘ডি’ ইউনিটের (শাখা পরিবর্তন) ৫৮০টি আসনের বিপরীতে ২৮,৭৪৩ জন অর্থাৎ প্রতি আসনের বিপরীতে প্রায় ৫০ জন শিক্ষার্থী ভর্তি পরীক্ষার জন্য আবেদন করেছিল। 
পরীক্ষা চলাকালীন সময়ে বিশ্ববিদ্যালয়ের উপাচার্য অধ্যাপক ড. মীজানুর রহমান ও ট্রেজারার অধ্যাপক মো. সেলিম ভূঁইয়া পরীক্ষার হল পরিদর্শন করেন।
এ সময় বিশ্ববিদ্যালয়ের বিভিন্ন অনুষদের ডিন, রেজিস্ট্রার প্রকৌশলী মো. ওহিদুজ্জামান, প্রক্টর ও সহকারী প্রক্টররা উপস্থিত ছিলেন।
‘ডি’ ইউনিটের ভর্তি পরীক্ষার ফলাফল শিগগির দেওয়া হবে বলে জানান উপাচার্য ড. মিজানুর রহমান।
ভর্তি পরীক্ষার ফলাফল জগন্নাথ বিশ্ববিদ্যালয়ের ওয়েবসাইটে (www.jnu.ac.bd) পাওয়া যাবে।
