ঢাকা: এবারের এসএসসি পরীক্ষায় বিদেশের আট কেন্দ্রের ৪৩৭ জনের মধ্যে পাস করেছে ৪১২ জন। ২৫ জন শিক্ষার্থী অকৃতকার্য।
আর জিপিএ-৫ পেয়েছে ১১২ জন। শতকরা পাশের হার ৯৪ শতাংশ ২৮।
বৃহস্পতিবার (০৪ মে) দুপুরে প্রকাশিত ফলাফল তথ্যে দেখা যায়, বিদেশের চার প্রতিষ্ঠানের শতভাগ পরীক্ষার্থী পাস করেছে।
সেখানে ৮ কেন্দ্রের ৪৩৭ জনের মধ্যে পাস ৪১২ জন। এর মধ্যে জিপিএ-৫ ১১২ জনের।
