ফলিত রসায়ন ও কেমিকৌশল বিভাগের স্বার্থেই স্নাতক (সম্মান) উত্তীর্ণ তিনজন শিক্ষক নিয়োগ দেওয়া হয়েছে- জানিয়েছেন ঢাকা বিশ্ববিদ্যালয়ের উপাচার্য অধ্যাপক আ আ ম স আরেফিন সিদ্দিক।
ঢাকা বিশ্ববিদ্যালয়: ফলিত রসায়ন ও কেমিকৌশল বিভাগের স্বার্থেই স্নাতক (সম্মান) উত্তীর্ণ তিনজন শিক্ষক নিয়োগ দেওয়া হয়েছে- জানিয়েছেন ঢাকা বিশ্ববিদ্যালয়ের উপাচার্য অধ্যাপক আ আ ম স আরেফিন সিদ্দিক।
সোমবার (৭ নভেম্বর) ঢাবি উপাচার্যের দফতরে আয়োজিত এক জরুরি সংবাদ সম্মেলনে তিনি বলেন, বিভাগের স্বার্থেই বুয়েট থেকে স্নাতক (সম্মান) উত্তীর্ণ তিনজনকে নিয়োগ দেওয়া হয়েছে।
দক্ষিণ এশিয়ার অনেক দেশেই এ রকম হয়ে থাকে উল্লেখ করে তিনি বলেন, সাধারণত প্রকৌশল থেকে যারা স্নাতক (সম্মান) ডিগ্রি লাভ করে তাদের মাস্টার্স ডিগ্রি দরকার হয় না। আমরা তিনবার বিজ্ঞপ্তি দিয়েছি, মাস্টার্স উত্তীর্ণ যোগ্যতাসম্পন্ন আবেদনকারী না পেয়ে শর্ত শিথিল করে তাদের নিয়োগের সুপারিশ করা হয়েছে।
স্নাতক (সম্মান) ডিগ্রি লাভের পরে ভালো ছাত্রদের স্ব-স্ব বিশ্ববিদ্যালয় নিয়ে নেয়। যে কারণে আমাদের ভালো নিতে হলে অনার্স-এর পরপরই নিতে হবে। তাই নেওয়া হয়েছে।
সংবাদ সম্মেলনে অনুষদের ডিন ও বিভাগের শিক্ষকরা উপস্থিত ছিলেন। ** মাস্টার্স পাস না করেই ঢাবির শিক্ষক!
