উচ্চ মাধ্যমিক সার্টিফিকেট (এইচএসসি) পরীক্ষায় পুনর্নিরীক্ষণে ঢাকা শিক্ষা বোর্ডে এক হাজার নয় জনের ফল পরিবর্তন হয়েছে। এর মধ্যে নতুন করে জিপিএ-৫ পেয়েছে ১১৫ শিক্ষার্থী।
ঢাকা: উচ্চ মাধ্যমিক সার্টিফিকেট (এইচএসসি) পরীক্ষায় পুনর্নিরীক্ষণে ঢাকা শিক্ষা বোর্ডে এক হাজার নয় জনের ফল পরিবর্তন হয়েছে। এর মধ্যে নতুন করে জিপিএ-৫ পেয়েছে ১১৫ শিক্ষার্থী।
গত ১৮ আগস্ট এসএসসি ও সমমানের পরীক্ষার ফল প্রকাশের পর প্রাপ্ত ফলাফল চ্যালেঞ্জ করে পুনর্নিরীক্ষায় ৪৪ হাজার ১৫১ জন আবেদন করেছিলো। শনিবার (১৭ সেপ্টেম্বর) পুনর্নিরীক্ষার ফল প্রকাশ করা হয়েছে বলে জানান ঢাকা শিক্ষা বোর্ডের পরীক্ষা নিয়ন্ত্রক তপন কুমার সরকার।
তিনি বাংলানিউজকে বলেন, নতুন করে উত্তীর্ণ হয়েছে ২০৪ জন শিক্ষার্থী।
