ঢাকা: ২০১৮-১৯ সেশনে বাংলাদেশি মেধাবী শিক্ষার্থীদের বৃত্তি দেবে ভারত সরকার।
বৃহস্পতিবার (০৪ জানুয়ারি) ইন্ডিয়ান কাউন্সিল ফর কালচারাল রিলেশন্সের (আসিসিআর) এ বৃত্তির বিষয়টি জানিয়েছে ঢাকার ভারতীয় হাইকমিশন।
বাংলাদেশের ৩ হাজার মেধাবী শিক্ষার্থীকে এখন পর্যন্ত বৃত্তি দেওয়া হয়েছে আসিসিআর থেকে। চলতি সেশনে স্নাতক, স্নাতকোত্তর ও পিএইচডির জন্য বৃত্তি দেওয়া হবে।
আগ্রহীদের বাছাই পরীক্ষায় অংশ নেওয়ার জন্য ইংরেজি ভাষায় দক্ষ হতে হবে। নম্বর থাকতে হবে ন্যূনতম ৬০ শতাংশ অথবা জিপিএ ৩ (৫-এর মধ্যে)। ভারতীয় হাইকমিশন ঢাকার ওয়েবসাইট থেকে এ বিষয়ে বিস্তারিত জানা যাবে।
আগ্রহী শিক্ষার্থীরা https://a2ascholarships.iccr.gov.in এ সাইটে প্রবেশ করে নিজেদের আলাদা আলাদা একাউন্ট তৈরি করে সেখানে আবেদনপত্র জমা দিতে পারবেন।
আবেদন জমা দেওয়ার শেষ তারিখ ২০ জানুয়ারি বিকেল ৫টা পর্যন্ত। আর আবেদনকারীদের ৩০ মিনিটের ইংরেজি দক্ষতা যাচাইয়ের পরীক্ষার (ইংলিশ প্রফিসিয়েন্সি টেস্ট বা ইপিটি) সময় ও তারিখ জানিয়ে দেওয়া হবে যথাযথ সময়ে।
এ বিষয়ে আরও বিস্তারিত জানার জন্য যোগাযোগ করা যাবে: অ্যাডুকেশন উইং, হাইকমিশন অব ইন্ডিয়া, ১-৩ পার্ক রোড, বারিধারা, ঢাকা। ফোন: ৫৫০৬৭৩০১-৫৫০৬৭৩০৮ এবং ৫৫০৬৭৬৪৫-৯। এক্সটেনশন: ১০৯৬ অথবা ১১১২। ইমেইল: attedu@hcidhaka.gov.in
