ঢাকা বিশ্ববিদ্যালয়: ঢাকা বিশ্ববিদ্যালয় অধিভুক্ত সরকারি ৭ কলেজে ২০১৭-২০১৮ শিক্ষাবর্ষে ১ম বর্ষ স্নাতক (সম্মান) শ্রেণির ও পাস কোর্সের বিজ্ঞান ইউনিটের ভর্তি পরীক্ষা অনুষ্ঠিত হয়েছে।
শুক্রবার (০৮ ডিসেম্বর) সকালে ঢাকা বিশ্ববিদ্যালয় ক্যাম্পাসসহ মোট ২৪টি কেন্দ্রে এই পরীক্ষা অনুষ্ঠিত হয়। বিজ্ঞান ইউনিটে ৮ হাজার ৬শ’টি আসনের বিপরীতে ভর্তিচ্ছু আবেদনকারীর সংখ্যা ছিল প্রায় ২৭ হাজার ১২৬ জন।
বিশ্ববিদ্যালয়ের উপাচার্য অধ্যাপক ড. মো. আখতারুজ্জামান ভর্তি পরীক্ষার বেগম বদরুন্নেসা সরকারি মহিলা কলেজ কেন্দ্র পরিদর্শন করেন। এসময় তার সঙ্গে বিজ্ঞান অনুষদের ডিন অধ্যাপক ড. মো. আব্দুল আজিজসহ বেগম বদরুন্নেসা সরকারি মহিলা কলেজের অধ্যক্ষ, কলেজ ও বিশ্ববিদ্যালয়ের সিনিয়র শিক্ষক ও কর্মকর্তারা উপস্থিত ছিলেন।
ভর্তি পরীক্ষা কেন্দ্রগুলো ছিল: ইডেন মহিলা কলেজ, বেগম বদরুন্নেসা সরকারি মহিলা কলেজ, ঢাকা কলেজ, কবি নজরুল সরকারি কলেজ, সরকারি শহীদ সোহরাওয়ার্দী কলেজ, সরকারি তিতুমীর কলেজ, সরকারি বাঙলা কলেজ, ঢাকা বিশ্ববিদ্যালয় প্রাণরসায়ন ও অণুপ্রাণ বিজ্ঞান বিভাগ, মৃত্তিকা, পানি ও পরিবেশ বিভাগ, উদ্ভিদবিজ্ঞান বিভাগ, কার্জন হল অডিটোরিয়াম, রসায়ন বিভাগ (কার্জন হল), পদার্থ বিজ্ঞান বিভাগ (কার্জন হল), প্রাণিবিদ্যা বিভাগ, মৎস্যবিজ্ঞান বিভাগ, রসায়ন বিভাগ (মোকাররম ভবন), পদার্থ বিজ্ঞান বিভাগ (মোকাররম ভবন), ঢাকা বিশ্ববিদ্যালয় বিজ্ঞান গ্রন্থাগার, কম্পিউটার বিজ্ঞান ও প্রকৌশল বিভাগ, অণুজীব বিজ্ঞান বিভাগ, পরিসংখ্যান গবেষনা ও প্রশিক্ষণ ইনস্টিটিউট, তথ্য প্রযুক্তি ইনস্টিটিউট, ইঞ্জিনিয়ারিং ইউনিভার্সিটি স্কুল অ্যান্ড কলেজ এবং উদয়ন উচ্চ মাধ্যমিক বিদ্যালয়।
