ময়মনসিংহের ত্রিশালে প্রতিষ্ঠিত জাতীয় কবি কাজী নজরুল ইসলাম বিশ্ববিদ্যালয়ের ঈদ-উল আজহার ছুটি আগামী ৪ সেপ্টেম্বর থেকে শুরু হবে। ওইদিন থেকে ১৫ সেপ্টেম্বর পর্যন্ত বিশ্ববিদ্যালয়ের সব ক্লাস ও পরীক্ষা বন্ধ থাকবে।
ময়মনসিংহ: ময়মনসিংহের ত্রিশালে প্রতিষ্ঠিত জাতীয় কবি কাজী নজরুল ইসলাম বিশ্ববিদ্যালয়ের ঈদ-উল আজহার ছুটি আগামী ৪ সেপ্টেম্বর থেকে শুরু হবে। ওইদিন থেকে ১৫ সেপ্টেম্বর পর্যন্ত বিশ্ববিদ্যালয়ের সব ক্লাস ও পরীক্ষা বন্ধ থাকবে।
বুধবার (২৪ আগস্ট) সকালে বিশ্ববিদ্যালয়ের উপাচার্য দফতরের উপ-পরিচালক (জনসংযোগ) এস এম হাফিজুর রহমান পাঠানো সংবাদ বিজ্ঞপ্তিতে এ তথ্য জানানো হয়।  
বিজ্ঞপ্তিতে উল্লেখ করা হয়, বিশ্ববিদ্যালয়ের অফিস আগামী ৬ সেপ্টেম্বর থেকে ১৫ সেপ্টেম্বর পর্যন্ত বন্ধ থাকবে।
ছুটি শেষে আগামী ১৮ সেপ্টেম্বর থেকে বিশ্ববিদ্যালয়ের ক্লাস, পরীক্ষা ও অফিস চালু হবে।
বাংলাদেশ সময়: ১৩০৩ ঘণ্টা, আগস্ট ২৪, ২০১৬
