যশোর মাধ্যমিক ও উচ্চ মাধ্যমিক শিক্ষা বোর্ডে পাসের হার ৯১ দশমিক ৮৫ শতাংশ। গতবছর যশোর বোর্ডে পাসর হার ছিল ৮৪ দশমিক ০২ শতাংশ। ফলে গতবছরের তুলনায় ৭ দশমিক ৮৩ শতাংশ পাসের হার বেড়েছে।
যশোর: যশোর মাধ্যমিক ও উচ্চ মাধ্যমিক শিক্ষা বোর্ডে পাসের হার ৯১ দশমিক ৮৫ শতাংশ। গতবছর যশোর বোর্ডে পাসর হার ছিল ৮৪ দশমিক ০২ শতাংশ। ফলে গতবছরের তুলনায় ৭ দশমিক ৮৩ শতাংশ পাসের হার বেড়েছে।
যশোর মাধ্যমিক ও উচ্চ মাধ্যমিক শিক্ষা বোর্ডের পরীক্ষা নিয়ন্ত্রক মাধব চন্দ্র রুদ্র বাংলানিউজকে এ তথ্য নিশ্চিত করেছেন। 
চলতি বছর যশোর শিক্ষাবোর্ডের আওতাধীন ১০ জেলার ২ হাজার ৪৮৯ বিদ্যালয়ের ১ লাখ ৪৯ হাজার ২১১ জন শিক্ষার্থী পরীক্ষায় অংশগ্রহণ করে। এরমধ্যে এর মধ্যে বিজ্ঞানে ৩২ হাজার ১২৮ জন, মানবিকে ৭৭ হাজার ২৯ জন এবং ব্যবসায় শিক্ষা বিভাগে ৪০ হাজার ৫৪ জন। 
