জবি: জগন্নাথ বিশ্ববিদ্যালয়ে (জবি) ২০১৬-১৭ শিক্ষাবর্ষের অনার্স (সম্মান) ও বিবিএ প্রথম বর্ষ প্রথম সেমিস্টারের সব ইউনিটের ক্লাস আগামী ১৫ জানুয়ারি (রোববার) থেকে শুরু হবে।
বুধবার (১১ জানুয়ারি) সন্ধ্যায় বিশ্ববিদ্যালয়ের রেজিস্ট্রার প্রকৌশলী মো. ওহিদুজ্জামান বাংলানিউজকে এ তথ্য জানান।
তিনি বলেন, ২০১৬-১৭ শিক্ষাবর্ষের বিবিএ ও অনার্স (সম্মান) প্রথম বর্ষ প্রথম সেমিস্টারে ভর্তি হওয়া শিক্ষার্থীদের ক্লাস ১৫ জানুয়ারি থেকে শুরু হবে। এদিন থেকে বিশ্ববিদ্যালয়ের মোট ৩৬টি বিভাগে একযোগে ক্লাস শুরু হবে।
এবার সরকারি আদেশ ও চাকরির বাজারে চাহিদা থাকায় নতুন আরো তিনটি বিভাগের যাত্রা শুরু হয়েছে।  
