ঢাকা: পবিত্র রমজান উপলক্ষে বার্ষিক দোয়া মাহফিল করেছে নর্থ সাউথ বিশ্ববিদ্যালয়। এ আয়োজনের সার্বিক সহযোগিতায় ছিল নর্থ সাউথ বিশ্ববিদ্যালয় সোশ্যাল সার্ভিসেস ক্লাব। 
গত সোমবার (১১ জুন) এই দোয়া মাহফিলের আয়োজন করা হয়। আয়োজনে ছিল রমজান মাসের পবিত্রতা ও এর তাৎপর্য বিষয়ক আলোচনাও। 
এতে বিশ্ববিদ্যালয়ের বোর্ড অব ট্রাস্টির চেয়ারম্যান ও সদস্য, উপাচার্য, প্রো-উপাচার্য, নর্থ সাউথ বিশ্ববিদ্যালয়, বিশ্ববিদ্যালয় সোশ্যাল সার্ভিসেস ক্লাবের অনুষদ উপদেষ্টারা বক্তব্য রাখেন। 
আয়োজনটি উপস্থিত সবার মাঝে ইফতার বিতরণের মধ্য দিয়ে শেষ হয়।
আয়োজন সফলভাবে সম্পন্ন হওয়ায় সবাইকে কৃতজ্ঞতা জানান নর্থ সাউথ বিশ্ববিদ্যালয় সোশ্যাল সার্ভিসেস ক্লাবের প্রেসিডেন্ট আসিফ মাহমুদ ও ক্লাবের যুগ্ম-সম্পাদক সাইফ উজ জামানসহ সংশ্লিষ্টরা।
