জাতীয় বিশ্ববিদ্যালয়ের স্নাতক (সম্মাণ) চতুর্থ বর্ষের পরীক্ষা ১২ নভেম্বর থেকে শুরু হবে। জাতীয় বিশ্ববিদ্যালয়ের ওয়েবসাইট সূত্রে এ তথ্য জানা যায়।
ঢাকা: জাতীয় বিশ্ববিদ্যালয়ের স্নাতক (সম্মাণ) চতুর্থ বর্ষের পরীক্ষা ১২ নভেম্বর থেকে শুরু হবে। জাতীয় বিশ্ববিদ্যালয়ের ওয়েবসাইট সূত্রে এ তথ্য জানা যায়।
বৃহস্পতিবার সন্ধ্যায় জাতীয় বিশ্ববিদ্যালয়ের ওয়েবসাইটে (http://www.nu.edu.bd) সংশোধীত পরীক্ষার নতুন সময়সূচি প্রকাশ করা হয়।
