বগুড়া: বগুড়ার নন্দীগ্রাম উপজেলায় স্কুলছাত্র কাওসার মাহমুদকে পেটানোর ঘটনায় প্রধান শিক্ষক শহিদুল ইসলাম সাময়িক বরখাস্ত ও খণ্ডকালীন সহকারী শিক্ষক আমজাদ হোসেনকে চাকরি থেকে অব্যাহতি দেওয়া হয়েছে।
রোবরার (০৫ মার্চ) স্কুল পরিচালনা কমিটি তাদের সাময়িক বরখাস্ত করে।
উপজেলা মাধ্যমিক কর্মকর্তা মোতাহার আলী বাংলানিউজকে জানান, উপজেলা নির্বাহী কর্মকর্তা (ইউএনও) শরিফুন্নেসার কাছে তদন্ত প্রতিবেদন জমা দেওয়া হয়েছে। তদন্তে ছাত্র কাওসারকে অমানুষিক নির্যাতনের সত্যতা মিলেছে। সে অনুযায়ী দায়ী শিক্ষকদের বিরুদ্ধে ব্যবস্থা নেওয়ার জন্য উপজেলা নির্বাহী কর্মকর্তা ও স্কুল পরিচালনা কমিটিকে নির্দেশ দেওয়া হয়েছে।   স্কুল পরিচালনা কমিটি শনিবার (০৪ মার্চ) জরুরি সভা আহ্বান করে। সভায় সার্বিক আলোচনা শেষে ছাত্র নির্যাতনকারী দুই শিক্ষককে বরখাস্তের সিদ্ধান্ত হয়।
পণ্ডিতপুকুর দ্বিমুখী উচ্চ বিদ্যালয়ের পরিচালনা কমিটির সভাপতি মাহবুব হোসেন উজ্জল বাংলানিউজকে বলেন, একক সিদ্ধান্তে সম্পূর্ণ অন্যায়ভাবে মেধাবী স্কুলছাত্র কাওসারকে শারীরিকভাবে নির্যাতন করায় দায়ে প্রধান শিক্ষক শহিদুল ইসলাম সাময়িক বরখাস্ত ও খণ্ডকালীন সহকারী শিক্ষক আমজাদ হোসেনকে অব্যাহতি দেওয়া হয়েছে।
