ইসলামী বিশ্ববিদ্যালয়ের (ইবি) এক উপ রেজিস্ট্রার কর্তৃক ছাত্রলীগকে ক্যাম্পাস থেকে বের করে দেওয়ার হুমকির প্রতিবাদে ক্যাম্পাসে বিক্ষোভ মিছিল ও সমাবেশ করেছে ইবি ছাত্রলীগ।
ইবি: ইসলামী বিশ্ববিদ্যালয়ের (ইবি) এক উপ রেজিস্ট্রার কর্তৃক ছাত্রলীগকে ক্যাম্পাস থেকে বের করে দেওয়ার হুমকির প্রতিবাদে ক্যাম্পাসে বিক্ষোভ মিছিল ও সমাবেশ করেছে ইবি ছাত্রলীগ।
সোমবার (১৮ এপ্রিল) বেলা সাড়ে ১১টায় ইবি ছাত্রলীগের সভাপতি সাইফুল ইসলামের নেতৃত্বে এ বিক্ষোভ মিছিল বের হয়।
গত রোববার মুজিবনগর দিবসের আলোচনা সভা থেকে ইবির উপ রেজিস্ট্রার আলমগীর হোসেন খান ছাত্রলীগকে ক্যাম্পাস থেসে বের করে দেওয়ার হুমকি দেন বলে জানা গেছে।
বিক্ষোভ মিছিলে উপস্থিত ছিলেন ইবি ছাত্রলীগের সহ সভাপতি মিজানুর রহমান মিজু, জুয়েল রানা হালিম, বিপ্লব কর্মকার, সাধারণ সম্পাদক অমিত কুমার দাস, যুগ্ম সম্পাদক আনিছুর রহমান আনিচ, জামিলুর রেজা সেলিম, সাংগঠনিক সম্পাদক শিশির ইসলাম বাবু , যুগ্ম সম্পাদক নোমান রবিন, পরিকল্পনা সম্পাদক মোহাম্মদ আলী সবুজ প্রমুখ।
