গণ বিশ্ববিদ্যালয় (সাভার): গণ বিশ্ববিদ্যালয়ের ১৪টি বিভাগের সাপ্লিমেন্টারি পরীক্ষা বুধবার (২৪ আগস্ট) শুরু হয়েছে।
দুপুর ১টা থেকে শুরু হওয়া এ পরীক্ষায় প্রায় ৬০০ শিক্ষার্থী অংশগ্রহণ করেন।
মঙ্গলবার (২৩ আগস্ট) পরীক্ষা শুরুর তারিখ থাকলেও আন্তঃবিভাগ ফুটবল ফাইনাল ও পুরস্কার বিতরণী অনুষ্ঠান উপলক্ষে একদিন পিছিয়ে শুরু হয়েছে।
এক্ষেত্রে আগামী ৩১ আগস্ট পরীক্ষা শেষ হওয়ার কথা। যদিও একদিন পিছিয়ে যাওয়ার সম্ভাবনা রয়েছে বলে বিশ্ববিদ্যালয়ের পরীক্ষা নিয়ন্ত্রণ বিভাগ জানিয়েছে।
