আজকের শিক্ষার্থীরাই আগামীর ভবিষ্যৎ বলে উল্লেখ করেছেন শিক্ষামন্ত্রী নুরুল ইসলাম নাহিদ।
ঢাকা: আজকের শিক্ষার্থীরাই আগামীর ভবিষ্যৎ বলে উল্লেখ করেছেন শিক্ষামন্ত্রী নুরুল ইসলাম নাহিদ।
 
রোববার (২৬ জুন) বিকেলে রাজধানীর সেগুনবাগিচায় আন্তর্জাতিক মাতৃভাষা ইনস্টিটিউট মিলনায়তনে কিশোর-কিশোরীদের বয়ঃসন্ধিকালীন স্বাস্থ্য সচেতনতা বিষয়ক ‘জেনারেশন ব্রেকথ্রু প্রকল্প’র আওতাভুক্ত প্রতিষ্ঠান প্রধানদের অবহিতকরণ কর্মশালা শীর্ষক অনুষ্ঠানে প্রধান অতিথির বক্তব্যে তিনি এ কথা বলেন।
কর্মশালার আয়োজন করে মাধ্যমিক ও উচ্চ শিক্ষা অধিদপ্তর, ঢাকা।
শিক্ষামন্ত্রী বলেন, কিশোর-কিশোরী শিক্ষার্থীদের শারীরিক, মানসিক ও আবেগিক বৃদ্ধির বয়ঃসন্ধিকালীন সময়ে তাদের প্রয়োজনীয় পরামর্শ দিতে এ প্রকল্প হাতে নেওয়া হয়েছে। এছাড়া এ প্রকল্পের ফলে নাজুক বয়সে শিক্ষার্থীরা বিভিন্ন সমস্যার মোকাবেলা করতে পারবে। ফলে শিক্ষার্থীরা সফলতার সঙ্গে শিক্ষাজীবন পার করতে পারবে।
তিনি আরো বলেন, ডাচ সরকারের ১৮ কোটি টাকা অর্থায়নে প্লান বাংলাদেশ ও জাতিসংঘ সংস্থা ইউএনএফপিএ’র সহায়তায় জেনারেশন ব্রেক থ্রু প্রকল্প ২০১৪ সাল থেকে শিক্ষার্থীদের বয়ঃসন্ধিকালীন সমস্যা সমাধান প্রকল্পে কাজ করে যাচ্ছে।
