ঢাকা বিশ্ববিদ্যালয়: ঢাকা বিশ্ববিদ্যালয়ে (ঢাবি) সামাজিক বিজ্ঞান ভবনের ষষ্ঠ তলা থেকে ১২ তলা সম্প্রসারণের নির্মাণ কাজ ও ছাত্রীদের কমনরুম উদ্বোধন করা হয়েছে।
রোববার (১৯ নভেম্বর) সকাল ১১টার দিকে এ উদ্বোধন করেন বিশ্ববিদ্যালয়ের উপাচার্য অধ্যাপক ড. মো. আখতারুজ্জামান
উপস্থিত ছিলেন অনুষদের ভারপ্রাপ্ত ডিন অধ্যাপক ড. সাদেকা হালিমসহ অনুষদের বিভিন্ন বিভাগের শিক্ষকরা।
১৯৭০ সালে সামাজিক বিজ্ঞান অনুষদ প্রতিষ্ঠা লাভ করলেও নিজস্ব ভবন প্রতিষ্ঠিত হয় ২০০৭ সালে। সে সময় ছাত্রীদের জন্য কোনো কমনরুম তৈরি করা হয়নি।
