রাজশাহী বিশ্ববিদ্যালয়ের (রাবি) ইংরেজি বিভাগের অধ্যাপক ড. এএফএম রেজাউল করিম সিদ্দিকীকে কুপিয়ে হত্যার প্রতিবাদে ও বিচারের দাবিতে বেগম রোকেয়া বিশ্ববিদ্যালয়ে (বেরোবি) কর্মবিরতি ও ধর্মঘট পালন করা হয়েছে।
রংপুর: রাজশাহী বিশ্ববিদ্যালয়ের (রাবি) ইংরেজি বিভাগের অধ্যাপক ড. এএফএম রেজাউল করিম সিদ্দিকীকে কুপিয়ে হত্যার প্রতিবাদে ও বিচারের দাবিতে বেগম রোকেয়া বিশ্ববিদ্যালয়ে (বেরোবি) কর্মবিরতি ও ধর্মঘট পালন করা হয়েছে।
সোমবার (০২ মে) সকাল ১০টা থেকে ১২টা পর্যন্ত বিশ্ববিদ্যালয়ের শিক্ষক, ছাত্র-ছাত্রী ও কর্মকর্তা-কর্মচারীরা কর্মবিরতি পালন করেন। এরপর বেলা ১২টা থেকে দুপুর ১টা পর্যন্ত ধর্মঘট পালন করা হয়।
রোকেয়া বিশ্ববিদ্যালয়ের শিক্ষক সমিতির সভাপতি ড. আর এম হাফিজুর রহমান ও সাধারণ সম্পাদক তাবিউর রহমান বাংলানিউজকে জানান, রাজশাহী বিশ্ববিদ্যালয়ের ইংরেজি বিভাগের অধ্যাপক ড. এএফএম রেজাউল করিম সিদ্দিকীকে নৃসংশভাবে হত্যা করা হয়েছে। এর প্রতিবাদে সোমবার বিশ্ববিদ্যালয়ে কর্মবিরতি ও অবস্থান ধর্মঘট পালন করেছি।
এসময় তিনি ঘটনার সঙ্গে জড়িতদের দৃষ্টান্তমূলক শাস্তির দাবি জানান।
এতে বক্তব্য রাখেন রোকেয়া বিশ্ববিদ্যালয়ের অধ্যাপক ড. তুহিন ওয়াদুদ ও শিক্ষার্থীরা। বক্তারা হত্যাকাণ্ডের সঙ্গে জড়িতদের দৃষ্টান্তমূলক শাস্তির দাবি জানান।
