সারা দেশে ছাত্রীদের নিরাপত্তা নিশ্চিত করতে বেশকিছু পদক্ষেপ ও কার্যক্রম নিতে যাচ্ছে শিক্ষা মন্ত্রণালয়। 
ঢাকা: সারা দেশে ছাত্রীদের নিরাপত্তা নিশ্চিত করতে বেশকিছু পদক্ষেপ ও কার্যক্রম নিতে যাচ্ছে শিক্ষা মন্ত্রণালয়। 
এসব বিষয়ে শিক্ষামন্ত্রী নুরুল ইসলাম নাহিদ শনিবার (০৮ অক্টোবর) সকাল ১০টায় রাজধানীর ফার্মগেটের খামারবাড়ির কৃষিবিদ ইনস্টিটিউশন মিলনায়তনে আয়োজিত প্রেস ব্রিফিংয়ে সাংবাদিকদের জানাবেন। 
শুক্রবার (০৭ অক্টোবর) শিক্ষা মন্ত্রণালয়ের জনসংযোগ দফতর থেকে এ তথ্য জানানো হয়।
