রাজধানীর স্বনামধন্য শিক্ষা প্রতিষ্ঠান ঢাকা রেসিডেনসিয়াল মডেল কলেজে জিপিএ-৫ প্রাপ্তির হার বেড়েছে। এবার স্কুলটিতে জিপিএ-৫ পেয়েছে ৯৩ দশমিক ৪৪ শতাংশ পরীক্ষার্থী। গতবার এখানে জিপিএ-৫ প্রাপ্তির হার ছিল ৮৭ দশমিক ৪৩।
ঢাকা: রাজধানীর স্বনামধন্য শিক্ষা প্রতিষ্ঠান ঢাকা রেসিডেনসিয়াল মডেল কলেজে জিপিএ-৫ প্রাপ্তির হার বেড়েছে। এবার স্কুলটিতে জিপিএ-৫ পেয়েছে ৯৩ দশমিক ৪৪ শতাংশ পরীক্ষার্থী। গতবার এখানে জিপিএ-৫ প্রাপ্তির হার ছিল ৮৭ দশমিক ৪৩।
বৃহস্পতিবার (২৯ ডিসেম্বর) দুপুর ১টায় প্রতিষ্ঠানটি আনুষ্ঠানিকভাবে এ ফলাফল প্রকাশ করে।
প্রতিষ্ঠানের ভাইস প্রন্সিপাল ফেরদৌস আরা বেগম বাংলানিউজকে বলেন, আমাদের শিক্ষার্থীরা বরাবরই ভালো ফলাফল করে। আমরা এতে সন্তুষ্ট। শিক্ষক-শিক্ষার্থী-অভিভাবকদের সম্মিলিত প্রচেষ্টায়ই এই ভালো ফলাফল হয়েছে।
ঢাকা রেসিডেনসিয়াল মডেল কলেজ থেকে জানানো হয় যে, ২০১৫ সালে জেএসসিতে জিপিএ-৫ পেয়েছিলো ৮৭ দশমিক ৪৩ শতাংশ। এবার গত বছরের তুলনায় জিপিএ-৫ ছয় শতাংশ বেড়েছে। এ বছর জেএসসি পরীক্ষায় ঢাকা রেসিডেনসিয়াল মডেল কলেজের মোট ২৯০ জন পরীক্ষার্থী অংশ নেয়, এরমধ্যে জিপিএ-৫ পেয়েছে ২৭১ জন। পাসের হার শতভাগ।
ভালো ফলাফল করে খুশি শিক্ষার্থী অভিভাবকরাও। এমনই একজন শিক্ষার্থী আবির ইসলাম বাংলানিউজকে বলে, “আমার মা এবং শিক্ষকরা আমার জন্য অনেক পরিশ্রম করেছেন। আমি জিপিএ-৫ পাওয়া আম্মু ও টিচাররা সবাই খুশি। তাই আমিও দারুণ খুশি।”   আবির ইসলামে মা মমতাজ ইসলাম বাংলানিউজকে বলেন, “কাল রাত থেকে ঘুমাতে পারিনি ছেলের রেজাল্টের টেনশনে। ছেলে ভালো রেজাল্ট করায় কতোটা আনন্দিত আমি তা বলে বোঝাতে পারবো না।”
সকালে সারাদেশে জুনিয়র স্কুল সার্টিফিকেট (জেএসসি) ও জুনিয়র দাখিল সার্টিফিকেট (জেডিসি) পরীক্ষার ফল প্রকাশ করা হয়। পরীক্ষায় এবার পাসের হার ৯২ দশমিক ৩৩ শতাংশ। এবার জিপিএ ফাইভ পেয়েছে ২ লাখ ৪৭ হাজার ৫৮৮ শিক্ষার্থী।
এ বছর জেএসসি ও জেডিসি পরীক্ষার মোট পরীক্ষার্থী ছিল ২৩ লাখ ৪৬ হাজার ৯৫৯ জন। এরমধ্যে পাস করেছে ২১ লাখ ৮৩ হাজার ৯৭৫ জন।
