ঢাকা বিশ্ববিদ্যালয়: ঢাকা বিশ্ববিদ্যালয়ের সলিমুল্লাহ মুসলিম হলে দুর্যোগ ও ব্যবস্থাপনা বিভাগের দ্বিতীয় বর্ষের শিক্ষার্থী এহসান রফিকের ওপর হামলাকারী সাত ছাত্রকে বিভিন্ন মেয়াদে বহিষ্কারের সিদ্ধান্ত নিয়েছে বিশ্ববিদ্যালয় প্রশাসন।
সোমবার (২৬ ফেব্রুয়ারি) বিশ্ববিদ্যালয়ের শৃঙ্খলা বোর্ডের সভায় এ সিদ্ধান্ত নেওয়া হয়।
বিশ্ববিদ্যালয়ের প্রক্টর অধ্যাপক ড. এ কে এম গোলাম রব্বানী বাংলানিউজকে বিষয়টি নিশ্চিত করেন। যা চলতি মাসের সিন্ডিকেটের সভায় অনুমোদিত হবে।
এদের মধ্যে হামলায় জড়িত মো. ওমর ফারুককে (মার্কেটিং বিভাগ দ্বিতীয়বর্ষ) ঢাকা বিশ্ববিদ্যালয় থেকে স্থায়ীভাবে বহিষ্কারের সিদ্ধন্ত নেওয়া হয়েছে। এছাড়া পাঁচজনকে দুই বছর বিশ্ববিদ্যালয় থেকে এবং হল থেকে স্থায়ীভাবে বহিষ্কার করা হয়েছে। 
দুই বছরের জন্য বহিষ্কৃতরা হলেন- সামিউল ইসলাম সামি (সমাজ-বিজ্ঞান দ্বিতীয়বর্ষ), আহসান উল্লাহ (দর্শন বিভাগ দ্বিতীয়বর্ষ), মো. রুহুল আমিন বেপারী (সাংবাদিকতা বিভাগ দ্বিতীয়বর্ষ), মো. মেহেদী হাসান হিমেল (উর্দু বিভাগ, দ্বিতীয়বর্ষ) ও ফারদিন আহমেদ (লোকপ্রশাসন বিভাগ দ্বিতীয়বর্ষ)
হামলায় প্ররোচণার দায়ে মো. আরিফুল ইসলামকে (শিক্ষা ও গবেষণা  চতুর্থবর্ষ) এক বছর বিশ্ববিদ্যালয় থেকে এবং স্থায়ীভাবে হল থেকে বহিষ্কার করা হয়েছে।
বহিষ্কারের সুপারিশ পাওয়া সবাই হল শাখা ছাত্রলীগের সভাপতি তাহসান আহমেদ রাসেলের অনুসারী ও হল কমিটিতে পদধারী।
গত ১ ফেব্রুয়ারি দিবাগত রাতে ঢাকা বিশ্ববিদ্যালয়ের দুর্যোগ বিজ্ঞান ও ব্যবস্থাপনা বিভাগের দ্বিতীয় বর্ষের ছাত্র এহসান রফিককে মারধর করেন ছাত্রলীগের নেতাকর্মীরা। পরের দিনও তাকে একটি কক্ষে আটকে রাখা হয়। মারধরের কারণে তার একটি চোখে মারাত্মকভাবে আঘাত ক্ষতি হয়।
