পবিত্র ঈদ-উল-আজহা উপলক্ষে রাজশাহী প্রকৌশল ও প্রযুক্তি বিশ্ববিদ্যালয়ে (রুয়েট) ছুটি শুরু হচ্ছে বৃহস্পতিবার (০৮ সেপ্টেম্বর) থেকে। যা চলবে...
রাজশাহী: পবিত্র ঈদ-উল-আজহা উপলক্ষে রাজশাহী প্রকৌশল ও প্রযুক্তি বিশ্ববিদ্যালয়ে (রুয়েট) ছুটি শুরু হচ্ছে বৃহস্পতিবার (০৮ সেপ্টেম্বর) থেকে। যা চলবে ১৬ সেপ্টেম্বর পর্যন্ত। ভারপ্রাপ্ত রেজিস্ট্রার অধ্যাপক ড. মোশাররাফ হোসেন বুধবার (০৭ সেপ্টেম্বর) তথ্যটি নিশ্চিত করেছেন।
তিনি জানান, ঈদ-উল-আজহার ছুটি চলাকালীন সময়ে রুয়েটের সব রকম প্রশাসনিক ও একাডেমিক কার্যক্রম বন্ধ থাকবে। কেবলমাত্র জরুরি শাখাগুলোতে বিশেষ ব্যবস্থায় কর্মকাণ্ড চলবে।
আগামী ১৭ সেপ্টেম্বর সকাল ৯টা থেকে সব প্রশাসনিক ও একাডেমিক কার্যক্রম পুনরায় শুরু হবে। বিভাগের ক্লাস ও পরীক্ষাসমূহও একই দিন থেকে শুরু হবে।
