ঢাকা: গত বছরের তুলনায় এ বছর সারা দেশে এসএসসি ও সমমানের পরীক্ষায় পাসের হার কমেছে। তিনটি কারণে পাসের হার কমেছে বলে জানিয়েছেন শিক্ষামন্ত্রী নুরুল ইসলাম নাহিদ।
তিনি বলেন, উত্তরপত্র মূল্যায়নে শিক্ষকদের স্টান্ডার্ডাইজেশন, প্রশ্নপত্র ফাঁস না হওয়া এবং গত বছরের তুলনায় পরীক্ষা কেন্দ্রে বেশি কড়াকড়ি আরোপ করায় পাসের হার কমেছে।
এসএসসির ফল প্রকাশ উপলক্ষে বৃহস্পতিবার (০৪ মে) দুপুরে সচিবালয়ে সংবাদ সম্মেলনে সাংবাদিকদের প্রশ্নের জবাবে এ কথা বলেন শিক্ষামন্ত্রী।
শিক্ষা বোর্ডগুলোর তথ্য বিশ্লেষণে দেখা যায় আটটি সাধারণ, মাদরাসা ও কারিগরি শিক্ষা বোর্ডে এবার ১৭ লাখ ৮১ হাজার ৯৬২ জন শিক্ষার্থী পরীক্ষায় অংশগ্রহণ করেছে, যা গত বছর ছিল ১৬ লাখ ৪৫ হাজার ২০১ জন। অর্থাৎ শিক্ষার্থী বৃদ্ধি পেয়েছে ১ লাখ ৩৬ হাজার ৭৬১ জন।
এবার সারা দেশে পাস করেছেন ১৪ লাখ ৩১ হাজার ৭২২ জন শিক্ষার্থী। গত বছর যা ছিল ১৪ লাখ ৫২ হাজার ৬০৫ জন। অর্থাৎ পাস কমেছে ২০ হাজার ৮৮৩ জন। এবার পাসের হার ৮০ দশমিক ৩৫ শতাংশ। গত বছর পাসের হার ছিল ৮৮ দশমিক ২৯ শতাংশ। অর্থাৎ এবার কমেছে ৭ দশমিক ৯৪ জন।
পাসের হার কমে আসা প্রসঙ্গে শিক্ষামন্ত্রী বলেন, আমাদের কাছে এটা খুবই স্বাভাবিক এবং এজন্য আমরা প্রস্তুত ছিলাম। কিন্তু যারা শুনে অভ্যস্ত তাদের কাছে একটু বিস্ময় হতে পারে।
নাহিদ বলেন, পরীক্ষার পর পরীক্ষকরা খাতা নিয়ে যান এবং ফল জমা দেন। কিন্তু অভিজ্ঞতায় দেখা যায় তারা ভালো করে খাতা দেখেন না। এ কারণে একটি পরীক্ষা পর্যালোচনা পর্ষদ করে সার্বিক পরিস্থিতি বিশ্লেষণ করার ব্যবস্থা নেওয়া হয়। একই খাতা ২০টি ফটোকপি করে দেশের ২০ জন সেরা পরীক্ষককে দেওয়া হয়। তাদের প্রত্যেকের কাছ থেকে আলাদাভাবে নম্বর নেওয়া হয়। এতে দেখা যায় ২০ জনই ২০ ধরনের নম্বর দিয়েছেন। দুইজনও একরকম দেননি।
এতে পরীক্ষকের উত্তরপত্র মূল্যায়নের ক্ষেত্রে ফাঁকি দেওয়ার সুযোগ ছিল না। এবার একটা স্ট্যান্ডার্ডাইজেশনে মূল্যায়ন করা হয়েছে। নম্বরের গ্যাপ কমেছে।
এছাড়া প্রশ্নপত্র এবার বাইরে যাওয়ার সুযোগ ছিল না, আর পরীক্ষা কেন্দ্রে অনিয়মের বিষয়ে কড়াকড়ি ছিল। দেখা গেছে এবার বহিষ্কার হয়েছে এক হাজার ১৪৩ জন, যা গতবছরগুলোর চেয়ে বেশি।
শিক্ষা মন্ত্রণালয় জানায়, খাতা মূল্যায়ন পদ্ধতির উন্নয়নে তিন বছর ধরে কাজ করা হয়। এ বিষয়ে মন্ত্রণালয় থেকে প্রথমে প্রধান পরীক্ষকদের প্রশিক্ষণ দেওয়া হয়। পরে তাদের মাধ্যমে সারা দেশে সব পরীক্ষকদের প্রশিক্ষণ দেওয়া হয়। সবশেষে এ বছর পরীক্ষার খাতা মূল্যায়নের ক্ষেত্রে একটি মান বজায় রাখার এই ব্যবস্থা চালু হয়।
