ঢাকা: উচ্চ মাধ্যমিক স্তরে সরকারি-বেসরকারি কলেজে একাদশ শ্রেণিতে শিক্ষার্থী ভর্তির মনোনীতদের প্রথম তালিকা প্রকাশ করেছে আন্তঃশিক্ষা বোর্ড সমন্বয় সাব-কমিটি।
সোমবার দিবাগত রাত ১২টা ১ মিনিটি বাংলাদেশ প্রকৌশল বিশ্ববিদ্যালয় (বুয়েট) মনোনীতদের তালিকা প্রকাশ করেছে বলে জানান ঢাকা শিক্ষা বোর্ডের কলেজ পরিদর্শক আশফাকুস সালেহীন।   রাত ১২টার পর তিনি বাংলানিউজকে জানান, প্রথম তালিকায় ১২ লাখ ৪৯ হাজার ৮৪৮ জন একাদশ শ্রেণিতে ভর্তির জন্য মনোনীত হয়েছেন।   মনোনীতদের তালিকা কলেজ ভর্তির সরকারি ওয়েবসাইট (www.xiclassadmission.gov.bd) থেকে পাওয়া যাবে।   এছাড়া মোবাইল ফোনে এসএমএস করেও প্রার্থীদের জানানো হচ্ছে বলে জানান আশফাকুস সালেহীন।
মনোনীত আবেদনকারীকে ৮ জুন রাত ১১.৫৯ মিনিটের মধ্যে মোবাইল ব্যাংকিং চার্জ বাদে ১৮৫ টাকা (টেলিটক, শিওর ক্যাশ এবং রকেটের মাধ্যমে) জমা দিয়ে ভর্তি নিশ্চায়ন করতে হবে। অন্যথায় মনোনয়ন ও ভর্তির আবেদন বাতিল হবে।
ভর্তি নিশ্চায়নের জন্য ভর্তি নির্দেশিকা ও অনলাইন ভর্তির ওয়েবসাইটে নির্দেশাবলী অনুসরণ করার পরামর্শ দিয়েছে আন্তঃশিক্ষা বোর্ড।
  আদেনকারীদের মধ্যে ৯৫ দশমিক ০৩ শতাংশ প্রথম তালিকায় এসেছেন জানিয়ে তিনি বলেন, বাকীগুলো দ্বিতীয় এবং তৃতীয় তালিকায় চলে আসবে। আগামী ১৩ জুন দ্বিতীয় তালিকা প্রকাশ করা হবে।
