ঢাকা: কিছু সংখ্যক শিক্ষকই প্রশ্নপ্রত্র ফাঁসকারী বলে জানিয়েছেন শিক্ষামন্ত্রী নুরুল ইসলাম নাহিদ। রোববার (১৭ ডিসেম্বর) সকালে সচিবালয়ে শিক্ষা মন্ত্রণালয়ের সম্মেলন কক্ষে এক সভা শেষে তিনি সাংবাদিকদের এসব কথা বলেন। 
শিক্ষা মন্ত্রণালয়ের অনিয়ম ও দুর্নীতি বন্ধে শিক্ষামন্ত্রীর সঙ্গে এ বৈঠক করে দুদকের একটি উচ্চ পর্যায়ের প্রতিনিধি দল। 
দুদকের প্রতিনিধি দলে ছিলেন দুদক কমিশনার নাসির উদ্দিন।   
শিক্ষামন্ত্রী বলেন, প্রশ্নপত্র ফাঁস রোধে আমাদের কাছে বহু পরামর্শ আসছে। এর মধ্যে পরীক্ষার আধঘণ্টা আগে শিক্ষার্থীরা রুমে প্রবেশ করার পর প্রশ্নপত্র পাঠানোর বিষয়টিও আলোচনা হচ্ছে। তবে শিক্ষকই যখন প্রশ্নফাঁসকারী তখন আধঘণ্টা আগে প্রশ্ন পাঠিয়ে কি লাভ। আমরা বিজি প্রেস থেকে প্রশ্ন ফাঁস রোধের বিভিন্ন উদ্যোগ নিয়েছি। 
মন্ত্রী বলেন, শিক্ষকের হাতে প্রশ্ন তুলে দিয়ে রাতে নিরাপদে আমাদের ঘুমাতে যাওয়া উচিত। কিন্তু সেটা হচ্ছে না, প্রশ্নপত্র ফাঁস হয়ে যাচ্ছে।কিছু শিক্ষক প্রশ্ন ফাঁস করে দিচ্ছেন।এর ফলে আমরা সর্বশেষ সিদ্ধান্ত নিয়েছি, আধঘণ্টা আগে পরীক্ষার্থীরা হলে প্রবেশ করবে তারপর হলে প্রশ্ন সরবরাহ করা হবে। 
বাংলাদেশ সময়: ১৩২৯ ঘণ্টা, ডিসেম্বর ১৭, ২০১৭ এসকে/বিএস 
