ঢাকা: জাতীয় বিশ্ববিদ্যালয়ের ২০১৬ সালের অনার্স দ্বিতীয় বর্ষ (বিশেষ) ও তৃতীয় বর্ষের (বিশেষ) পরীক্ষার ফরম পূরণ আগস্টে শুরু হবে।
বৃহস্পতিবার (২৮ জুলাই) জাতীয় বিশ্ববিদ্যালয়ের পাঠানো এক সংবাদ বিজ্ঞপ্তিতে এ তথ্য জানানো হয়েছে।
এতে বলা হয়, অনার্স দ্বিতীয় বর্ষের (বিশেষ) পরীক্ষার ফরম পূরণ আগামী ৭ আগস্ট এবং তৃতীয় বর্ষের (বিশেষ) পরীক্ষার ফরম পূরণ আগামী ২ আগস্ট থেকে শুরু হবে।
শুধুমাত্র অনিয়মিত ও অকৃতকার্য শিক্ষার্থীরা ২০০৯-১০ হতে ২০১২-১৩ শিক্ষাবর্ষের সিলেবাসের এ পরীক্ষায় অংশ নিতে পারবে।
এছাড়া ফরম পূরণসহ অন্যান্য বিস্তারিত তথ্য জাতীয় বিশ্ববিদ্যালয়ের ওয়েবসাইট (www.nu.edu.bd) এবং (www.nubd.info) থেকে জানা যাবে বলেও বিজ্ঞপ্তিতে উল্লেখ করা হয়েছে।
