বরিশাল: শিশু-কিশোরদের বই পড়ায় উৎসাহী করতে বরিশালের সরকারি বালিকা মাধ্যমিক বিদ্যালয়ে শুরু হয়েছে তিন দিনব্যাপী বইমেলা।
মঙ্গলবার (২৫ এপ্রিল) সকালে ‘কৈশোর তারুণ্যে বই’ শীর্ষক এ বইমেলার উদ্বোধন করেন মাধ্যমিক ও উচ্চ মাধ্যমিক শিক্ষা অধিদফতর বরিশাল অঞ্চলের উপ-পরিচালক ড. মো. মোস্তাফিজুর রহমান।
ঢাকার প্রথম সারির আটটি প্রকাশনী এ বইমেলায় অংশ নিয়েছে। বইমেলা চলবে বৃহস্পতিবার (২৭ এপ্রিল) পর্যন্ত। কৈশোর-তারুণ্যকে জ্ঞান ও মননশীল পাঠে প্রণোদিত করতে শ্রেণিকক্ষের পাশেই এ মেলা নিয়ে যাওয়ার প্রত্যয় ব্যক্ত করেন আয়োজকরা।
উদ্বোধনী অনুষ্ঠানে আরও উপস্থিত ছিলেন বিদ্যালয়ের প্রধান শিক্ষক মাহবুবা হোসেন প্রম‍ুখ।
