ইউনিভার্সিটি অব লিবারেল আর্টসের (ইউল্যাব) প্রত্নতত্ত্ব গবেষণা কেন্দ্রের উদ্যোগে ‘মহাস্থানের প্রত্নতত্ত্ব ও ইতিহাসের নতুন অর্ন্তদৃষ্টি’ শীর্ষক সেমিনার অনুষ্ঠিত...
ঢাকা: ইউনিভার্সিটি অব লিবারেল আর্টসের (ইউল্যাব) প্রত্নতত্ত্ব গবেষণা কেন্দ্রের উদ্যোগে ‘মহাস্থানের প্রত্নতত্ত্ব ও ইতিহাসের নতুন অর্ন্তদৃষ্টি’ শীর্ষক সেমিনার অনুষ্ঠিত হয়েছে।
সোমবার (২৮ নভেম্বর) ইউল্যাব অডিটোরিয়ামে বিশ্ববিদ্যালয় প্রভোস্ট অধ্যাপক ব্রায়ান সোস্মিথের শুভেচ্ছা বক্তব্য দিয়ে সেমিনার শুরু হয়।
মহাস্থান এ ফরাসি-বাংলাদেশ যৌথ প্রত্নতাত্ত্বিক খননকার্য প্রকল্পের সাবেক পরিচালক ড. জোঁ ফ্রাঁসোয়া সালস প্রধান বক্তা হিসেবে উপস্থিত ছিলেন। এ সময় সেমিনারে বাংলাদেশে নিযুক্ত ফ্রান্সের রাষ্ট্রদূত সফি এবার্ট উপস্থিত ছিলেন।
