শিক্ষামন্ত্রী নুরুল ইসলাম নাহিদ মঙ্গলবার দুপুরে আকস্মিকভাবে বাংলাদেশ প্রকৌশল বিশ্ববিদ্যালয় (বুয়েট) পরিদর্শন করেন। এসময় বিজ্ঞান এবং তথ্য ও যোগাযোগ প্রযুক্তি প্রতিমন্ত্রী স্থপতি ইয়াফেস ওসমান মন্ত্রীর সঙ্গে ছিলেন।
ঢাকা: শিক্ষামন্ত্রী নুরুল ইসলাম নাহিদ মঙ্গলবার দুপুরে আকস্মিকভাবে বাংলাদেশ প্রকৌশল বিশ্ববিদ্যালয় (বুয়েট) পরিদর্শন করেন। এসময় বিজ্ঞান এবং তথ্য ও যোগাযোগ প্রযুক্তি প্রতিমন্ত্রী স্থপতি ইয়াফেস ওসমান মন্ত্রীর সঙ্গে ছিলেন।
শিক্ষামন্ত্রী সিভিল ইঞ্জিনিয়ারিং ভবনের চারতলা পর্যন্ত প্রতিটি ক্লাশে ঢুকে ছাত্রছাত্রীদের খোঁজখবর নেন। তাদের সঙ্গে কথা বলেন। শিক্ষক সমিতির কর্মবিরতির পর নতুন করে ক্লাশ শুরু হওয়ায় সন্তোষ প্রকাশ করে মন্ত্রী বলেন, ‘ছাত্রছাত্রীদের ক্ষতি পুষিয়ে নিতে বুয়েটের শিক্ষক-ছাত্রছাত্রীসহ সংশ্লিষ্ট সবাইকে ঐক্যবদ্ধভাবে প্রচেষ্টা চালাতে হবে।’
এ সময় ক্লাশ বন্ধ রাখার মতো আর কোন পরিস্থিতি সৃষ্টি হবে না বলে আশাবাদ ব্যক্ত করেন মন্ত্রী।
ছাত্রছাত্রীদের মেধাবী সন্তান উল্লেখ করে তিনি বলেন, শিক্ষা গ্রহণের উপযোগী পরিবেশ সংরক্ষণে সরকার সব সময় তাদের সঙ্গে আছে এবং থাকবে। সরকার, বিশ্ববিদ্যালয় প্রশাসন, শিক্ষক সমিতির নেতা, শিক্ষকসমাজ, কর্মকর্তা-কর্মচারী সবাই ছাত্রছাত্রীদের সুষ্ঠুভাবে ক্লাশ পরিচালনায় অঙ্গীকারাবদ্ধ।
পরে মন্ত্রী সিভিল ইঞ্জিনিয়ারিং বিভাগের শিক্ষকদের চা কক্ষে উপস্থিত শিক্ষকদের সঙ্গে কথা বলেন। শিক্ষক-ছাত্রছাত্রীসহ সংশ্লিষ্ট সবাই শিক্ষামন্ত্রীর আকস্কিক উপস্থিতিতে সন্তোষ প্রকাশ করেন।
