বরিশাল: বরিশাল সরকারি মডেল স্কুল অ্যান্ড কলেজ সরকারিকরণ করায় প্রধানমন্ত্রী শেখ হাসিনাকে শুভেচ্ছা ও অভিনন্দন জানিয়ে শোভাযাত্রা করা হয়েছে। 
মঙ্গলবার (২৪ অক্টোবর) সকালে কলেজের পরিচালনা পর্ষদ, শিক্ষক-কর্মচারী ও শিক্ষার্থীদের উদ্যোগে এ শোভাযাত্রা বের করা হয়। যা বরিশাল শহরের বিভিন্ন সড়ক প্রদক্ষিণ করে। 
এ সময় বরিশাল সরকারি মডেল স্কুল অ্যান্ড কলেজের অধ্যক্ষ মেজর সিরাজুল ইসলাম উকিলসহ শিক্ষক-শিক্ষার্থীরা উপস্থিত ছিলেন।
