আমি নিগার হাসান পূর্বা, এবার মতিঝিল আইডিয়াল স্কুল অ্যান্ড কলেজের বিজ্ঞান শাখা থেকে এইচএসসি পরীক্ষায় জিপিএ-৫ পেয়েছি। 
প্রথমত আজকে ‘এ প্লাস’ পাওয়ার জন্য প্রথম শুকরিয়া জানাই মহান আল্লাহর প্রতি। তারপরে আমার মা-বাবকে ধন্যবাদ; যারা এতো কষ্ট করেছেন, সময় দিয়েছেন আমাদের। 
আজকের এ ফলাফল অর্জন করতে পেরেছি আমার মা-বাবা আর কলেজের শিক্ষকদের জন্য। এ খুশি আমি ভাষায় প্রকাশ করতে পারছি না। 
সত্যিই আজ এটা অনেক বড় প্রাপ্তি। আশা করি সামনের বাধাও দূর করতে পারবো ও জীবনে বড় কিছু হতে পারবো। ভবিষ্যতে আমি একজন ইঞ্জিনিয়ার হতে চাই। 
