ঢাকা: ৩৭তম বিসিএস-এর লিখিত পরীক্ষার ফল প্রকাশ করেছে সরকারি কর্ম কমিশন (পিএসসি)। লিখিত পরীক্ষায় মোট ৫ হাজার ৩৭৯ জন প্রার্থী উত্তীর্ণ হয়েছেন বলে বুধবার (২৫ অক্টোবর) বিকেলে বাংলানিউজকে জানিয়েছেন পিএসসি’র পরীক্ষা নিয়ন্ত্রক (ক্যাডার) আ.ই.ম নেছার উদ্দিন।
তিনি জানান, টেলিটক মোবাইল থেকে এসএমএস এবং পিএসসির ওয়েবসাইট (www.bpsc.gov.bd) লগইন করে ফল জানা যাবে। এসএমএস-এ ফল পেতে PSC 37 Registration Number লিখে 16222 নম্বরে পাঠাতে হবে। ফিরতি এসএমএস-এ ফল জানা যাবে।
গত ফেব্রুয়ারি-মার্চে ৩৭তম বিসিএসের লিখিত পরীক্ষা অনুষ্ঠিত হয়।
২০১৬ সালের ৩০ সেপ্টেম্বর অনুষ্ঠিত ৩৭তম বিসিএসের প্রিলিমিনারি পরীক্ষায় ৮ হাজার ৫২৩ জন উত্তীর্ণ হন। প্রিলিমিনারিতে দুই লাখ ৪৩ হাজার ৪৭৬ জন চাকরিপ্রার্থী অংশ নেন।   প্রথম শ্রেণির গেজেটেড কর্মকর্তা হিসেবে এক হাজার ২২৬ জনকে নিয়োগ দিতে ২০১৬ সালের ২৯ ফেব্রুয়ারি ৩৭তম বিসিএসের বিজ্ঞপ্তি প্রকাশ করেছিল পিএসসি।
