ঢাকা: জাতীয় বিশ্ববিদ্যালয়ের ২০১৫-১৬ শিক্ষাবর্ষে মাস্টার্স (নিয়মিত) প্রোগ্রামে ভর্তি কার্যক্রমে রিলিজ স্লিপে অনলাইন আবেদনের সময়সীমা আগামী ১০ অক্টোবর রাত ১২টা পর্যন্ত বৃদ্ধি করা হয়েছে। বুধবার (৪ অক্টোবর) বিকেল ৪টা থেকে শুরু হয়ে ভর্তি কার্যক্রম শুরু হবে।
মঙ্গলবার (০৩ অক্টোবর) দুপুরে বিশ্ববিদ্যালয়ের পক্ষ থেকে পাঠানো এক প্রেস বিজ্ঞপ্তিতে এ তথ্য জানানো হয়েছে।
এতে জানানো হয়, মেধা তালিকায় স্থান পায়নি, স্থান পেয়েও ভর্তি হয়নি, ভর্তি বাতিল করেছে এবং যে সব প্রার্থীর প্রাথমিক আবেদন কলেজ কর্তৃক নিশ্চয়ন করা হয়েছে ওই সব শিক্ষার্থী রিলিজ স্লিপে আবেদন করতে পারবে।
