ঢাকা: জাতীয় বিশ্ববিদ্যালয়ের ২০১৬ সালের তৃতীয় বর্ষ (অনার্স) নিয়মিত পরীক্ষা আগামী ৬ মে থেকে শুরু হবে।
বুধবার (১২ এপ্রিল) দুপুরে সংবাদ মাধ্যমে পাঠানো এক বিজ্ঞপ্তিতে এ তথ্য জানানো হয়।
বিজ্ঞপ্তিতে বলা হয়,  ২০১৬ সালের তৃতীয় বর্ষ অনার্স নিয়মিত পরীক্ষা ৬ মে থেকে শুরু হয়ে চলবে ৭ জুন পর্যন্ত।
৬ মে থেকে ২৫ মে পর্যন্ত অনুষ্ঠেয় পরীক্ষাগুলো প্রতিদিন দুপুর ২টা থেকে শুরু হবে এবং রমজান মাসে ২৯ মে থেকে ৭ জুন পর্যন্ত পরীক্ষাগুলো প্রতিদিন সকাল ৯টা থেকে শুরু হবে।
বিস্তারিত সময়সূচি জাতীয় বিশ্ববিদ্যালয়ের ওয়েবসাইটে পাওয়া যাবে।
