বগুড়া সরকারি মুজিবুর রহমান মহিলা কলেজের সব শ্রেণির ছাত্রীদের মধ্যে ‘ক্লাসে সর্বোচ্চ উপস্থিতি পুরস্কার -২০১৬’ বিতরণ করা হয়েছে। বুধবার (০৯ নভেম্বর) দুপুরে কলেজ ক্যাম্পাসে পুরস্কার বিতরণী অনুষ্ঠানে সভাপতিত্ব করেন অধ্যক্ষ প্রফেসর মো. হোসেন সহিদ মাহবুবুর রহমান।
বগুড়া: বগুড়া সরকারি মুজিবুর রহমান মহিলা কলেজের সব শ্রেণির ছাত্রীদের মধ্যে ‘ক্লাসে সর্বোচ্চ উপস্থিতি পুরস্কার -২০১৬’ বিতরণ করা হয়েছে।
 
  বুধবার (০৯ নভেম্বর) দুপুরে কলেজ ক্যাম্পাসে পুরস্কার বিতরণী অনুষ্ঠানে সভাপতিত্ব করেন অধ্যক্ষ প্রফেসর মো. হোসেন সহিদ মাহবুবুর রহমান।
