খুলনা: স্বাধীনতা ও মুক্তিযুদ্ধের চেতনায় বিশ্বাসী খুলনা বিশ্ববিদ্যালয়ে (খুবি) শিক্ষকদের সংগঠন স্বাধীনতা শিক্ষক পরিষদের (স্বাশিপ) ১৩ সদস্যের পূর্ণাঙ্গ নির্বাহী কমিটি গঠিত হয়েছে।
বুধবার (১৩ ডিসেম্বর) রাতে বিশ্ববিদ্যালয় ক্লাবে অনুষ্ঠিত সাধারণ সভায় প্রথম পূর্ণাঙ্গ এ কমিটি গঠিত হয়।
নবগঠিত এ নির্বাহী কমিটির সভাপতি প্রফেসর ড. অনির্বাণ মোস্তফা, সহ-সভাপতি প্রফেসর ড. হোসনে আরা, সাধারণ সম্পাদক মো. সাদিকুল আমিন, যুগ্ম-সাধারণ সম্পাদক ড. আহসান হাবীব, কোষাধ্যক্ষ নাজিয়া হাসান, প্রচার সম্পাদক ড. নিহার রঞ্জন সিংহ, ক্রীড়া ও সাংস্কৃতিক সম্পাদক জাহিদা আখতার, শিক্ষা ও গবেষণা সম্পাদক ইমরান কামাল।
এছাড়া নির্বাহী কমিটির পাঁচ সদস্য হলেন- মো. মহিউদ্দিন, নিসাদ নাসরীন, লোপা ইসলাম, হামালনা নিজাম এবং সুদীপ দেবনাথ।
স্বাশিপের প্রচার সম্পাদক ড. নিহার রঞ্জন সিংহ বাংলানিউজকে এ তথ্য জানান।
