ময়মনসিংহের ত্রিশালে প্রতিষ্ঠিত জাতীয় কবি কাজী নজরুল ইসলাম বিশ্ববিদ্যালয়ে ২০১৬-১৭ শিক্ষাবর্ষের প্রথম বর্ষ স্নাতক (সম্মান) শ্রেণিতে ৫টি ইউনিটে ভর্তি পরীক্ষা আগামী ২৪ নভেম্বর থেকে শুরু হচ্ছে।
ময়মনসিংহ: ময়মনসিংহের ত্রিশালে প্রতিষ্ঠিত জাতীয় কবি কাজী নজরুল ইসলাম বিশ্ববিদ্যালয়ে ২০১৬-১৭ শিক্ষাবর্ষের প্রথম বর্ষ স্নাতক (সম্মান) শ্রেণিতে ৫টি ইউনিটে ভর্তি পরীক্ষা আগামী ২৪ নভেম্বর থেকে শুরু হচ্ছে। এ পরীক্ষা চলবে আগামী ২৮ নভেম্বর পর্যন্ত।
বৃহস্পতিবার (০১ সেপ্টেম্বর) দুপুরে বিশ্ববিদ্যালয়ের উপাচার্য অধ্যাপক ড. মোহিত উল আলমের সভাপতিত্বে তার অফিসে কেন্দ্রীয় ভর্তি কমিটির সভায় এ সিদ্ধান্ত নেওয়া হয়।
পরে বিশ্ববিদ্যালয়ের উপাচার্য দফতরের উপ-পরিচালক (জনসংযোগ) এস.এম. হাফিজুর রহমানের সই করা এক প্রেস বিজ্ঞপ্তিতে এ তথ্য জানানো হয়।
বিজ্ঞপ্তিতে জানানো হয় আগামী ০১ অক্টোবর হতে ১২ নভেম্বর পর্যন্ত আবেদন জমা নেওয়া হবে। ২৪ নভেম্বর ক ইউনিট, ২৫ নভেম্বর খ ইউনিট, ২৬ নভেম্বর গ ইউনিট, ২৭ নভেম্বর ঘ ইউনিট এবং ২৮ নভেম্বর ঙ ইউনিটের পরীক্ষা অনুষ্ঠিত হবে।
প্রত্যেক ইউনিটে আবেদন করতে ৬শ টাকা দিতে হবে। ভর্তি পরীক্ষার অন্যান্য তথ্যাদি পরবর্তীতে বিভিন্ন পত্রিকা ও বিশ্ববিদ্যালয়ের ওয়েবসাইটে দেওয়া হবে।  
বাংলাদেশ সময়: ১৮০৪ ঘণ্টা, সেপ্টেম্বর ০১, ২০১৬ এমএএএম/এসএনএস
