জামায়াতের হরতালের কারণে এইচএসসি ও সমমানের একদিনের পরীক্ষা পেছানো হয়েছে।  এইচএসসিতে আগামী রোববারের (৮ মে) পরীক্ষাগুলো পরের দিন সোমবার (৯ মে) একই সময়ে অনুষ্ঠিত হবে...
ঢাকা: জামায়াতের হরতালের কারণে এইচএসসি ও সমমানের একদিনের পরীক্ষা পেছানো হয়েছে।  
এইচএসসিতে আগামী রোববারের (৮ মে) পরীক্ষাগুলো পরের দিন সোমবার (৯ মে) একই সময়ে অনুষ্ঠিত হবে বলে বাংলানিউজকে জানিয়েছেন ঢাকা শিক্ষা বোর্ডের চেয়ারম্যান মো. মাহবুবুর রহমান।
আর মাদ্রাসা বোর্ডের অধীন আলিমের পরীক্ষাগুলো ২২ মে অনুষ্ঠিত হবে বলে জানিয়েছেন বোর্ডের  চেয়ারম্যান একেএম ছায়েফ উল্ল্যা।
এছাড়া, কারিগরি শিক্ষা বোর্ডের অধীনে এইচএসসি (বিএম) একাদশ শ্রেণির রোববারের ‘ব্যবসায় গণিত ও পরিসংখ্যান’ পরীক্ষাও পরের দিন সোমবার সকাল ১০টায় অনুষ্ঠিত হবে।
তবে অন্যান্য পরীক্ষার সময়সূচি অপরিবর্তিত থাকবে বলে জানিয়েছেন শিক্ষা মন্ত্রণালয়ের ‍উপ-সচিব সুবোধ চন্দ্র ঢালী।
