ঢাকা বিশ্ববিদ্যালয়ে ২০১১-১২ শিক্ষাবর্ষে খ-ইউনিটের অধীনে ১ম বর্ষ স্নাতক সম্মান শ্রেণীর ভর্তি পরীক্ষা শুক্রবার অনুষ্ঠিত হয়েছে।
ঢাকা: ঢাকা বিশ্ববিদ্যালয়ে ২০১১-১২ শিক্ষাবর্ষে খ-ইউনিটের অধীনে ১ম বর্ষ স্নাতক সম্মান শ্রেণীর ভর্তি পরীক্ষা শুক্রবার অনুষ্ঠিত হয়েছে।
পরীক্ষা সকাল ১০টা থেকে শুরু হয়ে বেলা ১১টা পর্যন্ত চলে।
শুক্রবার ঢাবি প্রক্টর আমজাদ আলী বাংলানিউজকে জানান, ‘খ’ ইউনিটের ভর্তি পরীক্ষা সুষ্ঠু ও শান্তিপূর্ণভাবে সম্পন্ন  হয়েছে।
