ময়মনসিংহ: ময়মনসিংহের ত্রিশালে প্রতিষ্ঠিত জাতীয় কবি কাজী নজরুল ইসলাম বিশ্ববিদ্যালয়ে আসন্ন শারদীয় দুর্গাপূজা ও মহরম উপলক্ষে আগামী ২৪ সেপ্টেম্বর থেকে ছুটি শুরু হচ্ছে । আগামী ১ অক্টোবর পর্যন্ত বিশ্ববিদ্যালয়ের সব ক্লাস-পরীক্ষা ও অফিস বন্ধ থাকবে।
বৃহস্পতিবার (২১ সেপ্টেম্বর) বিকেলে বিশ্ববিদ্যালয়ের রেজিস্ট্রার (ভারপ্রাপ্ত) কৃষিবিদ ড. হুমায়ুন কবির বাংলানিউজকে এ তথ্য নিশ্চিত করেন।
আগামী ২ অক্টোবর থেকে যথারীতি বিশ্ববিদ্যালয়ের ক্লাস, পরীক্ষা ও অফিস খোলা থাকবে বলেও জানানা তিনি।
