পটুয়াখালী: পটুয়াখালী বিজ্ঞান ও প্রযুক্তি বিশ্ববিদ্যালয়ের ইকোনোমিক্স অ্যান্ড সোসিওলজি বিভাগের উদ্যোগে সেমিনার অনুষ্ঠিত হয়েছে।
রোববার (২৩ জুলাই) সকালে বিশ্ববিদ্যালয়ের আইকিউএসি সেমিনার কক্ষে ‘ইফেক্টস অব ম্যানাজারিয়াল প্র্যাকটিসেস অন প্রোডাক্টিভিটি প্রটিটাবিলিটি ডিফারেন্সিয়ালস ফর পাঙগাস অ্যান্ড তেলাপিয়া ফার্মস অব ভেরিং স্কেলস অব অপারেশন অ্যান্ড টেনার সিস্টেম’ শীর্ষক এ সেমিনারের আয়োজন করা হয়।
ইকোনোমিক্স অ্যান্ড সোসিওলজি বিভাগীয় চেয়ারম্যান প্রফেসর বদীউজ্জামানের সভাপতিত্বে প্রধান অতিথির বক্তব্য রাখেন- ভাইস-চ্যান্সেলর প্রফেসর ড. মো. হারুন-অর- রশিদ, প্রো-ভাইস চ্যান্সেলর প্রফেসর মোহাম্মদ আলী, বাংলাদেশ কৃষি বিশ্ববিদ্যালয়ের কৃষি অর্থসংস্থান বিভাগের প্রফেসর ড. আখতারুজ্জামান খান, কৃষি অর্থনীতি বিভাগের প্রফেসর ড. মো. সাইদুর রহমান, প্রফেসর ফকির আজমল হুদা।
সেমিনার সঞ্চালনা করেন- সহযোগী অধ্যাপক ড. মো. সুজাহাঙ্গীর কবির সরকার।
সেমিনারে বিশ্ববিদ্যালয়ের বিভিন্ন অনুষদের ডিন, বিভাগীয় চেয়ারম্যান, শিক্ষকসহ ৪০ জন অংশ নেন।
