ঢাকা: জাতীয় বিশ্ববিদ্যালয়ের ২০১৫ সালের মাস্টার্স এমএ/এমএসএস/এমবিএস/এমএসসি ও এম মিউজ শেষপর্ব (আইসিটিসহ) পরীক্ষার আবেদন ফরম পূরণ শুরু হয়েছে। 
শুক্রবার (২৭ অক্টোবর) বিশ্ববিদ্যালয়ের পক্ষ থেকে পাঠানোর এক প্রেস বিজ্ঞপ্তিতে এ তথ্য জানানো হয়।
এতে জানানো হয়, অনলাইনে আগামী ২৬ নভেম্বর পর্যন্ত এ ফরম পূরণ চলবে। বিস্তারিত বিশ্ববিদ্যালয়ের ওয়েব সাইট www.nubd.info/mf থেকে জানা যাবে।  
