ফেনী: এবারের এইচএসসির ফলাফলে ফেনীতে শীর্ষে রয়েছে গার্লস ক্যাডেট কলেজ। এ কলেজ থেকে ৫৭ জন পরীক্ষার্থী অংশ নিয়ে ৫২ জন জিপিএ-৫ পেয়েছে। শতভাগ পাসসহ বাকি ৫ জন পেয়েছে জিপিএ ৪।
কলেজের অধ্যক্ষ জাহানারা চৌধুরী বাংলানিউজকে জানান, ছাত্রীদের অধ্যয়ন, একাগ্রতা আর শিক্ষকদের ঐকান্তিক প্রচেষ্টার কারণে ফলাফলের এ ধারাবাহিকতা রক্ষা করা সম্ভব হয়েছে।
অপরদিকে ২য় স্থানে রয়েছে শহরতলীর জয়নাল হাজারী কলেজ। এ কলেজ থেকে ৩৯৪ জন শিক্ষার্থী পরীক্ষা দিয়ে কৃতকার্য হয়েছে ২৬৮ জন। কেউ জিপিএ ৫ না পেলেও পাসের হার ৬৮.৩৭ শতাংশ।  
