গাজীপুর: বাংলাদেশ উন্মুক্ত বিশ্ববিদ্যালয়ের (বাউবি) অধীনে ২০১৮ সালের মাধ্যমিক স্কুল সার্টিফিকেট (এসএসসি) পরীক্ষা শুক্রবার (১২ জানুয়ারি) থেকে শুরু হচ্ছে। 
বৃহস্পতিবার (১১ জানুয়ারি) বাউবি’র এক সংবাদ কিজ্ঞপ্তিতে এ তথ্য জানানো হয়। 
এতে বলা হয়, সারাদেশে প্রথম ও দ্বিতীয়বর্ষে ১ লাখ ৮শ ৯৬ জন পরীক্ষার্থী এসএসসি পরীক্ষায় অংশ নেবে। এরমধ্যে ৬২ হাজার ২শ ২৩ জন ছাত্র এবং ৩৮ হাজার ৬শ ৭৩ জন ছাত্রী। সারাদেশে ৩৬১টি কেন্দ্রে একযোগে এ পরীক্ষা অনুষ্ঠিত হবে। 
এ পরীক্ষা প্রতি শুক্রবার ও শনিবার সকাল-বিকেলে অনুষ্ঠিত হবে। আগামী ২ মার্চ পরীক্ষা শেষ হবে বলেও বিজ্ঞপ্তিতে জানানো হয়েছে।
