ধামরাই (ঢাকা): ধামরাইয়ে ১৫২টি স্কুলের শিক্ষার্থীদের মধ্যে বিনামূল্যে বই বিতরণ করা হয়েছে।
রোববার (১ জানুয়ারি) সকাল ১০টায় প্রধান অতিথি হিসেবে উপস্থিত থেকে ধামরাই হার্ডিঞ্জ উচ্চ বিদ্যালয়ে প্রথমে শিক্ষার্থীদের হাতে বই তুলে দেন ঢাকা-২০ আসনের সংসদ সদস্য এম এ মালেক।
বই বিতরণ কর্মসূচিতে বিশেষ অতিথি ছিলেন- লায়ন মিনা মালেক, উপজেলা নিবার্হী কর্মকর্তা (ইউএনও) মো. আবুল কালাম, উপজেলা ভূমি কর্মকর্তা তাসলিমা মোস্তারী মুক্তা, উপজেলা মাধ্যমিক শিক্ষা কর্মকর্তা মো. জাকির হোসেন, উপজেলা প্রাথমিক শিক্ষা কর্মকর্তা কাজী রাশেদ মামুনসহ অন্যান্য শিক্ষক ও রাজনৈতিক বৃন্দ।
