ঢাকা: দুই হাজার ৭৩ জনকে বিভিন্ন ক্যাডারে নিয়োগ দিয়ে ৩৫তম বিসিএসের প্রজ্ঞাপন জারি করেছ সরকার। রোববার (২ এপ্রিল) বিকেলে জনপ্রশাসন মন্ত্রণালয় এ প্রজ্ঞাপন প্রকাশ করে।
প্রজ্ঞাপন অনুযায়ী, প্রার্থীদের আগামী ২ মে ক্যাডার নিয়ন্ত্রণকারী মন্ত্রণালয়ে চাকরিতে যোগ দিতে হবে। প্রার্থীদের তালিকা জনপ্রশাসন মন্ত্রণালয়ের ওয়েবসাইটে (www.mopa.gov.bd) পাওয়া যাবে।
গত বছরের ১৭ আগস্ট ৩৫তম বিসিএসের মৌখিক পরীক্ষার ফল প্রকাশ করে সরকারি কর্ম কমিশন (পিএসসি), যাতে বিভিন্ন ক্যাডারে ২ হাজার ১৫৮ জনকে নিয়োগের সুপারিশ করা হয়।
তার আগে ওই বছরের ১৩ জানুয়ারি ৩৫তম বিসিএসের লিখিত পরীক্ষার ফল প্রকাশ করা হয়, যাতে উত্তীর্ণ হয়েছেন ৬ হাজার ৮৮ জন।
২০১৫ সালের ১ সেপ্টেম্বর থেকে ৩৫তম বিসিএসের লিখিত পরীক্ষা শুরু হয়, শেষ হয় ১০ অক্টোবর।
সর্বোচ্চ দুই লাখ ৪৪ হাজার ১০৭ জন প্রার্থী নিয়ে ২০১৫ সালের ৬ মার্চ ৩৫তম বিসিএসের প্রিলিমিনারি পরীক্ষা অনুষ্ঠিত হয়।
বিসিএস বিধিমালা সংশোধনের পর নতুন নিয়ম ও সিলেবাসে ২০০ নম্বরে দুই ঘণ্টার প্রিলিমিনারি পরীক্ষা নেওয়া হয়। প্রতিটি শুদ্ধ উত্তরের জন্য ছিল এক নম্বর। আর ভুল উত্তরের জন্য শূন্য দশমিক ৫০ নম্বর কাটা হয়। আগে ১০০ নম্বরে এক ঘণ্টা প্রিলিমিনারি পরীক্ষা অনুষ্ঠিত হতো।   ওই বছরের ৮ এপ্রিল প্রিলিমিনারি পরীক্ষার ফল প্রকাশ করে পিএসসি, যাতে উত্তীর্ণ হয় ২০ হাজার ৩৯১ জন।   বিভিন্ন ক্যাডারে এক হাজার ৮০৩ জন প্রার্থী নিতে ২০১৪ সালের ২৩ সেপ্টেম্বর বিজ্ঞপ্তি প্রকাশ করে পিএসসি।
