থাইল্যান্ডের নর্থ চিয়াং মাই ইন্টারন্যশনাল কলেজ, চিয়াং মাই ইউনিভার্সিটি (এনসিএমআইসি) ও কানাডিয়ান ইউনিভার্সিটি অব বাংলাদেশ (সিইউবি) এর মধ্যে চুক্তি স্বাক্ষরিত হয়েছে।
ঢাকা: থাইল্যান্ডের নর্থ চিয়াং মাই ইন্টারন্যশনাল কলেজ, চিয়াং মাই ইউনিভার্সিটি (এনসিএমআইসি) ও কানাডিয়ান ইউনিভার্সিটি অব বাংলাদেশ (সিইউবি) এর মধ্যে চুক্তি স্বাক্ষরিত হয়েছে।
বৃহস্পতিবার (০১ সেপ্টেম্বর) সিইউবি থেকে সংবাদমাধ্যমে পাঠানো এক বিজ্ঞপ্তিতে এ তথ্য জানানো হয়।
এতে বলা হয়, এ চুক্তি স্বাক্ষরিত অনুষ্ঠানে দুই বিশ্ববিদ্যালয়ের ঊর্ধ্বতন কর্মকর্তারা উপস্থিত ছিলেন।
এ চুক্তির ফলে শিক্ষার্থীরা এখন থেকে সিউবিতে দুই বছর পড়াশুনা করে পরবর্তী দুই বছর এনসিএমআইসি’তে পড়াশুনা করতে পারবেন। সেই সঙ্গে ইন্টার্নশিপ শেষে তারা ট্যুরিজম অ্যান্ড হসপিটালিটি ম্যানেজম্যান্টের ওপর ডিগ্রি অর্জন করবে যা চিয়াং মাই ইউনিভার্সিটি থেকে দেওয়া হবে।
