বরিশাল: মাধ্যমিক স্কুল সার্টিফিকেট (এসএসসি) পরীক্ষায় এ বছর গণিতে পরীক্ষার্থীরা তুলনামূলক খারাপ করেছে বলে জানিয়েছেন বরিশাল শিক্ষা বোর্ডের পরীক্ষা নিয়ন্ত্রক প্রফেসর মো. আনোয়ারুল আজিম।
তিনি বলেন, গণিত শিক্ষক অপ্রতুল হওয়ায় এমনটা হতে পারে। পাশাপাশি মফস্বলে সায়েন্সের শিক্ষকেরও ঘাটতি রয়েছে।
বৃহস্পতিবার (৪ মে) বেলা পৌনে ১১টায় সংবাদ সম্মেলনে পরীক্ষা নিয়ন্ত্রক মো. আনোয়ারুল আজিম এ কথা বলেন।
তিনি বলেন, আগে এক এক পরীক্ষক তাদের মতো করে খাতা দেখতেন, নম্বর দিতেন। এবার আমরা তা একটি নিয়মের মধ্যে নিয়ে আসায় মার্কস দেওয়ার বেলায় বাড়তি-কমতি হয়নি। এ কারণের সঙ্গে আরও যোগ হয়েছে কেরিয়ার শিক্ষা, শারীরিক শিক্ষা ও স্বাস্থ্য বিজ্ঞান নামের দুটি বাড়তি বিষয়। বাড়তি পরীক্ষার্থী ও দু’টি বাড়তি বিষয়ের কারণে অকৃতকার্যের সংখ্যা কিছুটা বেড়েছে।
পাশাপাশি বরিশাল বোর্ডের আওতায় কোস্টাল বেল্টের অনেক এরিয়া রয়েছে, যেগুলোতে যোগাযোগ ব্যবস্থার উন্নতি সাধিত এখনো হচ্ছে। এটাও একটি বিষয় হতে পারে বলেও তিনি মনে করেন।
পাসের হার কমেছে বরিশাল মাধ্যমিক ও উচ্চ মাধ্যমিক শিক্ষা বোর্ডে মাধ্যমিক পরীক্ষায় প্রকাশিত ফলাফলে। গেল বছরের চেয়ে পাসের হার দুই দশমিক ১৭ ভাগ কমে এবার দাঁড়িয়েছে ৭৭ দশমিক ২৪ শতাংশে।
