ঢাকা বিশ্ববিদ্যালয়: ঢাকা বিশ্ববিদ্যালয়ের ডেভেলপমেন্ট স্টাডিজ বিভাগের ২৫ জন শিক্ষার্থী বৃত্তি পেয়েছেন।
মঙ্গলবার (২৮ মার্চ) বিশ্ববিদ্যালয়ের সামাজিক বিজ্ঞান অনুষদের মোজাফ্ফর আহমদ চৌধুরী মিলনায়তনে এক অনুষ্ঠানে উপাচার্য অধ্যাপক ড. আ আ ম স আরেফিন সিদ্দিক শিক্ষার্থীদের হাতে বৃত্তির চেক তুলে দেন। 
বৃত্তিপ্রাপ্তদের মধ্যে ২০ জনকে ‘গভর্নর বৃত্তি’ এবং ৫ জনকে ‘অধ্যাপক আসাদুজ্জামান স্মারক বৃত্তি’ দেওয়া হয়েছে। অধ্যাপক ড. মোহাম্মদ আসাদুজ্জামান ফাউন্ডেশন এ অনুষ্ঠানের আয়োজন করে।   অনুষ্ঠানে উপাচার্য বলেন, অধ্যাপক ড. আসাদুজ্জামান একজন কাজ পাগল মানুষ ছিলেন। সততা ও নিষ্ঠার সঙ্গে তিনি বিভিন্ন গুরুত্বপূর্ণ দায়িত্ব পালন করেছেন। ছাত্র ও শিক্ষকদের কল্যাণে তিনি নিরলসভাবে কাজ করেছেন। 
আসাদুজ্জামানের জীবন ও কর্ম অনুসরণ করে নিজেদের ভালো মানুষ হিসেবে গড়ে তোলার জন্য তিনি শিক্ষার্থীদের প্রতি আহ্বান জানান।
ফাউন্ডেশনের চেয়ারম্যান অধ্যাপক ড. সিরাজুল ইসলাম চৌধুরীর সভাপতিত্বে অনুষ্ঠানে বাংলাদেশ ব্যাংকের সাবেক গভর্নর অধ্যাপক ড. আতিউর রহমান বিশেষ অতিথি হিবেবে উপস্থিত ছিলেন।
‘অধ্যাপক ড. মোহাম্মদ আসাদুজ্জামান স্মারক বক্তৃতা’ দেন ডেভেলপমেন্ট স্টাডিজ বিভাগের অধ্যাপক ড. নিয়াজ আহমেদ খান। স্বাগত বক্তব্য দেন ডেভেলপমেন্ট স্টাডিজ বিভাগের চেয়ারম্যান অধ্যাপক ড. মোহাম্মদ আবু ইউসুফ। ধন্যবাদ জ্ঞাপন করেন প্রয়াত অধ্যাপক আসাদুজ্জামানের সহধর্মিনী মিসেস ফাতেমা জামান।
