ঢাকা: প্রশ্নফাঁস বা ফাঁসের চেষ্টা করা হলেও অপরাধীদের বিরুদ্ধে কঠোর ব্যবস্থা নেওয়া হবে বলে জানিয়েছেন শিক্ষামন্ত্রী নুরুল ইসলাম নাহিদ।
তিনি বলেছেন, প্রশ্নপত্র ফাঁস রোধে যা যা করা সম্ভব সব করেছি। এমন কোনো ব্যবস্থা নেই যা আমরা গ্রহণ করিনি। আমরা খুবই কঠোর অবস্থান নিয়েছি। তারপরও যদি কেউ প্রশ্নপত্র ফাঁস বা ফাঁসের চেষ্টা করে তার বিরুদ্ধে কী ব্যবস্থা নেওয়া হবে আমি নিজেও জানি না!
বৃহস্পতিবার (০১ ফেব্রুয়ারি) সকালে রাজধানীর ধানমন্ডি গভর্নমেন্ট ল্যাবরেটরি হাইস্কুল কেন্দ্র পরিদর্শন শেষে সাংবাদিকদের একথা বলেন শিক্ষামন্ত্রী।
নুরুল ইসলাম নাহিদ বলেন, প্রশ্নপত্র ফাঁস রোধে আমরা ইতিমধ্যেই অনেক ব্যবস্থা নিয়েছি। এগুলোর সব এখন বলতে চাচ্ছি না। গোয়েন্দা বাহিনী এ ব্যাপারে সক্রিয় রয়েছে। মূল কথা হচ্ছে, প্রশ্নপত্রের ফাঁসের চেষ্টা করা হলে কাউকেই রেহাই দেওয়া হবে না।
এরপরেও যদি কোনো পরীক্ষার প্রশ্নপত্র ফাঁস হয়ে যায় সেই পরীক্ষা বাতিল করা হবে বলে জানান শিক্ষামন্ত্রী। এক প্রশ্নের জবাবে দেশের রাজনৈতিক দলগুলোর উদ্দেশে নাহিদ বলেন, সবার কাছে অনুরোধ জানাচ্ছি, শিক্ষার্থীরা আমাদের দেশের ভবিষ্যত। তাদের জীবন নষ্ট হলে জাতির ভবিষ্যত নষ্ট হয়ে যাবে। তাই এমন কিছু করবেন না যাতে করে পরীক্ষা নিতে সমস্যা হয়। বিএনপির চেয়ারপারসন খালেদা জিয়ার দুর্নীতি মামলার রায়কে কেন্দ্র করে যদি দেশে কোনো অস্থিতিশীল পরিস্থিতির সৃষ্টি হয় তবুও সুষ্ঠুভাবে পরীক্ষা চলবে বলেও জানান শিক্ষামন্ত্রী।
প্রশ্নফাঁস ঠেকাতে নজিরবিহীন কড়া পরিবেশের মধ্যে এসএসসি ও সমমানের পরীক্ষা শুরু হয়েছে বৃহস্পতিবার। শিক্ষা মন্ত্রণালয়ের নির্দেশনায় শিক্ষার্থীরা এবারই প্রথম পরীক্ষা শুরুর ৩০ মিনিট আগেই কেন্দ্রে উপস্থিত হয়ে নিজ আসনে বসেছে।
চলতি বছর ৩ হাজার ৪১২টি কেন্দ্রে ২০ লাখ ৩১ হাজার ৮৮৯ জন পরীক্ষার্থী অংশ নিচ্ছে। এরমধ্যে ১০ লাখ ২৩ হাজার ২১২ জন ছাত্র এবং ছাত্রীর সংখ্যা ১০ লাখ ৮ হাজার ৬৮৭ জন।
প্রথম দিন সকাল ১০টা থেকে ১টা পর্যন্ত এসএসসিতে বাংলা (আবশ্যিক) প্রথমপত্র, সহজ বাংলা প্রথমপত্র এবং বাংলা ভাষা ও বাংলাদেশের সংষ্কৃতি বিষয়ের পরীক্ষা অনুষ্ঠিত হচ্ছে। দাখিলে কুরআন মাজিদ ও তাজবিদ বিষয়ের পরীক্ষা চলছে।
