রাজশাহী: নর্থ বেঙ্গল ইন্টারন্যাশনাল ইউনিভার্সিটির (এনবিআইই)  ইসলামের ইতিহাস ও সংস্কৃতি বিভাগের মাস্টার্স প্রোগ্রামের এমএ (২ বছর) মেয়াদী ফল সেমিস্টার-২০১৫ এর ৫ম ব্যাচের শিক্ষার্থীদের বিদায় সংবর্ধনা অনুষ্ঠিত হয়েছে। 
শুক্রবার (১৫ সেপ্টেম্বর) বিকেলে রাজশাহী মহানগরীর মাস্টার সেফ রেস্তরাঁর হলরুমে এই অনুষ্ঠানের আয়োজন করা হয়। অনুষ্ঠানে প্রধান অতিথি হিসেবে বক্তব্য রাখেন ইউনির্ভাসিটির উপাচার্য প্রফেসর ড. আবদুল খালেক। 
বিশেষ অতিথি হিসেবে উপস্থিত ছিলেন কোষাধ্যক্ষ প্রফেসর ওবায়দুর রহমান প্রামাণিক, কলা ও সামাজিক বিজ্ঞান অনুষদের ডিন প্রফেসর ড. এম. ওয়াজেদ আলী, বিভাগের প্রফেসর ড. মোসা. ছায়িদা আকতার। বিভাগের কো-অর্ডিনেটর ও প্রক্টর ড. আজিবার রহমান, বিভাগের প্রভাষক হাফিজুর রহমান ও আব্দুল্লাহ সরকার।
