ইবি (কুষ্টিয়া): কুষ্টিয়া ইসলামী বিশ্ববিদ্যালয় (ইবি) শিক্ষক সমিতির কার্য নির্বাহী পরিষদ নির্বাচন-২০১৪ এর ভোটগ্রহণ শেষ হয়েছে। 
 
সোমবার সকাল ৯টা থেকে শুরু হয়ে দুপুর ২টা পর্যন্ত ভোটগ্রহণ চলে। এতে ৩৫৬ জন ভোটারের  মধ্যে ৩২৪ জন ভোটাধিকার প্রয়োগ করেছেন। 
 
প্রগতিশীল শিক্ষকদের বিরুদ্ধে নির্বাচনে প্রভাব বিস্তারের অভিযোগ এনে নিবার্চন থেকে বিএনপি-জামায়াতপন্থী শিক্ষকরা সরে দাঁড়ালে ভোটগ্রহণ সকাল ১০টার দিকে স্থগিত হয়ে  যায়। পরে সকাল ১০টা ২০ মিনিটের দিকে আবারো ভোটগ্রহণ শুরু হয়।
 
দুপুর ২টার দিকে  ভোটগ্রহণ শেষ হয়। দুপুরে বিরতির পর বর্তমানে ভোটগণনা চলছে। 
 
সন্ধ্যার পরে নির্বাচনের ফলাফল প্রকাশ হবে বলে নির্বাচন কমিশন সূত্রে জানা গেছে।
 
