জুমাতুল বিদা, পবিত্র শব-ই কদর ও পবিত্র ঈদ-উল ফিতর উপলক্ষে ১ জুলাই থেকে ১৪ জুলাই পর্যন্ত খুলনা বিশ্ববিদ্যালয় (খুবি) ছুটি ঘোষণা করা হয়েছে।
খুলনা: জুমাতুল বিদা, পবিত্র শব-ই কদর ও পবিত্র ঈদ-উল ফিতর উপলক্ষে ১ জুলাই থেকে ১৪ জুলাই পর্যন্ত খুলনা বিশ্ববিদ্যালয় (খুবি) ছুটি ঘোষণা করা হয়েছে।
ঈদ ছুটি এবং ১৫ ও ১৬ জুলাই সাপ্তাহিক ছুটি শেষে ১৭ জুলাই রোববার সকাল ৯টা থেকে যথারীতি বিশ্ববিদ্যালয়ের প্রশাসনিক ও একাডেমিক কার্যক্রম ফের শুরু হবে।
এদিকে বিশ্ববিদ্যালয়ের প্রভোস্ট কাউন্সিলের সভার সিদ্ধান্ত অনুযায়ী পবিত্র মাহে রমজান ও আসন্ন ঈদ-উল ফিতর উপলক্ষে ৪ জুলাই বিকেল ৫টা থেকে ৯ জুলাই পর্যন্ত বিশ্ববিদ্যালয়ের আবাসিক হলগুলো বন্ধ থাকবে।
এ কারণে হলে অবস্থানকারী সব শিক্ষার্থীকে আগামী ৪ জুলাই (সোমবার) বিকেল ৫টার মধ্যে তাদের স্ব স্ব হল ত্যাগ করার জন্য বলা হয়েছে। ১০ জুলাই রোববার সকাল ৮টা থেকে ফের স্ব স্ব হলে প্রবেশ করা যাবে।
