কেরানীগঞ্জ (ঢাকা): ঢাকার কেরানীগঞ্জে বই বিতরণ উৎসব ও অভিভাবক সমাবেশ অনুষ্ঠিত হয়েছে। রোববার (১ জানুয়ারি) বেলা সাড়ে ১১টার দিকে কেরানীগঞ্জ মডেল থানার তারানগর ইউনিয়নের ভাওয়াল মনোহরিয়া সরকারি প্রাথমিক বিদ্যালয় মাঠে এ অনুষ্ঠানের আয়োজন করে উপজেলা পরিষদ ও বিদ্যালয় কর্তৃপক্ষ।
ঢাকা বিভাগীয় কমিশনার হেলালুদ্দীন আহমেদ প্রধান অতিথি হিসেবে উপস্থিত থেকে অনুষ্ঠানে শিক্ষার্থীদের হাতে নতুন বই তুলে দেন।
এসময় কেরানীগঞ্জ উপজেলা নির্বাহী কর্মকর্তা (ইউএনও) আবুল বাশার মোহাম্মদ ফখরুজ্জামানের সভাপতিত্বে এক আলোচনা সভা অনুষ্ঠিত হয়।
সভায় প্রধান অতিথি হিসেবে বক্তব্য রাখেন-ঢাকা বিভাগীয় কমিশনার হেলালুদ্দীন আহমেদ। বিশেষ অতিথি হিসেবে বক্তব্য রাখেন-ঢাকা জেলা প্রশাসক মোহাম্মদ সালাহ উদ্দিন।
এসময় আরও বক্তব্য রাখেন-অতিরিক্ত জেলা প্রশাসক মো. সাজ্জাদ হোসেন, উপজেলা শিক্ষা কর্মকর্তা মাজেদা সুলতানা, কেরানীগঞ্জ মডেল থানার ভারপ্রাপ্ত কর্মকর্তা (ওসি) ফেরদাউস হোসেন, ফেডারেল সাংবাদিক ইউনিয়নের সাবেক মহাসচিব আব্দুল জলিল ভূঁইয়া, ভাওয়াল মনোহরিয়া সরকারি প্রাথমিক বিদ্যালয়ের প্রধান শিক্ষিকা শামিমা আক্তার, তারানগর ইউনিয়ন পরিষদ (ইউপি) চেয়ারম্যান মোশারফ হোসেন ফারুক ও শাক্তা ইউপি চেয়ারম্যান সালাহ উদ্দিন লিটন।
