ঢাকা: জাতীয় বিশ্ববিদ্যালয়ের ২০১৬ সালের ৪র্থ বর্ষ অনার্স পরীক্ষা আগামী ২৩ আগস্ট দুপুর দেড়টা থেকে শুরু হবে।
রোববার (২০ আগস্ট) বিশ্ববিদ্যালয়ের পক্ষ থেকে পাঠানো এক প্রেস বিজ্ঞপ্তিতে এ তথ্য জানানো হয়।  
বিজ্ঞপ্তিতে জানানো হয়েছে, সারাদেশের ৪শ’৬৩টি কলেজের ১৬৬টি কেন্দ্রে মোট ১ লাখ ২৪ হাজার ৯শ’৪৯ জন পরীক্ষার্থী ৩০টি বিষয়ে পরীক্ষায় অংশ নেবেন। 
