গণ বিশ্ববিদ্যালয়ের ২০১৫-১৬ শিক্ষাবর্ষের ভর্তি পরীক্ষা আগামী ১৫ এপ্রিল (শুক্রবার) অনুষ্ঠিত হবে। ওই দিন সকাল ১০টা থেকে দুপুর ১২টা পর্যন্ত বিশ্ববিদ্যালয়ের স্থায়ী ক্যাম্পাসে লিখিত ও মৌখিক পরীক্ষা পরীক্ষা অনুষ্ঠিত হবে।
গণ বিশ্ববিদ্যালয় (সাভার): গণ বিশ্ববিদ্যালয়ের ২০১৫-১৬ শিক্ষাবর্ষের ভর্তি পরীক্ষা আগামী ১৫ এপ্রিল (শুক্রবার) অনুষ্ঠিত হবে।
ওই দিন সকাল ১০টা থেকে দুপুর ১২টা পর্যন্ত বিশ্ববিদ্যালয়ের স্থায়ী ক্যাম্পাসে লিখিত ও মৌখিক পরীক্ষা পরীক্ষা অনুষ্ঠিত হবে।
কেবলমাত্র অধূমপায়ী শিক্ষার্থীরা ৫শ’ টাকায় ভর্তি পরীক্ষার আবেদন ফরম ও নির্দেশিকা সংগ্রহ করতে পারবে। আবেদন করার ক্ষেত্রে শিক্ষার্থীর এসএসসি ও এইচএসসিতে পৃথকভাবে জিপিএ ২.৫ থাকতে হবে।
মির্জানগরে বিশ্ববিদ্যালয়ের রেজিস্ট্রার অফিস অথবা ধানমন্ডি গণস্বাস্থ্য নগর হাসপাতাল থেকে ফরম সংগ্রহ করা যাবে। ফরম সংগ্রহ ও জমা দেওয়ার শেষ তারিখ ১৪ এপ্রিল।
বিশ্ববিদ্যালয়ের রেজিস্ট্রার মো. দেলোয়ার হোসেন বাংলানিউজকে বলেন, এবার ১৯টি বিভাগে ভর্তি নেওয়া হবে। ভর্তি পরীক্ষা সংক্রান্ত বিস্তারিত তথ্য বিশ্ববিদ্যালয়ের ওয়েবসাইটে (www.gonouniversity.edu.bd) পাওয়া যাবে।
