শাবিপ্রবি: শাহজালাল বিজ্ঞান ও প্রযুক্তি বিশ্ববিদ্যালয়ে গ্রীষ্মকালীন ও ঈদ-উল ফিতর উপলক্ষে এক মাসের ছুটি শুরু হচ্ছে ০৪ জুন (রোববার)।
বুধবার (৩১ মে) বিশ্ববিদ্যালয়ের জনসংযোগ বিভাগ সূত্র এ তথ্য জানায়।
সূত্র জানায়, ১১ জুন থেকে অফিসিয়াল ছুটি শুরু হবে। রোববার (০৪ জুন) থেকে বৃহস্পতিবার (২২ জুন) গ্রীষ্মকালীন অবকাশ এবং ঈদ-উল ফিতরের ছুটি ২২ জুন থেকে ৪ জুলাই পযর্ন্ত।
৫ জুলাই থেকে যথারীতি একাডেমিক ও প্রশাসনিক কার্যক্রম শুরু হবে।
এদিকে শুক্রবার (০২ জুন) ও শনিবার (০৩ জুন) সাপ্তাহিক ছুটি থাকায় শিক্ষার্থীরা এরইমধ্যে বাড়ি ফিরতে শুরু করেছেন।
