বরিশাল: বরিশাল মাধ্যমিক ও উচ্চ মাধ্যমিক শিক্ষা বোর্ডে দুটি বিদ্যালয়ে কোন পরীক্ষার্থীই পাস করতে পারেনি।
প্রতিষ্ঠান দুটো হলো- ভোলার লালমোহনের বালুর দালালবাজার সেকেন্ডারি স্কুল ও বরিশালের বানারীপাড়ার ডব্লিউ এসএম সেকেন্ডারি গার্লস স্কুল।
এ দুই স্কুল থেকে ৫৫ জন শিক্ষার্থী পরীক্ষায় অংশ নিলেও কেউই পাস করেনি।
বিষয়টি নিশ্চিত করেছেন বোর্ডের পরীক্ষা নিয়ন্ত্রক প্রফেসর মো. আনোয়ারুল আজিম।
