ঢাকা: নকলমুক্ত পরিবেশে এসএসসি ও সমমানের পরীক্ষা সম্পন্ন করার লক্ষ্যে পরীক্ষার্থীদের পরীক্ষা শুরুর আধা ঘণ্টা আগে অবশ্যই হলে প্রবেশ করতে হবে। অন্যথায় পরীক্ষায় অংশগ্রহণ করতে পারবে না।
বুধবার (৩ জানুয়ারি) সচিবালয়ে শিক্ষা মন্ত্রণালয়ের সভাকক্ষে পাবলিক পরীক্ষা অনুষ্ঠানে বিভিন্ন ব্যবস্থা গ্রহণের লক্ষ্যে সুপারিশ প্রণয়নের জন্য গঠিত কমিটির এক সভায় এ সিদ্ধান্ত হয়েছে। মাধ্যমিক ও উচ্চ শিক্ষা বিভাগের সচিব মো. সোহরাব হোসাইন সভায় সভাপতিত্ব করেন।
শিক্ষা মন্ত্রণালয়ের বিজ্ঞপ্তিতে জানানো হয়, এসএসসি ও সমমানের পরীক্ষা সুষ্ঠু, নির্বিঘ্ন ও নকলমুক্ত পরিবেশে অনুষ্ঠানের লক্ষ্যে বিভিন্ন সিদ্ধান্ত গৃহীত হয়েছে।
‘সভায় সিদ্ধান্ত নেওয়া  হয় যে, আসন্ন এসএসসি ও সমমানের পরীক্ষায় পরীক্ষার্থীদের পরীক্ষা শুরুর আধা ঘণ্টা আগে অবশ্যই হলে প্রবেশ করতে হবে। অন্যথায় পরীক্ষায় অংশগ্রহণ করতে পারবে না। নকলমুক্ত পরিবেশে পরীক্ষা অনুষ্ঠানের জন্য এ সিদ্ধান্ত নেওয়া হয়েছে।’
বিজ্ঞপ্তিতে আরও জানানো হয়েছে, সভায় দীর্ঘমেয়াদী ব্যবস্থা হিসেবে প্রশ্নব্যাংক প্রস্তুত করার সিদ্ধান্ত গৃহীত হয়। পরীক্ষা কেন্দ্রে প্রশ্নপত্র বহনের ক্ষেত্রে নিরাপত্তা ট্যাপযুক্ত বিশেষ খামে পরিবহনের ব্যাপারে আলোচনা হয়। বহু সেট প্রশ্ন প্রস্তুত রাখা, নির্ধারিত সময়ের আগে প্রশ্ন না খোলা, পিন কোড ব্যবহার, অনলাইনে বা ইউএসবি ডিভাইসের মাধ্যমে পরীক্ষা কেন্দ্রে প্রশ্ন পাঠানো এবং পরীক্ষা শুরুর আগে থেকে কিছু সময়ের জন্য কেন্দ্র এলাকায় ইন্টারনেট বন্ধ রাখার ব্যাপারেও আলোচনা হয় সভায়।
সভায় জানানো হয়, পরীক্ষা কেন্দ্রে কেউ স্মার্ট ফোন ব্যবহার করতে পারবে না। কেবল কেন্দ্র সচিব একটি সাধারণ ফোন ব্যবহার করতে পারবেন। 
সভায় মাধ্যমিক ও উচ্চ শিক্ষা বিভাগের সচিব বলেন, আসন্ন এসএসসি ও সমমান পরীক্ষা সম্পূর্ণ নকলমুক্ত পরিবেশে অনুষ্ঠিত হবে। এ ব্যাপারে কোনো ছাড় দেওয়া হবে না। নকলমুক্ত পরিবেশে পরীক্ষা অনুষ্ঠানের লক্ষ্যে সব ধরনের ব্যবস্থা নিতে তিনি সংশ্লিষ্ট সবাইকে নির্দেশ দেন।
সভায় মাধ্যমিক ও উচ্চশিক্ষা বিভাগের অতিরিক্ত সচিব চৌধুরী মুফাদ আহমদ, ড. মোল্লা জালাল উদ্দিন, জাবেদ আহমেদ ও মোহাম্মদ জয়নুল বারী, স্বরাষ্ট্র মন্ত্রণালয়ের জননিরাপত্তা বিভাগের অতিরিক্ত সচিব কাজী নাজির হোসেন, মাধ্যমিক ও উচ্চ শিক্ষা অধিদপ্তরের মহাপরিচালক ড. এস এম ওয়াহিদুজ্জামান, ঢাকা শিক্ষা বোর্ডের চেয়ারম্যান মাহাবুবুর রহমান, কারিগরি শিক্ষা বোর্ডের চেয়ারম্যান মো. মোস্তাফিজুর রহমান, প্রধানমন্ত্রীর কার্যালয়ের এটুআই প্রোগ্রামের আইটি ম্যানেজার মো. আরফে এলাহী মানিক এবং বাংলাদেশ পরীক্ষা উন্নয়ন ইউনিটের উর্ধ্বতন বিশেষজ্ঞ রবিউল কবির চৌধুরী উপস্থিত ছিলেন।
