ঢাকা বিশ্ববিদ্যালয়: শ্রীমদাচার্য আনন্দ স্বামী প্রবর্তিত ধৈর্মমত সর্ব্ব ধর্ম্ম সম্মেলন উপলক্ষে ঢাকা বিশ্ববিদ্যালয়ে (ঢাবি) র‌্যালি অনুষ্ঠিত হয়েছে।
শুক্রবার (০৭ এপ্রিল) দুপুরে এই র‌্যালি বের করে সর্ব্ব ধর্ম্ম মিশন ঢাকা বিশ্ববিদ্যালয় শাখা।
র‌্যালিটি বিশ্ববিদ্যালয়ের জগন্নাথ হল থেকে শুরু হয়ে ফুলার রোড়, ভিসি চত্বর, টিএসসি রাজু ভাস্কর্য হয়ে পুনরায় জগন্নাথ হলে গিয়ে শেষ হয়। এতে সংগঠনটির সভাপতি ও সাধারণ সম্পাদক নেতৃত্ব দেন।
র‌্যালি শেষে জগন্নাথ হল উপসনালয়ে সর্ব্ব ধর্ম্ম সম্মেলন-২০১৭ শুরু হয়।
