(শাবিপ্রবি): পবিত্র ঈদ-উল-ফিতর এবং গ্রীষ্মকালীন ছুটি শেষে শাহজালাল বিজ্ঞান ও প্রযুক্তি বিশ্ববিদ্যালয় (শাবিপ্রবি) খুলছে বুধবার (০৫ জুলাই)।
মঙ্গলবার (০৪ জুলাই) বিশ্ববিদ্যালয়ের ডেপুটি-রেজিস্ট্রার মো. ইউনুস আলী সাক্ষরিত এক প্রেস বিজ্ঞপ্তিতে এ তথ্য জানানো হয়।
এতে বলা হয়, বুধবার থেকে বিশ্ববিদ্যালয়ের একাডেমিক ও অফিসিয়াল কার্যক্রম শুরু হবে।
এর আগে গ্রীষ্মকালীন ও পবিত্র ঈদুল ফিতরের ছুটি শুরু হয় গত রোববার (৪ জুন) থেকে।
