গোপালগঞ্জের বঙ্গবন্ধু শেখ মুজিবুর রহমান বিজ্ঞান ও প্রযুক্তি বিশ্ববিদ্যালয়ে (বশেমুরবিপ্রবি) ২০১৬-১৭ শিক্ষাবর্ষে স্নাতক (সম্মান) প্রথম বর্ষের দুই ইউনিটের ভর্তি পরীক্ষা অনুষ্ঠিত হয়েছে।
গোপালগঞ্জ: গোপালগঞ্জের বঙ্গবন্ধু শেখ মুজিবুর রহমান বিজ্ঞান ও প্রযুক্তি বিশ্ববিদ্যালয়ে (বশেমুরবিপ্রবি) ২০১৬-১৭ শিক্ষাবর্ষে স্নাতক (সম্মান) প্রথম বর্ষের দুই ইউনিটের ভর্তি পরীক্ষা অনুষ্ঠিত হয়েছে।
শুক্রবার (২৮ অক্টোবর) সকাল ১০-১১টা পর্যন্ত এ ইউনিট এবং দুপুর ২-৩টা পর্যন্ত বি ইউনিটের পরীক্ষা অনুষ্ঠিত হয়।   বিশ্ববিদ্যালয়ের উপাচার্য প্রফেসর ড. খোন্দকার নাসিরউদ্দিন বিশ্ববিদ্যালয় ক্যাম্পাসসহ গোপালগঞ্জ শহরের ১৩টি পরীক্ষা কেন্দ্র পরিদর্শন করেন।
এ সময় তিনি ভর্তি পরীক্ষা সুষ্ঠুভাবে সম্পন্ন করার জন্য তিনি সবাইকে ধন্যবাদ জানান।   চলতি শিক্ষাবর্ষে এ ইউনিটে ২৫১ আসনের জন্য ১৪ হাজার ২১২ জন এবং বি ইউনিটে ৫৭৮ আসনের জন্য ৮ হাজার ৮৬২ জন শিক্ষার্থী আবেদন করেন।
