ঢাকা: জাতীয় বিশ্ববিদ্যালয়ের অধীনে অনুষ্ঠিত ২০১৪ সালের মাস্টার্স শেষ পর্ব মৌখিক/ব্যবহারিক/মাঠকর্ম পরীক্ষার (পুরাতন সিলেবাস অনুযায়ী) সময়সূচি প্রকাশ করা হয়েছে।
বুধবার (২৭ সেপ্টেম্বর) বিশ্ববিদ্যালয়ের পক্ষ থেকে পাঠানো এক প্রেস বিজ্ঞপ্তিতে এ সময়সূচি বিষয় জানানো হয়।
এতে বলা হয়, আগামী ০৪ অক্টোবর থেকে শুরু হয়ে ২২ অক্টোবর পর্যন্ত মাস্টার্স শেষ পর্বের মৌখিক/ব্যবহারিক/মাঠকর্ম পরীক্ষা অনুষ্ঠিত হবে।
এছাড়া পরীক্ষার কেন্দ্র তালিকা, পরীক্ষাগ্রহণ, ডাটা-এন্ট্রি ও নম্বর পাঠানো সংক্রান্ত নিয়মাবলী বিশ্ববিদ্যালয়ের ওয়েব সাইট (www.nubd.info/mf) এ পাওয়া যাবে।
