বরিশাল: আসন্ন ২০১৭-১৮ অর্থবছরের বাজেটে ‘কেমন চাই শিক্ষা বাজেট’ নিয়ে বরিশালে সেমিনার ও মুক্ত আলোচনা অনুষ্ঠিত হয়েছে।
বাংলাদেশ শিক্ষক সমিতি বরিশাল আঞ্চলিক শাখার আয়োজনে শুক্রবার (২৬ মে) বেলা ১১টায় শহরের অশ্বিনী কুমার হলে এ সেমিনার ও মুক্ত আলোচনা অনুষ্ঠিত হয়।
শিক্ষক সমিতির বরিশাল আঞ্চলিক শাখার সভাপতি অধ্যাপক ফরিদুল আলমের সভাপতিত্বে প্রধান অতিথি ছিলেন সংসদ সদস্য অ্যাডভোকেট তালুকদার মো. ইউনুস। বিশেষ অতিথি ছিলেন দৈনিক সমকাল পত্রিকার বিশেষ প্রতিনিধি সাব্বির নেওয়াজ। প্রবন্ধ উপস্থাপনা করেন সমকাল উপ-সম্পদক অজয় দাশগুপ্ত।
বক্তব্য রাখেন আনোয়ার হোসেন, শিক্ষক নেতা তোফায়েল আহমেদ, কাজী মজিবর রহমান প্রমুখ।
মুক্ত আলোচনায় শিক্ষকরা বাজেটে শিক্ষা খাতে বরাদ্দ বৃদ্ধিসহ শিক্ষকদের মান উন্নয়নে বাজেট বরাদ্দের আহ্বান জানান। পাশাপাশি শিক্ষাকে জাতীয়করণের জোর দাবি জানানো হয়।
