গাজীপুর: জাতীয় বিশ্ববিদ্যালয়ের বিশেষ সিনেট অধিবেশন আগামী ২৩ ডিসেম্বর সকাল ১০টায় অনুষ্ঠিত হবে। 
বৃহস্পতিবার (২১ ডিসেম্বর) দুপুরে জাতীয় বিশ্ববিদ্যালয়ের এক প্রেস বিজ্ঞপ্তিতে এ তথ্য জানানো হয়েছে। 
প্রেস বিজ্ঞপ্তিতে জানানো হয়, বিশ্ববিদ্যালয়ের গাজীপুর ক্যাম্পাসে সিনেট হলে অনুষ্ঠানে সভাপতিত্ব করবেন জাতীয় বিশ্ববিদ্যালয়ের ভাইস-চ্যান্সেলর প্রফেসর ড. হারুন-অর-রশিদ।  
