শোর মাধ্যমিক ও উচ্চ মাধ্যমিক শিক্ষাবোর্ডে এইচএসসি পরীক্ষার খাতা পুনঃনিরীক্ষায়  ১৪৩ জনের ফল পরিবর্তন হয়েছে। এরমধ্যে অকৃতকার্য ৩৯ জন পরীক্ষার্থী কৃতকার্য হয়েছেন এবং জিপিএ-৫ পেয়েছেন ৩৯ জন । 
যশোর: যশোর মাধ্যমিক ও উচ্চ মাধ্যমিক শিক্ষাবোর্ডে এইচএসসি পরীক্ষার খাতা পুনঃনিরীক্ষায়  ১৪৩ জনের ফল পরিবর্তন হয়েছে। এরমধ্যে অকৃতকার্য ৩৯ জন পরীক্ষার্থী কৃতকার্য হয়েছে এবং জিপিএ-৫ পেয়েছে ৩৯ জন । 
শনিবার (১৭ সেপ্টেম্বর) বোর্ডের ওয়েবসাইটে পুনঃনিরীক্ষার এ ফলাফল প্রকাশ করা হয়েছে।
যশোর বোর্ডের পরীক্ষা নিয়ন্ত্রক প্রফেসর মাধব চন্দ্র রুদ্র বাংলানিউজকে বলেন, এ বছর ৩১ হাজার ৯৫৬ জন পরীক্ষার্থী খাতা পুনঃনিরীক্ষার জন্য আবেদন করেছিল। খাতা পুনঃনিরীক্ষায় ১৪৩ জন পরীক্ষার্থীর ফল পরিবর্তন হয়েছে। এরমধ্যে অকৃতকার্য থেকে কৃতকার্য হয়েছেন ৩৯ জন এবং জিপিএ-৫ পেয়েছেন ৩৯ জন।
এরআগে, গত ১৮ আগস্ট এইচএসসির ফলাফল প্রকাশিত হয়। ফলাফলে সারাদেশের মধ্যে সর্বোচ্চ যশোর বোর্ডে পাশের হার ছিল ৮৩ দশমিক ৪২ শতাংশ। প্রকাশিত ফলাফলে জিপিএ-৫ পেয়েছিল ৪ হাজার ৫৮৬জন। খাতা পুনঃনিরীক্ষার জিপিএ-৫ ও পাসের হার আরও বেড়ে গেলো। 
