জাতীয় বিশ্ববিদ্যালয়ের অধীনে ২০১২-২০১৩ শিক্ষাবর্ষের মাস্টার্স শেষ পর্ব (এমএ, এমএসএস, এমবিএস, এমএসসি, এম মিউজ ও আইসিটি) পরীক্ষার সময় সূচি পরিবর্তন করা হয়েছে।
ঢাকা: জাতীয় বিশ্ববিদ্যালয়ের অধীনে ২০১২-২০১৩ শিক্ষাবর্ষের মাস্টার্স শেষ পর্ব (এমএ, এমএসএস, এমবিএস, এমএসসি, এম মিউজ ও আইসিটি) পরীক্ষার সময় সূচি পরিবর্তন করা হয়েছে।
পরিবর্তিত সূচি অনুযায়ী, মাস্টার্স শেষ পর্বের এ পরীক্ষা শুরু হবে আগামী ১৭ মে মঙ্গলবার। শেষ হবে ১৮ জুন শনিবার। এর আগে ২৮ এপ্রিল বৃহস্পতিবার পরীক্ষা হওয়ার কথা ছিল।
জাতীয় বিশ্ববিদ্যালয়ের ওয়েব সাইট থেকে এ তথ্য পাওয়া গেছে।
পরীক্ষার পূর্ণাঙ্গ সূচি পাওয়া যাবে জাতীয় বিশ্ববিদ্যালয়ের ওয়েব সাইটে WWW.NU.EDU.BD
এদিকে, জাতীয় বিশ্ববিদ্যালয়ের জনসংযোগ কর্মকর্তা ফাইজুল বাংলানিউজকে বলেন, 'মাস্টার্স শেষ পর্ব পরীক্ষার সময় সূচি পরিবর্তনের বিষয়ে আমি কিছুই জানি না।'
