ফৌজদাহারহাট ক্যাডেট কলেজের ২৩তম ফ্যামিলি নাইট উদযাপন করা হয়েছে। 
ঢাকা: ফৌজদাহারহাট ক্যাডেট কলেজের ২৩তম ফ্যামিলি নাইট উদযাপন করা হয়েছে। 
সম্প্রতি ঢাকার শাহীন হলে এ ফ্যামিলি নাইট উৎসবের আয়োজন করা হয়।
এ অনুষ্ঠানের অন্যতম প্রধান আর্কষণ ছিল হাভাস পিআর অ্যান্ড সেলেব ম্যানেজমেন্টের শিল্পী এস আই টুটুল। 
জনপ্রিয় এই শিল্পীর মনমুগ্ধকর পরিবেশনা অনুষ্ঠানের সব দর্শককে মাতিয়ে রাখে। 
বাংলাদেশ সময়: ১৩০০ ঘণ্টা, এপ্রিল ২৫, ২০১৬ পিসি
