ঢাকা: জাতীয় বিশ্ববিদ্যালয়ের অধীনে ২০১৬ সালের ২য় বর্ষ ডিগ্রি পাস ও সাবসিডিয়ারি পরীক্ষা শনিবার (১৮ নভেম্বর) থেকে শুরু হবে।
প্রতিদিন দুপুর ১টা থেকে এ পরীক্ষা অনুষ্ঠিত হবে। এ লক্ষ্যে পরীক্ষার সব প্রস্তুতি শেষ হয়েছে।
সারা দেশে মোট ৬৯১টি কেন্দ্রে ১৮১৬টি কলেজের সর্বমোট ২ লাখ ৩২ হাজার ৩০৫ জন পরীক্ষার্থী এ পরীক্ষায় অংশ নিবে।
পরীক্ষা সুষ্ঠুভাবে পরিচালনার লক্ষ্যে বিশ্ববিদ্যালয়ের গাজীপুরস্থ ক্যাম্পাসে কন্ট্রোলরুম স্থাপন করা হয়েছে। কন্ট্রোল রুমের ফোন নম্বর- ৯২৯১০১৭, ৯২৯১০৩৮ এবং ফ্যাক্স নম্বর-৯২৯১০৪৪। সংশ্লিষ্ট সবাইকে যে কোনো জরুরি প্রয়োজনে কন্ট্রোলরুমে যোগাযোগ করার জন্য অনুরোধ করা হলো।
