পবিত্র আশুরা ও শারদীয় দুর্গাপূজা উপলক্ষে আগামী ৯ অক্টোবর থেকে পাঁচদিনের ছুটিতে যাচ্ছে জগন্নাথ বিশ্ববিদ্যালয়ে (জবি)...
ঢাকা: পবিত্র আশুরা ও শারদীয় দুর্গাপূজা উপলক্ষে আগামী ৯ অক্টোবর থেকে পাঁচদিনের ছুটিতে যাচ্ছে জগন্নাথ বিশ্ববিদ্যালয়ে (জবি)।
বৃহস্পতিবার (০৬ অক্টোবর) বিকেলে বিশ্ববিদ্যালয়ের পাঠানো এক বিজ্ঞপ্তিতে এ তথ্য জানানো হয়।
যাতে বলা হয়, আশুরা ও দুর্গাপূজা উপলক্ষে ৯ অক্টোবর (রোববার) থেকে ১৩ অক্টোবর (বৃহস্পতিবার) পর্যন্ত বিশ্ববিদ্যালয় কর্তৃপক্ষ ছুটি ঘোষণা করেছে।
এছাড়া ১০ অক্টোবর (সোমবার) থেকে ১২ অক্টোবর (বুধবার) বিশ্ববিদ্যালয়ের সব বিভাগীয় ও প্রশাসনিক দফতর বন্ধ থাকবে। তবে ছুটি শুরুর আগের দুইদিন ও শেষের দুইদিন শুক্র ও শনিবার হওয়ায় টানা ৯ দিনের ছুটি ভোগ করতে পারবেন শিক্ষার্থীরা।
