এবার এইচএসসি পরীক্ষায় যশোর বোর্ডের মধ্যে খুলনা জেলা শীর্ষ অবস্থানে রয়েছে। বিভাগের দশ জেলার মধ্যে খুলনায় পাসের হার সর্বোচ্চ ৮৭ দশমিক ৯০ শতাংশ। এখানে মোট ৯৮টি কলেজে পাস করেছে ১৯ হাজার ৪শ’ ১৫ জন শিক্ষার্থী।
খুলনা: এবার এইচএসসি পরীক্ষায় যশোর বোর্ডের মধ্যে খুলনা জেলা শীর্ষ অবস্থানে রয়েছে। বিভাগের দশ জেলার মধ্যে খুলনায় পাসের হার সর্বোচ্চ ৮৭ দশমিক ৯০ শতাংশ। এখানে মোট ৯৮টি কলেজে পাস করেছে ১৯ হাজার ৪শ’ ১৫ জন শিক্ষার্থী।
 
বৃহস্পতিবার (১৮ আগস্ট) প্রকাশিত ফলাফলে বোর্ড কর্তৃপক্ষ এ তথ্য প্রকাশ করেন।   ফলাফলে দেখা যায়, এ বছর খুলনা জেলার ৯টি উপজেলা এবং মহানগর এলাকার ৯৮টি কলেজে মোট পরীক্ষার্থীর সংখ্যা ছিল ২৩ হাজার চারজন। এর মধ্যে ছাত্র ১২ হাজার ২শ’ ২৬ ও ছাত্রী ১০ হাজার ৭শ’ ৭৮ জন। পরীক্ষায় চূড়ান্তভাবে অংশ নেন মোট ২২ হাজার ৮৭ জন। যার মধ্যে ছাত্র ১১ হাজার ৭শ’ ৩৮ এবং ছাত্রী ১০ হাজার ৩শ’ ৪৯ জন। এর মধ্যে পাস করেছেন মোট ১৯ হাজার ৪শ’ ১৫ জন শিক্ষার্থী। কৃতকার্যদের মধ্যে ছাত্র ১০ হাজার ২শ’ ২০ এবং ছাত্রী ৯ হাজার ১শ’ ৯৫ জন। পাসের হার এই বিভাগের মধ্যে সর্বোচ্চ ৮৭ দশমিক ৯০। খুলনার মোট ৩৮টি কেন্দ্রে এইচএসসি পরীক্ষা অনুষ্ঠিত হয়।
এদিকে, জেলার মধ্যে খুলনার সরকারি মজিদ মেমোরিয়াল সিটি কলেজ শীর্ষে রয়েছে। এ কলেজ থেকে এক হাজার ৪শ’ ৪১ জন পরীক্ষার্থী পরীক্ষায় অংশ নিয়ে পাস করেছেন এক হাজার ৪শ’ ১৬ জন। পাসের হার ৯৮ দশমিক ২৭ শতাংশ। জিপিএ-৫ পেয়েছেন ৪শ’ ৮০ জন।
অপরদিকে, বিভাগের অন্যান্য জেলার মধ্যে বাগেরহাটে পাসের হার ৮১ দশমিক ৪৯ শতাংশ, সাতক্ষীরায় ৮৭ দশমিক ৪০ শতাংশ, কুষ্টিয়ায় ৭৩ দশমিক ১৮ শতাংশ, চুয়াডাঙ্গায় ৭৩ দশমিক ৮৭ শতাংশ, মেহেরপুরে ৮২ দশমিক ৮০ শতাংশ, যশোরে ৮৫ দশমিক ০৫ শতাংশ, নড়াইলে ৮১ দশমিক ৭৫ শতাংশ, ঝিনাইদহে ৮৪ দশমিক ৫৭ শতাংশ এবং মাগুরা জেলায় পাশের হার ৮২ দশমিক ৪৪ শতাংশ।
খুলনা জেলা যশোর বোর্ডের মধ্যে সেরা হওয়ায় এখানকার কলেজগুলোর শিক্ষার্থীদের মধ্যে উচ্ছ্বাস দেখা গেছে।
