জাহাঙ্গীরনগর বিশ্ববিদ্যালয়: রামপাল বিদ্যুৎকেন্দ্র স্থাপনে পরিবেশ সুরক্ষা নিয়ে ডিবেট ফর ডেমোক্রেসি আয়োজিত পাবলিক-পার্লামেন্ট বিতর্কে গ্রিন ইউনিভার্সিটি অব বাংলাদেশকে পরাজিত করে বিজয়ী হয়েছে জাহাঙ্গীরনগর বিশ্ববিদ্যালয় (জাবি)।
মঙ্গলবার (১৪ মার্চ) এক সংবাদ বিজ্ঞপ্তিতে বিষয়টি জানানো হয়।
প্রতিযোগিতায় সরকারি দল গ্রিন ইউনিভার্সিটি অব বাংলাদেশকে পরাজিত করে জাহাঙ্গীরনগর বিশ্ববিদ্যালয়।
ডিবেট ফর ডেমোক্রেসির চেয়ারম্যান হাসান আহমেদ চৌধুরী কিরণের সভাপতিত্বে অনুষ্ঠানে প্রধান অতিথি ছিলেন আওয়ামী লীগের প্রচার সম্পাদক ড. হাছান মাহমুদ।
বিজয়ী দল জাহাঙ্গীরনগর বিশ্ববিদ্যালয়ের বিতার্কিকরা হলেন-মুশফিক উস সালেহীন, মো. শাহিনুর রহমান ও দিলশান হোসেন দিনা।
প্রতিযোগিতা শেষে বিতার্কিকদের ক্রেস্ট ও সার্টিফিকেট দেওয়া হয়।
