জুনিয়র স্কুল সার্টিফিকেট (জেএসসি) পরীক্ষায় ভালো ফল হওয়াই মনিপুর উচ্চ বিদ্যালয়ের শিক্ষার্থীরা বাঁধভাঙা উচ্ছ্বাস করেছে। বৃহস্পতিবার (২৯ ডিসেম্বর) দুপুরের দিকে এ ফল ঘোষণা করা হয়।
ঢাকা: জুনিয়র স্কুল সার্টিফিকেট (জেএসসি) পরীক্ষায় ভালো ফল হওয়াই মনিপুর উচ্চ বিদ্যালয়ের শিক্ষার্থীরা বাঁধভাঙা উচ্ছ্বাস করেছে।
বৃহস্পতিবার (২৯ ডিসেম্বর) দুপুরের দিকে এ ফল ঘোষণা করা হয়।
জানা যায়, এ বছর মনিপুর উচ্চ বিদ্যালয় থেকে অংশগ্রহণকারী শিক্ষার্থীর সংখ্যা ২ হাজার ৬শ’ ৯০ জন। এর মধ্যে পাস করেছে ২ হাজার ৬শ’ ৮৮ শিক্ষার্থী। জিপিএ ৫ পেয়েছে ২ হাজার ৫৮ জন শিক্ষার্থী।
