ফেনী: সকাল সাড়ে ৯টা। সকালের স্নিগ্ধতা সরিয়ে গ্রীষ্মের খরতাপ পোড়াতে শুরু করেছে কংক্রিটের শহরকে। পাবলিক লাইব্রেরির বারান্দায় জম্পেশ আড্ডায় মজেছেন ফাহাদ, হাসনাত, কেয়া, নাহিদ, ফয়সাল, আজাদ, ফাহমিদা, সানজিদা ও ইমো।
ওরা ৯ জন। সবাই ফেনী সরকারি কলেজে রাষ্ট্রবিজ্ঞান বিভাগের শিক্ষার্থী। এসেছিলেন ক্লাসে। কিন্তু কোন কারণে ক্লাস বসেনি আজ। সব‍াই মিলে তাই এখানে এসে আড্ডা বসিয়েছেন ছায়া আর বাতাসে।
ফেনী শহরের কলেজ রোড়স্থ পাবলিক লাইব্রেরি চত্বরের আড্ডার গল্পগুলো এমনই। প্রতিদিন এখানে আসে স্কুল কলেজের শিক্ষার্থীরা। আড্ডা জমায়, স্টাড়ি সার্কেল করে। এ যেন তাদের একমাত্র পছন্দের জায়গা। বৃহস্পতিবার (২৭ এপ্রিল) বাংলানিউজের চোখে পড়ে এ প্রাণবন্ত আড্ডা।সকাল সাড়ে ১০টায় পত্রিকার রিডিং রুম থেকে বেরিয়ে দেখা গেল, জটলা বেঁধে আরেক দল তরুণ-তরুণী আড্ডা আর আলোচনায় মেতেছেন। শারমিন আজিজ, সাদিয়া, মাহফুজ আর মোমেন সবাই ফেনী সরকারি কলেজের ইংরেজি সাহিত্যের শিক্ষার্থী।
কাছে গিয়ে দেখা গেল, তারা পাঠ চক্র করছেন। আজ তাদের বিষয়বস্তু সৈয়দ ওয়ালীউল্লাহর ‘লাল সাল‍ু’।  
লাইব্রেরিতে বসে বই পাঠ প্রসঙ্গে আজিজ নামে এক শিক্ষার্থী বাংলানিউজকে বলেন, পাবলিক লাইব্রেরি প্রাঙ্গণে আড্ডা দিতে ভাল লাগলেও ভেতরে বসে বই পড়তে তেমন ভাল লাগে না।সানজিদা নামে অপর এক শিক্ষার্থী বলেন, লাইব্রেরিতে বসে বই পড়ার ইচ্ছে থাকলেও কোন উপায় নেই। সকালে লাইব্রেরি খোলে না। খোলে বিকাল ৪টা থেকে।
