গণ বিশ্ববিদ্যালয় (সাভার): পবিত্র রমজান, শবে কদর ও ঈদ‍ুল ফিতরের দীর্ঘ ছুটি শেষে শিক্ষার্থীদের পদচারণায় মুখরিত হয়ে ওঠেছে সাভারের গণ বিশ্ববিদ্যালয় (গণবি) ক্যাম্পাস।
গত ২৯ জুন (বৃহস্পতিবার) থেকে বিশ্ববিদ্যালয় খুললেও রোববার পর্যন্ত সেভাবে ক্লাসে শিক্ষার্থীদের উপস্থিতি ছিল না। ক্যাম্পাস খোলার প্রায় চারদিন পর সোমবার (০৩ জুলাই) শিক্ষার্থীদের পদচারণায় মুখরিত হয়ে ওঠে ক্যাম্পাস। 
এরই মধ্যে সাভার ও বিশ্ববিদ্যালয়ের নিকটবর্তী আবাসস্থলগুলোতে ফিরে এসেছেন শিক্ষার্থীরা। তাদের আনাগোনায় ক্যাম্পাসে পুরোপুরি চাঞ্চল্য ফিরে এসেছে।  ‍   গণ বিশ্ববিদ্যালয়ের পরীক্ষা নিয়ন্ত্রক মীর মুর্তজা আলী জানান, ক্যাম্পাসে শিক্ষার্থীরা ফিরে এসেছে। এরই মধ্যে শুরু হয়েছে বিশ্ববিদ্যালয়ের নিয়মিত ক্লাস-পরীক্ষা। 
