ময়মনসিংহ: ময়মনসিংহের ত্রিশালে প্রাথমিক শিক্ষক কল্যাণ সমিতির আহ্বায়ক কমিটি গঠন করা হয়েছে।
মো. মশিউর রহমানকে আহ্বায়ক এবং মো. মোজাম্মেল হক ও মো. নূরুল ইসলামকে যুগ্ম আহ্বায়ক করে নয় সদস্য বিশিষ্ট কমিটি গঠন করা হয়।
সোমবার (২৭ ফেব্রুয়ারি) দুপুরে বিষয়টি সংবাদ মাধ্যমে জানানো হয়। রোববার (২৬ ফেব্রুয়ারি) রাতে ময়মনসিংহ জেলা কমিটির সভাপতি ও সাধারণ সম্পাদক এ কমিটির অনুমোদন দেন।
কমিটির অন্য সদস্যরা হলেন, আব্দুল কদ্দুছ, ফজলুল হক, মজিবুর রহমান, সেলিনা আক্তার, হাছেন আলী ও আরিফ রব্বানী।
