ঢাকা বিশ্ববিদ্যালয়ের সাবেক উপাচার্য (ভিসি) অধ্যাপক মনিরুজ্জামান মিঞার মৃত্যুতে গভীর শোক প্রকাশ করেছেন বেসামরিক বিমান পরিবহন ও পর্যটনমন্ত্রী রাশেদ খান মেনন।
ঢাকা: ঢাকা বিশ্ববিদ্যালয়ের সাবেক উপাচার্য (ভিসি) অধ্যাপক মনিরুজ্জামান মিঞার মৃত্যুতে গভীর শোক প্রকাশ করেছেন বেসামরিক বিমান পরিবহন ও পর্যটনমন্ত্রী রাশেদ খান মেনন।
সোমবার (১৩ জুন) এক শোক বাণীতে তিনি এই শোক প্রকশ করেন। একই সঙ্গে তিনি মনিরুজ্জামান মিয়ার বিদেহী আত্মার মাগফিরাত কামনা করে শোক সন্তপ্ত পরিবারের প্রতি গভীর সমবেদনাও জানান।
রাশেদ খান মেনন বলেন, বিশিষ্ট শিক্ষাবিদ ও সাবেক এ রাষ্ট্রদূত ঢাকা বিশ্ববিদ্যালয়ে আইবিএ ও কম্পিউটার সাইন্স বিভাগ চালু করেছিলেন। প্রযুক্তি ও বাণিজ্য ক্ষেত্রে এর সুফল শুধু দেশেই নয় দেশের বাইরেও ছড়িয়ে পড়েছে।   রাজশাহী বিশ্ববিদ্যালয়ের কেন্দ্রীয় ছাত্রসংসদের ভিপি হিসেবে মনিরুজ্জামান মিয়ার অধিকার আদায়ের আন্দোলনে সোচ্চার ছিলেন। তার শূন্যতা সহজে পূরণ হবার নয়। শিক্ষা ও গণতান্ত্রিক সমাজ সৃষ্টিতে তার অবদানের জন্য জাতি তাকে স্মরণ করবে বলেও জানান মন্ত্রী।
