বরিশাল: জেএসসি পরীক্ষায় ধর্ম বিষয়ে বরিশাল মাধ্যমিক ও উচ্চ মাধ্যমিক শিক্ষাবোর্ডের আওতায় ১৭২টি কেন্দ্রে ৩ হাজার ২৬৮ জন পরীক্ষার্থী অনুপস্থিত ছিলেন।
অনুপস্থিত পরীক্ষার্থীদের মধ্যে বরিশাল জেলায় ৯৯১ জন, ঝালকাঠি জেলায় ৩৩৬ জন, পিরোজপুর জেলায় ৩৬৭ জন, পটুয়াখালী জেলায় ৬০২ জন, বরগুনা জেলায় ৩৬১ জন, ভোলা জেলায় ৬১১ জন রয়েছে। তবে এ পরীক্ষায় বহিষ্কারের কোনো ঘটনা ঘটেনি। 
এসব খবর নিশ্চিত করেছেন বরিশাল মাধ্যমিক ও উচ্চ মাধ্যমিক শিক্ষাবোর্ডের পরীক্ষা নিয়ন্ত্রক প্রফেসর আনোয়ারুল আজিম।
