কুমিল্লা: ৩০ আসন বিশিষ্ট শীতাতপ নিয়ন্ত্রিত নতুন একটি মিনিবাস যুক্ত হয়েছে কুমিল্লা বিশ্ববিদ্যালয়ে (কুবি)। এটি উদ্বোধন করেছেন বিশ্ববিদ্যালয়ের উপাচার্য অধ্যাপক ড. মো. আলী আশরাফ।
বুধবার (১২ জুলাই) দুপুরে প্রশাসনিক ভবনের সামনে বাসটির উদ্বোধন করা হয়। এর মাধ্যমে কুমিল্লা বিশ্ববিদ্যালয়ের নিজস্ব পরিবহনে ১৬তম গাড়ি যুক্ত হলো।
নিশান কোম্পানি থেকে ৫৭ লাখ টাকা ব্যয়ে বাসটি ক্রয় করেছে বিশ্ববিদ্যালয় কর্তৃপক্ষ। 
বাসটি উদ্বোধনের সময় আরও উপস্থিত ছিলেন রেজিস্ট্রার মো. মজিবুর রহমান মজুমদার, প্রক্টর ড. কাজী মোহাম্মদ কামাল উদ্দিন প্রমুখ।
