ঢাকা: জুনিয়র স্কুল সার্টিফিকেট (জেএসসি) ও জুনিয়র দাখিল সার্টিফেকেট (জেডিসি) পরীক্ষার সূচি প্রকাশ করেছে আন্তঃশিক্ষা বোর্ড পরীক্ষা নিয়ন্ত্রক উপ-কমিটি এবং মাদ্রাসা শিক্ষা বোর্ড। 
সূচি অনুযায়ী, পূর্বের মতো আগামী ১ নভেম্বর সকাল ১০টা থেকে অষ্টম শ্রেণির এই পরীক্ষা শুরু হবে। চলবে ১৮ নভেম্বর পর্যন্ত। বুধবার (২৩ আগস্ট) পরীক্ষার এ সূচি প্রকাশ করা হয়। 
সিদ্ধান্ত অনুযায়ী, এবার থেকে জেএসসির নিয়মিত শিক্ষার্থীদের শারীরিক শিক্ষা ও স্বাস্থ্য, কর্মী ও জীবনমুখী শিক্ষা এবং চারু ও কারুকলা বিষয়ের পরীক্ষা হবে না। তিন বিষয়ে শিক্ষার্থীদের ধারাবাহিক মূল্যায়নের মাধ্যমে প্রাপ্ত নম্বর শিক্ষা প্রতিষ্ঠানগুলোকে সংশ্লিষ্ট কেন্দ্রে সরবারহ করতে নির্দেশ দেওয়া হয়েছে। 
জেএসসি পরীক্ষার সূচি ১ নভেম্বর বাংলা প্রথমপত্র, ২ নভেম্বর বাংলা দ্বিতীয়পত্র, ৫ নভেম্বর ইংরেজি প্রথমপত্র, ৬ নভেম্বর ইংরেজি দ্বিতীয়পত্র, ৭ নভেম্বর ইসলাম ও নৈতিক শিক্ষা, হিন্দুধর্ম ও নৈতিক শিক্ষা, বৌদ্ধধর্ম ও নৈতিক শিক্ষা, খ্রিস্টধর্ম ও নৈতিক শিক্ষা বিষয়ের হবে। 
৮ নভেম্বর তথ্য ও যোগাযোগ প্রযুক্তি, ৯ নভেম্বর বিজ্ঞান, ১১ নভেম্বর কর্ম ও জীবনমুখী শিক্ষা (অনিয়মিত), ১২ নভেম্বর গণিত, ১৩ নভেম্বর শারীরিক শিক্ষা ও স্বাস্থ্য (অনিয়মিত), ১৪ নভেম্বর কৃষি শিক্ষা, গার্হস্থ্য বিজ্ঞান, আরবি, সংষ্কৃত, পালি, ১৬ নভেম্বর বাংলাদেশ ও বিশ্ব পরিচয় এবং ১৮ নভেম্বর চারু ও কারুকলা (অনিয়মিত) বিষয়ের পরীক্ষা হবে।
জেডিসি পরীক্ষার সূচি ১ নভেম্বর কুরআন মাজিদ ও তাজবিদ, ২ নভেম্বর আকাইদ ও ফিকহ, ৪ নভেম্বর আরবি প্রথমপত্র, ৫ নভেম্বর আরবি দ্বিতীয়পত্র, ৬ নভেম্বর তথ্য ও যোগাযোগ প্রযুক্তি, ৭ নভেম্বর বাংলা প্রথমপত্র, ৮ নভেম্বর বাংলা দ্বিতীয়পত্রের পরীক্ষা অনুষ্ঠিত হবে।
এছাড়া ৯ নভেম্বর কৃষি শিক্ষা এবং গার্হস্থ্য অর্থনীতি, ১১ নভেম্বর গণিত, ১২ নভেম্বর কর্ম ও জীবনমুখী শিক্ষা, শারীরিক শিক্ষা ও স্বাস্থ্য, ১৩ নভেম্বর ইংরেজি প্রথমপত্র, ১৪ নভেম্বর ইংরেজি দ্বিতীয়পত্র, ১৬ বাংলাদেশ ও বিশ্ব পরিচয় এবং ১৮ নভেম্বর বিজ্ঞান বিষয়ের পরীক্ষা অনুষ্ঠিত হবে।
