মানবতাবিরোধী অপরাধের দায়ে জামায়াতের কর্মপরিষদ সদস্য মীর কাসেম আলীর ফাঁসির রায় বহাল থাকায় আনন্দ মিছিল হয়েছে শাহজালাল বিজ্ঞান...
সিলেট (শাবিপ্রবি): মানবতাবিরোধী অপরাধের দায়ে জামায়াতের কর্মপরিষদ সদস্য মীর কাসেম আলীর ফাঁসির রায় বহাল থাকায় আনন্দ মিছিল হয়েছে শাহজালাল বিজ্ঞান ও প্রযুক্তি বিশ্ববিদ্যালয়ে (শাবিপ্রবি)।
শাখা ছাত্রলীগের পক্ষ থেকে মঙ্গলবার (৩০ আগস্ট) দুপুরে এ আনন্দ মিছিল অনুষ্ঠিত হয়। মিছিলটি ক্যাম্পাসের প্রধান প্রধান সড়ক প্রদক্ষিণ করে লাইব্রেরি ভবনের সামনে সমাবেশে মিলিত হয়।
এ সময় উপস্থিত ছিলেন শাখা ছাত্রলীগ সভাপতি সঞ্জীবন চক্রবর্তী পার্থ, সিনিয়র সহ-সভাপতি আবু সাঈদ আকন্দ, সাধারণ সম্পাদক ইমরান খান, সিনিয়র যুগ্ম সম্পাদক সাজিদুল ইসলাম সবুজ প্রমুখ।
