নানান সঙ্কটের মাঝেও দেশের দক্ষিণ-পশ্চিমাঞ্চলে শিক্ষা বিস্তারে অনন্য ভূমিকা রেখে চলেছে যশোর সরকারি মাইকেল মধুসূদন (এমএম) কলেজ।
যশোর: নানান সঙ্কটের মাঝেও দেশের দক্ষিণ-পশ্চিমাঞ্চলে শিক্ষা বিস্তারে অনন্য ভূমিকা রেখে চলেছে যশোর সরকারি মাইকেল মধুসূদন (এমএম) কলেজ। বৃটিশ শাসনামলে প্রতিষ্ঠিত কলেজটি সাত দশক ধরে এ অঞ্চলে শিক্ষার আলো বিস্তার করে আসছে।   বর্তমানে কলেজটিতে ১৯টি বিষয়ে অনার্স, ১৭টি বিষয়ে মাস্টার্স ছাড়াও স্নাতক (পাস) ও উচ্চ মাধ্যমিক শ্রেণি মিলিয়ে প্রায় ২৫ হাজার শিক্ষার্থী অধ্যয়ন করছে। বিপুল এ শিক্ষার্থীদের যথাযথভাবে পাঠদানের জন্য প্রয়োজনীয় সংখ্যক শিক্ষক, শ্রেণিকক্ষসহ নানান সঙ্কট রয়েছে কলেজটিতে।
তবে, এসবের মাঝেও শিক্ষা কার্যক্রম স্বাভাবিক গতিতে এগিয়ে চলেছে বলে বাংলানিউজকে জানিয়েছেন ওই কলেজ অধ্যক্ষ প্রফেসর ইবাদুল হক। তিনি জানান, শ্রেণিকক্ষসহ আরও কিছু সঙ্কট নিরসনের জন্য ১০ কোটি টাকার একটি প্রকল্প অনুমোদন হয়েছে। প্রকল্পটি বাস্তবায়িত হলে শ্রেণিকক্ষ, অডিটোরিয়াম ও আবাসন সঙ্কট দূর হবে বলে আশা করা যাচ্ছে। কলেজ সংশ্লিষ্ট সূত্র জানায়, যশোর সরকারি এমএম কলেজে বর্তমানে উচ্চ মাধ্যমিক ছাড়াও ১৯টি বিষয়ে অনার্স, ১৭টি বিষয়ে মাস্টার্স এবং স্নাতক(পাস) কোর্স চালু রয়েছে। এ শ্রেণিগুলোতে সবমিলিয়ে শিক্ষার্থীর সংখ্যা প্রায় ২৫ হাজার। এ শিক্ষার্থীদের পাঠগ্রহণের জন্য কলেজের ৪টি ভবনে মোট ৫৫টি শ্রেণিকক্ষ রয়েছে। যা নিতান্তই অপ্রতুল। ওই কলেজের ভূগোল ও পরিবেশ বিভাগের অনার্স তৃতীয় বর্ষের ছাত্র আব্বাস আলী বাংলানিউজকে জানান, দীর্ঘদিন ধরেই কলেজের শ্রেণিকক্ষের সঙ্কট রয়েছে। একটি শ্রেণির ক্লাস চলাকালে অন্য শ্রেনির শিক্ষার্থীদের বারান্দায় অথবা মাঠে দাঁড়িয়ে থাকতে হয়। কলেজের শিক্ষক সঙ্কটের বোঝাও শিক্ষার্থীদের বহন করতে হচ্ছে। শিক্ষক না থাকায় অনেক বিভাগে নিয়মিত ক্লাস করা সম্ভব হচ্ছে না। কলেজটিতে সবমিলিয়ে ১৬২টি শিক্ষকের পদ রয়েছে। এর মধ্যে বর্তমানে কলেজটিতে শিক্ষাদান করছেন ১৩৪ জন শিক্ষক।
বাকী ২৮টি পদ শূন্য রয়েছে। এছাড়া ২০১০-১১ শিক্ষাবর্ষে চালু হওয়া মার্কেটিং ও ফিন্যান্স বিষয়ের কোনো শিক্ষকই নেই কলেজটিতে।
