বিসিএস সাধারণ শিক্ষা ক্যাডারের কর্মকর্তা ও খুলনা সরকারি মহিলা কলেজের অধ্যক্ষ মোহাম্মদ আব্দুল আলীমকে যশোর শিক্ষা বোর্ডের চেয়ারম্যান নিয়োগ করেছে সরকার।
ঢাকা: বিসিএস সাধারণ শিক্ষা ক্যাডারের কর্মকর্তা ও খুলনা সরকারি মহিলা কলেজের অধ্যক্ষ মোহাম্মদ আব্দুল আলীমকে যশোর শিক্ষা বোর্ডের চেয়ারম্যান নিয়োগ করেছে সরকার।
 
অর্থনীতি বিভাগের এই অধ্যাপককে চেয়ারম্যান পদে প্রেষণে নিয়োগ দিয়ে সোমবার (৩১ অক্টোবর) আদেশ জারি করেছে শিক্ষা মন্ত্রণালয়।   বাংলাদেশ সময়: ২২২৬ ঘণ্টা, অক্টোবর ৩১, ২০১৬ এমআইএইচ/আরআইএস/আইএ
