জাতির জনক বঙ্গবন্ধু শেখ মুজিবুর রহমানের ৪১তম শাহাদাতবার্ষিকী ও জাতীয় শোক দিবস-২০১৬ উপলক্ষে ইন্ডিপেনডেন্ট ইউনিভার্সিটি বাংলাদেশের...
ঢাকা: জাতির জনক বঙ্গবন্ধু শেখ মুজিবুর রহমানের ৪১তম শাহাদাতবার্ষিকী ও জাতীয় শোক দিবস-২০১৬ উপলক্ষে ইন্ডিপেনডেন্ট ইউনিভার্সিটি বাংলাদেশের (আইইউবি) উদ্যোগে ‘বঙ্গবন্ধুর জীবন ও অবদান’ শীর্ষক আলোচনা সভা অনুষ্ঠিত হয়েছে।
মঙ্গলবার (১৬ আগস্ট) আইইউবি ক্যাম্পাস বসুন্ধরায় এ সভা অনুষ্ঠিত হয়। অনুষ্ঠানে প্রধান অতিথি হিসেবে জাতির জনকের বর্ণাঢ্য জীবন ও অবদান নিয়ে আলোচনা করেন বাংলা একাডেমির মহাপরিচালক শামসুজ্জামান খান।
বাংলাদেশ মুক্তিযুদ্ধ জাদুঘরের ট্রাস্টি মফিদুল হক বিশেষ অতিথি হিসেবে বঙ্গবন্ধুর জীবন সংগ্রাম, স্বাধীনতা আন্দোলন ও মুক্তিযুদ্ধের গৌরবের ইতিহাসের বিভিন্ন দিক তরুণ শিক্ষার্থীদের সামনে তুলে ধরেন।   আলোচনা সভায় সভাপতিত্ব করেন ইন্ডিপেনডেন্ট ইউনিভার্সিটি, বাংলাদেশের (আইইউবি)  উপাচার্য অধ্যাপক এম ওমর রহমান। ধন্যবাদ জ্ঞাপন করেন স্কুল অব লিবারেল আর্টস অ্যান্ড সোশাল সায়েন্সেস অনুষদের ডিন ড. মাহবুব আলম।
