লালমনিরহাট: লালমনিরহাট জজ আদালতের আইনজীবী হেলাল উদ্দিন আর নেই (ইন্নালিল্লাহি ওয়া ইন্নাইলাইহি রাজিউন)। মৃত্যুকালে তার বয়স হয়েছিল ৪৮ বছর।
সোমবার (২৭ ফেব্রুয়ারি) সন্ধ্যা ৬টায় ৪০ মিনিটে রংপুর মেডিকেল কলেজ হাসপাতালে তিনি শেষ নিঃশ্বাস ত্যাগ করেন।
অ্যাডভোকেট হেলাল উদ্দিন লালমনিরহাট শহরের উকিলপাড়ায় এক ছেলে এক মেয়ে ও স্ত্রীকে নিয়ে বসবাস করতেন।
হেলাল উদ্দিনের বড়ভাই আব্দুল ওহাব বাংলানিউজকে জানান, হৃদযন্ত্রের ব্যাথায় হেলাল উদ্দিনকে রোববার (২৬ ফেব্রুয়ারি) রংপুর মেডিকেল কলেজ হাসপাতালে ভর্তি করা হয়। সকালে তাকে ওই হাসপাতালের আসিইউতে রাখা হলে সন্ধ্যায় তিনি শেষ নিঃশ্বাস ত্যাগ করেন।
পারিবারিক স‍ূত্রে জানা ‍যায়, হেলাল উদ্দিনের মরদেহ মঙ্গলবার (২৮ ফেব্রুয়ারি) প্রথমে লালমনিরহাট আদালত চত্ত্বরে নেওয়া হবে। সেখানে প্রথম নামাজে জানাজা শেষে গ্রামের বাড়ি আদিতমারী স্টেশন পাড়ায় নেওয়া হবে। সেখানে দ্বিতীয় জানাজা শেষে আদিতমারী কেন্দ্রীয় কবরস্থানে তাকে দাফন করা হবে।
