ঢাকা: দেশের ১১তম শিক্ষা বোর্ড হিসেবে ‘মাধ্যমিক ও উচ্চ মাধ্যমিক শিক্ষা বোর্ড, ময়মনসিংহ’ নামে একটি বোর্ড স্থাপন করেছে সরকার।
শিক্ষা মন্ত্রণালয়ের মাধ্যমিক ও উচ্চ শিক্ষা বিভাগ নতুন এ বোর্ড স্থাপনের আদেশ জারি করেছে।
গত ২৮ আগস্টের আদেশে বলা হয়েছে, মাধ্যমিক ও উচ্চ মাধ্যমিক শিক্ষা অধ্যাদেশ ক্ষমতাবলে সরকার ময়মনসিংহ, নেত্রকোনা, শেরপুর ও জামালপুর জেলাগুলোর মাধ্যমিক ও উচ্চ মাধ্যমিক শিক্ষার সংগঠন, নিয়ন্ত্রণ, তত্ত্বাবধান এবং উন্নয়নের উদ্দেশে ময়মনসিংহ শহরে শিক্ষা বোর্ড স্থাপন করলো।
এর মাধ্যমে এই চার জেলার শিক্ষা প্রতিষ্ঠানের উপর থেকে ঢাকা শিক্ষা বোর্ডের এখতিয়ার রহিত করে এসব জেলার মাধ্যমিক ও উচ্চ মাধ্যমিক শিক্ষার নিয়ন্ত্রণ, তত্ত্বাবধান ও উন্নয়নের ক্ষমতা নবগঠিত বোর্ডের উপর ন্যস্ত করা হয়।
২০১৫ সালের ১৪ সেপ্টেম্বর প্রশাসনিক পুনর্বিন্যাস সংক্রান্ত জাতীয় বাস্তবায়ন কমিটি (নিকার) ময়মনসিংহ, জামালপুর, শেরপুর ও নেত্রকোনা জেলা নিয়ে অষ্টম বিভাগ হিসেবে ময়মনসিংহ বিভাগ গঠনের সিদ্ধান্ত নেয়।
ময়মনসিংহ বিভাগ গঠনের পর থেকেই এই বিভাগে একটি শিক্ষা স্থাপনের দাবি ওঠে।
ঢাকা, রাজশাহী, চট্টগ্রাম, কুমিল্লা, সিলেট, বরিশাল, যশোর ও দিনাজুপরে সাধারণ বোর্ড রয়েছে। আর মাদ্রাসা ও কারিগরি প্রতিষ্ঠানের জন্য রয়েছে মাদ্রাসা শিক্ষা বোর্ড এবং কারিগরি শিক্ষা বোর্ড।
গত বছরের আগস্টের মাঝামাঝি সরকার ময়মনসিংহে নতুন শিক্ষা বোর্ড স্থাপনের নীতিগত সিদ্ধান্ত নেয়। এর যৌক্তিকতা যাচাইয়ে শিক্ষা মন্ত্রণালয়ের অতিরিক্ত সচিব (বিদ্যালয়) চৌধুরী মুফাত আহমেদকে আহ্বায়ক করে সাত সদস্যের একটি কমিটি করা হয়।
ওই কমিটির মতামতের ভিত্তিতে ময়মনসিংহে নতুন শিক্ষা বোর্ড স্থাপনে প্রধানমন্ত্রীর কাছে প্রস্তাবনা পাঠানো হলে তা অনুমোদন হয়। এরপরই নতুন শিক্ষা বোর্ড গঠনের আদেশ জারি করে শিক্ষা মন্ত্রণালয়।
রাষ্ট্রপিতর আদেশে শিক্ষা মন্ত্রণালয়ের মাধ্যমিক ও উচ্চ মাধ্যমিক বিভাগের সচিব মো. সোহরাব হোসাইন প্রকাশিত ওই গেজেটে আরো বলা হয়েছে প্রজ্ঞাপনটি অবিলম্বে কার্যকর হবে।
