রাজধানীর শেরেবাংলা কৃষি বিশ্ববিদ্যালয়ে (শেকৃবি) জৈব প্রযুক্তি বিভাগে নতুন চেয়ারম্যান হিসেবে নিয়োগ পেয়েছেন অধ্যাপক ড. মো. একরামুল হক।
ঢাকা: রাজধানীর শেরেবাংলা কৃষি বিশ্ববিদ্যালয়ে (শেকৃবি) জৈব প্রযুক্তি বিভাগে নতুন চেয়ারম্যান হিসেবে নিয়োগ পেয়েছেন অধ্যাপক ড. মো. একরামুল হক।
সোমবার (১৩ জুন) ড. মো. একরামুল হক ৩য় বারের মতো চেয়ারম্যান হিসেবে সহোযোগী অধ্যাপক হোমায়রা হকের স্থলাভিষিক্ত হলেন।
নিয়োগের পর স্নাতকোত্তর শ্রেণির শিক্ষার্থীদের পক্ষ থেকে তাকে ফুলেল শুভেচ্ছা ও অভিনন্দন জানানো হয়।
প্রতিক্রিয়া জানতে চাইলে ড. মো. একরামুল হক বাংলানিউজকে বলেন, স্নাতকোত্তর শ্রেণিতে গবেষণার গতি তরান্বিত করতে আধুনিক যন্ত্রপাতি অত্যন্ত জরুরি। তাই এই মেয়াদে গবেষণারে আধুনিক সুযোগ-সুবিধা তৈরির পরিকল্পনা রয়েছে।
