ঢাকা বিশ্ববিদ্যালয়: ঢাকা বিশ্ববিদ্যালয়ে ২০১৬-১৭ শিক্ষাবর্ষে কলা অনুষদভুক্ত ‘খ’ ইউনিটে ভর্তি পরীক্ষার ফলাফল প্রকাশিত হয়েছে। পাসের হার ১৬ দশমিক ৫৬ শতাংশ।
সোমবার (২৫ সেপ্টেম্বর) দুপুরে বিশ্ববিদ্যালয়ের প্রশাসনিক ভবনের কেন্দ্রীয় ভর্তি অফিসে উপাচার্য অধ্যাপক ড. মো. আখতারুজ্জামান আনুষ্ঠানিকভাবে এ ফল প্রকাশ করেন।
‘খ’ ইউনিটের ভর্তি পরীক্ষায় অংশ নেয় ৩১ হাজার ৩৩৬ জন ভর্তিচ্ছু শিক্ষার্থী। তাদের মধ্যে ২ হাজার ৩৬৩টি আসনের বিপরীতে ৫ হাজার ১৮৮ জন শিক্ষার্থী উত্তীর্ণ হয়েছে। যার শতকরা হার ১৬ দশমিক ৫৬ শতাংশ।
ভর্তি পরীক্ষার ফল মোবাইল ফোন ও বিশ্ববিদ্যালয়ের ওয়েবসাইট থেকেও জানা যাবে। মোবাইল ফোনের মাধ্যমে যেকোনো অপারেটরের মেসেজ অপশনে গিয়ে DU স্পেস Kha স্পেস (ভর্তি পরীক্ষার রোল নম্বর) লিখে ১৬৩২১ নম্বরে পাঠালে ফিরতি এসএমএসে ফল জানা যাবে। এছাড়া বিশ্ববিদ্যালয়ের ওয়েবসাইট admission.eis.du.ac.bd থেকেও ফলাফল জানা যাবে।
ভর্তি পরীক্ষায় উত্তীর্ণ সব শিক্ষার্থীকে আগামী ২৮ সেপ্টেম্বর বিকেল ৩টা থেকে ১০ অক্টোবর পর্যন্ত ভর্তি পরীক্ষার ওয়েবসাইটে বিস্তারিত এবং বিষয় পছন্দক্রম ফরম পূরণ করতে বলা হয়েছে। এছাড়া কোটায় উত্তীর্ণ শিক্ষার্থীদের আগামী ২৬ সেপ্টেম্বর থেকে ৫ অক্টোবরের মধ্যে সংশ্লিষ্ট কোটার ফরম কলা অনুষদের ডিন অফিস থেকে সংগ্রহ করে সঠিকভাবে পূরণ করে জমা দিতে বলা হয়েছে।
আর ফল নিরীক্ষণের জন্য ফি দেওয়া সাপেক্ষে আগামী ২৬ সেপ্টেম্বর থেকে ৫ অক্টোবর পর্যন্ত কলা অনুষদের ডিন অফিসে আবেদন করা যাবে।
বিষয় মনোনয়নের জন্য সাক্ষাৎকার শুরু হবে ২২ অক্টোবর থেকে।
