দিনাজপুর: দিনাজপুরের হাজী মোহাম্মদ দানেশ বিজ্ঞান ও প্রযুক্তি বিশ্ববিদ্যালয়ের (হাবিপ্রবি)  সান্ধ্যকালীন এমবিএ (৮ম ব্যাচ) -২০১৭ এর ভর্তি পরীক্ষা অনুষ্ঠিত হয়েছে।
শুত্রবার (০২ জুন) সকাল ৯টা থেকে ১১টা পর্যন্ত বিশ্ববিদ্যালয়ের ওয়াজেদ ভবনে বিজনেস স্টাডিজ অনুষদের তত্ত্বাবধানে এ পরীক্ষা অনুষ্ঠিত হয়।
পরীক্ষা চলাকালীন সময়ে কেন্দ্র পরিদর্শন করেন বিশ্ববিদ্যালয়ের ভাইস-চ্যান্সেলর প্রফেসর ড. মু. আবুল কাসেম।
এ সময় উপস্থিত ছিলেন- বিজনেস স্টাডিজ অনুষদের ডিন প্রফেসর ড. মো. জাহাঙ্গীর কবির, রেজিস্ট্রার প্রফেসর ড. মো. সফিউল আলম, জনসংযোগ ও প্রকাশনা শাখার পরিচালক প্রফেসর ড. শ্রীপতি সিকদার, প্রক্টর ড. মো. খালেদ হোসেন প্রমুখ।
পরীক্ষায় মোট ২২৪ জন পরীক্ষার্থী অংশ নেন।
ভর্তি পরীক্ষার ফলাফল ও যাবতীয় তথ্যাদি বিশ্ববিদ্যালয়ের (হাবিপ্রবি) ওয়েব সাইট www.hstu.ac.bd থেকে জানা যাবে।
