জাহাঙ্গীরনগর বিশ্ববিদ্যালয়: জাহাঙ্গীরনগর বিশ্ববিদ্যালয়ে (জাবি) যথাযোগ্য মর্যাদায় পালিত হয়েছে আন্তর্জাতিক মাতৃভাষা দিবস।
মঙ্গলবার (২১ ফেব্রুয়ারি) দিবসের প্রথম প্রহরে বিশ্ববিদ্যালয়ের কেন্দ্রীয় শহীদ মিনারে ফুল দিয়ে ভাষা শহীদদের প্রতি শ্রদ্ধা নিবেদন করেন উপাচার্য অধ্যাপক ফারজানা ইসলাম।
এ সময় উপ-উপাচার্য অধ্যাপক মো. আবুল হোসেন, কোষাধ্যক্ষ অধ্যাপক আবুল খায়ের, বিভিন্ন অনুষদের ডিন, বিভিন্ন বিভাগের সভাপতিরা উপস্থিত ছিলেন।
উপাচার্যের শ্রদ্ধা নিবেদনের পর বিশ্ববিদ্যালয় মহিলা ক্লাব, শিক্ষক সমিতি, অ্যালামনাই অ্যাসোসিয়েশন, অফিসার সমিতি, বিশ্ববিদ্যালয় সাংবাদিক সমিতি, কর্মচারী সমিতি, কর্মচারী ইউনিয়ন, বিভিন্ন হল ও বিভাগ, বিশ্ববিদ্যালয়ের বিভিন্ন সামাজিক-সাংস্কৃতিক ও রাজনৈতিক সংগঠনের নেতাকর্মীরা ভাষা শহীদদের প্রতি শ্রদ্ধা নিবেদন করেন।
এদিকে ভাষা শহীদদের প্রতি শ্রদ্ধা রেখে দিনব্যাপী নানা কর্মসূচি হাতে নিয়েছে বিশ্ববিদ্যালয় প্রশাসন।
