জগন্নাথ বিশ্ববিদ্যালয়ের (জবি) আবাসন সংকট নিরসনে আলোচনার জন্য শিক্ষামন্ত্রী নুরুল ইসলাম নাহিদের সঙ্গে রোববার (৪ সেপ্টেম্বর) বৈঠক করবেন বিশ্ববিদ্যালয়টির শিক্ষক সমিতি। এদিন বেলা সাড়ে ১১টায় শিক্ষা মন্ত্রণালয়ে এ বৈঠক হবে বলে আশা করা হচ্ছে।
জগন্নাথ বিশ্ববিদ্যালয়: জগন্নাথ বিশ্ববিদ্যালয়ের (জবি) আবাসন সংকট নিরসনে আলোচনার জন্য শিক্ষামন্ত্রী নুরুল ইসলাম নাহিদের সঙ্গে রোববার (৪ সেপ্টেম্বর) বৈঠক করবেন বিশ্ববিদ্যালয়টির শিক্ষক সমিতি। এদিন বেলা সাড়ে ১১টায় শিক্ষা মন্ত্রণালয়ে এ বৈঠক হবে বলে আশা করা হচ্ছে।
শনিবার (৩ সেপ্টেম্বর) বিকেলে জবি শিক্ষক সমিতির সভাপতি অধ্যাপক ড. কাজী সাইফুদ্দিন বিষয়টি বাংলানিউজকে জানিয়েছেন।
তিনি বলেন, শিক্ষামন্ত্রীর কাছে বিশ্ববিদ্যালয়ের আবাসন সংকট নিরসনের দাবি জানাবেন শিক্ষকরা। রোববার শিক্ষকদের ১৫ জনের একটি প্রতিনিধি দল শিক্ষা মন্ত্রণালয়ে মন্ত্রীর সঙ্গে বৈঠকে বসবেন।
সমিতির সভাপতি বলেন, বিশ্ববিদ্যালয়ের আবাসন সংকট নিয়ে শিক্ষকরা সরকারের সঙ্গে আলোচনা করার চেষ্টা করছেন বহুদিন ধরে। এর আগেও শিক্ষামন্ত্রীর সঙ্গে কয়েকবার বৈঠক হয়েছে।
তবে এবারের বৈঠক অধিক ফলপ্রসূ হবে বলে আশা করছেন ড. কাজী সাইফুদ্দিন।
এর আগে, ছাত্রলীগের অনশন ভাঙানোর দিন হলের দাবিতে আন্দোলনরতদের একাংশ ‘হল পুনরুদ্ধার ছাত্র সংগ্রাম পরিষদ’র সদস্য সচিব ও ছাত্রলীগের সাধারণ সম্পাদক এসএম সিরাজুল ইসলাম তাদের মধ্য থেকেও দু’জন প্রতিনিধি নিতে শিক্ষক সমিতিকে অনুরোধ করেছিলেন, তবে আজ এ বিষয়ে সাংবাদিকদের কিছু বলেননি কাজী সাইফুদ্দিন।
প্রতিষ্ঠার প্রায় ১১ বছর পার হলেও এ মুহূর্তে কোনো হল নেই জগন্নাথ বিশ্ববিদ্যালয়ের (জবি)। এর আগে ২০০৯, ২০১১, ২০১৪ সালে হল নিয়ে জোরালো আন্দোলন হলেও কার্যকর কোনো পদক্ষেপ দেখা যায়নি।
হলের দাবিতে এবার ২ আগস্ট থেকে আন্দোলন করে আসছে জগন্নাথ বিশ্ববিদ্যালয়ের শিক্ষার্থীরা। যার প্রেক্ষিতে শিক্ষক সমিতি শিক্ষামন্ত্রীর সঙ্গে দেখা করে এর সুষ্ঠু সমাধানের দাবি জানাবে।
