শাহজালাল বিজ্ঞান ও প্রযুক্তি বিশ্ববিদ্যালয়ের (শাবিপ্রবি) ২০১৬-১৭ শিক্ষাবর্ষে সম্মান প্রথম বর্ষ প্রথম সেমিস্টারের ভর্তি পরীক্ষার ফলাফল প্রকাশ করা...
সিলেট (শাবিপ্রবি): শাহজালাল বিজ্ঞান ও প্রযুক্তি বিশ্ববিদ্যালয়ের (শাবিপ্রবি) ২০১৬-১৭ শিক্ষাবর্ষে সম্মান প্রথম বর্ষ প্রথম সেমিস্টারের ভর্তি পরীক্ষার ফলাফল প্রকাশ করা হয়েছে।
সোমবার (২৮ নভেম্বর) সন্ধ্যা ৭টায় এ ফলাফল প্রকাশ করা হয়েছে বলে বাংলানিউনিজকে নিশ্চিত করেন ভর্তি কমিটির সভাপতি অধ্যাপক নিয়াজ আহমেদ।
তিনি জানান, পরীক্ষার ফল বিশ্ববিদ্যালয়ের অফিসিয়াল ওয়েবসাইটের মাধ্যমে জানা যাবে।
১৮ ডিসেম্বর থেকে ভর্তি কার্যক্রম শুরু হবে বলেও জানান তিনি।
তাছাড়া শিক্ষার্থীরা যেকোনো মোবাইল অপারেটর থেকে (SUST< space >RESULT< space >Exam-Roll) লিখে ১৬২৪২ নম্বরে এসএমএস বার্তা পাঠিয়ে ফল জানতে পারবেন।
