ঢাকা: এসএসসি পরীক্ষায় এবার রাজধানীর ভিকারুননিসা নূন স্কুল অ্যান্ড কলেজের শিক্ষার্থীদের পাসের হার ৯৯.৯৪ শতাংশ। এর মধ্যে জিপিএ ৫ পেয়েছে ১৩৬৮ জন।
বৃহস্পতিবার (৪ মে) দুপুরে বাংলানিউজকে ভিকারুননিসা নূন স্কুল অ্যান্ড কলেজের অধ্যক্ষ মোছা. সুফিয়া খাতুন একথা জানান।
বাংলানিউজকে তিনি জানান, এবার এসএসসি পরীক্ষা দিয়েছিলো ১ হাজার ৫৯৬ জন। আর পাস করেছে ১৫৯৫ জন। একজন অসুস্থ থাকায় পরীক্ষা দিতে পারেনি। বিজ্ঞান বিভাগে মোট পরীক্ষার্থী ছিলো ১২৮২ জন। এর মধ্যে ইংরেজি রয়েছে ৮৭ জন শিক্ষার্থীর। মানবিক থেকে পরীক্ষা দিয়েছে ১৮ জন, আর ব্যবসায় বিভাগ থেকে পরীক্ষা দিয়েছে ২০৯ জন।
সুফিয়া খাতুন আরও জানান, ভিকারুননিসা ন‍ূন স্কুল অ্যান্ড কলেজ একটি ত্রিমুখী শিক্ষা প্রতিষ্ঠান। এখানে পড়ালেখার পাশাপাশি শিক্ষার্থীরা বিভিন্ন কালচারাল অনুষ্ঠানে অংশ গ্রহণ করে থাকে। এছাড়া এখানে বিজ্ঞান ক্লাব, মুক্তিযোদ্ধা ক্লাব ও কালচারাল ক্লাব আছে। যেখানেও শিক্ষার্থীরা ভালো করছে।
গতবারের চেয়ে এবারের রেজাল্টে খুশি বলেও বাংলানিউজকে জানান তিনি।
