ঢাকা বিশ্ববিদ্যালয়: ২০১৪ সালের বিএসএস (সম্মান) পরীক্ষায় কৃতিত্বপূর্ণ ফল অর্জন করায় ঢাকা বিশ্ববিদ্যালয় গণযোগাযোগ ও সাংবাদিকতা বিভাগের পাঁচজন মেধাবী শিক্ষার্থীকে ‘সম্পাদক আবদুস সালাম স্মারক বৃত্তি’ দেওয়া হয়েছে।
রোববার (১৬ জুলাই) বিশ্ববিদ্যালয়ের মোজাফফর আহমেদ চৌধুরী মিলনায়তনে উপাচার্য অধ্যাপক ড. আ আ ম স আরেফিন সিদ্দিক প্রধান অতিথি হিসেবে উপস্থিত থেকে কৃতি শিক্ষার্থীদের হাতে বৃত্তির চেক তুলে দেন। 
বৃত্তিপ্রাপ্ত শিক্ষার্থীরা হলেন- ফারুক হোসেন, মো. জাহিদুর রহমান, মো. মাহমুদুল হাসান, নাজমুল হাসান এবং হোসনেয়ারা।
এছাড়াও গণযোগাযোগ ও সাংবাদিকতা বিভাগ আয়োজিত এ অনুষ্ঠানে সাংবাদিকতায় অনন্য অবদানের স্বীকৃতিস্বরূপ সাংবাদিক শাহেদ কামালকে আজীবন সম্মাননা দেওয়া হয়। 
সমাজে সত্য প্রতিষ্ঠায় সাংবাদিকদের সততা ও সাহসিকতার সাথে নিরলসভাবে কাজ কর‍ার আহ্বান জানান অধ্যাপক আরেফিন সিদ্দিক। প্রয়াত সাংবাদিক আবদুস সালাম এবং এ বি এম মুসার আদর্শ অনুসরণের মাধ্যমে সাংবাদিকতা পেশার উন্নয়ন ঘটানোর আহ্বানও জানান উপাচার্য। 
এ সময় তিনি বৃত্তিপ্রাপ্ত ছাত্র ও আজীবন সম্মাননা পাওয়া বিশিষ্ট সাংবাদিক শাহেদ কামালকে আন্তরিক ধন্যবাদ ও অভিনন্দন জানান।
ঢাকা বিশ্ববিদ্যালয়ের কোষাধ্যক্ষ অধ্যাপক ড. মো. কামাল উদ্দীনের সভাপতিত্বে অনুষ্ঠানে বিশেষ অতিথি হিসেবে বক্তব্য রাখেন গণযোগাযোগ ও সাংবাদিকতা বিভাগের চেয়ারম্যান অধ্যাপক মফিজুর রহমান। 
আরও বক্তব্য রাখেন সম্পাদক আবদুস সালামের কন্যা রেহানা সালাম। অনুষ্ঠানে ‘সম্পাদক আবদুস সালাম স্মারক বক্তৃতা’ প্রদান করেন বিভাগীয় অনারারি অধ্যাপক ড. সাখাওয়াত আলী খান। অনুষ্ঠান পরিচালনা করেন বিভাগের সহযোগী অধ্যাপক রোবায়েত ফেরদৌস।
এ সময় প্রয়াত সাংবাদিক আবদুস সালাম ও এ বি এম মুসার পরিবারের সদস্যরা উপস্থিত ছিলেন।
প্রয়াত সাংবাদিক এ বি এম মুসা শ্বশুরের স্মৃতি রক্ষার্থে গণযোগাযোগ ও সাংবাদিকতা বিভাগে ‘সম্পাদক আবদুস সালাম মেমোরিয়াল ট্রাস্ট ফান্ড’ গঠন করেছিলেন।
