কিশোরগঞ্জ: কিশোরগঞ্জের তিনটি শিক্ষা প্রতিষ্ঠান থেকে এইচএসসি পরীক্ষায় অংশ নিয়ে কেউ পাস করেনি।
শিক্ষা প্রতিষ্ঠানগুলো হলো- করিমগঞ্জ উপজেলার নেয়ামতপুর স্কুল অ্যান্ড কলেজ, কুলিয়ারচরের আবুল কাসেম কলেজ ও ভৈরব উপজেলার ভৈরব আইডিয়াল কলেজ।
ফলাফল পর্যালোচনায় জানা গেছে, তিনটি শিক্ষা প্রতিষ্ঠানের মধ্যে করিমগঞ্জ উপজেলার নেয়ামতপুর স্কুল অ্যান্ড কলেজ থেকে সাতজন পরীক্ষার্থী অংশ নেন। এদের কেউ পাস করেনি। এছাড়া ভৈরব উপজেলার ভৈরব আইডিয়াল কলেজ থেকে তিনজন পরীক্ষার্থী অংশ নিয়ে সবাই ফেল করেছে এবং কুলিয়ারচরের আবুল কাসেম কলেজ থেকে দু'জন পরীক্ষার্থী অংশ নিয়েও কেউ পাস করেনি।
