শাহজালাল বিজ্ঞান ও প্রযুক্তি বিশ্ববিদ্যালয়ে (শাবিপ্রবি) ছাত্রলীগের ধাওয়া, উত্তেজনাসহ উদ্ভূত পরিস্থিতিতে তদন্ত কমিটি পাঠিয়েছে কেন্দ্রীয় ছাত্রলীগ।
সিলেট (শাবিপ্রবি): শাহজালাল বিজ্ঞান ও প্রযুক্তি বিশ্ববিদ্যালয়ে (শাবিপ্রবি) ছাত্রলীগের ধাওয়া, উত্তেজনাসহ উদ্ভূত পরিস্থিতিতে তদন্ত কমিটি পাঠিয়েছে কেন্দ্রীয় ছাত্রলীগ।
কেন্দ্রীয় ছাত্রলীগের দপ্তর সম্পাদক দেলোয়ার হোসেন শাহজাদা বৃহস্পতিবার (২২ ডিসেম্বর) সন্ধ্যায় বাংলানিউজকে জানান, শুক্রবার (২৩ ডিসেম্বর) থেকে এ তদন্ত টিম কাজ করবে এবং তাদের সুপারিশের ভিত্তিতে কেন্দ্রীয় নেতারা ব্যবস্থা নিবে।
কেন্দ্রীয় ছাত্রলীগের সহ-সভাপতি রাজিব আহমেদ রাসেলের নেতৃত্বাধীন পাঁচ সদস্যের এ তদন্ত কমিটি গঠিত হয়েছে।
