ঢাকা সেনানিবাসের শহীদ বীর উত্তম লে. আনোয়ার গার্লস কলেজে সন্ত্রাস ও জঙ্গিবাদবিরোধী সভা অনুষ্ঠিত হয়েছে। শনিবার...
ঢাকা: ঢাকা সেনানিবাসের শহীদ বীর উত্তম লে. আনোয়ার গার্লস কলেজে সন্ত্রাস ও জঙ্গিবাদবিরোধী সভা অনুষ্ঠিত হয়েছে।
শনিবার (০৩ সেপ্টেম্বর) কলেজের অডিটরিয়ামে এ সভা অনুষ্ঠিত হয়।  
এতে ছাত্রী প্রতিনিধি, শিক্ষক প্রতিনিধি, ধর্মীয় শিক্ষক, অভিভাবক প্রতিনিধি ও সাংবাদিক প্রতিনিধি হিসেবে শাহনাজ মুন্নী বক্তব্য দেন। সভায় সভাপতিত্ব ও বক্তব্য দেন কলেজের অধ্যক্ষ কর্নেল মো. রাশিদুল ইসলাম খান।
এ সময় জঙ্গিবিরোধী বিভিন্ন সচেতনতামূলক কর্মকাণ্ড নিয়ে আলোচনা হয়।
