আন্তর্জাতিক সাক্ষরতা দিবসের সংবাদ সম্মেলনে মন্ত্রীর লিখিত বক্তব্যে দিবসটিতেই ভুল থাকায় সমালোচনার মুখে পড়েছে প্রাথমিক ও গণশিক্ষা মন্ত্রণালয়।
ঢাকা: আন্তর্জাতিক সাক্ষরতা দিবসের সংবাদ সম্মেলনে মন্ত্রীর লিখিত বক্তব্যে দিবসটিতেই ভুল থাকায় সমালোচনার মুখে পড়েছে প্রাথমিক ও গণশিক্ষা মন্ত্রণালয়। আন্তর্জাতিক সাক্ষরতা দিবস না বলে সেখানে আন্তর্জাতিক মাতৃভাষা দিবস উল্লেখ করা হয়।   বৃহস্পতিবার (০৮ সেপ্টেম্বর) আন্তর্জাতিক সাক্ষরতা দিবসের কর্মসূচি ঘোষণা করতে বুধবার (০৭ সেপ্টেম্বর) সচিবালয়ে মন্ত্রণালয়ের সভাকক্ষে এ সংবাদ সম্মেলনের আয়োজন করা হয়।  
‘আন্তর্জাতিক সাক্ষরতা দিবস-২০১৬ উপলক্ষে মন্ত্রী মহোদয়ের বক্তব্য’ শিরোনামের পর তারিখ, সময় ও স্থান উল্লেখ করে শুরু হয় মন্ত্রী মোস্তাফিজুর রহমানের লিখিত বক্তব্য।   লিখিত বক্তব্যের কপি নিয়ে মন্ত্রী পড়া শুরু করেন- ‘প্রিয় সাংবাদিকবৃন্দ, আসসালামুআলাইকুম, ৮ সেপ্টেম্বর আন্তর্জাতিক মাতৃভাষা দিবস। এ বছর ২০১৬ বিশ্বব্যাপী আন্তর্জাতিক মাতৃভাষা দিবসের সুবর্ণ জয়ন্তী পালন করা হচ্ছে’।   সাংবাদিকদের কাছে সরবরাহ করা কপিতেও দিবসটিতে দু্’বার ভুল ছিল। হলভর্তি সাংবাদিকরা বলে ওঠেন, ‘স্যার, সাক্ষরতা দিবস। মাতৃভাষা দিবস নয়’।
