দিনাজপুর: দিনাজপুর সরকারি মহিলা কলেজের বার্ষিক ক্রীড়া প্রতিযোগিতা-সাংস্কৃতিক অনুষ্ঠান অনুষ্ঠিত হয়েছে। পরে প্রতিযোগিতার বিজয়ীদের পুরস্কার বিতরণ ও কলেজ অভ্যন্তরে ক্যান্টিনের উদ্বোধন করা হয়।
মঙ্গলবার (১৪ মার্চ) বিকেলে প্রতিযোগিতায় বিজয়ীদের মধ্যে পুরস্কার বিতরণ করেন অনুষ্ঠানের প্রধান অতিথি জাতীয় সংসদের হুইপ ইকবালুর রহিম এমপি। পরে সন্ধ্যায় সাংস্কৃতিক অনুষ্ঠানের আয়োজন করা হয়। এর মধ্যেই হয়েছে ক্যান্টিন উদ্বোধন।
আয়োজনে উপস্থিত ছিলেন, জেলা প্রশাসক মীর খায়রুল আলম, দিনাজপুর সরকারি মহিলা কলেজের অধ্যক্ষ অধ্যাপক আঞ্জুমান আখতার, সদর উপজেলা আওয়ামী লীগের সাধারণ সম্পাদক বিশ্বজিৎ ঘোষ কাঞ্চন প্রমুখ।
