নোয়াখালী: সড়ক দুর্ঘটনায় নোয়াখালী বিজ্ঞান ও প্রযুক্তি বিশ্ববিদ্যালয়ের  (নোবিপ্রবি) ছাত্রী ফৌজিয়া মোসলেম সিলভী নিহত হওয়ার প্রতিবাদে এবং ঘাতক পিকআপ ভ্যানচালককে গ্রেফতারসহ আট দফা দাবিতে সড়ক অবরোধ করেছেন বিশ্ববিদ্যালয়ের শিক্ষার্থীরা। 
রোববার (২৬ নভেম্বর) সকাল সাড়ে ১০টা থেকে প্রায় এক ঘণ্টা নোয়াখালীর সোনাপুর জিরো পয়েন্টে সড়ক অবরোধ করে রাখেন তারা। পরে বিশ্ববিদ্যালয় প্রশাসন ও পুলিশ প্রশাসন তাদের দাবি মেনে নেওয়ার আশ্বাস দিলে তারা অবরোধ তুলে নেন।
আন্দোলনরত শিক্ষার্থীরা জানান, দুর্ঘটনার এক সপ্তাহ পেরিয়ে গেলও ঘাতক গাড়িচালককে শনাক্ত বা গ্রেফতার করা হয়নি। তাই বাধ্য হয়ে আন্দোলন করছেন তারা। 
