এবার ইসলামী বিশ্ববিদ্যালয়ের (ইবি) বাংলা বিভাগের সহকারী অধ্যাপক সাইফুজ্জামানকে ‍কুপিয়ে গুরুতর জখম করেছে দুর্বৃত্তরা।
ইবি: এবার ইসলামী বিশ্ববিদ্যালয়ের (ইবি) বাংলা বিভাগের সহকারী অধ্যাপক সাইফুজ্জামানকে ‍কুপিয়ে গুরুতর জখম করেছে দুর্বৃত্তরা।
এ সময় ‍তার সঙ্গে থাকা ছানাউল্লাহ নামে এক হোমিওপ্যাথি চিকিৎসকে কুপিয়ে হত্যা করে তারা।
শুক্রবার (২০ মে) সকাল ১০টার কুষ্টিয়া সদর উপজেলার বটতৈল ইউনিয়নের শিশিরমাঠ সংলগ্ন এলাকায় এ ঘটনা ঘটে।
নিহত ছানাউল্লাহ কুষ্টিয়া শহরের পূর্ব মজমপুর এলাকার মৃত মীর বজলুর রহমানের ছেলে। তিনি শিশিরমাঠ এলাকায় প্রতি শুক্রবারে বিনামূল্যে হোমিও চিকিৎসা দিয়ে আসছিলেন।
স্থানীয় সূত্র জানায়, সকালে মোটরসাইকেলে করে কুষ্টিয়া শহরতলীর মজমপুর থেকে বটতৈল থেকে শিশিরমাঠে যাচ্ছিলেন ওই শিক্ষক ও চিকি‍ৎসক।
শিশিরমাঠ এলাকায় একদল দুর্বৃত্ত তাদের পথরোধ করে এলোপাতারি কুপিয়ে পালিয়ে যায়। এতে ঘটনাস্থলেই ওই চিকিৎসকের মৃত্যু হয়। স্থানীয়রা দ্রুত শিক্ষক সাইফুজ্জামানকে কুষ্টিয়া সদর হাসপাতালে নিয়ে যায়।
কুষ্টিয়া সদর হাসপাতালের চিকিৎসক তাপস কুমার সরকার বাংলানিউজকে বলেন, তার জন্য চার সদস্যের মেডিকেল টিম করা হয়েছে। আমরা সাধ্যমতো চেষ্টা করছি। তার প্রচুর রক্তক্ষরণ হয়েছে। তাকে এয়ার অ্যাম্বুলেন্সে করে ঢাকায় পাঠানো হয়েছে।
এদিকে, দুর্ঘটনাস্থল পরিদর্শন করেছেন ইবির উপাচার্য অধ্যাপক ড. আবদুল হাকিম সরকার। এ সময় তিনি বলেন, সাইফুজ্জামানের জন্য ইবি প্রশাসেনর পক্ষ থেকে সর্বোচ্চ চেষ্টা করা হবে।  
