চট্টগ্রাম সরকারি মহিলা কলেজের অধ্যক্ষ শাহেদা ইসলামকে চট্টগ্রাম মাধ্যমিক ও উচ্চ মাধ্যমিক শিক্ষা বোর্ডের চেয়ারম্যান হিসেবে নিয়োগ দিয়েছে...
ঢাকা: চট্টগ্রাম সরকারি মহিলা কলেজের অধ্যক্ষ শাহেদা ইসলামকে চট্টগ্রাম মাধ্যমিক ও উচ্চ মাধ্যমিক শিক্ষা বোর্ডের চেয়ারম্যান হিসেবে নিয়োগ দিয়েছে সরকার।
বিসিএস ক্যাডারের (রসায়ন বিভাগ) এই অধ্যাপককে প্রেষণে নিয়োগ দিয়ে সোমবার (০১ আগস্ট) আদেশ জারি করেছে শিক্ষা মন্ত্রণালয়।
বর্তমান বোর্ড চেয়ারম্যান মোহাম্মদ শাহজাহানের স্থলাভিষিক্ত হবেন অধ্যাপক শাহেদা ইসলাম।
আদেশে বলা হয়েছে, নিজ বেতনের পাশাপাশি তিনি পদের সঙ্গে সংযুক্ত ভাতা ও অন্যান্য সুযোগ সুবিধা প্রাপ্য হবেন।  
