গোপালগঞ্জ: গোপালগঞ্জ বঙ্গবন্ধু শেখ মুজিবুর রহমান বিজ্ঞান ও প্রযুক্তি বিশ্ববিদ্যালয়ে (বশেমুরবিপ্রবি) ২০১৭-১৮ শিক্ষাবর্ষে স্নাতক (সম্মান) প্রথম বর্ষের ভর্তি পরীক্ষার আবেদনের সময় আগামী ২ নভেম্বর রাত ১২টা পর্যন্ত বৃদ্ধি করা হয়েছে।
মঙ্গলবার (৩১ অক্টোবর) বিকেলে প্রেস বিজ্ঞপ্তির মাধ্যমে এ তথ্য জানানো হয়।
বিশ্ববিদ্যালয়ের জনসংযোগ কর্মকর্তা মো. মাহবুবুল আলম জানান, শিক্ষার্থীরা বিশ্ববিদ্যালয়ের ওয়েব সাইট www.bsmrstu.edu.bd এ প্রচারিত নিয়মাবলী অনুসারে অনলাইনে আবেদন করতে পারবেন। তবে ভর্তি পরীক্ষা পূর্ব নির্ধারিত সময় অনুযায়ী আগামী ১০, ১১ এবং ১৭, ১৮ নভেম্বর অনুষ্ঠিত হবে।
ডি এবং ই ইউনিটের ভর্তি পরীক্ষা ১০ নভেম্বর, এফ এবং জি ইউনিটের ভর্তি পরীক্ষা ১১ নভেম্বর, এ এবং বি ইউনিটের ভর্তি পরীক্ষা ১৭ নভেম্বর, সি এবং এইচ ইউনিটের ভর্তি পরীক্ষা ১৮ নভেম্বর অনুষ্ঠিত হবে।
এবার ৮টি ইউনিটের অধীনে ৩১ বিভাগে সর্বমোট ৩ হাজার ১ জন (বিদেশি শিক্ষার্থী ও কোটাসহ) শিক্ষার্থী ভর্তি করা হবে।
