রাজশাহী প্রকৌশল ও প্রযুক্তি বিশ্ববিদ্যালয়ের (রুয়েট) ভারপ্রাপ্ত রেজিস্ট্রার প্রফেসর ড. মোশাররাফ হোসেন উচ্চতর প্রশিক্ষণের জন্য ভারতের ব্যাঙ্গালুরুতে গেছেন।
রাজশাহী: রাজশাহী প্রকৌশল ও প্রযুক্তি বিশ্ববিদ্যালয়ের (রুয়েট) ভারপ্রাপ্ত রেজিস্ট্রার প্রফেসর ড. মোশাররাফ হোসেন উচ্চতর প্রশিক্ষণের জন্য ভারতের ব্যাঙ্গালুরুতে গেছেন।
মঙ্গলবার (৫ এপ্রিল) সন্ধ্যায় রুয়েট’র জনসংযোগ শাখা থেকে পাঠানো সংবাদ বিজ্ঞপ্তিতে বিষয়টি জানানো হয়।
এতে বলা হয়, প্রফেসর ড. মোশাররাফ হোসেন ৪ এপ্রিল থেকে ১৫ এপ্রিল পর্যন্ত ব্যাঙ্গালুরুতে অনুষ্ঠিত উচ্চশিক্ষার মানোন্নয়ন নিশ্চিতকরণে করণীয় বিষয়ক প্রশিক্ষণে অংশ নিচ্ছেন।
প্রফেসর ড. মোশাররাফ হোসেন রুয়েটে শিক্ষার মানোন্নয়নে কার্যকর উদ্যোগ ও পদক্ষেপ নেওয়ার জন্য গঠন করা কোয়ালিটি অ্যাসুরেন্স সেল’র পরিচালক।
