বরগুনা: বরগুনায় এসএসসি পরীক্ষার প্রশ্নপত্র ফাঁসের অভিযোগে সন্দেহজনকভাবে লিমন নামে এক কলেজছাত্রকে আটক করেছে গোয়েন্দা (ডিবি) পুলিশ।
শনিবার (১০ ফেব্রুয়ারি) দুপুর সাড়ে ৩টার দিকে বরগুনা সদর ইউনিয়নের বৈঠাকাটা এলাকা থেকে তাকে আটক করা হয়।
বরগুনা জেলা ডিবি পুলিশের ভারপ্রাপ্ত কর্মকর্তা (ওসি) আবদুল্লাহ বাংলানিউজকে জানান, গোপন সংবাদের ভিত্তিতে অভিযান চালিয়ে লিমনকে আটক করা হয়েছে। প্রশ্নপত্র ফাঁসের বিষয়ে তথ্য বের করতে তাকে জিজ্ঞাসাবাদ করা হচ্ছে।
