রাজশাহী প্রকৌশল ও প্রযুক্তি বিশ্ববিদ্যালয়ে (রুয়েট) টিচিং লার্নিং মেথড বিষয়ক সেমিনার অনুষ্ঠিত হয়েছে। বুধবার (০৪ মে) রুয়েটের কেন্দ্রীয় অডিটোরিয়ামে দিনব্যাপী এ সেমিনার অনুষ্ঠিত হয়।
রাজশাহী: রাজশাহী প্রকৌশল ও প্রযুক্তি বিশ্ববিদ্যালয়ে (রুয়েট) টিচিং লার্নিং মেথড বিষয়ক সেমিনার অনুষ্ঠিত হয়েছে।
 
বুধবার (০৪ মে) রুয়েটের কেন্দ্রীয় অডিটোরিয়ামে দিনব্যাপী এ সেমিনার অনুষ্ঠিত হয়।
সেমিনারে বক্তারা, বাংলাদেশের জলবায়ুর পরিপ্রেক্ষিতে ‘এনার্জি এফিসিয়ান্ট  বিল্ডিং ডিজাইন’ এর প্রয়োজনীয়তার গুরুত্ব তুলে ধরেন।
বিশ্ববিদ্যালয়ের যন্ত্রকৌশল বিভাগের বিভাগীয় প্রধান প্রফেসর ড. ইমদাদুল হকের সভাপতিত্বে অনুষ্ঠানে সমাপনী বক্তব্য দেন প্রধান অতিথি ভাইস চ্যান্সেলর প্রফেসর ড. মোহাম্মদ রফিকুল আলম বেগ।
এ সময় বিশেষ অতিথি ছিলেন, যন্ত্রকৌশল অনুষদের ডীন প্রফেসর ড. নীরেন্দ্রনাথ মুস্তফী, পরিচালক (পরিকল্পনা ও উন্নয়ন) প্রফেসর ড. আব্দুল আলীম এবং পরিচালক (ছাত্রকল্যাণ) প্রফেসর ড. এন এইচ এম কামরুজ্জামান সরকার।
এছাড়া সেমিনারে বিভিন্ন বিভাগের শিক্ষক ও শিক্ষার্থীরা অংশ নেন।
