জাহাঙ্গীরনগর বিশ্ববিদ্যালয়ে (জাবি) আন্তঃবিভাগ হ্যান্ডবল প্রতিযোগিতায় ফিন্যান্স অ্যান্ড ব্যাংকিং বিভাগ ২৩-১৭ গোলে প্রাণরসায়ন ও অণুপ্রাণ বিজ্ঞান বিভাগকে পরাজিত করে চ্যাম্পিয়ন হয়েছে।
জাহাঙ্গীরনগর বিশ্ববিদ্যালয়: জাহাঙ্গীরনগর বিশ্ববিদ্যালয়ে (জাবি) আন্তঃবিভাগ হ্যান্ডবল প্রতিযোগিতায় ফিন্যান্স অ্যান্ড ব্যাংকিং বিভাগ ২৩-১৭ গোলে প্রাণরসায়ন ও অণুপ্রাণ বিজ্ঞান বিভাগকে পরাজিত করে চ্যাম্পিয়ন হয়েছে। বুধবার (২০ এপ্রিল) বিশ্ববিদ্যালয়ের কেন্দ্রীয় খেলার মাঠে সকাল দশটায় এ খেলা অনুষ্ঠিত হয়। ফিন্যান্স অ্যান্ড ব্যাংকিং বিভাগের তারেক ৯, নাহিদ ৭ এবং প্রাণরসায়ন ও অণুপ্রাণ বিজ্ঞান বিভাগের মাসুম সর্বোচ্চ ৬ গোল করেন। খেলা শেষে হ্যান্ডবল প্রতিযোগিতা পরিচালনা কমিটির সভাপতি ও আন্তর্জাতিক সম্পর্ক বিভাগের অধ্যাপক মো. আবদুল্লাহ হেল কাফী বিজয়ীদের পুরস্কার তুলে দেন।
বাংলাদেশ সময়: ১৪১০ ঘণ্টা, এপ্রিল ২০, ২০১৬ এএ
