২০১৬-১৭ শিক্ষাবর্ষে ঢাকা বিশ্ববিদ্যালয়ে (ঢাবি) ‘ঘ ’ ইউনিটের ১ম বর্ষ সম্মান শ্রেণিতে ভর্তি পরীক্ষা শুরু হয়েছে।
ঢাবি: ২০১৬-১৭ শিক্ষাবর্ষে ঢাকা বিশ্ববিদ্যালয়ে (ঢাবি) ‘ঘ ’ ইউনিটের ১ম বর্ষ সম্মান শ্রেণিতে ভর্তি পরীক্ষা শুরু হয়েছে।
শুক্রবার (২৮ অক্টোবর)  সকাল ১০টা থেকে  বিশ্ববিদ্যালয় ক্যাম্পাস ও ঢাকার শহরের বিভিন্ন স্কুল কলেজের ৯৯ কেন্দ্রে এই পরীক্ষা অনুষ্ঠিত হচ্ছে। চলবে বেলা ১১টা পর্যন্ত।
ইউনিটে আসন সংখ্যা রয়েছে ১৫৪০টি। এর মধ্যে বিজ্ঞান বিভাগের শিক্ষার্থীদের জন্য ১ হাজার ৯৭টি, বিজনেস স্টাডিজে  ৩ শত ৯০, মানবিকের জন্য  ৫৩টি টি।
চলতি বছর ‘ঘ’ ইউনিটে ভর্তিচ্ছু আবেদনকারীর সংখ্যা ১ লাখ ৯ হাজার ১৭০ জন।
বাংলাদেশ সময়: ১০১৭ ঘণ্টা, অক্টোবর ২৮, ২০১৬ এসকেবি/বিএস
