রংপুরে বেগম রোকেয়া বিশ্ববিদ্যালয়ের (বেরোবি) প্রস্তাবিত শেখ হাসিনা হল ও ড. ওয়াজেদ রিসার্চ ইনস্টিটিউটের নির্মাণ কাজের উদ্বোধন করবেন প্রধানমন্ত্রী শেখ হাসিনা।
রংপুর: রংপুরে বেগম রোকেয়া বিশ্ববিদ্যালয়ের (বেরোবি) প্রস্তাবিত শেখ হাসিনা হল ও ড. ওয়াজেদ রিসার্চ ইনস্টিটিউটের নির্মাণ কাজের উদ্বোধন করবেন প্রধানমন্ত্রী শেখ হাসিনা।
বৃহস্পতিবার (২২ ডিসেম্বর) রেজিস্ট্রার ইব্রাহীম কবির বাংলানিউজকে জানান, আগামী শনিবার (২৪ ডিসেম্বর) ভিডিও কনফারেন্সের মাধ্যমে এ কাজের উদ্বোধন করবেন প্রধানমন্ত্রী।
বিশ্ববিদ্যালয়ের এ কর্মকর্তা জানান, ২০১৫ সালের জানুয়ারি মাসে এ কাজের টেন্ডার হয়। ওই ভবন দুটোর নির্মাণে ব্যয় হবে ৭৪ কোটি টাকা।
বেরোবিতে ১০ তলা বিশিষ্ট এ অত্যাধুনিক ভবনটিতে মেয়েদের জন্য পার্লার, ব্যায়ামাগারসহ আলাদা আলাদা কক্ষের ব্যবস্থা থাকবে। ২০১৮ সালের মধ্যে এ কাজ শেষ করার কথা রয়েছে।
