র‌্যালি ও সভার মধ্য দিয়ে বরিশাল বিশ্ববিদ্যালয়ে (ববি) পালিত হয়েছে বিশ্ব ধরিত্রী দিবস।
বরিশাল: র‌্যালি ও সভার মধ্য দিয়ে বরিশাল বিশ্ববিদ্যালয়ে (ববি) পালিত হয়েছে বিশ্ব ধরিত্রী দিবস।
রোববার (২৪ এপ্রিল) দুপুর ২টায় ববির মৃত্তিকা ও পরিবেশ বিজ্ঞান বিভাগের আয়োজনে ক্যাম্পাসে বর্ণাঢ্য র‌্যালি বের হয়।
বিভাগের চেয়ারম্যান ড. মো. হাসিনুর রহমানের নেতৃত্বে এতে বিভাগের শিক্ষক ও শিক্ষার্থীরা অংশ নেন।
পরে দিবসটি উপলক্ষে এক সেমিনার অনুষ্ঠিত হয়। এতে  প্রধান বক্তা ছিলেন ড .মো. হাসিনুর রহমান।
সভায় বিশেষ অতিথির বক্তব্য রাখেন, মৃত্তিকা ও পরিবেশ বিজ্ঞান বিভাগের প্রভাষক মো. জামাল উদ্দীন ও আনজুমান আরা রজনী।
সেমিনার শেষে উপস্থিত সবাই বৃক্ষরোপণ কর্মসূচিতে অংশ নেন।
