জাতীয় বিশ্ববিদ্যালয়ের অধীন বিপিএড ২০১৪-১৫ শিক্ষাবর্ষের পরীক্ষার দাবিতে মানববন্ধন ও বিক্ষোভ করেছেন শিক্ষার্থীরা।
বুধবার (২০ জুলাই) জাতীয় বিশ্ববিদ্যালয়ের মূল ফটকের সামনে বিভিন্ন কলেজের বিপিএড শিক্ষার্থীরা এ কর্মসূচিতে অংশ নেন।
গাজীপুর: জাতীয় বিশ্ববিদ্যালয়ের অধীন বিপিএড ২০১৪-১৫ শিক্ষাবর্ষের পরীক্ষার দাবিতে মানববন্ধন ও বিক্ষোভ করেছেন শিক্ষার্থীরা।
 
বুধবার (২০ জুলাই) জাতীয় বিশ্ববিদ্যালয়ের মূল ফটকের সামনে বিভিন্ন কলেজের বিপিএড শিক্ষার্থীরা এ কর্মসূচিতে অংশ নেন।
শিক্ষার্থীরা জানান, বাংলাদেশের ৩০টি বেসরকারি এবং ছয়টি সরকারি বিশ্ববিদ্যলয়ের বিপিএড কোর্স সম্পন্ন হয়েছে। ১১ মাস আগে ফরম পূরণ হয়েছে তার পরও ২০১৪-১৫ শিক্ষাবর্ষের বিপিএড পরীক্ষার রুটিন ঘোষণা করা হয়নি।
এই কর্মসূচির ভিত্তিতে জাতীয় বিশ্ববিদ্যালয়ের কর্তৃপক্ষ আগামী এক মাসের মধ্যে পরীক্ষা নেওয়ার আশ্বাস দেন।
বাংলাদেশ সময়: ১৫১০ ঘণ্টা, জুলাই ২০, ২০১৬ এএটি/আইএ
