ময়মনসিংহ: ময়মনসিংহ নাসিরাবাদ কলেজ ছাত্রী হোস্টেলের নব-নির্মিত ভবনের উদ্বোধন হয়েছে।
সোমবার (২৭ ফেব্রুয়ারি) দুপুরে হোস্টেলের উদ্বোধন করেন কলেজ গভর্নিং বডির সভাপতি আমিনুল হক শামীম।
উপস্থিত ছিলেন, জেলা প্রশাসক (ডিসি) খলিলুর রহমান, জেলা পুলিশ সুপার (এসপি) সৈয়দ নুরুল ইসলাম, ময়মনসিংহ পৌরসভার মেয়র মো. ইকরামুল হক টিটু, মুকুল নিকেতনের রেক্টর আমির আহম্মেদ চৌধুরী রতন, কলেজ প্রিন্সিপাল আশরাফ উদ্দিন।
পরে কলেজ মিলনায়তনে আলোচনা সভা ও সাংস্কৃতিক অনুষ্ঠানের আয়োজন করা হয়।
