ঢাকা: ঢাকা বিশ্ববিদ্যালয়ের উপাচার্যের বাসভবনের সামনে একটি বৈদ্যুতিক খুঁটিতে আগুন লাগার ঘটনা ঘটে। পরে ফায়ার সার্ভিসের দুটি ইউনিট এসে আগুন নিয়ন্ত্রণে আনে।
শুক্রবার (২১ জুলাই) সকাল সোয়া ৯টার দিকে আগুন লাগে।
পলাশী ব্যারাক ফায়ার স্টেশনের স্টেশন ম্যানেজার আলী আজম বলেন, আগুন নিয়ন্ত্রণে আনা হয়েছে।
বৈদ্যুতিক শর্টসার্কিট থেকে অগ্নিকাণ্ডের সূত্রপাত বলে আমরা প্রাথমিকভাবে ধারণা করছি।
বাংলাদেশ সময়: ১১০৩ ঘণ্টা, জুলাই ২১, ২০১৭ এসকেবি/বিএস
