জাহাঙ্গীরনগর বিশ্ববিদ্যালয়: জাহাঙ্গীরনগর বিশ্ববিদ্যালয়ের (জাবি) জুনিয়র শিক্ষকদের দক্ষতা বাড়াতে ইন্সটিটিউশনাল কোয়ালিটি অ্যাসিওরেন্স সেলের উদ্যোগে তিন দিনব্যাপী প্রশিক্ষণ কর্মশালার আয়োজন করা হয়েছে।
সোমবার (২৭ মার্চ) সকাল দশটায় গাণিতিক ও পদার্থ বিষয়ক অনুষদের সেমিনার রুমে এ প্রশিক্ষণ কর্মশালা উদ্বোধন করেন বিশ্ববিদ্যালয় উপ-উপাচার্য অধ্যাপক মো. আবুল হোসেন।
এ সময় তিনি বলেন, এ ধরনে উদ্যোগ শিক্ষকদের দক্ষতা বাড়াতে গুরুত্বপূর্ণ ভূমিকা পালন করবে। অনেক সময় দেখা যায়, রিসার্সের সঠিক নিয়ম ও পদ্ধতি না জানার কারণে অনেকে গবেষণা ক্ষেত্রে ভাল অবদান রাখতে পারেন না। এমনি পিএইচডি ডিগ্রি অর্জন করতেও বিভিন্নমুখি সমস্যার সম্মুখীন হতে হয়।
