ময়মনসিংহ: ময়মনসিংহ জেলা প্রশাসক (ডিসি) খলিলুর রহমান বলেছেন, ২০৪১ সালে শিক্ষার্থীরাই বাংলাদেশকে নেতৃত্ব দেবে।
তিনি বলেন, একটি জাতিকে ধ্বংস করতে তার শিক্ষা ব্যবস্থাকে ধ্বংস করাই যথেষ্ট। এজন্য শিক্ষার্থীদের গড়ে তুলতে শিক্ষকদের দায়িত্ব অনেক বেশি। শনিবার (১৮ নভেম্বর) দুপুরে নগরীর বাইপাস মোড়ে অবস্থিত নটরডেম কলেজ পরিদর্শন ও মতবিনিময় সভায় তিনি এসব কথা বলেন।
সভায় সভাপতিত্ব করেন নটরডেম কলেজের অধ্যক্ষ ড. ফাদার জর্জ কমল রোজারিও সিইসি। সভা শেষে কলেজের পক্ষ থেকে রোহিঙ্গাদের জন্য জেলা প্রশাসকের হাতে ৫০ হাজার টাকার অনুদানের চেক তুলে দেওয়া হয়। 
