জাতীয় বিশ্ববিদ্যালয়ের ২০১৩-২০১৪ শিক্ষাবর্ষে মাস্টার্স শেষ পর্র্ব (নিয়মিত) কোর্সে অনলাইন ভর্তি কার্যক্রমে তৃতীয় রিলিজ স্লিপের মেধা তালিকা আগামী ৬ অক্টোবর প্রকাশ করা হবে।
ঢাকা: জাতীয় বিশ্ববিদ্যালয়ের ২০১৩-২০১৪ শিক্ষাবর্ষে মাস্টার্স শেষ পর্র্ব (নিয়মিত) কোর্সে অনলাইন ভর্তি কার্যক্রমে তৃতীয় রিলিজ স্লিপের মেধা তালিকা আগামী ৬ অক্টোবর প্রকাশ করা হবে।
ওই দিন বিকেল ৪টায় যে কোন মোবাইল থেকে এসএমএস এবং ওয়েবসাইটে ফল পাওয়া যাবে বলে সোমবার (০৩ অক্টোবর) সংবাদ বিজ্ঞপ্তিতে জানায় জাতীয় বিশ্ববিদ্যালয়।
এসএমএসের মাধ্যমে ফল পেতে nu<space>atmf<space> Roll ১৬২২২ নম্বরে পাঠাতে হবে।   রাত ৯টায় ওয়েব সাইটে (www.nu.edu.bd/admissions, admissions.nu.edu.bd) ফল পাওয়া যাবে।
