ঢাকা: টানা ব‍ৃষ্টি উপেক্ষা করেই শনিবার সকাল থেকে বঙ্গবন্ধু স্টেডিয়ামে ভিড় করেছে স্কুল ও মাদ্রাসার শিক্ষার্থীরা। ৪৩ তম গ্রীষ্মকালীন জাতীয় স্কুল ও মাদ্রাসা ক্রীড়া প্রতিযোগিতা ২০১৪’র সমাপনি অনুষ্ঠানে যোগ  দিতেই স্টেডিয়ামে এসে জড়ো হয়েছে তারা। প্রধানমন্ত্রী কখন বিজয়ীদের মধ্যে পুরস্কার বিতরণ করবেন এজন্যই অধীর আগ্রহে অপেক্ষা তাদের। অনুষ্ঠানে প্রধান অতিথি হিসেবে উপস্থিত আছেন প্রধানমন্ত্রী শেখ হাসিনা। এতে সভাপতিত্ব করবেন শিক্ষামন্ত্রী নূরুল ইসলাম নাহিদ। প্রধানমন্ত্রী সমাপনী অনুষ্ঠানে বিজয়ীদের মাঝে পুরস্কার বিতরণ করবেন। গত মঙ্গলবার ৪৩তম গ্রীষ্মকালীন জাতীয় স্কুল ও মাদ্রাসা ক্রীড়া প্রতিযোগিতা- ২০১৪’র  উদ্বোধন করেন শিক্ষামন্ত্রী নুরুল ইসলাম নাহিদ। পাঁচ দিনব্যাপী এ প্রতিযোগিতার আয়োজন করে মাধ্যমিক ও উচ্চ মাধ্যমিক শিক্ষা অধিদফতর। দেশের ৮টি শিক্ষা বোর্ডের মাধ্যমিক ও উচ্চ মাধ্যমিক পর্যায়ের (স্কুল, মাদ্রাসা ও ভোকেশনাল) সব শিক্ষা প্রতিষ্ঠানের অংশগ্রহণে উপজেলা থেকে অঞ্চল পর্যায়ের বিজয়ীরা প্রতিযোগিতায় অংশ নিয়েছে। ৪৩তম গ্রীষ্মকালীন জাতীয় স্কুল ও মাদ্রাসা ক্রীড়া প্রতিযোগিতা-২০১৪’ এ ৮টি শিক্ষা বোর্ডের মোট ৪৮১ জন ক্রীড়াবিদ অংশগ্রহণ করেছে। এর মধ্যে ছাত্রী ১৬০ জন, ছাত্র ২৬৪ জন এবং ৫৭ জন কর্মকর্তা।
** গ্রীষ্মকালীন জাতীয় স্কুল ও মাদ্রাসা ক্রীড়া প্রতিযোগিতার উদ্বোধন
 
