ময়মনসিংহ: জাতীয় কবি কাজী নজরুল ইসলাম বিশ্ববিদ্যালয়ের সহকারী রেজিস্ট্রার খন্দকার এহসান হাবীবকে সাময়িক বরখাস্ত করেছে বিশ্ববিদ্যালয় প্রশাসন।
রোববার (০৫ ফেব্রুয়ারি) বিশ্ববিদ্যালয়ের উপাচার্য দফতরের উপ-পরিচালক (জনসংযোগ) এস এম হাফিজুর রহমান এক সংবাদ বিজ্ঞপ্তিতে এ তথ্য জানান।
বিজ্ঞপ্তিতে বলা হয়, সম্প্রতি ফেসবুকে এহসান হাবীবের টাইমলাইনে কিছু স্ট্যাটাস পোস্ট দেওয়ার প্রতিবাদে বিশ্ববিদ্যালয়ে কিছু অপ্রীতিকর ঘটনা ঘটে। এ বিষয়ে শনিবার (০৪ ফেব্রুয়ারি) উপাচার্য প্রফেসর ড. মোহীত উল আলমের সভাপতিত্বে অনুষ্ঠিত বিশ্ববিদ্যালয়ের ৫৫তম সিন্ডিকেট সভার সিদ্ধান্ত অনুযায়ী তাকে সাময়িক বরখাস্ত করা হয়েছে।
