ঢাকা বিশ্ববিদ্যালয়: দায়িত্ব পালনে সম্পূর্ণ ব্যর্থ দাবি করে ঢাকা বিশ্ববিদ্যালয়ের প্রক্টর অধ্যাপক ড. এ কে এম গোলাম রব্বানীর কুশপুতুল দাহ করেছে ‘বিশ্ববিদ্যালয়ের নিপীড়নবিরোধী শিক্ষার্থীরা’।
সোমবার (৩০ জানুয়ারি) দুপুরে বিশ্ববিদ্যালয়ের টিএসসি রাজু ভাস্কর্যের পাদদেশে এ কুশপুত্তলিকা দাহ করা হয়। 
এরআগে তারা টিএসসি থেকে একটি বিক্ষোভ মিছিল বের করে। মিছিলটি ক্যাম্পাসের বিভিন্ন সড়ক প্রদক্ষিণ করে রাজু ভাস্কর্যের সামনে এসে মিলিত হয়। এতে বাম ছাত্র সংগঠনের নেতাকর্মীরা অংশ নেয়।
অধিভূক্তি বাতিলের আন্দোলনে ছাত্রীদের ওপর ছাত্রলীগ নেতাকর্মীদের নিপীড়নের বিচার চেয়ে এ কর্মসূচি পালন করে তারা।
