‘পাখ-পাখালি দেশের রত্ন, আসুন করি সবাই যত্ন’ স্লোগানে আগামী ৬ জানুয়ারি (শুক্রবার) জাহাঙ্গীরনগর বিশ্ববিদ্যালয়ে অনুষ্ঠিত হবে ১৬তম পাখি মেলা-২০১৭।
জাহাঙ্গীরনগর বিশ্ববিদ্যালয়: ‘পাখ-পাখালি দেশের রত্ন, আসুন করি সবাই যত্ন’ স্লোগানে আগামী ৬ জানুয়ারি (শুক্রবার) জাহাঙ্গীরনগর বিশ্ববিদ্যালয়ে অনুষ্ঠিত হবে ১৬তম পাখি মেলা-২০১৭।
প্রতিবারের মতো এবারো পাখি সংরক্ষণে গণসচেতনতা বৃদ্ধির লক্ষ্যে বিশ্ববিদ্যালয়ের প্রাণিবিদ্যা বিভাগের আয়োজনে এ মেলা অনুষ্ঠিত হবে।
মঙ্গলবার (২০ ডিসেম্বর) বিকেল সাড়ে ৩টায় বিশ্ববিদ্যালয়ের কলা ও মানবিক অনুষদের শিক্ষক লাউঞ্জে সংবাদ সম্মেলনে এ তথ্য জানান মেলার আহ্বায়ক প্রাণীবিদ্যা বিভাগের সহযোগী অধ্যাপক মো. কামরুল হাসান।
তিনি জানান, পাখি সংরক্ষণে সবাইকে সম্পৃক্ত করার উদ্দেশ্যেই এবারো আমরা পাখি মেলার আয়োজন করতে যাচ্ছি। আগামী ৬ জানুয়ারি বিশ্ববিদ্যালয়ের জহির রায়হান মিলনায়তনের সামনে পাখি মেলার উদ্বোধন করবেন বিশ্ববিদ্যালয় উপাচার্য অধ্যাপক ফারজানা ইসলাম।
এবারের মেলার দিনব্যাপী আয়োজনের মধ্যে রয়েছে- আন্তঃবিশ্ববিদ্যালয় পাখি দেখা প্রতিযোগিতা, শিশু কিশোরদের জন্য পাখির ছবি আঁকা প্রতিযোগিতা, জাহাঙ্গীরনগর বিশ্ববিদ্যালয় ক্যাম্পাসের পাখি বিষয়ক বার্ষিক প্রতিবেদক উপস্থাপন, টেলিস্কোপে শিশু-কিশোরদের পাখি পর্যবেক্ষণ, স্টল সাজানো প্রতিযোগিতা (পাখির আলোকচিত্র ও পত্র-পত্রিকা প্রদর্শনী), আন্তঃবিশ্ববিদ্যালয় পাখি চেনা প্রতিযোগিতা (অডিও-ভিডিও এর মাধ্যমে), পাখি বিষয়ক কুইজ প্রতিযোগিতা (সবার জন্য উন্মুক্ত)। সবশেষে পুরস্কার বিতরণী ও সমাপনী অনুষ্ঠান।
পাখি সংরক্ষণের গণসচেতনতা বৃদ্ধির লক্ষ্যে ২০০১ সাল থেকে ধারাবাহিকভাবে ক্যাম্পাসে পাখি মেলার আয়োজন করছে প্রাণিবিদ্যা বিভাগ ও ওয়াল্ড লাইফ রেসকিউ সেন্টার।
