বেতন-ভাতা জাতীয় স্কেলে দেওয়ার দাবিতে মানববন্ধন করেছে বাংলাদেশ স্বতন্ত্র ইবতেদায়ি মাদ্রাসা শিক্ষক সমিতি।  রোববার (১০ এপ্রিল) বেলা সাড়ে ১১টায় জাতীয় প্রেসক্লাবের সামনে আয়োজিত মানববন্ধনে তারা এ দাবি জানান।
 
ঢাকা: বেতন-ভাতা জাতীয় স্কেলে দেওয়ার দাবিতে মানববন্ধন করেছে বাংলাদেশ স্বতন্ত্র ইবতেদায়ি মাদ্রাসা শিক্ষক সমিতি।  
রোববার (১০ এপ্রিল) বেলা সাড়ে ১১টায় জাতীয় প্রেসক্লাবের সামনে আয়োজিত মানববন্ধনে তারা এ দাবি জানান।
সংগঠনের সভাপতি কাজী রুহুল আমিন চৌধুরীর নেতৃত্বে মানববন্ধনে বক্তব্য রাখেন- কাজী মোখলেছুর রহমান, সিনিয়র সহ-সভাপতি নজরুল ইসলাম হিরণ, সাংগঠনিক সম্পাদক আনিসুল ইসলাম প্রমুখ।
রুহুল আমিন চৌধুরী বলেন, মাদ্রাসা শিক্ষাবোর্ড কর্তৃক সারাদাশে ৬ হাজার ৮৪৮টি ইবতেদায়ি মাদ্রাসা রয়েছে। মাদ্রাসাগুলোতে ৩৪ হজার ২৪০ জন শিক্ষকতা করেন। এর মধ্যে ২৬ হাজার ৬৪৫ জন শিক্ষক কোনো বেতন-ভাতা পান না। আর যারা পান তাদের মাসিক বেতন ছিলো ৫শ’ টাকা তাদের ২০১৩ সালে বাড়িয়ে ১ হাজার টাকায় উন্নীত করা হয়। এর মধ্যে ১ হাজার টাকা বেতন পায় ৫ হাজার ২৯টি মাদ্রাসায়।
তিনি বলেন, মাদ্রাসার শিক্ষকরা চরম মানবেতর জীবন যাপন করছেন। চলতি মাসের মধ্যে শিক্ষকদের বেতন জাতীয়করণ না করা হলে আগামী ৩ মে শিক্ষক সমাবেশ করা হবে।
