জাহাঙ্গীরনগর বিশ্ববিদ্যালয়: গাঁজাসহ তিন বহিরাগতকে আটক করেছে জাহাঙ্গীরনগর বিশ্ববিদ্যালয় (জাবি) প্রশাসন।
বৃহস্পতিবার (২৭ জুলাই) দুপুরে মীর মশাররফ হোসেন হলের পাশ থেকে গাঁজা সেবনকালে তাদের আটক করেন বিশ্ববিদ্যালয়ের প্রধান নিরাপত্তা কর্মকর্তা সুদীপ্ত শাহীন।
আটকরা হলেন- সাভারের জামসিং এলাকার বাসিন্দা মো. রবিউল ইসলাম রবি, মো. হোসেন আলী ও শাকিল।
আটক তিনজনই স্থানীয় রাজমিস্ত্রি। ক্যাম্পাসে গাঁজা সেবন করার জন্যই এসেছিলেন বলে তারা জানান।
এ বিষয়ে প্রধান নিরাপত্তা কর্মকর্তা সুদীপ্ত শাহীন বলেন, আটকদের কাছ থেকে প্রায় ২৫ গ্রাম গাঁজা উদ্ধার করা হয়েছে। পরে পুলিশের উপস্থিতিতে মুচলেকা নিয়ে আটকদের স্বজনদের কাছে হস্তান্তর করা হয়েছে।
