ঈদুল ফিতরের টানা ১২ দিন ছুটির পর বুধবার (১৩ জুলাই) খুলছে দিনাজপুর হাজি মোহাম্মদ দানেশ বিজ্ঞান ও প্রযুক্তি বিশ্ববিদ্যালয় (হাবিপ্রবি)।
দিনাজপুর: ঈদুল ফিতরের টানা ১২ দিন ছুটির পর বুধবার (১৩ জুলাই) খুলছে দিনাজপুর হাজি মোহাম্মদ দানেশ বিজ্ঞান ও প্রযুক্তি বিশ্ববিদ্যালয় (হাবিপ্রবি)। এ দিন থেকে ফের পুরোদমে বিশ্ববিদ্যালয়ের প্রশাসনিক ও একাডেমিক সব কার্যক্রম শুরু হবে।
এছাড়া বিশ্ববিদ্যালয়ের সব বিভাগের ক্লাস ও পরীক্ষা পূর্ব নির্ধারিত সময় অনুযায়ী যথারীতি অনুষ্ঠিত হবে।
হাবিপ্রবি’র জনসংযোগ ও প্রকাশনা শাখার সহকারী পরিচালক মো. মমিনুল ইসলাম বাংলানিউজকে জানান, গত ১ জুলাই পবিত্র ঈদুল ফিতর উপলক্ষে বিশ্ববিদ্যালয় ছুটি ঘোষণা করা হয়েছিলো। আর খোলা হচ্ছে বুধবার (১৩ জুলাই)।
বাংলাদেশ সময়: ০৩৩০ ঘণ্টা, জুলাই ১৩, ২০১৬ টিআই
