উচ্চ মাধ্যমিক সার্টিফিকেট (এইচএসসি) ও সমমানের পরীক্ষার ফল বুধবার একযোগে প্রকাশ করবে দেশের ১০টি শিক্ষাবোর্ড।
ঢাকা: দেশের ১০টি শিক্ষা বোর্ডের অধীনে অনুষ্ঠিত চলতি বছরের উচ্চ মাধ্যমিক সার্টিফিকেট (এইচএসসি) ও সমমানের পরীক্ষার ফল বুধবার একযোগে প্রকাশ করা হচ্ছে।
আন্তঃশিক্ষাবোর্ড সমন্বয় সাব-কমিটির সভাপতি ঢাকা শিক্ষাবোর্ডের চেয়ারম্যান অধ্যাপক ফাহিমা খাতুন বাংলানিউজকে জানান, বুধবার সকাল ১০টায় গণভবনে প্রধানমন্ত্রী শেখ হাসিনার কাছে এ পরীক্ষার ফল হস্তান্তর করা হবে। দুপুরে শিক্ষা মন্ত্রণালয়ে সংবাদ সম্মেলনে ফলাফলের সার্বিক বিষয় তুলে ধরবেন শিক্ষামন্ত্রী নুরুল ইসলাম নাহিদ। www.educationboard.gov.bd এ ওয়েবসাইট থেকে দুপুরের পর থেকে ফল জানতে পারবে শিক্ষার্থীরা। মোবাইলে ফল জানতে মেসেজ অপশনে গিয়ে HSC টাইপ করে বোর্ডের নামের প্রথম তিনটি অক্ষর স্পেস দিয়ে রোল নাম্বার, স্পেস দিয়ে শিক্ষাবর্ষ টাইপ করে ১৬২২২ নম্বরে সেন্ড করতে হবে।
গত ১ এপ্রিল এইচএসসি ও সমমানের পরীক্ষা শুরু হয়ে ২২ মে শেষ হয়। এ পরীক্ষার তত্ত্বীয় অংশের পরীক্ষা গত ১ এপ্রিল শুরু হয়ে ২০ মে শেষ হয়। ২৩ মে থেকে ৬ জুন পর্যন্ত অনুষ্ঠিত হয় ব্যবহারিক পরীক্ষা।
 
