জাতীয় বিশ্ববিদ্যালয়ের ২০১৪-২০১৫ শিক্ষাবর্ষে মাস্টার্স প্রথম পর্বে (নিয়মিত) অনলাইনে ভর্তি কার্যক্রমের প্রাথমিক আবেদনের সময় ৩ নভেম্বর রাত ১২টা পর্যন্ত বাড়ানো হয়েছে।
ঢাকা: জাতীয় বিশ্ববিদ্যালয়ের ২০১৪-২০১৫ শিক্ষাবর্ষে মাস্টার্স প্রথম পর্বে (নিয়মিত) অনলাইনে ভর্তি কার্যক্রমের প্রাথমিক আবেদনের সময় ৩ নভেম্বর রাত ১২টা পর্যন্ত বাড়ানো হয়েছে।
রোববার (৩০ অক্টোবর) দুপুরে বিজ্ঞপ্তিতে জাতীয় বিশ্ববিদ্যালয়ের জনসংযোগ, তথ্য ও পরামর্শ দফতরের পরিচালক (ভারপ্রাপ্ত) মো. ফয়জুল করিম এ তথ্য জানান।
ভর্তি সংক্রান্ত বিস্তারিত তথ্য জাতীয় বিশ্ববিদ্যালয়ের ওয়েবসাইট থেকে জানা যাবে।
বাংলাদেশ সময়: ১৫৫২ ঘণ্টা, অক্টোবর ৩০, ২০১৬
