ঢাকা বিশ্ববিদ্যালয়: ঢাকা বিশ্ববিদ্যালয়ে (ঢাবি) গান-কবিতায় বন্যার্তদের জন্য ত্রাণ সংগ্রহ করেছে ‘স্বরকল্পন আবৃত্তি চক্র’।
শুক্রবার (২৫ আগস্ট) রাতে বিশ্ববিদ্যালয়ের টিএসসি রাজু ভাস্কর্যের পাদদেশে বানভাসি মানুষের জন্য আয়োজন করা হয় ত্রাণ সংগ্রহ কার্যক্রম ‘হাত বাড়িয়ে দাও’। অনুষ্ঠানে আলোচনা, আবৃত্তি ও সঙ্গীত পরিবেশনের মাধ্যমে চলে ত্রাণ সংগ্রহ।
স্বরকল্পন আবৃত্তি চক্র’র সভাপতি শাহীদুল হক মিল্কীর সভাপতিত্বে ও সাধারণ সম্পাদক আহমেদ শিপলুর পরিচালনায় আলোচনা পর্বে বক্তব্য রাখেন সম্মিলিত সাংস্কৃতিক জোটের সভাপতি গোলাম কুদ্দুস এবং বাংলাদেশ আবৃত্তি সমন্বয় পরিষদের যুগ্ম সাধারণ সম্পাদক মাসকুর-এ-সাত্তার কল্লোল।
সংগীত পরিবেশন করে- বহ্নিশিখা, ঋষিজ শিল্পী গোষ্ঠী, ক্রান্তি শিল্পী গোষ্ঠী, স্বভূমি লেখক শিল্পী কেন্দ্র এবং ব্যান্ড ‘মেইড ইন বাংলাদেশ’। আবৃত্তি পরিবেশন করেন- বেলায়েত হোসেন, মাসকুর-এ-সাত্তার কল্লোল, আহসান উল্লাহ তমাল, মাসুম আজিজুল, নাজমুল আহসান, মনিরুল ইসলাম। 
কবিতা পাঠ করেন- আবু হাসান শাহরিয়ার, হানিফ খান, মাসুদ পথিক, অনিকেত রাজেশ, মাহবুব আলম।
