বাকৃবি (ময়মনসিংহ): বাংলাদেশ কৃষি বিশ্ববিদ্যালয়ে (বাকৃবি) দুই বছরের জন্য নতুন প্রক্টর হিসেবে নিয়োগ পেয়েছেন উদ্ভিদ রোগতত্ত্ব বিভাগের অধ্যাপক ড. মো. আতিকুর রহমান খোকন।
রোববার (০৪ জুন) দুপুর ২টার দিকে বিশ্ববিদ্যালয়ের প্রক্টর কার্যালয়ের সভাকক্ষে বিদায়ী প্রক্টর অধ্যাপক ড. এ কে এম জাকির হোসেন তার কাছে দায়িত্ব হস্তান্তর করেন।
এসময় উপস্থিত ছিলেন-বিশ্ববিদ্যালয়ের উপ উপাচার্য অধ্যাপক ড. মো. জসিমউদ্দিন খান, ছাত্র বিষয়ক উপদেষ্টা অধ্যাপক ড. সচ্চিদানন্দ দাস চৌধুরী, ডিন কাউন্সিলের আহ্বায়ক অধ্যাপক ড. সুভাষ চন্দ্র চক্রবর্তী, সহযোগী ছাত্র বিষয়ক উপদেষ্টা অধ্যাপক ড. মো. আলমগীর হোসেন, সহকারী প্রক্টর ড. মো. আজহারুল ইসলাম, গণতান্ত্রিক শিক্ষক ফোরামের সভাপতি ড. মো. আবুল হোসেন, সাধারণ সম্পাদক অধ্যাপক ড. মো.  রফিকুল আলম, জনসংযোগ ও প্রকাশনা দপ্তরের পরিচালক কৃষিবিদ ড. আমিনুর রহমান চৌধুরী প্রমুখ।
