ঢাকা: পাবনা বিজ্ঞান ও প্রযুক্তি বিশ্ববিদ্যালয়ের বিজ্ঞান অনুষদের ডিন রাশেদ কবিরের মৃত্যুতে গভীর শোক প্রকাশ করেছেন শিক্ষামন্ত্রী নুরুল ইসলাম নাহিদ।
রোববার (৩০ জুলাই) এক শোকবার্তায় শিক্ষামন্ত্রী বলেন, রাশেদ কবিরের অকাল মৃত্যু অনাকাঙ্ক্ষিত এবং বেদনার। তার মৃত্যুতে বিশ্ববিদ্যালয় একজন মেধাবী শিক্ষককে হারালো। শিক্ষামন্ত্রী মরহুমের বিদেহী আত্মার শান্তি কামনা করেন এবং শোকসন্তপ্ত পরিবারের প্রতি গভীর সমবেদনা জানান।
শুক্রবার (২৯ জুলাই)রাতে পাবনার সাঁথিয়ায় এক সড়ক দুর্ঘটনায় নিহত হন রাশেদ কবির। মৃত্যুকালে তার বয়স হয়েছিল ৫৫ বছর।
