ঢাকা বিশ্ববিদ্যালয় এলাকায় ফুলার রোডের উদয়ন উচ্চ মাধ্যমিক বিদ্যালয় ও কলেজ শাখায় অতিরিক্ত ফি কেন আদায় করা হচ্ছে- তা জানতে চেয়েছে শিক্ষা মন্ত্রণালয়।
ঢাকা: ঢাকা বিশ্ববিদ্যালয় এলাকায় ফুলার রোডের উদয়ন উচ্চ মাধ্যমিক বিদ্যালয় ও কলেজ শাখায় অতিরিক্ত ফি কেন আদায় করা হচ্ছে- তা জানতে চেয়েছে শিক্ষা মন্ত্রণালয়।   মঙ্গলবার (০৮ নভেম্বর) শিক্ষা মন্ত্রণালয় এ সংক্রান্ত চিঠিতে উদয়ন স্কুলকে এ বিষয়ে তথ্য দিতে বলেছে।   শিক্ষা মন্ত্রণালয়ের চিঠিতে বলা হয়েছে, নতুন জাতীয় বেতন কাঠামোর পরে সরকার গত ৯ আগস্ট  বেসরকারি এমপিওভুক্ত, আংশিক এমপিওভুক্ত এবং এমপিওবিহীন শিক্ষাপ্রতিষ্ঠানে বেতন ও টিউশন ফি সংক্রান্ত পরিপত্র জারি করে।
২০১৬ সালে বর্ধিত হারে বেতন ও অন্যান্য ফি আদায় অব্যাহত রয়েছে।
