মাধ্যমিক (এসএসসি) ও সমমানের পরীক্ষায় এবার গড় পাসের হার ৮৮ দশমিক ২৯ শতাংশ। মোট জিপিএ-৫ পেয়েছে ১ লাখ ৯ হাজার ৭৬১ জন। গত বছর মোট জিপিএ ৫ পেয়েছিল ১ লাখ ১১ হাজার ৯০১ জন। গতবারের চেয়ে এবার জিপিএ-৫ দুই হাজার ১৪০ জন কম।
ঢাকা: মাধ্যমিক (এসএসসি) ও সমমানের পরীক্ষায় এবার গড় পাসের হার ৮৮ দশমিক ২৯ শতাংশ। মোট জিপিএ-৫ পেয়েছে ১ লাখ ৯ হাজার ৭৬১ জন। গত বছরের তুলনায় পাসের হার বাড়লেও কমেছে জিপিএ-৫ প্রাপ্ত শিক্ষার্থীর সংখ্যা।   বুধবার (১১ মে) সকাল ১০টায় গণভবনে প্রধানমন্ত্রী শেখ হাসিনার কাছে ফলাফল হস্তান্তর করেন শিক্ষামন্ত্রী নুরুল ইসলাম নাহিদ। এ সময় বিভিন্ন শিক্ষাবোর্ডের চেয়ারম্যানরা সেখানে উপস্থিত ছিলেন।   সারাদেশে আটটি সাধারণ বোর্ডের অধীনে এসএসসিতে পাসের হার ৮৮.৭০ শতাংশ, মাদ্রাসা বোর্ডে ৮৮.২২ শতাংশ এবং কারিগরি বোর্ডে পাসের হার ৮৩.১১ শতাংশ।   গত বছর মোট জিপিএ-৫ পেয়েছিল ১ লাখ ১১ হাজার ৯০১ জন। গতবারের চেয়ে এবার জিপিএ-৫ দুই হাজার ১৪০ জন কম। আর গত বছর দশ বোর্ডে গড় পাসের হার ছিল ৮৭ দশমিক ০৪ শতাংশ। এবার পাসের হার ১ দশমিক ২৫ শতাংশ বেড়েছে।   গত বছর আট বোর্ডে পাসের হার ছিল ৮৬ দশমিক ৭২, মাদ্রাসা বোর্ডে পাসের হার ৯০ দশমিক ২০ ও কারিগরি বোর্ডে ৮৩ দশমিক ০১ শতাংশ। গণভবনে ফলাফলের সার-সংক্ষেপ তুলে ধরে শিক্ষামন্ত্রী জানান, ৮টি সাধারণ শিক্ষাবোর্ডে এসএসসিতে এবার ১৩ লাখ ২৮৪ জন শিক্ষার্থী অংশ নিয়ে পাস করেছে ১১ লাখ ৫৩ হাজার ৩৬৩ জন। মাদ্রাসা বোর্ডে ২ লাখ ৪৬ হাজার ৩৩৬ জন পরীক্ষার্থীর মধ্যে পাস করেছে ২ লাখ ১৭ হাজার ৩১৪ জন। কারিগরি বোর্ডে ৯৮ হাজার ৫৮১ জন পরীক্ষার্থী অংশ নিয়ে পাস করেছে ৮১ হাজার ৯২৮ জন।   আটটি সাধারণ শিক্ষা বোর্ডে জিপিএ-৫ পেয়েছে ৯৬ হাজার ৭৬৯ জন। মাদ্রাসা বোর্ডে ৫ হাজার ৮৯৫ এবং কারিগরি বোর্ডে ৭ হাজার ৯৭ জন জিপিএ-৫ পেয়েছেন।
চলতি বছর এসএসসি পরীক্ষায় ঢাকা বোর্ডে পাসের হার ৮৮.৬৭ শতাংশ ও জিপিএ-৫ পেয়েছে ৪০ হাজার ৮৩৩ জন, রাজশাহী বোর্ডে ৯৫.৭০ শতাংশ ও জিপিএ-৫ ১৭ হাজার ৫৯৪ জন, কুমিল্লায় ৮৪ শতাংশ ও জিপিএ-৫ প্রাপ্ত শিক্ষার্থীর সংখ্যা ৬ হাজার ৯৫৪ জন, যশোরে ৯১.৮৫ শতাংশ ও জিপিএ-৫ পেয়েছে ৯ হাজার ৪৪৪ জন, চট্টগ্রামে ৯০.৪৪ শতাংশ জিপিএ-৫ পেয়েছে ৭ হাজার ৬৬৬ জন, বরিশালে ৭৯.৪১ শতাংশ ও জিপিএ-৫ পেয়েছে ৩ হাজার ১১৩ জন, সিলেটে পাসের হার ৮৪.৭৭ শতাংশ ও জিপিএ-৫ পেয়েছে ২ হাজার ২৬৬ জন, দিনাজপুরে পাসের হার ৮৯.৫৯ শতাংশ ও জিপিএ-৫ পেয়েছে ৮ হাজার ৮৯৯ জন।
এছাড়া মাদ্রাসা বোর্ডে পাসের হার ৮৮.২২ শতাংশ ও জিপিএ-৫ পেয়েছে ৫ হাজার ৮৯৫ জন, কারিগরিতে পাসের হার ৮৩.১১ শতাংশ ও জিপিএ-৫ পেয়ে ৭ হাজার ৯৭ জন।
শিক্ষামন্ত্রী জানান, এবার ছাত্রদের তুলনায় ছাত্রীরা শূন্য দশমিক ১৯ শতাংশ বেশি পাস করেছে। ছাত্রদের পাসের হার ৮৮.২০ ও ছাত্রীদের ৮৮.৩৯ শতাংশ।   বিদেশের আটটি পরীক্ষা কেন্দ্রে ৩৯৫ জন শিক্ষার্থী পরীক্ষা দিয়ে ৩৫৭ জন পাস করেছে। পাসের হার ৮৯.৩৭ শতাংশ এবং জিপিএ-৫ পেয়েছে ১১২ জন।   গত বছরের তুলনায় এবার ফলাফলে ইতিবাচক পরিবর্তন হয়েছে জানিয়ে নাহিদ বলেন, এবার ৪ হাজার ৭৩৪টি প্রতিষ্ঠানের সবাই পাস করেছে।   চলতি বছর এসএসসি পরীক্ষায় রাজশাহী বোর্ডের পাসের হার ৯৫.৭০ শতাংশ।   কুমিল্লা বোর্ডে পাসের হার ৮৪ শতাংশ, জিপিএ-৫ প্রাপ্ত শিক্ষার্থীর সংখ্যা ৬ হাজার ৯৫৪ জন।   শিক্ষায় উন্নতি ও মান বৃদ্ধি ঘটেছে দাবি করে শিক্ষামন্ত্রী বলেন, কেউ কেউ প্রশ্ন তুললেও দেখা যাচ্ছে এটি সঠিক নয়, হয়ত যে মান আমাদের অর্জন করা উচিত সেটি অর্জনের জন্য আমরা চেষ্টা করে যাচ্ছি। তা একদিনে হওয়ার নয়।   তিনি বলেন, কাগজপত্র ছাড়াই এবার ফলাফল সব শিক্ষা প্রতিষ্ঠানে পৌঁছে যাবে। এটাই ডিজিটাল বাংলাদেশ।   গত ১ ফেব্রুয়ারি সারাদেশে এসএসসি ও সমমানের পরীক্ষা শুরু হয়। তাত্ত্বীয় পরীক্ষা শেষ হয় ১০ মার্চ।   দুপুর ১টায় সচিবালয়ে শিক্ষা মন্ত্রণালয়ের সম্মেলন কক্ষে আনুষ্ঠানিক সংবাদ সম্মেলনের মাধ্যমে শিক্ষামন্ত্রী পুরো ফলাফল ঘোষণা করবেন।   ফল পাওয়ার উপায় দুপুর ২টা থেকে শিক্ষার্থীরা ফল জানতে পারবেন।
