শাহজালাল বিজ্ঞান ও প্রযুক্তি বিশ্ববিদ্যালয়ের ২০১৬-১৭ সেশনের ভর্তি প্রক্রিয়া শুরু হবে শনিবার (১৮ ডিসেম্বর)। মঙ্গলবার (০৬ ডিসেম্বর) ভর্তি কমিটির সদস্য সচিব অধ্যাপক ড. বেলায়েত হোসেন বাংলানিউজকে এ তথ্য নিশ্চিত করেন।
(শাবিপ্রবি): শাহজালাল বিজ্ঞান ও প্রযুক্তি বিশ্ববিদ্যালয়ের ২০১৬-১৭ সেশনের ভর্তি প্রক্রিয়া শুরু হবে শনিবার (১৮ ডিসেম্বর)।
মঙ্গলবার (০৬ ডিসেম্বর) ভর্তি কমিটির সদস্য সচিব অধ্যাপক ড. বেলায়েত হোসেন বাংলানিউজকে এ তথ্য নিশ্চিত করেন।
এদিকে ভর্তি প্রক্রিয়া শনিবার (১৮ ডিসেম্বর) থেকে শুরু হয়ে চলবে সোমবার (২০ ডিসেম্বর) পর্যন্ত। এতে বি-১ ইউনিটের মাধ্যমে এ কার্যক্রম শুরু হয়ে এ ইউনিটের মাধ্যমে শেষ হবে।
এ বিষয়ে ড. বেলায়েত বাংলানিউজকে জানান, ভর্তি আবেদনের অতিরিক্ত টাকা পোস্টাল মানি অর্ডারের মাধ্যমে দ্রুততম সময়ে ফেরত দেওয়া হবে।
