দেশের নারী শিক্ষা নির্বিঘ্ন করতে ইভটিজিং প্রতিরোধে সর্বাত্মক ব্যবস্থা গ্রহণের জন্য আইন-শৃঙ্খলা বাহিনীর সদস্যসহ সংশ্লিষ্টদের প্রতি আহ্বান জানিয়েছেন শিক্ষামন্ত্রী নুরুল ইসলাম নাহিদ।
ঢাকা: দেশের নারী শিক্ষা নির্বিঘ্ন করতে ইভটিজিং প্রতিরোধে সর্বাত্মক ব্যবস্থা গ্রহণের জন্য আইন-শৃঙ্খলা বাহিনীর সদস্যসহ সংশ্লিষ্টদের প্রতি আহ্বান জানিয়েছেন শিক্ষামন্ত্রী নুরুল ইসলাম নাহিদ।
তিনি বলেন, শিক্ষাপ্রতিষ্ঠানে যাতায়াতসহ ছাত্রীদের চলাফেরায় নিরাপত্তা বিধানে প্রয়োজনীয় পদক্ষেপ নিতে হবে।  
সোমবার (১৯ সেপ্টেম্বর) শিক্ষা মন্ত্রণালয়ে নিজ দপ্তরে আয়োজিত বৈঠকে শিক্ষামন্ত্রী এ আহ্বান জানান।
শিক্ষাপ্রতিষ্ঠানে ইভটিজিং প্রতিরোধে করণীয় নির্ধারণের লক্ষ্যে আয়োজিত বৈঠকে শিক্ষা সচিব মো. সোহরাব হোসাইন, মন্ত্রণালয়ের অতরিক্ত সচিব এ এস মাহমুদ, ড. অরুণা বিশ্বাস, চৌধুরী মুফাদ আহমদ, ড. মোল্লা জালাল উদ্দিন, ঢাকা শিক্ষা বোর্ডের চেয়ারম্যান প্রফেসর মো. মাহাবুবুর রহমান এবং মাধ্যমিক ও উচ্চশিক্ষা অধিদপ্তরের মহাপরিচালকের চলতি দায়িত্ব পালনরত প্রফেসর শামছুল হুদাসহ ঊর্ধ্বতন কর্মকর্তারা উপস্থিত ছিলেন।
শিক্ষামন্ত্রী বৈঠকে বলেন, দেশের প্রত্যন্ত অঞ্চলে এমনকি শহর এলাকায়ও স্কুল, কলেজগামী ছাত্রীদের ওপর ছাত্রী উত্ত্যক্তকারী সন্ত্রাসীদের সশস্ত্র হামলার খবর অভিভাবকদের বিচলিত করে। 
নাহিদ বলেন, সরকারের কার্যকর পদক্ষেপের ফলে ছাত্রীদের ওপর সহিংসতার  ঘটনা অনেক কমে এসেছে। তবে এখনো সংবাদপত্রে সন্ত্রাসীদের হাতে ছাত্রী লাঞ্চনার খবর আমাদের উদ্বিগ্ন করে। অভিভাবকরা মেয়েদের শিক্ষাপ্রতিষ্ঠানে পাঠিয়ে মানসিক দুশ্চিন্তায় থাকেন। অসহনীয় পরিস্থিতিতে অনেক ক্ষেত্রে মেয়েদের লেখাপড়া বন্ধ করে দেওয়ার খবরও পাওয়া যায়। 
শিক্ষামন্ত্রী বলেন, নারী শিক্ষা বিস্তারে সরকারের বিভিন্ন কর্মসূচি ফলপ্রসূ করতে সমাজ থেকে ছাত্রী লাঞ্ছনা পুরোপুরি নির্মূল করতে হবে। কেবল আইনের মাধ্যমে এ ধরনের সামাজিক ব্যাধির প্রতিকার সম্ভব নয়। এজন্য প্রয়োজন ইভটিজিং বিরোধী ব্যাপক সামাজিক সচেতনতা ও সামাজিক প্রতিরোধ। 
শিক্ষার্থী, শিক্ষক, জনপ্রতিনিধি, শিক্ষাপ্রতিষ্ঠান পরিচালনা কমিটির সদস্যসহ সচেতন জনসাধারণ এক্ষেত্রে ভূমিকা রাখতে পারে বলে মন্ত্রী উল্লেখ করেন।
এছাড়া মন্ত্রী স্কুল ছাত্রী নিতুর হত্যাকারীর দৃষ্টান্তমূলক শাস্তি নিশ্চিতের নির্দেশ দেন।
