শাহজালাল বিজ্ঞান ও প্রযুক্তি বিশ্ববিদ্যালয়ে (শাবিপ্রবি) জাতীয় বাজেটে (২০১৬-১৭)  শিক্ষাখাতে বাজেট বরাদ্দ বাড়ানোর দাবি জানিয়েছে নৃবিজ্ঞান বিভাগ।
শাবিপ্রবি: শাহজালাল বিজ্ঞান ও প্রযুক্তি বিশ্ববিদ্যালয়ে (শাবিপ্রবি) জাতীয় বাজেটে (২০১৬-১৭)  শিক্ষাখাতে বাজেট বরাদ্দ বাড়ানোর দাবি জানিয়েছে নৃবিজ্ঞান বিভাগ।
 
বুধবার (০১ জুন) বেলা সাড়ে ১১টায় কেন্দ্রীয় গ্রন্থাগার ভবনের সামনে শাবি নৃবিজ্ঞান সমিতি আয়োজিত মানববন্ধনে এ দাবি জানান শিক্ষক-শিক্ষার্থীরা।
বিভাগীয় প্রধান অধ্যাপক একেএম মাজহারুল ইসলামের সভাপতিত্বে মানববন্ধনে উপস্থিত ছিলেন সহকারী অধ্যাপক আফম জাকারিয়া, মোহাম্মদ মনযুর-উল-হায়দার, জাবেদ কায়সার প্রমুখ।
মানববন্ধনে বক্তারা বলেন, বরাবরই সরকার বলে আসছে শিক্ষা খাতে বাজেটে বরাদ্দ বাড়াবে। কিন্তু যখন বাজেট ঘোষিত হয় তখন দেখা যায়, শিক্ষাখাতকে উপেক্ষা করা হয়েছে।
