জাতীয় বিশ্ববিদ্যালয়ের ২০১৩-১৪ শিক্ষাবর্ষে মাস্টার্স শেষ পর্ব (নিয়মিত) ভর্তি কার্যক্রমে যেসব শিক্ষার্থী ইতোপূর্বে প্রাথমিক আবেদন করতে পারেননি তারা...
ঢাকা: জাতীয় বিশ্ববিদ্যালয়ের ২০১৩-১৪ শিক্ষাবর্ষে মাস্টার্স শেষ পর্ব (নিয়মিত) ভর্তি কার্যক্রমে যেসব শিক্ষার্থী ইতোপূর্বে প্রাথমিক আবেদন করতে পারেননি তারা আগামী ১৮ মে বিকেল ৪টা থেকে শুরু করে ২২ মে রাত ১২টা পর্যন্ত অনলাইনে প্রাথমিক আবেদন করতে পারবেন।
মঙ্গলবার (১৭ মে) জাতীয় বিশ্ববিদ্যালয়ের এক সংবাদ বিজ্ঞপ্তিতে এ তথ্য জানানো হয়েছে।
এতে বলা হয়েছে, ভর্তি সংক্রান্ত বিস্তারিত তথ্য জাতীয় বিশ্ববিদ্যালয়ে নির্দিষ্ট ওয়েবসাইট www.nu.edu.bd/admissions অথবা admissions.nu.edu.bd থেকে পাওয়া যাবে।
