দিনাজপুর: দিনাজপুরে হাজি মোহাম্মদ দানেশ বিজ্ঞান ও প্রযুক্তি বিশ্ববিদ্যালয়ের (হাবিপ্রবি) এবং ইন্টারনাল কোয়ালিটি অ্যাসিউরেন্স সেল (আইকিউএসি) এর উদ্যোগে দিনব্যাপী কর্মশালা অনুষ্ঠিত হয়েছে।
শুক্রবার (২১ জুলাই) বিকেলে বিশ্ববিদ্যালয়ের অডিটোরিয়াম-২ এ ‘স্টকহোল্ডার ট্রেনিং ওয়ার্কশপ অন কোয়ালিটি অ্যাসিউরেন্স’ শীর্ষক প্রশিক্ষণ কর্মশালা অনুষ্ঠিত হয়।
প্রশিক্ষণ কর্মশালার উদ্বোধন করেন বিশ্ববিদ্যালয়ের ভাইস-চ্যান্সেলর প্রফেসর ড. মু. আবুল কাসেম।
প্রশিক্ষণ কর্মশালায় বিশ্ববিদ্যালয়ের বিভিন্ন অফিস ও শাখা থেকে মোট ৮৫ জন প্রথম শ্রেণির কর্মকর্তা অংশ নেন।
উদ্বোধনী অনুষ্ঠানে আইকিউএসি ও হাবিপ্রবি’র অতিরিক্ত পরিচালক প্রফেসর ড. বিকাশ চন্দ্র সরকারের সভাপতিত্বে কর্মশালায় বক্তব্য রাখেন বিশ্ববিদ্যালয়ের ভাইস-চ্যান্সেলর প্রফেসর ড. মু. আবুল কাসেম। বিশেষ অতিথির বক্তব্য রাখেন বিশ্ববিদ্যালয়ের রেজিস্ট্রার প্রফেসর ড. মো. সফিউল আলম।
আবুল কাসেম বলেন, প্রশিক্ষণের বিকল্প নেই। বিশ্ববিদ্যালয়ের উন্নয়নের জন্য শিক্ষক, কর্মকর্তা, কর্মচারী সবার প্রশিক্ষণ প্রয়োজন রয়েছে। পেশাগত দক্ষতার উন্নয়নে দিনব্যাপী এ প্রশিক্ষণ গুরুত্বপূর্ণ ভূমিকা রাখবে বলে আশাবাদ ব্যক্ত করেন তিনি।
প্রশিক্ষণ কর্মশালায় বিশ্ববিদ্যালয়ের আইন ও অধ্যাদেশ বিষয়ে তথ্য উপাস্থাপন করেন বিশ্ববিদ্যালয়ের রেজিস্ট্রার প্রফেসর সফিউল আলম। আর্থিক ব্যবস্থাপনা ও অফিস ব্যবস্থাপনার উপর প্রশিক্ষক হিসেবে বক্তব্য রাখেন- বাংলাদেশ বিশ্ববিদ্যালয় মঞ্জুরি কমিশন এর অর্থ ও হিসাব বিভাগের পরিচালক মো. মিজানুর রহমান এবং ইসলামী বিশ্ববিদ্যালয়ের ডেপুটি রেজিস্ট্রার মো. নওয়াব আলী।
