রোকেয়া আক্তার স্বর্ণা, মতিঝিল আইডিয়াল স্কুল অ্যান্ড কলেজের ব্যবসায় শিক্ষা শাখায় এইচএসসি পরীক্ষা দিয়ে জিপিএ-৫ পেয়ে পাস করেছি। 
আজ সকালে (রোববার , ২৩ জুলাই) নিউজ দেখে খুব ভয়ে ছিলাম এ+ পাবো কিনা! আলহামদুলিল্লাহ জিপিএ-৫ পেয়েছি। খুবই ভালো লাগছে। এর পেছনে আম্মু-আব্বুর অনেক অবদান আছে। শিক্ষক-শিক্ষিকাদেরও অনেক অবদান আছে। 
পড়াশোনার ব্যাপারে অনেকে উৎসাহ দিয়েছে। এরপর লক্ষ্য হচ্ছে ঢাকা বিশ্ববিদ্যালয়ে চান্স পাওয়া এবং দেশের জন্য কিছু করতে চাই। আমি সকলের দোয়াপ্রার্থী।
