টোকিওতে অনুষ্ঠিত কম্বাইন্ড এক্সিবিশন অফ অ্যাডভান্সড টেকনোলজিস প্রদর্শনীতে নতুন এই টিভি দেখায় প্রতিষ্ঠানটি, জানিয়েছে ব্রিটিশ দৈনিক ইন্ডিপেন্ডেন্ট।
নতুন এই টিভি অফ থাকা অবস্থায় এতটাই 'স্বচ্ছ' যে প্রায় পুরোপুরি অদৃশ্য মনে হয়। অফ থাকা অবস্থায় রঙবিহীন কাচের পর্দাটির ভেতর দিয়ে পরিষ্কারভাবে অপর পাশের জিনিস দেখা যায়। এ অবস্থায় এটি দেখতে কাচের স্লাইডিং দরজার মতোই।
অন করা হলে স্বচ্ছ এই টিভিই সাধারণ টিভির মতো ভিডিও ফুটেজ দেখাতে পারে। প্রথমবার দেখে টিভির ছবির মানও মোটামুটি চিত্তাকর্ষক বলেই ধরা হচ্ছে।
টিভির পর্দা হিসেবে গ্লাসে ওএলইডি পর্দা ব্যবহার করেছে প্যানাসনিক। অন্ধকারাছন্ন পরিবেশেই সবচেয়ে ভালো কাজ করে নতুন এই টিভি। উজ্জ্বল পরিবেশে ছবির মান কিছুটা খারাপ দেখায় বলে জানানো হয়েছে।
