ফেইসবুকে প্রচার হওয়া ভিডিওতে একটি টিভি বাটন দেখানো হয়েছে। ওই বাটনে চাপলে নির্দিষ্ট টিভি বেছে নেওয়া যাবে। আর সেখানে সংযুক্ত করে ফেইসবুকের ভিডিও দেখা যাবে বড় পর্দার টিভিতে।
আপাতত অ্যাপল টিভি এবং ক্রোমকাস্ট দিয়ে ফিচারটি চালু করার পরিকল্পনা থাকলেও ভবিষ্যতে এর পরিধি বাড়ানোর কথা রয়েছে। ইতোমধ্যেই আইওএস ব্যবহারকারীদের জন্য ফিচারটি উন্মোচন করেছে ফেইসবুক। খুব শীঘ্রই অ্যান্ড্রয়েড ডিভাইসেও ফিচারটি চালু করা হবে বলে জানানো হয়েছে।
এই ফিচার নিয়ে এক ব্লগ পোস্টের মাধ্যমে ফেইসবুকের পণ্য পরিচালক ব্রেন্ট অ্যায়রে বলেন, "আপনি বন্ধুদের সঙ্গে আড্ডাতে মজে আছেন বা সোফায় আরাম করেন; আমরা মনে করি আপনি ফেইসবুকে ভিডিও দেখার এই উপায়টি উপভোগ করবেন।"
