অ্যান্ড্রয়েড স্মার্টফোনে গুগল প্লেসহ অন্যান্য গুগল অ্যাপ, সার্চ ফাংশন ও ব্রাউজার প্রি-ইনস্টল করতে নির্মাতা প্রতিষ্ঠানগুলোকে বাধ্য করার মাধ্যমে গুগল এ ওপেন সোর্স প্লাটফর্মের সুস্থ প্রতিযোগিতায় প্রতিবন্ধকতা সৃষ্টি করছে বলে অভিযোগ আনে ইইউ। এ ছাড়াও ইইউ নীতিনির্ধারকরা গুগলের সার্চ ইঞ্জিনে এর শপিং সেবার প্রচারণা নিয়েও তদন্ত চালাচ্ছে বলে জানিয়েছে রয়টার্স।
এর প্রতিক্রিয়ায় বিটি’র পক্ষে এক মুখপাত্র বলেন, "আমাদের আইনজীবীদের দল তাদের অনুসন্ধান সম্পর্কে ইউরোপিয়ান কমিশনের কাছে লিখেছে বলে আমরা নিশ্চয়তা দিতে পারি। আমরা তাদের বলেছি যে ডিভাইসে প্রি-লোডেড গুগল অ্যাপগুলো ছাড়াও বিটি’র নিজস্ব বা থার্ড-পার্টি অ্যাপ প্রি-ইনস্টলে কোনো বাধা নেই। অ্যাপ সরবরাহকারী একটি প্রতিষ্ঠান হিসেবে আমরা এও বলেছি যে, অপারেটিং সিস্টেমগুলোর বর্তমান সুস্থিতি ও গ্রহণযোগ্যতাকে আমরা মূল্যায়ন করি, তা 'ওপেন সোর্স' বা 'ক্লোজড সোর্স' যাই হোক না কেন।"
অন্যদিকে গুগলের পক্ষ থেকে বলা হয়, অ্যান্ড্রয়েড সিস্টেম ব্যবহারকারী, ডেভেলপার, হার্ডওয়্যার নির্মাতা এবং মোবাইল নেটওয়ার্ক অপারেটরদের স্বার্থ সমন্বয় করে থাকে।
২০১৬ সালের নভেম্বরে গুগলের আইনজীবীরা বলেন, "অ্যান্ড্রয়েড এ প্রতিযোগিতাকে বাধাগ্রস্ত করে নি, বরং একে বিস্তৃত করেছে।"
