১২ সেপ্টেম্বর নতুন আইফোন উন্মোচনের কথা রয়েছে মার্কিন প্রযুক্তি জায়ান্ট প্রতিষ্ঠানটির। এবার এতেও ঘাটতির সম্ভাবনা রয়েছে বলে বৃহস্পতিবার প্রতিবেদনে উল্লেখ করেছে ওয়াল স্ট্রিট জার্নাল।
বিষয়টির সঙ্গে জড়িত এক সূত্রের বরাত দিয়ে ওয়াল স্ট্রিট জার্নালের ওই প্রতিবেদনে বলা হয়- ত্রুটির কারণে উৎপাদন প্রক্রিয়া প্রায় এক মাস পিছিয়েছে অ্যাপল। তবে, এ ব্যাপারে জানতে প্রতিষ্ঠানটির সঙ্গে যোগাযোগ করা হলে কোনো মন্তব্য করা হয়নি।
“অ্যাপলে কখনোই উৎপাদনজনিত ত্রুটির অভিযোগের কমতি দেখা যায়নি। প্রতি প্রান্তিকেই কোটি আইফোন ক্র্যাংক করে থাকে প্রতিষ্ঠানটি,” বলেন বিটিআইজি বিশ্লেষক ওয়াল্টার পাইক।
তিনি আরও বলেন, “আমার এমনও শংকা রয়েছে যে নতুন আইফোনে আগ্রহী অনেক ক্রেতা কয়েক মাস অপেক্ষা না করে ব্র্যান্ড পরিবর্তন করতে পারেন।”
আসছে অ্যাপল ইভেন্টে সম্পূর্ণ নতুন আইফোন ৮-এর পাশাপাশি আইফোন ৭ ও ৭ প্লাস-এর উন্নত সংস্করণ আইফোন ৭ এস ও ৭ এস প্লাস উন্মোচন করতে পারে অ্যাপল। অ্যাপল ভক্ত ও বিনিয়োগকারীরা দশম বর্ষপূর্তি উপলক্ষে নতুন আইফোন ৮ নিয়ে উন্মুখ হয়ে রয়েছেন। এখন দেখার বিষয় আইফোন ৮-এ যথেষ্ট পরিমাণ নতুন ফিচার দিয়ে অ্যাপল গ্রাহকের চাহিদা পূরণ করতে পারে কিনা।
