‘মিড-রোল’ ভিডিও বিজ্ঞাপন বলতে অনলাইনে কোনো ভিডিও চলাকালে এতে দেখানো ভিডিও বিজ্ঞাপনকে বোঝানো হয়।
সর্বপ্রথম হয়ত পেশাদার প্রকাশকদের ফেইসবুক ভিডিও’তেই এই বিজ্ঞাপনগুলো দেখানো হবে, জানিয়েছেন এক বিশ্লেষক। এখন পর্যন্ত সামাজিক মাধ্যমটি ‘প্রি-রোল’ বিজ্ঞাপন দেওয়া বন্ধ রেখেছে। ‘প্রি-রোল’-এর ক্ষেত্রে ভিডিও শুরু হওয়ার আগে বিজ্ঞাপন প্রদর্শনকে বোঝায়।
প্রযুক্তি সাইট রিকোড-এর বরাতে বিবিসি জানায়, মিড-রোল বিজ্ঞাপন থেকে হওয়া মোট আয়ের ৫৫ শতাংশ ভিডিও প্রকাশকরা পাবেন।
এ নিয়ে ফেইসবুক কোনো মন্তব্য করতে অস্বীকৃতি প্রকাশ করেছে বলে জানিয়েছে ব্রিটিশ সংবাদমাধ্যমটি।
