এর মাধ্যমে দুই দশকের মধ্যে সর্বোচ্চ বার্ষিক লাভ অর্জনের দিকে প্রতিষ্ঠানটি এক ধাপ এগিয়েছে, বলা হয় রয়টার্স-এর প্রতিবেদনে।
প্রধান নির্বাহী কাজুয়ো হিরাই-এর অধীনে ঘুরে দাঁড়ানো প্রতিষ্ঠানটির শেয়ারমূল্য এ বছর ৪০ শতাংশ বেড়ে নয় বছরের মধ্যে সর্বোচ্চ হয়েছে।
বক্স-অফিসে সনি পিকচার্স-এর বানানো চলচ্চিত্র ‘স্পাইডার-ম্যান: হোমকামিং’-এর সাফল্য প্রতিষ্ঠানটির আয় বাড়াতে অবদান রেখেছে।
চলতি বছর এপ্রিল-জুন প্রান্তিকে সনি’র লাভ ২.৮ গুণ বেড়ে ১৫৭৬১ কোটি ইয়েন হয়েছে। যা, ২০০৭ সালে রেকর্ড গড়া প্রথম প্রান্তিকের লাভ ১২১৩০ কোটি ইয়েন-কে ছাড়িয়েছে।
এই লাভ বৃদ্ধি প্রধানত সনি’র ইমেইজ সেন্সর ব্যবসায় থেকে এসেছে বলে জানিয়েছে প্রতিষ্ঠানটি। এক বছর আগে ভূমিকম্পে ক্ষতিগ্রস্থ এই বিভাগ আবারও ঠিক অবস্থায় আসে।  ইমেইজ সেন্সরসহ পুরো সেমিকন্ডাকটর ব্যবসায়ে সনি’র পরিচালনাগত লাভ হয়েছে ৫৫৪০ কোটি ইয়েন, যেখানে এক বছর আগে ৪৩৫০ কোটি ইয়েন ক্ষতির মুখে পড়তে হয়েছিল।
উন্নতমানের টেলিভিশন সেট আর স্মার্টফোনে নজর দেওয়ার কারণে সনি’র ভোক্তা ইলেকট্রনিকস ব্যবসায়ও  লাভজনক ছিল।
