এই অ্যাকাউন্টটিতে ২৫ লাখ ফলোয়ার রয়েছে বলে জানিয়েছে বিবিসি। ওই অ্যাকাউন্ট হ্যাক করে হ্যাকার গ্রুপ আওয়ারমাইন তাদের নিজস্ব ওয়েবসাইট ও সেবার প্রচারণা চালিয়ে টুইট করে। যদিও এই টুইটগুলো দেখতে পাওয়ার প্রায় এক ঘণ্টা পর এই টুইটগুলো সরিয়ে দেওয়া হয়।
চলতি বছর আওয়ারমাইন কয়েকটি গুরুত্বপূর্ণ টুইটার অ্যাকাউন্ট হ্যাক করে। এসব অ্যাকাউন্টের মধ্যে উইকিপিডিয়া সহ-প্রতিষ্ঠাতা জিমি ওয়েলস, ফেইসবুক প্রধান মার্ক জাকারবার্গ আর গুগল প্রধান সুন্দার পিচাইয়ের অ্যাকাউন্টগুলোও ছিল। এই দলটির হাত থেকে রেহাই পায়নি প্রযুক্তি সাইট টেকক্রাঞ্চ ও বাজফিড-এর ওয়েবসাইট। এমনকি টুইটার প্রধান জ্যাক ডরসি’র টুইটার ও ভাইন অ্যাকাউন্টও তাদের হামলার শিকার হয়।
নেটফ্লিক্স-এর অ্যাকাউন্ট হ্যাক করে দেওয়া টুইটগুলোর মধ্যে একটিতে বলা হয়, “চিন্তার কিছু নেই, আমরা শুধুই আপনাদের নিরাপত্তা যাচাই করছি।”
