যুক্তরাষ্ট্রের ম্যাসাচুসেটসভিত্তিক যোগাযোগ সফটওয়্যার প্রতিষ্ঠান নুটনোমি এই 'রোবো-ট্যাক্সি' বানিয়েছে। এই প্রতিষ্ঠানটি বৃহস্পতিবার থেকে সিঙ্গাপুরের এক স্থানে পরীক্ষামূলকভাবে এই ট্যাক্সি পরিচালনা শুরু করবে। রেনল্ট আর মিসুবুসি'র গাড়ির মডেল-কে বিশেষায়িত করে এই ট্যাক্সি বানানো হয়েছে। বাছাইকৃত কিছু সিঙ্গাপুরবাসী নুটনোমি'ত স্মার্টফোন অ্যাপ ব্যবহার করে বিনামূল্যে রোবো-ট্যাক্সি ভাড়া করতে পারবেন। 
পরিচালনা প্রতিষ্ঠানটির সহ-প্রতিষ্ঠাতা প্রধান কার্ল ল্যাগনেমা বলেন, "বাস্তব দুনিয়ার যাত্রীদের কাছ থেকে পরামর্শ গ্রহণে এই পরীক্ষা একটি অসাধারণ সুযোগ। আর এসব পরামর্শ নুটনোমি-কে একটি অনন্য সুবিধা দেবে, যার ফলে আমরা ২০১৮ সালে একটি স্বচালিত গাড়ির বহর আনতে পারি।"
চলার সময় রোবো-ট্যাক্সি'র সফটওয়্যার-ই সব সিদ্ধান্ত নেবে, এমন পরিকল্পনা থাকলেও, প্রতিষ্ঠানটির একজন প্রকৌশলী প্রয়োজনে নিয়ন্ত্রণ নিতে গাড়ির সামনের আসনে বসে থাকবেন, জানিয়েছে মার্কিন সংবাদমাধ্যম সিএনবিসি।
স্বচালিত গাড়ি দিয়ে ট্যাক্সি সেবা দিতে যাচ্ছে- সম্প্রতি এমন খবরে আলোচনা সৃষ্টি করে অনলাইন অ্যাপভিত্তিক ট্যাক্সি সেবাদাতা মার্কিন প্রতিষ্ঠান উবার। চলতি বছর শুরুতে যুক্তরাষ্ট্রের পেনিসিলভেনিয়া অঙ্গরাজ্যের পিটসবার্গে এ নিয়ে পরীক্ষা চালানোর কথাও স্বীকার করে প্রতিষ্ঠানটি। ধীরে ধীরে মার্কিন টেক জায়ান্ট গুগলের সঙ্গে কাজ করে স্বয়ংক্রিয় গাড়ি প্রযুক্তি নিয়ে এগিয়ে গিয়েছে প্রতিষ্ঠানটি,জানিয়েছে প্রযুক্তি সাইট টেকক্রাঞ্চ।
ব্লুমবার্গের সঙ্গে এক সাক্ষাৎকারে উবার প্রধান ট্রাভিস কালানিক জানান, চলতি মাসেই যত শিগগিরই সম্ভব পিটসবার্গে চালকদের সঙ্গে স্বচালিত গাড়ির বহরও যোগ করতে যাচ্ছেন তারা।
