এ নিয়ে ইনস্টাগ্রেস জানিয়েছে, ইনস্টাগ্রামের ‘অনুরোধে’ প্রতিষ্ঠানটিকে এর সেবা বন্ধে বাধ্য করা হয়েছে।
এই টুল “আপনার নিজের ছোট রোবট ক্লোন বানাবে, যার আপনার মতো একই স্টাইল ও আগ্রহ থাকবে, তারপর এই রোবট ইনস্টাগ্রামে আপনার হয়ে কাজ করবে”- বন্ধ হয়ে যাওয়া ইনস্টাগ্রেস ওয়েবসাইটে এমনটাই বলা হয়, খবর ব্যবসা-বাণিজ্যবিষয়ক মার্কিন সাইট বিজনেস ইনসাইডার। ইনস্টাগ্রাম তাদের প্লাটফর্মে কথিত বট কার্যক্রমের বিস্তার রোধে সক্রিয় হচ্ছে বলে এই পদক্ষেপের মাধ্যমে আভাস পাওয়া যায়।  ইনস্টাগ্রামের এক মুখপাত্র বিজনেস ইনসাইডারকে বলেন, “আমরা কোনো নির্দিষ্ট অ্যাপ নিয়ে মন্তব্য করি না।” সেই সঙ্গে তিনি ইনস্টাগ্রামের ডেভেলপার নীতিমালার দিকে নির্দেশ করেন, যেখানে ইনস্টাগ্রাম ডেটা তৃতীয় পক্ষের মাধ্যমে বিক্রি নিষিদ্ধ করা হয়েছে।
সম্প্রতি ক্যালডার উইলসন নামের এক চিত্রগ্রাহক বলেন, তিনি ইনস্টাগ্রেস ব্যবহার করে দুই বছরে প্রতি মাসে হাজার হাজার লাইক পেয়েছেন ও অন্য ছবিতে কমেন্ট করেছেন।
ইনস্টাগ্রেস-এর জন্য ব্যবহারকারী কী পরিমাণ অর্থ পরিশোধ করেছিলেন তা এখনও অস্পষ্ট। এটি ব্যবহারে ব্যবহারকারীদের মাসে ১০ ডলার গুণতে হয়। তিন বছর ধরে এই অ্যাপটি কাজ করে যাচ্ছিল।
