প্রযুক্তি সাইট সিনেট-এর প্রতিবেদনে বলা হয়, সার্চ জায়ান্টটি এক ঘোষণায় বলেছে তাদের ‘প্রজেক্টস লুন’ প্রোগ্রাম থেকে কিছু বেলুন পুয়ের্তো রিকো-তে আনা হয়েছে। সীমিত ইন্টারনেট অ্যাকসেস থাকা লোকদের ইন্টারনেট সেবা দিতেই এই চেষ্টা চালানো হচ্ছে। 
এই বেলুনগুলো হারিকেন মারিয়া আক্রান্ত দ্বীপটির বিভিন্ন অংশে এলটিই ফোন ব্যবহারকারীদের ইন্টারনেট ও টেক্সট মেসেজিং সেবায় মৌলিক অ্যাকসেস দেবে।
গুগলের এই প্রকল্পে এটিঅ্যান্ডটি’র সঙ্গে মিলতে হলো কেন? অ্যালফাবেট-এর এক মুখপাত্র বলেন, “লুন-এর জন্য কোনো একটি টেলিযোগাযোগ প্রতিষ্ঠানের নেটওয়ার্কে যুক্ত হওয়া দরকার হয়, বেলুনগুলো একা এ কাজ করতে পারে না।”
