একদিকে ফেইসবুকের পরিচালনা পর্ষদ সদস্য মার্কিন ধনকুবের পিটার থিল আর আরও কিছু প্রযুক্তি গুরুর সমর্থন যোগাচ্ছেন রিপাবলিকান প্রার্থী ডোনাল্ড ট্রাম্প। আর অন্যদিকে, ট্রাম্পের অ্যাপল পণ্য বর্জনের আহ্বানে 'বিস্মিত' কয়েকজন প্রযুক্তি প্রতিষ্ঠান প্রধান আর তাদের কর্মীরা করছেন তার ট্রাম্পের বিরুদ্ধচারণ।
ট্রাম্পবিরোধী পক্ষে এবার যোগ হয়েছেন টেসলা প্রধান ও মার্কিন ধনকুবের ইলন মাস্কও, জানিয়েছে প্রযুক্তি সাইট সিনেট। শুক্রবার মার্কিন সংবাদমাধ্যম সিএনবিসি-এর সঙ্গে এক সাক্ষাৎকারে পেইপ্যাল, সোলারসিটির মতো প্রতিষ্ঠানের সহ-প্রতিষ্ঠাতা আর হাইপারলুপের মতো নানা উদ্ভাবনী ধারণার প্রবর্তক এই প্রভাবশালী প্রকৌশলী বলেন, "আমার কাছে মনে হচ্ছে তিনি (ট্রাম্প) সঠিক লোক নন।
মাস্ক বলেন, "মার্কিন যুক্তরাষ্ট্রের ঠিকভাবে প্রতিফলন ঘটায় এমন চরিত্রের লোক তিনি নন বলেই মনে হয়।"
ট্রাম্পবিরোধিতা মানেই যে ডেমোক্রেট প্রার্থী হিলারি ক্লিনটন-কে মাস্ক সমর্থন দেবেন তাতো ধারণা করাই যায়, মাস্কও সেটাই জানান। পরিবেশগত ও অর্থনৈতিক দিক থেকে হিলারি-কেই 'সঠিক' হিসেবে মত দিয়েছেন তিনি।
