১৯ নভেম্বর বাংলাদেশ সময় সকাল ১১টা ১৫ মিনিটে দেওয়া এক স্ট্যাটাসে এ নিয়ে বর্ণনা দেন জাকারবার্গ। শুরুতেই তিনি বলেন, “আপনারা অনেকেই জিজ্ঞাসা করেছেন ভুল তথ্য নিয়ে আমরা কী করছি, তাই আমি আপনাদের এ বিষয়ে জানাতে চাই।”
তিনি বলেন, “মূল কথা হচ্ছে- আমরা ভুলতথ্যের বিষয়টি খুবই গুরুত্বের সঙ্গে নেই। আমাদের লক্ষ্য হচ্ছে মানুষ যেসব কনটেন্ট সবচেয়ে বেশি অর্থপূর্ণ মনে করে সেগুলোর সঙ্গে তাদের যুক্ত করা, আর আমরা জানি মানুষ সঠিক তথ্য চায়। আমরা এই সমস্যা নিয়ে দীর্ঘ সময় ধরে কাজ করছি আর এই দায়িত্বটা আমরা গুরুত্বের সঙ্গে নিয়েছি। আমরা উল্লেখযোগ্য উন্নতি করেছি, কিন্তু এখনও অনেক কাজ করার আছে।”
এর আগে কোনো কনটেন্ট ভুয়া আর কোনটি সত্য তা বুঝতে ফেইসবুক সম্প্রদায়ের উপরই তারা নির্ভর করতেন বলেন জানান জাকারবার্গ। তিনি জানান, এ ক্ষেত্রে ফেইসবুকের যে কেউ যে কোনো লিংক-কে মিথ্যা হিসেবে অভিযোগ করতে পারেন, আর ফেইসবুক কর্তৃপক্ষ ওই অভিযোগগুলোর সংখ্যা আর অন্যান্য বিষয়ের উপর পাওয়া তথ্য ব্যবহার করে বিচার করে।  
এ ক্ষেত্রে কারিগরি আর দর্শনগত দিক থেকে সমস্যাগুলো ‘জটিল’ বলে মন্তব্য করেন জাকারবার্গ। তিনি বলেন, “আমরা মানুষকে একটি কণ্ঠ দিতে বিশ্বাস করি, এর মানে হচ্ছে  মানুষ যখন সম্ভব যা চায় তাই শেয়ার করতে দেওয়ার পথে যাওয়া। মতামত শেয়ার করতে যাতে নিরুৎসাহিত করা না হয় আর ভুলে যাতে সঠিক কনটেন্ট আটকে দেওয়া না হয় তা নিয়ে আমাদের সতর্ক থাকা প্রয়োজন। আমাদের সততার বিচারক আমরা হতে চাই না, বরং আমাদের সম্প্রদায় বা বিশ্বস্ত তৃতীয় পক্ষের উপর নির্ভর করতে চাই।” 
বরাবরের মতো এবারও ফেইসবুকের ভুলতথ্যের পরিমাণ ‘অপেক্ষাকৃত কম’ বলে দাবি করেছেন জাকারবার্গ। সাধারণত নিজেদের কাজের অগ্রগতি নিয়ে নির্দিষ্টভাবে তারা জানান না, কিন্তু এবার বিষয়ে আগ্রহের পরিমাণ আর গুরুত্বের কথা বিবেচনা করে তিনি ইতোমধ্যে হাতে নেওয়া কিছু প্রকল্পের কথা জানাতে চান বলে জানান। 
ওই স্ট্যাটাসে ফেইসবুকের প্রকল্পগুলো নিয়ে জাকারবার্গ-এর বক্তব্য বাংলায় হুবহু তুলে হরা হল-
