ব্যবসায়বিষয়ক প্রকাশনা নিক্কেই এশিয়ান রিভিউ’র খবর যদি সত্য হয়, তাহলে অ্যাপল চলতি বছরের শেষে আনতে যাওয়া আইফোন ৮ -এর জন্য স্যামসাংয়ের কাছে ইতোমধ্যে সাত কোটি ডিসপ্লে প্যানেল অর্ডার করেছে। এগুলো শুধু সাধারণ স্ক্রিনই নয়,  উচ্চ রেজুলিউশন আর উচ্চমাত্রার ওএলইডি প্রযুক্তি ব্যবহৃত, যা স্যামসাং কয়েক বছর ধরে তাদের গ্যালাক্সি এস সিরিজের স্মার্টফোনগুলোতে ব্যবহার করছে। শুরু থেকে সব আইফোনে ব্যবহৃত এলসিডি স্ক্রিন থেকে নতুন আইফোনে আসা পরিবর্তনটা হবে লক্ষণীয়। 
জাপানি প্রযুক্তি প্রতিষ্ঠান শার্প পরবর্তী প্রজন্মের আইফোনের স্ক্রিনের একক সরবরাহকারী প্রতিষ্ঠান হবে, ২০১৬ সালে বিভিন্ন গণমাধ্যম প্রতিবেদনে এমন খবর বের হয়। দেখা যাচ্ছে নতুন এই গুঞ্জন ওই প্রতিবেদনের খবরের সঙ্গে সাংঘর্ষিক।
এই সবগুলো খবরই যখন ‘নির্ভরযোগ্য সূত্রের’ উপর ভিত্তি করে প্রকাশিত করা, তখন সাম্প্রতিক খবরকেই বেশি যুক্তিসংগত ধরছে প্রকাশনাটি। আর এক্ষেত্রে লাখ লাখ নতুন আইফোন আসতে খুব বেশি সময় না থাকাকেই সাম্প্রতিক গুঞ্জনে সমর্থনের কারণ হিসেবে দেখিয়েছে সাইটটি।
অ্যাপলের জন্য স্যামসাংয়ের সরবরাহের বিষয়টি এবারই প্রথম নয়। আগের আইফোনগুলোতে ব্যবহৃত কয়েকটি প্রসেসরের নির্মাতা স্যামসাং-ই।
