ওই অঞ্চলের আইল্যান্ড অফ কাওয়াই-এ জাকারবার্গের বিশাল সম্পত্তি রয়েছে। তার পাশেই ওই জমি অধিগ্রহণের জন্য মামলা দায়ের করেছেন এই মার্কিন ধনকুবের প্রযুক্তি নেতা, জানিয়েছে বিবিসি। কিন্তু জমি অধিগ্রহণ নিয়ে তার এই আইনি চেষ্টায় সমালোচনারও সৃষ্টি হয়েছে।
তিনি জানান তিনি এই প্রক্রিয়ায় পুরোপুরি সময় নেননি। তিনি বলেন, “এটি স্পষ্ট যে আমরা একটি ভুল করেছি।”
হাওয়াই দ্বীপে জাকারবার্গ ৭০০ একর জমির ওপর বড় বাড়ি কিনেছেন। সেখানে তার পরিবার ‘শিকড় গাড়তে চায়’ বলে জানিয়েছেন তিনি।
বাড়িসংশ্লিষ্ট পরিত্যক্ত ওই জমির মালিকদের খুঁজে বের করতে ও তাদের সঙ্গে মীমাংসা করতে আদালতকে আহ্বান জানিয়েছেন জাকারবার্গ। “ওই জমির মালিক নিজেরাও হয়ত ওই মালিকানা সম্পর্কে জানেন না”- বলেন জাকারবার্গ।
এ নিয়ে স্থানীয়দের সমালোচনার মুখে পড়তে হয়েছে তাকে, সমালোচনাকারীদের মধ্যে আছেন সেখানকার জনপ্রতিনিধি ক্যানেইলা ইং-ও। ইংয়ের দাবি, এত পরিমাণে জমি ক্রয় ওই অঞ্চলের স্থানীয়দের অধিকার সীমাবদ্ধ করবে। নিজের ফেইসবুক পেইজে এক ভিডিওতে তিনি বলেন, “কার স্বর্গের ৭০০ একর জমি দরকার হয়? এটি একটু বাড়াবাড়িই মনে হয়।”
কিন্তু পরে জাকারবার্গ এই সমালোচনা থেকে শিখতে পেরেছেন বলে জানান। তিনি বলেন, “আমরা বুঝতে পেরেছি স্থানীয় হাইওয়াইনদের জন্য কুলেয়না পবিত্র আর মামলায় এটি কেনার প্রক্রিয়া কষ্টসাধ্য হতে পারে।”
