অক্টোবরেই বাজারে আসার কথা থাকলেও ঠিক কি কারণে 'এয়ারপডস' সরবরাহে বিলম্ব হচ্ছে সে বিষয়ে স্পষ্টভাবে কিছু জানায়নি অ্যাপল।
রয়টার্সকে দেওয়া এক ইমেইলে প্রতিষ্ঠানটির মুখপাত্র ট্রুডি মুলার বলেন, "আমরা কোনো পণ্য পুরোপুরি তৈরি হওয়ার আগেই সেটি সরবরাহের নীতিতে বিশ্বাস করি না। এবং এয়ারপড গ্রাহকের জন্য তৈরি করার আগে আমদের আরও কিছুটা সময় প্রয়োজন।"
চলতি বছরের ৭ সেপ্টেম্বর অ্যাপল ইভেন্টে সম্পূর্ণ তারবিহীন 'এয়ারপডস' উন্মোচন করে প্রতিষ্ঠানটি। এই হেডফোনটি বাক্সের মুখ খুলে আইফোনের কাছে আনলেই সেটি ফোনের সঙ্গে সংযুক্ত হয়ে যায়। অ্যাপলের পক্ষ থেকে দাবি করা হয় তাদের এই প্রযুক্তি অন্যান্য ব্লুটুথ প্রযুক্তির থেকে ভাল।
অ্যাপলের নতুন আইফোন ৭-এ কোনো হেডফোন জ্যাক রাখেনি প্রতিষ্ঠানটি। আইফোন ৭-এর সঙ্গে তারযুক্ত হেডফোন দেওয়া হলেও সেটি লাইটনিং কানেক্টর দিয়ে ফোনে যুক্ত করতে হবে। আর অন্যান্য ৩.৫এমএম জ্যাকের হেডফোন সংযুক্ত করতে এর সঙ্গে একটি কনভার্টারও দিয়েছে অ্যাপল।
