সংকেতায়িত মেসেজিং অ্যাপটির নতুন এই ফিচারের নাম ‘ডিসমিস অ্যাজ অ্যাডমিন’। এই ফিচার গ্রুপের অ্যাডমিনদের অন্য গ্রুপ অ্যাডিমনদেরকে সরিয়ে নিজ হাতে গ্রুপের নিয়ন্ত্রণ নেওয়ার সুযোগ দেয় বলে উল্লেখ করা হয়েছে ব্রিটিশ দৈনিক ইন্ডিপেনডেন্ট-এর প্রতিবেদনে।
কেউ এমনটা করলে, যার সঙ্গে করা হবে তিনি অ্যাডমিন হিসেবে পাওয়া সব সুবিধা হারাবেন। 
হোয়াটসঅ্যাপ-এর অ্যান্ড্রয়েড বেটা সংস্করণে এই ফিচার পাওয়া যাচ্ছে। আইওএস-এর জন্য সুবিধাটি আনার প্রন্তুতি চলছে।
তবে অপ্রচলিত এই ফিচার সহজেই অন্যকে বিরক্ত করতেও ব্যবহৃত হতে পারে। তাই এটি আনা হবে কিনা তা এখনও নিশ্চিত নয়।
