মঙ্গলবার নিজেদের সর্বশেষ আর্থিক প্রতিবেদন প্রকাশকালে প্রতিষ্ঠানটি এক ঘোষণায় বলে, তারা ভিডিও স্ট্রিমিং সেবাদাতা প্রতিষ্ঠান নেটফ্লিক্স থেকে নিজেদের চলচ্চিত্র সরাতে চায়।
২০১৯ সালের সরাসরি গ্রাহকদের জন্য নিজস্ব স্ট্রিমিং সেবা প্লাটফর্ম চালুর পরিকল্পনা করছে ডিজনি। মার্কিন যুক্তরাষ্ট্রে যাত্রা শুরুর পর এটি সারা বিশ্বে ছড়িয়ে দেওয়া হবে।
ডিজনি’র প্রধান বব আইগার মার্কিন সংবাদমাধ্যম সিএনবিসি’কে বলেন, নেটফ্লিক্স-এর সঙ্গে ডিজনি’র একটি ‘ভালো সম্পর্ক’ রয়েছে কিন্তু প্রতিষ্ঠানটি এই প্লাটফর্ম থেকে তাদের কনটেন্ট সরিয়ে নেওয়ার একটি সিদ্ধান্ত নিয়েছে। আইগার বলেন, ডিজনি ও পিক্সার-এর টাইটেলযুক্ত সব চলচ্চিত্র নেটফ্লিক্স থেকে সরিয়ে নেওয়া হবে।
নেটফ্লিক্স-এর পক্ষ থেকে বলা হয়, ২০১৮ সাল পর্যন্ত ডিজনি’র চলচ্চিত্রগুলো তাদের প্লাটফর্মে থাকবে, সেইসঙ্গে মার্ভেল-এর টিভি অনুষ্ঠানগুলোও থাকবে। 
নতুন প্লাটফর্মে বিশেষ ‘এক্সক্লুসিভ’ চলচ্চিত্র ও টেলিভিশন অনুষ্ঠান আনতে ‘উল্লেখযোগ্য পরিমাণ’ বিনিয়োগ করবে ডিজনি।
সেইসঙ্গে প্রতিষ্ঠানটি ২০১৮ সালে নিজস্ব ইএসপিএন স্ট্রিমিং সেবা চালু করবে। এই প্লাটফর্মে প্রতি বছর প্রায় ১০ হাজার ক্রীড়ানুষ্ঠান প্রচার করা হবে।
আইগার বলেন, “এটি প্রতিষ্ঠানটির জন্য বড় কৌশলগত পরিবর্তন।”
