এর আগে অনলাইন অ্যাপভিত্তিক ট্যাক্সিসেবাদাতা প্রতিষ্ঠান উবার টেকনোলজিস ইনকর্পোরেটেড-এর সঙ্গে টয়োটার জোট বাঁধা নিয়ে সমালোচনা করে ওই ট্যাক্সি সংগঠন। এর কয়েক সপ্তাহ পরেই প্রতিষ্ঠানটি এমন সিদ্ধান্ত নিল।
ব্লুমবার্গ জানিয়েছে, জাপান ফেডারেশন অফ হায়ার-ট্যাক্সি অ্যাসোসিয়েশনস আর টয়োটা একটি টাস্ক ফোর্স গঠন করবে। এই টাস্ক ফোর্স নিয়মিতভাবে স্বয়ংক্রিয় গাড়ি চালনা প্রযুক্তি নিয়ে পরীক্ষ চালাবে, এক বিবৃতিতে জানিয়েছে টয়োটা।   
ইতোমধ্যে টয়োটার একটি পরবর্তী প্রজন্মের ট্যাক্সি মডেল রয়েছে। ২০১৭ সাল থেকে জাপানে এই ক্যাব চালকরা ওই ট্যাক্সি পাবেন।
জুনে অনুষ্ঠিত বার্ষিক সম্মেলনে উবারে টয়োটার বিনিয়োগের বিষয়ে সমালোচনা করে জাপানের ট্যাক্সি সংগঠনটি। টয়োটার প্রেসিডেন্ট আকিও টয়োদা সংগঠনের চেয়ারম্যান মাসাতাকা তোমিতা-র সঙ্গে দেখা করে নিশ্চিত করেন যে, টোয়োটা আর উবারের জোট জাপানের অর্থনীতিতে কোনো প্রভাব ফেলবে না। তবে, চেয়ারম্যান বলেছিলেন, "আমাদের শত্রুদের কাছে সরবরাহ পাঠানো হচ্ছে।"
প্রায় দুই লাখ ট্যাক্সির ওই সংগঠন আর টয়োটার মধ্যে এ নিয়ে একটি সমঝোতা স্মারক হয়েছে।
