বর্তমানে যুক্তরাষ্ট্রের বাইরে এই ফিচার পাওয়া যাচ্ছে। সামনের সপ্তাহগুলোর মধ্যে সর্বশেষ সংস্করণের স্যামসাং ফোন ব্যবহারকারীরাও এই আপডেট পাবেন বলে জানা গেছে।
এই ফিচার ব্যবহারের জন্য ব্যবহারকারীদের তাদের ভিআর-র ইউনিভার্সাল মেনু থেকে ‘লাইভস্ট্রিম টু ফেইসবুক’ বাটনে ক্লিক করতে হবে। ক্লিক করার সঙ্গে সঙ্গেই ব্যবহারকারী ফেইসবুকে সরাসরি সম্প্রচার শুরু করতে পারবেন।
এক বিবৃতিতে ফেইসবুক মালিনাধীন অকুলাস-এর পক্ষ থেকে বলা হয়, “শনিবার থেকে রিফট আর গিআর ভিআর-এর ইংরেজি স্পিকারে অকুলাস ভয়েস আসছে, এই ঘোষণা দিতে আমরা আনন্দিত। এই ফিচার আপনাকে অকুলাস হোম থেকে গেইম ও অ্যাপ নির্দেশনায় ভয়েস সার্চ ব্যবহারের সুযোগ দেবে।
নতুন এই ফিচার আনার সঙ্গে অকুলাস ইভেন্ট-এর ঘোষণাও দিয়েছে প্রতিষ্ঠানটি, এটি বন্ধুদের খুঁজে বের করা আর একসঙ্গে ভিআর অভিজ্ঞতা পাওয়া আরও সহজ করে দিয়েছে বলে জানানো হয়।
চলতি মাসের শুরুতে ভিডিও গেইম খেলোয়াড়দের কাছে সিস্টেমটি আরও প্রসারিত করতে হেডসেটের দাম ২০০ মার্কিন ডলার কমায় অকুলাস।
