সদ্য টেসলার কারখানা থেকে বের হয়েছে মডেল ৩ গাড়িটি। প্রতিষ্ঠানের অন্যান্য গাড়ির তুলনায় দামে কিছুটা সস্তা হওয়ায় অনেক আগে থেকেই আগ্রহ ছিল এটি নিয়ে। এর আগে কয়েকবার গাড়িটি সরবরাহে বিলম্বও করেছে বৈদ্যুতিক গাড়ী নির্মাতা মার্কিন প্রতিষ্ঠানটি।
এবার কারখানা থেকে মডেল ৩-এর প্রথম গাড়িটি বের হওয়ার পর টুইটারে তার সাদা কালো একটি ছবি পোস্ট করেন মাস্ক। শনিবার মাইক্রোব্লগিং সাইটটিতে ছবির পোস্টে তিনি বলেন, “প্রথম উৎপাদিত মডেল ৩।”
এর কিছু সময় পর মার্কিন যুক্তরাষ্ট্রের ক্যালিফোর্নিয়ায় টেসলা কারখানার বাইরে গাড়িটির আরেকটি রঙিন ছবি পোস্ট করেন তিনি।
বিবিসি’র প্রতিবেদনে বলা হয়, মডেল ৩ হবে টেসলার প্রথম বড় পরিসরের গাড়ি। চলতি বছরের ২৮ জুলাই প্রথম ৩০ জন গ্রাহক গাড়িটি হাতে পাবেন।
চার দরজার মডেল ৩ গাড়িটির মূল্য শুরু হবে ৩৫ হাজার মার্কিন ডলার হতে, যা টেসলার পরবর্তী সস্তা গাড়ির দামের প্রায় অর্ধেক।
এক বছর আগের তুলনায় চলতি বছর এপ্রিলে ক্যালিফোর্নিয়ায় টেসলা গাড়ির জন্য নিবন্ধন ২৪ শতাংশ কমেছে বলে জানিয়েছে শিল্প পরার্শদাতা প্রতিষ্ঠান আইএইচএস মার্কিট।
চলতি বছরের প্রথমার্ধে ৪৭১০০টি সেডান ও এসইউভি সরবরাহ করেছে তারা। পূর্বে তাদেরই ঠিক করা লক্ষ্যমাত্রায় পৌঁছাতে পারলেও সেটি ছিল তাদের প্রত্যাশার চেয়ে কম।
