মাইক্রোব্লগিং সাইট টুইটারে গ্যালাক্সি এস৯-এর মূল্য ফাঁস করেছেন ইভান ব্লাস। স্মার্টফোনের সঠিক তথ্য ফাঁস করায় পরিচিতি রয়েছে তার। এর আগে ডিভাইসটির ছবি এবং অন্যান্য তথ্যও ফাঁস করেছেন তিনি।
টুইটে ব্লাস জানিয়েছেন এস৯-এর মূল্য হবে ৮৪১ ইউরো। আর এস৯ প্লাসের দাম বলা হয়েছে ৯৯৭ ইউরো-- খবর প্রযুক্তিবিষয়ক সাইট ভার্জ-এর।
এই হিসাবে মার্কিন যুক্তরাষ্ট্রে গ্যালাক্সি এস৯-এর মূল্য হবে ১০৩৮ ডলার আর এস৯ প্লাসের মূল্য ১২২৯ ডলার। ধারণা করা হচ্ছে করসহ ডিভাইসটির এই মূল্য প্রকাশ করা হয়েছে, যা ইউরোপে ১৯ থেকে ২০ শতাংশ। সেক্ষেত্রে যুক্তরাষ্ট্রে ডিভাইসটির বাজার মূল্য আরও কম হবে।
যুক্তরাষ্ট্রে আইফোন X-এর বাজার মূল্য ৯৯৯ মার্কিন ডলার। যুক্তরাষ্ট্রের বাইরে কিছু দেশে ডিভাইসটির দাম আরও ৪০০ ডলার বেশি।
বার্সেলোনায় অনুষ্ঠিতব্য মোবাইল ওয়ার্ল্ড কংগ্রেস-এর একদিন আগে ২৫ ফেব্রুয়ারি গ্যালাক্সি এস৯ উন্মোচন করবে স্যামসাং। ইতোমধ্যেই ডিভাইসটির বেশ কিছু ছবি ফাঁস হয়েছে। এর আগে ডিভাইসটির রিটেইল বাক্স এবং ডিভাইসের সামনের দিকের একটি ছবি ফাঁস হয়।
আরও খবর-
গ্যালাক্সি এস৯-এর গোপন থাকছে না কিছুই  
গ্যালাক্সি এস৯-এর ছবি ফাঁস  
গ্যালাক্সি এস৯ ক্যামেরার ক্ষমতা দেখালো স্যামসাং  
গ্যালাক্সি এস৯-এর রিটেইল বাক্সের ছবি ফাঁস  
