২৮০ কোটি ইউরোর বিনিময়ে নোকিয়ার কাছে থেকে হিয়ার ম্যাপ কিনে নেয় জার্মান গাড়ি নির্মাতা গ্রুপ।
আউডি, বিএমডাব্লিউ এবং মার্সেইডিজ বেঞ্জ গাড়ির সেন্সরের মাধ্যমে রাস্তায় পার্কিংয়ের জায়গা এবং রাস্তা মেরামতের কাজ শনাক্ত করা হবে। এ ছাড়াও রাস্তার ট্রাফিকের অবস্থা, দূর্ঘটনা এবং রাস্তার সংকেত ধারণ করবে গাড়িগুলো।
ম্যাপটি গাড়ির গতি, অবস্থান এবং দিক এমনকি তীব্র ব্রেকিং এবং কুয়াশার লাইট চালু করার তথ্য নেবে। আর গাড়ির সামনে লাগানো ক্যামেরা দিয়ে ভিডিও ফুটেজ ধারণ করা হবে।
হিয়ারের ওপেন লোকেশন প্লাটফর্মে আপাতত ডেটা পাঠানো বা গ্রহণ করার কোনো প্রযুক্তি নেই। গুগলের ম্যাপিং সার্ভিস 'ওয়েজ' ইতোমধ্যেই তাদের ম্যাপে ডেটা পাঠানো এবং গ্রহণ করার সুযোগ রেখেছে।
হিয়ার ম্যাপের মাধ্যমে গাড়ির পার্কিং সেবায় এটি প্রতিটি রাস্তায় গাড়ির পার্কিংয়ের জায়গা খুঁজে বের করবে। এমনকি ওই স্থানে গাড়ির রাখার খরচও জানাবে ম্যাপ।
