সম্প্রতি আইফোনে একটি নিরাপত্তা ত্রুটি শনাক্ত করা হয়। ওই একই ত্রুটির জন্য নিরাপত্তা লঙ্ঘন ঠেকাতে ওএস এক্স এল কাপিটান, ওএস এক্স ইয়োসেমিটি আর সাফারি ব্রাউজারের জন্য এই আপডেট আনল মার্কিন এই টেক জায়ান্ট। 
ওই ম্যালওয়্যারের ব্যতিক্রমী ক্ষমতা ছিল বলে জানিয়েছে ব্রিটিশ দৈনিক ইন্ডিপেনডেন্ট। এতে ব্যবহারকারী একবার ক্লিক করলে ডিভাইসের নিয়ন্ত্রণ সঙ্গে সঙ্গে হ্যাকারদের হাতে চলে যেত। এক মানবাধিকার কর্মী এমন একটি লিঙ্ক পাওয়ার পর, তা নিরাপত্তা গবেষকদের কাছে পাঠানো হলে এই ম্যালওয়্যার শনাক্ত হয়।
ম্যালওয়্যারটি শনাক্ত করার পরপরই প্রতিষ্ঠানটি আইওএস-এর জন্য একটি আপডেট এনেছে। সবাই যাতে এই আপডেট ডাউনলোড করে সে জন্য পরামর্শও দিয়েছে অ্যাপল। 
আইওএস আর ওএস এক্স-এ একই রকম কোড থাকায়, কোনো একটি সফটওয়্যারে একটি ত্রুটি পাওয়া গেলে তা সাধারণত সব সফটওয়্যারেই পাওয়া যায়।
অ্যাপল নতুন দুটি সমাধান এনেছে, একটি ওএস এক্স-এর জন্য আরেকটি সাফারি'র জন্য।
