চীনে উল্লিখিত দুই প্রতিষ্ঠানের সেবা বন্ধ থাকায় বিজ্ঞাপনী আয়ের এই তথ্যে ওই দেশের হিসাব বাদ দিয়েছে সংস্থাটি।
গবেষণা থেকে ধারণা করা হচ্ছে, ২০১৮ সালে সারা বিশ্বে মোট বিজ্ঞাপনী খরচ বাড়বে ২৩০০ কোটি মার্কিন ডলার বা ৪.৩ শতাংশ, বলা হয়েছে ফিনান্সিয়াল টাইমস-এর প্রতিবেদনে।
গ্রুপএম-এর পরিচালক অ্যাডাম স্মিথ বলেন, “এই বৃদ্ধির বেশির ভাগের মূলে রয়েছে ডিজিটাল অ্যাকাউন্ট এবং তার মানে হলো গুগল ও ফেইসবুক।”
গ্রুপএম আরও জানায়, চীন বাদে অন্যান্য দেশে ২০১৭ সালে ডিজিটাল বিজ্ঞাপনে মোট ১০ হাজার কোটি মার্কিন ডলার খরচ হবে। আর এই খাতের আয়ে আধিপত্য থাকবে গুগল ও ফেইসবুকের। এই খাতে ‘ডিজিটাল ডুয়োপলি’ তৈরি করেছে মার্কিন প্রযুক্তি প্রতিষ্ঠান দু’টি।
স্মিথ বলেন, “যে পরিমাণ খরচ করা হচ্ছে তার সামান্যই নিচ্ছে ‘এডিটোরিয়াল মিডিয়া’। অন্যান্য ডিজিটাল প্লাটফর্ম ও প্রকাশকের থেকে গুগল এবং ফেইসবুক অনেক বেশি অংশ নিচ্ছে। এখানে ‘মার্কেট প্লুরালিটি’ সমস্যা তৈরি করছে।”
“প্রতিযোগিতা এই সমস্যার সমাধান হতে পারে এবং সম্ভবত সে প্রতিযোগী হচ্ছে অ্যামাজন,” যোগ করেন স্মিথ।
অ্যামাজনের কাছে বিপুল পরিমাণে তথ্য রয়েছে। গ্রাহকরা নির্দিষ্ট পণ্য বিষয়ে তথ্য খুঁজতে তাদের সার্চ ইঞ্জিন ব্যবহার করে। ধীরে ধীরে লাইভ টেলিভিশন ব্যবসায়ও প্রবেশ করেছে মার্কিন ই-কমার্স জায়ান্ট প্রতিষ্ঠানটি।
বাজার গবেষণা প্রতিষ্ঠান ইমার্কেটার-এর তথ্যানুসারে, চলতি বছর ডিজিটাল বিজ্ঞাপন থেকে ২০০ কোটি মার্কিন ডলার আয় করবে অ্যামাজন।
চলতি বছর ডিজিটাল বিজ্ঞাপনে কিছুটা ক্ষতিও হয়েছে ফেইসবুক ও গুগলের। নিজেদের প্লাটফর্মে বিতর্কিত কনটেন্ট প্রচার করায় সমালোচনার কারণে এই ক্ষতির মুখে পড়েছে প্রতিষ্ঠান দু’টি।
শিশুদের নিয়ে ভিডিওতে বিজ্ঞাপন প্রকাশ করায় চলতি বছর ইউটিউব ও গুগল থেকে বিজ্ঞাপন সরিয়ে নিয়েছে ডিয়েগো, মার্স, এইচপি, ডয়চে ব্যাংক ও মনডেলেজ। এছাড়া চমপন্থী কনটেন্ট-এর সঙ্গে বিজ্ঞাপন প্রকাশ করায় ইউটিউব থেকে বিজ্ঞাপন সরিয়ে নিয়েছে ব্র্যান্ডগুলো।
ফেইসবুক প্লাটফর্মে রাশিয়ান বিজ্ঞাপন প্রচার করায়ও সমালোচনা হয়েছে। ২০১৬ সালের মার্কিন প্রেসিডেন্ট নির্বাচনে এটি প্রভাব ফেলেছে বলে উল্লেখ করা হয়। পরবর্তীতে ফ্রান্স ও জার্মানি অভিযোগ করে তাদের নির্বাচনকেও লক্ষ্য করা হয়েছে।
২০১৭ সালে টেলিভিশন বিজ্ঞাপনে খরচ ০.৪ শতাংশ বাড়বে বলে ধারণা করছে গ্রুপএম। আর ২০১৮ সালে খরচ বাড়বে ২.২ শতাংশ।
অন্যদিকে ২০১৭ সালে ডিজিটাল বিজ্ঞাপনে বিনিয়োগ বাড়বে ১১.৫ শতাংশ। আর ২০১৮ সালে  এই খাতে বৃদ্ধি হবে ১১.৩ শতাংশ।
