এই উপাদান ভেজা আঙ্গুল বা পানির নিচেও ব্যবহার করা যাবে বলে দাবি নির্মাতাদের। সেইসঙ্গে এটি হৃদস্পন্দন মাপতেও ব্যবহার করা যেতে পারে। এই সেন্সর নির্মাণের ফলে অ্যান্ড্রয়েড ডিভাইস নির্মাতাদের জন্য আরও পাতলা ডিজাইনের ডিভাইস তৈরির পথ খুলে গেল, বলা হয়েছে বিবিসি’র প্রতিবেদনে। 
অন্যদিকে এক বিশেষজ্ঞের মতে, অ্যাপল এখনও স্ক্রিনের সঙ্গে সমন্বয় করতে পারে এমন নিজস্ব সেন্সর দিয়ে কোয়ালকম-কে হারিয়ে দিতে পারে।
কোনো কোড টাইপ ছাড়াই ডিভাইস আনলক করতে ফিঙ্গারপ্রিন্ট সেন্সর ব্যবহৃত হয়, সেই সঙ্গে লেনদেনের অনুমোদন দিতে ও পরিচয় শনাক্ত করতেও এর ব্যবহার রয়েছে। এখন পর্যন্ত এই সেন্সর টাচস্ক্রিনের পাশে বা ডিভাইসে পেছনে বসানো হতো।
চীনের সাংহাইয়ে মোবাইল ওয়ার্ল্ড কংগ্রেস-এ এই উদ্ভাবন উন্মোচন করে কোয়ালকম। এর এই সেন্সর আল্ট্রাসনিক শব্দতরঙ্গ নিঃসরণের মাধ্যমে কাজ করে। এই শব্দতরঙ্গ আঙ্গুলে থাকা ভাঁজগুলোতে কোথায় ধাক্কা খেয়ে প্রতিফলিত হয়ে সেন্সরে ফিরছে তার উপর ভিত্তি করে আঙ্গুলের ছাপ শনাক্ত করবে সেন্সরটি।
এই সেন্সরের একটি প্রাথমিক সংস্করণ মি৫ নামের স্মার্টফোনের নিচের অংশে একটি কাচের ফ্রেমের নিচে ব্যবহার করেছিল স্মার্টফোন নির্মাতা চীনা প্রতিষ্ঠান শিয়াওমি।
এই সেন্সর শুধুই ওএলইডি ডিসপ্লে’র সঙ্গে কাজ করবে। এটি ব্যবহারের জন্য স্মার্টফোনের স্ক্রিনের গ্লাস ০.৮ মিলিমিটারের বেশি পুরু হওয়া যাবে না। উৎপাদনকারীরা ২০১৭ সালের শেষে বা ২০১৮ সালের শুরুর আগ পর্যন্ত বেশি পরিমাণে এই সেন্সর অর্ডার করতে পারবেন না।
স্যামসাংয়ের সর্বশেষ ফ্ল্যাগশিপ স্মার্টফোন গ্যালাক্সি এস৮-এ প্রতিষ্ঠানটির নিজস্ব এমন একটি ফিচার আনার গুঞ্জন শোনা গেলেও পরবর্তীতে এমন কিছু দেখা যায়নি। 
