ফেইসবুক মালিকানাধীন মেসেজিং সার্ভিস হোয়াটসঅ্যাপ অগাস্ট মাসে নিজেদের নিরাপত্তা নীতিতে পরিবর্তন আনে। প্রতিষ্ঠানটি ফেইসবুকের সঙ্গে ডেটা শেয়ার করে ও ব্যবসায়ীদের বিজ্ঞাপণের লক্ষ্য নির্ধারণে সুযোগ করে দেয়। এর ফলে বিনামূল্যে মেসেজিং সেবা দেওয়া হোয়াটসঅ্যাপ আয় করা শুরু করে। ১৯ বছর বয়সী কার্মানইয়া সিং সারিন এবং ২২ বছর বয়সী স্রেভা শেঠি জনসাধারণের আগ্রহে একটি মামলা দায় করেন, যেখানে এই নীতির পরিবর্তনে অনুরোধ ও এর ব্যবস্থা এবং আপডেটের মাধ্যমে ‘রোলব্যাক’ (ডেটাশূন্য করা) -এর দাবি করা হয়।
হোয়াটসঅ্যাপ জানায়, তারা অগাস্ট মাসে নীতি পরিবর্তনের ঘোষণা করেছিল। আইনি মাধ্যমে এই বিষয়ে অভিযোগ করা হয়। দিল্লিতে একটি শুনানিতে হোয়াটসঅ্যাপ জানায়, তাদের ফেইসবুকের সঙ্গে ব্যবহারকারীদের নাম এবং নাম্বার ছাড়া ডেটা শেয়ার করার কোনো প্রবণতা নেই। 
২৫ সেপ্টেম্বর, দিল্লির উচ্চ আদালত এক রায়ে জানায়, হোয়াটসঅ্যাপ-কে যেসব ব্যবহারকারী ওই সেবা বন্ধ করতে চান তাদের সব ডেটা মুছে দিতে হবে।
ফেইসবুকের পূর্বে প্রাইভেসি এবং বিজ্ঞাপন মামলায় অভিযুক্ত হওয়ার নজির রয়েছে। ২০১১ সালে ফেইসবুক এবং ফেডারেল ট্রেড কমিশন (এফটিসি, মার্কিন ভোক্তা অধিকার রক্ষা প্রতিষ্ঠান) একটি চুক্তি হয় যে, ফেইসবুক প্রাইভেসি সম্পর্কিত যে কোনো পরিবর্তন আনার সময় অবশ্যই ব্যবহারকারীদের কাছে অনুমতি নেবে।
হোয়াটসঅ্যাপ এর প্রধান নির্বাহী জ্যান কউম জানান, এই মূহুর্তে হোয়াটসঅ্যাপের নীতিমালার কোনো পরিবর্তন হবে না। সম্প্রতি একটি ব্লগ পোস্টে হোয়াটসঅ্যাপ কর্তৃপক্ষ ব্যবহারকারীদের জানায়, তাদের এনক্রিপটেড মেসেজগুলো প্রাইভেট থাকবে এবং কেউ সেই মেসেজ পড়তে পারবে না। প্রতিষ্ঠানটি বলে, “হোয়াটসঅ্যাপ নয়, ফেইসবুক নয়, কারও কাছেই নয়। আমরা কারও সঙ্গেই হোয়াটসঅ্যাপ-এর নম্বর শেয়ার করিনি, তার মধ্যে ফেইসবুকও অন্তর্ভুক্ত। আমরা এখন পর্যন্ত বিজ্ঞাপনদাতাদের কাছে ফোন নম্বর বিক্রি বা শেয়ার করিনি।”
