বিষয়টির সঙ্গে জড়িত তিন ব্যক্তির বরাত দিয়ে মঙ্গলবার এক প্রতিবেদনে ইকোনমিক টাইমস জানায়, ভারতে পিক্সেল স্মার্টফোনের বিক্রি বাড়াতেই দেশটিতে নিজস্ব স্টোর তৈরির পদক্ষেপ নিয়েছে মার্কিন ওয়েব জায়ান্ট প্রতিষ্ঠানটি।
রয়টার্স-এর প্রতিবেদনে বলা হয়, পিক্সেল ২ স্মার্টফোন দেখাতে সম্প্রতিক সময়ে ভারত জুড়ে শপিং মলগুলোতে বেশ কিছু পপ-আপ স্টোর খুলেছে গুগল। সেখান থেকে ভালো প্রতিক্রিয়া পাওয়ায় দেশটিতে স্টোর খোলার পরিকল্পনা করছে গুগল।
এ বিষয়ে জানতে রয়টার্স-এর পক্ষ থেকে গুগলের সঙ্গে যোগাযোগ করা হলে প্রতিষ্ঠানটি জানায়, গুজব বা অনুমান নিয়ে তারা কোনো মন্তব্য করবে না।
