২৭ আর ৩১.৫ ইঞ্চি, এই দুই ডিসপ্লে’র আকারে আসবে এই মনিটর, দুটো মডেলের রেজুলিউশনই হবে ২৫৬০*১৪৪০। এতে থাকছে ১৭৮-ডিগ্রি ভিউয়িং অ্যাঙ্গল ও ১২৫ শতাংশ এসআরজিবি কাভারেজ। এর কেবলগুলো নিচে আড়ালে থাকবে।
স্যামসাং এখনও নতুন এই মনিটরের রিফ্রেশ রেইট ও রঙ নিয়ে কিছু জানায়নি, বলা হয়েছে প্রযুক্তি সাইট টেকক্রাঞ্চ-এর প্রতিবেদনে। প্রতিষ্ঠানটির ব্যবহার করা কোয়ান্টাম ডট ডিসপ্লে প্রযুক্তি আর ওএলইডি-এর মধ্যে কোনটি বেশি ভালো? এমন কোনো যাচাই ফলাফল এখনও পাওয়া যায়নি বলেও জানিয়েছে সাইটটি।
ওএলইডি-তে ধীরগতির সমস্যা দেখা যেতে পারে। কিন্তু কোয়ান্টাম ডট ডিসপ্লে দ্রুত রঙ পরিবর্তনের সঙ্গে মানিয়ে নিতে পারে। 
এদিকে আরেক প্রতিবেদনে জানা যায়, ৫ জানুয়ারি থেকে যুক্তরাষ্ট্রের লাস ভেগাসে অনুষ্ঠিতব্য সিইএস ২০১৭-তে শূন্যে ভাসমান স্পিকার উন্মোচন করতে যাচ্ছে আরেক দক্ষিণ কোরীয় ইলেকট্রনিক পণ্য নির্মাতা প্রতিষ্ঠান এলজি।
‘পিজে৯’ স্পিকারটি এর ‘লেভিটেশন স্ট্যান্ডের’ মধ্যে থাকা শক্তিশালী চুম্বকের সাহায্যে ভেসে থাকে। একবার পূর্ণ চার্জে এটি ১০ ঘন্টা ভাসমান অবস্থায় মিউজিক বাজাতে পারে।
