ব্রিটিশ ট্যাবলয়েড মিরর জানিয়েছে, এ৩-এর পর্দার মাপ রাখা হয়েছে ৪.৭ ইঞ্চি এবং এ৫-এর পর্দা ৫.২ ইঞ্চি। প্রতিষ্ঠানের ফ্ল্যাগশিপ স্মার্টফোন গ্যালাক্সি এস৭-এর কিছু ফিচার রাখা হয়েছে মাঝামাঝি দামের এই ফোনগুলোতে।
প্রথমাবরের মতো গ্যালাক্সি এ সিরিজের স্মার্টফোনে যুক্ত হয়েছে পানি এবং ধূলা নিরোধী ফিচার। আইপি৬৮ রেটিংয়ের এই স্মার্টফোনগুলো দেড় মিটার পানির নিচে ৩০ মিনিট পর্যন্ত টিকে থাকবে বলে জানানো হয়েছে।  এ ছাড়া গ্যলাক্সি এস৭-এর ‘অলওয়েজ অন ডিসপ্লে’ ফিচার ব্যবহার করা হয়েছে এতে।
বাহ্যিক দিক থেকে আগের ডিভাইসগুলো থেকে বেশি পরিবর্তন আনা হয়নি এই স্মার্টফোন দু’টিতে। ব্ল্যাক স্কাই, গোল্ড স্যান্ড, ব্লু মিস্ট এবং পিচ ক্লাইড এই চার রঙে পাওয়া যাবে এ৩ এবং এ৫।
বরাবরই ক্যামেরার জন্য প্রশংসিত স্যামসাংয়ের স্মার্টফোন। এ৫ ডিভাইসে আগের চেয়ে উন্নত ১৬ মেগাপিক্সেল পেছনের ক্যামেরা ব্যবহার করেছে প্রতিষ্ঠানটি। এই ডিভাইসটির সামনেও রাখা হয়েছে ১৬ মেগাপিক্সেল ক্যামেরা।
নোট ৭ বিপর্যয় কাটিয়ে উঠতে অন্যান্য হার্ডওয়্যারেও মনযোগ দিয়েছে প্রতিষ্ঠানটি। এ৫ ডিভাইসটিতে ৩ জিবি র‍্যাম, ৩২ জিবি স্টোরেজ এবং ফাস্ট চার্জিং ৩০০০ মিলিঅ্যাম্পিয়ার ব্যাটারি রয়েছে।
আর এ৩ ডিভাইসে পেছনে ১৩ মেগাপিক্সেল, সামনে ৮ মেগাপিক্সেল ক্যামেরার পাশাপাশি ২ জিবি র‍্যাম এবং ১৬ জিবি স্টোরেজ রাখা হয়েছে। এছাড়া উভয় ডিভাইসে ফিঙ্গারপ্রিন্ট সেন্সর এবং ইউএসবি টাইপ সি ব্যবহার করা হয়েছে।
