বেনিয়ফ ফিনান্সিয়াল টাইমস কে জানান, তার প্রতিষ্ঠান টুইটার কেনার যে কোনো ধরনের 'সম্ভাব্য চুক্তি' থেকে 'সরে গিয়েছে'।
এর আগে গুগল, মাইক্রোসফট আর ওয়াল্ট ডিজনি শুরুতে টুইটারের জন্য নিলামে অংশ নেবে বললেও পরে তারাও নিলাম থেকে সরে আসে।
ক্লাউড সফটওয়্যার প্রতিষ্ঠান সেলসফোর্স ছিল টুইটারের শেষ সম্ভাব্য ক্রেতা, জানিয়েছে বিবিসি।
টুইটারের প্রতি শেয়ারের মূল্য প্রায় সাত শতাংশ কমে প্রায় ১৬.৬০ মার্কিন ডলারে দাঁড়িয়েছে। অন্যদিকে, সেলসফোর্সের শেয়ার প্রতি মূল্য প্রায় ছয় শতাংশ বেড়ে হয়েছে প্রায় ৭৪ মার্কিন ডলার।
টুইটার বিক্রি হচ্ছে এবং এই চুক্তি চলতি বছরের শেষের দিকে সম্পন্ন হতে পারে- সেপ্টেম্বরে এক প্রতিবেদনে এমন খবর প্রকাশের পর টুইটারের শেয়ারমূল্য প্রায় ২০ শতাংশ বেড়ে গিয়েছিল।
