শনিবার চীনের ভিপিএন সেবাদাতারা অ্যাপলের কাছ থেকে একটি বিজ্ঞপ্তি পেয়েছে। এতে বলা হয়, তাদের অ্যাপগুলো অ্যাপ স্টোর থেকে সরিয়ে নেওয়া হবে কারণ “এগুলো এমন কনটেন্ট রয়েছে যেগুলো চীনে অবৈধ।” -খবর আইএএনএস-এর।
এই বিজ্ঞপ্তি সবার আগে ভিপিএন সেবাদাতা চীনা প্রতিষ্ঠান এক্সপ্রেস ভিপিএন শেয়ার করে। প্রতিষ্ঠানটি তাদের এক ব্লগ পোস্টে বলে, “এটি এখন পর্যন্ত ভিপিএন ব্যবহার বন্ধে চীনা সরকারের নেওয়া সবচেয়ে কঠোর পদক্ষেপ, আমরা এতে হতাশ। অ্যাপল চীনের সেন্সরশিপ চেষ্টায় সহায়তা করছে দেখে আমরা ক্ষুদ্ধ।”
চীনের বাইরের ঠিকানা থেকে যারা অ্যাপ স্টোর ব্যবহার করছেন তারা অ্যাপগুলো অ্যাকসেসে কোনো সমস্যার মুখোমুখি হবেন না।
ইন্টারনেট সেন্সরশিপের অংশ হিসেবে চলতি বছর এপ্রিল থেকে জুনের মধ্যে মোট ৩৯১৮টি ‘অবৈধ’ ওয়েবসাইট বন্ধ করে দিয়েছে চীনা ইন্টারনেট পর্যবেক্ষক সংস্থা।
