বৃহস্পতিবার এক্স এক ঘোষণায় জানায়, তাদের ইন্টারনেট বেলুন প্রকল্প প্রজেক্ট লুন-এ নতুন নেভিগেশন অ্যালগরিদম আনা হয়েছে, যার মাধ্যমে প্রয়োজনে বেলুনগুলো একত্রিত হয়ে কোনো নির্দিষ্ট এলাকায় ইন্টারনেট সরবরাহে নজর দিতে পারবে। আগের পরিকল্পনায় বিশ্বব্যাপী লুন বেলুনগুলো ছড়িয়ে দেওয়ার পরিকল্পনা ছিল, যাতে একটি সরে গেলে আরেকটি এসে জায়গা নিতে পারবে। 
এবার এতে মেশিন লার্নিং প্রযুক্তি ব্যবহৃত নতুন অ্যালগরিদম দিয়েছে এক্স। এই অ্যালগরিদম বেলুনগুলোকে কোনো স্থানে একত্রিত হতে নির্দেশনা দেবে। এ ক্ষেত্রে বায়ুর গতি তথ্য ও অন্যান্য বিষয়ের সুবিধা নেওয়া হবে।
এই আপগ্রেড সত্ত্বেও, বাণিজ্যিকভাবে প্রজেক্ট লুন চালু হতে আরও কয়েক বছর লেগে যাবে।
