রেডমন্ডে নিজেদের প্রধান কার্যালয়ে প্রুযুক্তি সমৃদ্ধ ‘ট্রিহাউস’ বানিয়েছে প্রতিষ্ঠানটি। এই ট্রিহাউসগুলো বৈঠকের জায়গা হিসেবে ব্যবহৃত হবে। এগুলোর মাধ্যমে আরও অনানুষ্ঠানিক কর্ম পরিবেশের ব্যবস্থা করা হবে বলে মার্কিন সংবাদমাধ্যম সিএনবিসি’র প্রতিবেদনে উল্লেখ করা হয়েছে।
মাটি থেকে ১২ ফুট উচ্চতার এই ট্রিহাউসগুলোতে ব্যবহার করা হয়েছে পোড়া কাঠের দেওয়াল, ছাদে রাখা হয়েছে জানালা, অন্তত একটি করে গ্যাসচালিত ফায়ারপ্লেইস, ওয়াইফাই আর লুকানো ইলেকট্রিক্যাল আউটলেট। সেই সঙ্গে থাকছে ক্যাফেটেরিয়া, যেখানে কর্মীরা চাইলে গিয়ে খেয়ে আসতে পারবেন।
টিভি অনুষ্ঠান ‘ট্রিহাউস মাস্টার্স’-এর পিট নেলসন-এই ট্রিহাউসগুলোর নকশা করেছেন। 
মাইক্রোসফট-এর পক্ষ থেকে বলা হয়, “মাইক্রোসফটের অনন্য কিছু উপকরণ আছে যা বড় মেট্রোপলিটন শহরগুলোর অধিকাংশ প্রতিষ্ঠানের নেই। যেমন, কাঠ দিয়ে বানানো পাঁচশ একর জমির উপর একটি কার্যালয়, যার সঙ্গে রয়েছে প্রচুর সবুজ পরিবেশ আর বন্যজীবনের ছোঁয়া।”
