কোনো ওয়েবসাইটের সেবায় বিভ্রাট দেখা দিলে তা নিয়ে তথ্য প্রকাশকারী সাইট ডাউন ডিটেকটর-এর সূত্রমতে, হাজার হাজার ব্যবহারকারী স্ন্যাপ পাঠানো, স্ন্যাপ পাওয়া, লগইন করা আর সংযোগ পাওয়া নিয়ে সোমবার অভিযোগ করেছেন।
মঙ্গলবার নিজেদের টুইটার অ্যাকাউন্টে স্ন্যাপচ্যাটের পক্ষ থেকে এই কারিগরি ত্রুটির কথা স্বীকার করা হয়েছে। ওই টুইটে বলা হয়, প্রতিষ্ঠানটি এই বিষয় সম্পর্কে অবগত আর তারা এটি খতিয়ে দেখছে।  
অনেক ব্যবহারকারী এই সমস্যার মুখোমুখি হয়ে টুইটারে তাদের হতাশা প্রকাশ করেছেন।
একজন ব্যবহারকারী বলেন, “স্ন্যাপচ্যাট বিকল হয়ে গেছে। আমি সত্যিই হাজারো প্রজন্মের ব্যাথা অনুভব করছি।”
