নিজেদের সবচেয়ে বড় এই চুক্তি নিয়ে সামনে ইইউ-এর অ্যান্টিট্রাস্ট অনুমোদন পেতে মাইক্রোসফট চেষ্টা চালাবে বলে ধারণা করা হচ্ছে, জানিয়েছে রয়টার্স।
লিংকডইন কেনার দৌড়ে হেরে যাওয়া সেলসফোর্স ইইউ-এর বাজার প্রতিযোগিতাবিষয়ক কর্তৃপক্ষের কাছে আবেদন জানিয়েছে তারা যাতে এই চুক্তি সাধারণভাবে যাচাই করে দেখে। এই চুক্তি উদ্ভাবন আর প্রতিযোগিতার জন্য হুমকি বলেও অভিযোগ প্রতিষ্ঠানটির।
এক বিবৃতিতে সেলসফোর্স-এর প্রধান আইন কর্মকর্তা বোর্ক নর্টন বলেন, "লিংকডইন-এর অধীনস্থ দুইশ'রও বেশি দেশে থাকা ৪৫ কোটিরও বেশি পেশাদারের অনন্য ডেটাসেটের মালিকানা নেওয়ার মাধ্যমে মাইক্রোসফট প্রতিযোগীদের এই ডেটায় অ্যাকসেস নেওয়া থেকে বিরত করতে পারে, আর এর মাধ্যমে একটি অন্যায্য প্রতিযোগিতামূলক সুবিধা পাবে।" 
"সেলসফোর্স বিশ্বাস করে এটি উল্লেখযোগ্যভাবে অ্যান্টিট্রাস্ট ও ডেটা প্রাইভেসির বিষয় তুলে ধরে, আর তা মার্কিন যুক্তরাষ্ট্র ও ইউরোপিয়ান ইউনিয়নের প্রতিযোগিতা ও ডেটা প্রাইভেসি কর্তৃপক্ষের পুরো নজরদারির মধ্য দিয়ে হওয়া উচিৎ", যোগ করেন তিনি।
