যদিও সামাজিক যোগাযোগ মাধ্যম সাইটটি এই ধরনের কোনো সফটওয়্যারের অস্তিত্বকেই অস্বীকার করছে, কিন্তু সেই সঙ্গে এক বিবৃতিতে প্রতিষ্ঠানটি জানিয়েছে, তারা চীন সম্পর্কে আরও বোঝার এবং শেখার জন্য জন্য সময় ব্যয় করছে। দেশটিতে প্রতিষ্ঠানটির পদ্ধতি পরিবর্তনের কোনো সিদ্ধান্ত এখন পর্যন্ত নেওয়া হয়নি বলেও জানিয়েছেন এক মুখপাত্র।
অনলাইনের উন্নত গোপনীয়তা সেবার প্রচারাভিযান নিয়ে কাজ করা দল ‘দ্য ইলেকট্রনিক ফ্রন্টিয়ার ফাউন্ডেশন’ (ইএফএফ) এই সংবাদকে উদ্বেগজনক বলে আখ্যায়িত করেছে বলে জানিয়েছে বিবিসি। একইসঙ্গে যারা এই সংবাদটি গণমাধ্যমের সামনে আনার পদক্ষেপ নিয়েছে ফেইসবুকের সেই কর্মীদের সাধুবাদও জানিয়েছে ইএফএফ-এর বৈশ্বিক নীতি বিশ্লেষক ইভা গালপেরিন। “এটি জেনে ভালো লাগছে যে এখনও কিছু নীতিবোধ সম্পন্ন  মানুষ সেখানে কাজ করে”-যোগ করেন তিনি।
২০০৯ সাল থেকেই চীনে শুধু ভিপিএন বা ভার্চুয়াল প্রাইভেট নেটওয়ার্ক-এর মাধ্যমে ফেইসবুক ব্যবহার করা হচ্ছে। ১৮০ কোটি সক্রিয় ব্যবহারকারী নিয়ে ফেইসবুক যেখানে বিশ্বের অন্যান্য অংশে বিস্তৃত হওয়ার চেষ্টায় মগ্ন সেখানে সবচেয়ে জনবহুল দেশে এমন বিধিনিষেধ তাদের জন্য চিন্তার বিষয়। এই সেন্সরশিপ টুল বানানোর পদক্ষেপ তারই অংশ বলে মত অনেকের। ঘটনাটি সত্যি হলে এর মাধ্যমে তারা চীনে তাদের অবস্থান পাকাপোক্ত করতে চাচ্ছে।
