ডিভাইসটি হাতে পাওয়ার পর দক্ষিণ কোরিয়ার অনেক গ্রাহক অভিযোগ জানিয়েছেন তাদের ডিভাইসের পর্দায় লাল আভা দেখা যাচ্ছে, বলা হয়েছে প্রযুক্তিবিষয়ক সাইট সিনেট-এর প্রতিবেদনে।
আগের বছর নোট ৭ বিপর্যয় কাটিয়ে ওঠার প্রত্যাশা নিয়ে চলতি বছরের ২৯ মার্চ গ্যালাক্সি এস৮ এবং এস৮ প্লাস উন্মোচন করে স্যামসাং। আগে থেকেই প্রি-অর্ডার শুরু হলেও ২১ এপ্রিল দক্ষিণ কোরিয়া, যুক্তরাষ্ট্র এবং কানাডা’র বাজারে আসে স্মার্টফোনটি।
এবার ডিভাইসটি হাতে পেয়েই হতাশায় পড়েছেন গ্রাহকরা। তবে, স্যামসাংয়ের পক্ষ থেকে গ্রাহকদের আশ্বস্ত করে বলা হয়, এটি হার্ডওয়্যারের কোনো ত্রুটি নয়। সফটওয়্যার আপডেটের মাধ্যমে এটি ঠিক করা সম্ভব।
শীঘ্রই এই সমস্যা সমাধানে আপডেট আনা হবে বলে জানায় স্যামসাং। তবে, ঠিক কবে নাগাদ এই আপডেট আনা হবে তা জানায়নি প্রতিষ্ঠানটি।
ইতোমধ্যে ত্রুটিপূর্ণ ডিভাইসের ছবি ছড়িয়ে পড়েছে সামাজিক যোগাযোগের মাধ্যমে।
