ডিজিটাল মুদ্রাবিষয়ক সাইট কয়েনডেস্ক-এর মূল্য সূচকের তথ্য অনুযায়ী, শনিবার সকালে প্রতি বিটকয়েনের মূল্য ৫১০৩.৯১ ডলার পর্যন্ত উঠে। রেকর্ড সৃষ্টিকারী এই মূল্য এই ক্রিপ্টোকারেন্সির মোট বাজার মূল্য বাড়াতে সহায়তা করেছে। বর্তমানের সব মিলিয়ে অংকটা এখন ১৭৬০০ কোটি ডলারের বেশি বলেই উল্লেখ করা হয়েছে বিবিসি’র প্রতিবেদনে। 
বিবিসি’র এই প্রতিবেদন প্রকাশের সময় প্রতি বিটকয়েনের মূল্য ৪৪৮৫ ডলারে নেমে এসেছিল।
চলতি বছরের শুরুতে এক বিটকয়েনের দাম এক হাজার ডলারের নিচে ছিল। চলতি বছর জুলাইয়ে কোনো কোনো বাজার পর্যবেক্ষক এর দাম কমে আসবে বলে শংকা প্রকাশ করেছিলেন। কিন্তু এই ভার্চুয়াল মুদ্রার দাম ধীরে হলেও শুধু বেড়েছেই।
