মার্কিন যুক্তরাষ্ট্রের ক্যালিফোর্নিয়া অঙ্গরাজ্যে অনুষ্ঠিত প্রযুক্তি সম্মেলনে মার্ক জাকারবার্গ জানান, ফেইসবুককে দায়ী করা উচিত নয়।
জাকারবার্গ বলেন, ‘"মিথ্যা খবরের মাধ্যমে ফেইসবুক নির্বাচনে প্রভাব ফেলেছে, যে কোনোভাবেই এই ভাবনাটি একটি উদ্ভট ভাবনা।"
তিনি আরও বলেন, “যদি আপনারা এটি বিশ্বাস করেন, তবে আমার মনে হয় না যে, নির্বাচন প্রচারে ট্রাম্প সমর্থকরা যে সকল বার্তা পাঠিয়েছিল তা অভ্যন্তরীণভাবে আপনারা দেখেছেন।”
কিছু ডেটার মাধ্যমে দেখানো হয়েছে যে, মিথ্যা খবর যে পরিমাণে প্রচার করা হয়েছে তার তুলনায় ফলোআপ স্টোরি (ভোক্তার ব্যবহারের রুচির উপর ভিত্তি করে প্রচার করা খবর) অনেক বেশি।
ফেইসবুকের মাধ্যমে সংবাদ প্রকাশে ভোক্তা বাড়ছে সাইটটির। বিশেষভাবে মার্কিন যুক্তরাষ্ট্রে, ফেইসবুক সংবাদ প্রচারণার জন্য একটি প্রাথমিক স্থান হিসেবে বিবেচিত হচ্ছে।
