এ বিষয়ে ওয়াল স্ট্রিট জার্নাল-এর প্রতিবেদনে বলা হয়, শেয়ার বাজারে স্ন্যাপ-এর প্রাথমিক অফার হবে ১৯৫০ কোটি থেকে ২২২০ কোটি মার্কিন ডলার, যা প্রত্যাশার তুলনায় কম। এর আগে ধারণা করা হয়েছিল প্রতিষ্ঠানটির প্রাথমিক অফার হবে দুই থেকে আড়াই হাজার কোটি মার্কিন ডলার।
স্ন্যাপ-এর এই মূল্য সীমা অনুযায়ী প্রতিষ্ঠানটির প্রতি শেয়ারের মূল্য হবে ১৪ থেকে ১৬ মার্কিন ডলার। চলতি বছরের ফেব্রুয়ারির শুরুতে আপিও নিবন্ধনের নথি জমা দেয় স্ন্যাপ। ধারণা করা হয়েছিল ফেইসবুক-এর পর এটি হবে শেয়ার বাজারের সবচেয়ে বেশি মূল্যের প্রযুক্তি প্রতিষ্ঠানের আইপিও।
আগের বছর শেষ দিকে আত্মবিশ্বাসের সঙ্গেই মার্কিন সিকিউরিটিস অ্যান্ড এক্সচেঞ্জ কমিশন-এ আইপিও অনুমোদন পেতে নিবন্ধন করে স্ন্যাপ।
২০১২ সালে প্রথমবারের মতো চালু হয় স্ন্যাপচ্যাট। এতে ছবি পাঠানো হলে তা কয়েক সেকেন্ডের মধ্যে গায়েব হয়ে যায়। এখন টুইটার এবং ফেইসবুকের সঙ্গে পাল্লা দিয়ে এগোচ্ছে অ্যাপটি।
