ব্যক্তিগত জীবন নিয়ে বলতে গিয়ে ৬০ বছর বয়সী এই ধনকুবের জানান, বিশ্বের দরিদ্রতম মানুষদের সহায়তায় অর্থদানের এই সিদ্ধান্তে সন্তানরা তাকে নিয়ে গর্বিত। তিনি বলেন, কোটি ডলার দিয়ে যাওয়ার বদলে তিনি তার সন্তানদেরকে নিজেদের ক্যারিয়ার গুছিয়ে নিতে 'উপযোগী শিক্ষা' দিচ্ছেন। সেই সঙ্গে তিনি তাদের আর্থিক নিরাপত্তার বিষয়টিও নিশ্চিত করে রেখেছেন জানিয়ে বলেন, "তারা কখনোই খুব বাজে অবস্থার সম্মুখীন হবে না।"
সোমবার এক সাক্ষাৎকারে গেটস বলেন, "আমাদের সন্তানদেরকে আমরা ভালো শিক্ষা দিয়েছি। তাদের জন্য কিছু অর্থও জমানো আছে। তাই তাদেরকে কখনোই খুব বেশি খারাপ অবস্থার মুখোমুখি হতে হবে না। তারা স্বচ্ছন্দে তাদের ক্যারিয়ার গড়ে নিতে পারবে।"
"বাচ্চাদের ভবিষ্যতের জন্য অনেক ধন-সম্পদ রেখে যাওয়া তাদের জন্য মোটেও উপকারি কিছু হতে পারে না। এটি নিজের মতো পথ চলতে তাদের জন্য প্রতিবন্ধকতা সৃষ্টি করে।"
বিল গেটস আর তার স্ত্রী মেলিন্ডা'র তিন সন্তান- জেনিফার (২০), রোরি (১৭) আর ফোবি (১৪)। জেনিফার ক্যালিফোর্নিয়ায় স্ট্যানফোর্ড ইউনিভার্সিটি-এর দ্বিতীয় বর্ষে পড়াশোনা করছেন। এই বিশ্ববিদ্যালয়ে তার বাবা নিজের নামে কম্পিউটার বিজ্ঞান ভবনের জন্য প্রায় ৫০ লাখ পাউন্ড নির্মাণ খরচ দেন। তা ছাড়াও, জাতীয় পর্যায়ে অশ্বারোহণ প্রতিযোগিতায়ও দক্ষতার পরিচয় দিয়েছেন তিনি।
রোরি আর ফোবি স্কুল শিক্ষার্থী। তারা ওয়াশিংটনের সিয়াটলে তাদের বাবা-মার সঙ্গে থাকছেন।
