২৯ মার্চ উন্মোচনের কথা রয়েছে স্যামসাংয়ের নতুন ফ্ল্যাগশিপ ফোন গ্যালাক্সি এস৮। এই ফোনটির মাধ্যমেই উন্মোচন করা হতে পারে বিক্সবি, জানিয়েছে সিএনএন।
স্যামসাংয়ের গবেষণা ও উন্নয়ন প্রধান ইনজং রি এক ব্লগ পোস্টে জানান, নতুন গ্যালাক্সি এস৮-এ বিক্সবি যোগ করা হবে। গ্যালাক্সি নোট ৭ বিপর্যয়ের পর নতুন এ ডিভাইসটি দিয়ে আবারও গ্রাহকের মন জয় করতে চাচ্ছে স্যামসাং।
ভয়েস অ্যাসিস্টেন্ট সেবায় বর্তমানে শীর্ষস্থানে রয়েছে অ্যাপলের সিরি। সিরি ছাড়াও অ্যামাজনের অ্যালেক্সা, মাইক্রোসফটের কর্টানা ও গুগলের গুগল অ্যাসিস্টেন্ট প্রতিযোগিতায় এগিয়ে রয়েছে। নতুন বিক্সবি দিয়ে এই সেবাগুলোকেই টেক্কা দিতে যাচ্ছে স্যামসাং।
স্যামসাং দাবী করছে, “অন্যান্য ভয়েস অ্যাসিস্টেন্ট সেবার থেকে বিক্সবি মৌলিকভাবে আলাদা।”
বিভিন্ন ভাষায় কাজ করতে পারে বর্তমানের ভয়েস অ্যাসিস্টেন্ট সেবাগুলো। সম্প্রতি সিরি-কে চীনা শাংহাইনিজ শেখানোর কথা জানিয়েছে অ্যাপল। বর্তমানে ৩৬টি দেশে ব্যবহৃত ২১টি ভাষা জানে সিরি। সিরির পরেই ১৩টি দেশে ব্যবহৃত আটটি ভাষা জানে মাইক্রোসফটের কর্টানা।
