ইইউ’এর কম্পিটিশন কমিশন-এর পক্ষ থেকে বলা হয়, কোয়ালকম ‘প্রতিদ্বন্দ্বীদের বাজারে প্রতিযোগিতা করতে বাধা দিয়েছে।”
এই জরিমানার বিরুদ্ধে কোয়ালকম আপিল করবে বলে বিবিসি’র প্রতিবেদনে উল্লেখ করা হয়।
কম্পিটিশন কমিশনার মারগ্রেথ ভেসটেগার বলেন, কোয়ালকম পাঁচ বছরেরও বেশি সময় ধরে বাজারে “অবৈধভাবে প্রতিদ্বন্দ্বীদের থামিয়ে রেখেছে।” তিনি বলেন, অ্যাপল যাতে তাদের আইফোন আর আইপ্যাডে বিশেষভাবে কোয়ালকম-এর প্রযুক্তি ব্যবহার করে সেজন্য চিপ নির্মাতা প্রতিষ্ঠানটি আইফোন নির্মাতাদের শত শত কোটি ডলার দিয়েছে। এর ফলে কোনো প্রতিদ্বন্দ্বী বাজারে কোয়ালকম-এর সঙ্গে পাল্লা দিতে পারেনি, “তাদের পণ্য যত ভালোই হোক না কেন”- যোগ করেন তিনি।
ভেস্টেগার বলেন, কোয়ালকম-এর এমন আচরণ “ভোক্তাদের আর অন্যান্য প্রতিষ্ঠানগুলোকে আরও পছন্দ এবং উদ্ভাবন থেকে দূরে রেখেছে।”
এক বিবৃতিতে কোয়ালকম-এর পক্ষ থেকে বলা হয়, তারা এই সিদ্ধান্তের তীব্র বিরোধিতা করে। এ নিয়ে দ্রুতই তারা ইউরোপিয়ান ইউনিয়ন-এর জেনারেল কোর্টে আপিল করবে।
২০১৭ সালের জানুয়ারিতে মার্কিন নীতিনির্ধারকরা দাবি করেন, কোয়ালকম অ্যাপলকে কম অর্থে তাদের পণ্য বিশেষভাবে ব্যবহার করতে চাপ দিয়েছে।
এই অভিযোগের বিস্তারিত মার্কিন প্রতিযোগিতা পর্যবেক্ষণ সংস্থা ফেডারেল ট্রেড কমিশন কোয়ালকম-এর বিরুদ্ধে মামলার অংশ হিসেবে নথিভুক্ত করে রেখেছে। এই মামলায় ‘ত্রুটি’ রয়েছে আখ্যা দিয়ে কোয়ালকম এই অভিযোগগুলো অস্বীকার করেছে।
