মার্কিন শেয়ারবাজার নিয়ন্ত্রক সংস্থা এসইসি’র নথি থেকে জানা যায়, স্ন্যাপ-এর প্রতিটি শেয়ারের মূল্য ১৪ থেকে ১৬ ডলার হতে পারে। এ ক্ষেত্রে যে পরিমাণ শেয়ার ছাড়া হচ্ছে সে হিসাবে প্রতিষ্ঠানটির বাজারমূল্য হবে প্রায় ১৮০০ কোটি ডলার, এই মূল্য ২২০০ কোটি ডলারও স্পর্শ করতে পারে বলে জানিয়েছে মার্কিন সংবাদমাধ্যম সিএনবিসি।
যদিও বাজারে যাত্রা শুরুর পর দ্রুত প্রতি শেয়ারের দাম বদলে যাবে, তারপরও প্রতি শেয়ার মূল্য ১৬ ডলার করে ধরা হলে স্ন্যাপ-এর শীর্ষস্থানীয়রা কে কত ডলার মূল্যের শেয়ারের মালিক হবেন তার তালিকা-
সহ-প্রতিষ্ঠাতা ও প্রধান নির্বাহী ইভান স্পিগেল- ৪২২ কোটি ডলার।
সহ-প্রতিষ্ঠাতা ও প্রধান প্রযুক্তি কর্মকর্তা ববি মারফি- ৩৬৩ কোটি ডলার।
প্রকৌশলবিষয়ক ভাইস প্রেসিডেন্ট টিম সেন- ১০.৮ কোটি ডলার।
প্রধান কৌশলবিষয়ক কর্মকর্তা- সাড়ে চার লাখ ডলার।
