পনজি স্কিপ একটি বিনিয়োগবিষয়ক জালিয়াতি। এতে কম ঝুঁকিতে বিনিয়োগকারীদের উচ্চ হারে লাভ দেওয়ার আশা দেখানো হয়। আর যারা আগে বিনিয়োগ করেন তাদের, পরবর্তীকালের বিনিয়োগকারীদের বিনিয়োগ থেকে লাভ দেওয়া হয়। এভাবে যতদিন নতুন বিনিয়োগ আসে এই পদ্ধতি চলতে থাকে, আর যখন নতুন বিনিয়োগ বন্ধ হয়ে যায় পুরো ব্যবস্থাই ধ্বসে পড়ে। বাংলাদেশেসহ বিভিন্ন দেশে এটি এমএলএম বা মাল্টি লেভেল মার্কেটিং নামে পরিচিত। 
বিবিসি জানায়, টেক্সাস অধিবাসী ট্রেন্ডন শেভারস ২০১১-১২ সালে বিভিন্ন মুদ্রায় বিটকয়েন ব্যবসায় সাপ্তাহিক সাত শতাংশ হারে মুনাফা প্রদানের আশ্বাস দিয়ে বিনিয়োগকারীদের কাছ থেকে অর্থ সংগ্রহ করেন। একটা সময় এই অর্থ আত্মসাৎ করেন তিনি। ২০১৪ সালে তাকে যখন আটক করা হয়, তখন তিনি ৭,৬৪,০০০টি বিটকয়েনের মালিক। এর তৎকালীন মূল্য প্রায় ৪৫ লাখ ডলারের সমতুল্য। তবে এ বিটকয়েনের অংশবিশেষই শুধু ব্যবসায় বিনিয়োগ করেন তিনি, বাকি অংশ এ পরিকল্পনায় প্রাথমিক বিনিয়োগকারীদের অর্থ ফেরত দিতে এবং নিজ প্রয়োজনে ব্যবহার করেন।
আদালতের বিবৃতি অনুসারে, শেভারস একটি বিএমডব্লিউ কেনা, লাস ভেগাসে ছুটি কাটানো এবং পারিবারিক খরচ মেটাতে মোট ২,২০,০০০ ডলারেরও বেশি অর্থ ব্যয় করেন।
শেভারস-এর আইনজীবীরা জানান, এ ব্যবসায় বিনিয়োগকারীরা মোট ১২ লাখ ডলারেরও বেশি আর্থিক ক্ষতির শিকার হন। আদালতের পক্ষ থেকে শেভারসকে এ অর্থ বিনিয়োগকারীদের ফেরত দিতে আদেশ দেওয়া হয়েছে।
শেভারস তার পূর্ববর্তী কর্মকাণ্ডের জন্য আদালতে অনুতাপ প্রকাশ করে বলেন, "আমার মনে হয় না আমি কখনও এ ব্যাপারটি পেছনে ফেলে যেতে পারব, তবে আমি সবকিছু ঠিকঠাক করতে চেষ্টা করব।"
