স্পেনের রাজধানী বার্সেলোনায় বিশ্বের সবচেয়ে বড় মোবাইল ফোন প্রদর্শনী মোবাইল ওয়ার্ল্ড কংগ্রেস (এমডাব্লিউসি)-এ ১০.৬ ইঞ্চি স্ক্রিনের গ্যালাক্সি ট্যাব এস৩ ও ১২.০ ইঞ্চি স্ক্রিনের গ্যালাক্সি বুক মডেল দুটি উপস্থাপন করা হয়। মূলত স্যামসাং তার পরবর্তী প্রধান ডিভাইস গ্যালাক্সি এস৮ এর উপস্থাপনা স্থগিত করে এই ট্যাবলেট দুটি সকলের সামনে উপস্থাপন করে বলে জানিয়েছে রয়টার্স।   
গ্যালাক্সি বুক-এ ব্যবহার করা হয়েছে মাইক্রোসফট উইন্ডোজ ১০ অপারেটিং সিস্টেম। ট্যাব এস৩-তে প্রথমবারের মতো হারমান মালিকানাধীন একেজে’র স্পিকার ব্যবহৃত হয়েছে, যা ২০১৬ সালে ৮০০ কোটি ডলারের বিনিময়ে কেনে স্যামসাং।
বাজার গবেষণা প্রতিষ্ঠান স্ট্র্যাটেজি অ্যানালিটিক্স এর তথ্য অনুযায়ী ২০১৬ সালের শেষ প্রান্তিকে স্মার্টফোন বাজারে স্যামসাংয়ের শেয়ার ১৭.৭ শতাংশ হ্রাস পেয়েছে, যেখানে অ্যাপলের শেয়ার বেড়েছে ১৭.৮ শতাংশ।
