এক ইমেইলে রুবিন সম্ভাব্য গ্রাহকদের উদ্দেশ্যে বলেন, “সামনের কয়েক সপ্তাহের” মধ্যে এই ফোন বাজারে ছাড়া হবে। তিনি বলেন, এসেনশিয়াল ফোন এখন মার্কিন ও আন্তর্জাতিক ক্যারিয়ারগুলোর পরীক্ষাধীন আছে। তার দল এই ডিভাইসের চালান শুরু করার লক্ষ্যে ‘টানা লম্বা সময় ধরে কাজ করছে’ বলে খবর দিয়েছে মার্কিন সাইট ভার্জ।
২০১৪ সালে গুগল ছাড়েন আন্ড্রয়েড জনক। প্লেগ্রাউন্ড নামের প্রযুক্তি প্রতিষ্ঠান তৈরির লক্ষ্যেই গুগল ছাড়েন তিনি। এই প্রতিষ্ঠানেরই অর্থায়নে গঠিত প্রতিষ্ঠানগুলোর একটি এসেনশিয়াল। এরপর এখান থেকেই ‘এসেনশিয়াল ফোন’ নামে নতুন স্মার্টফোন উন্মোচন করবেন বলে ঘোষণা দেন তিনি।
বর্তমান বাজারের প্রিমিয়াম ক্যাটেগরিতেই বাজারে আসছে এসেনশিয়াল ফোন। এটির দাম বলা হচ্ছে ৬৯৯ মার্কিন ডলার।
স্মার্টফোনটির ক্ষেত্রে সম্পূর্ণ নতুন অপারেটিং সিস্টেম আনার ঝুঁকি নেননি রুবিন। পাশাপাশি বাজারের শীর্ষস্থানীয় প্রতিষ্ঠানগুলোর সঙ্গে প্রতিযোগিতা করতে সবচেয়ে বেশি ক্ষমতার যন্ত্রাংশগুলোই ব্যবহার করা হয়েছে এতে।
কোয়ালকমের স্ন্যাপড্রাগন ৮৩৫ প্রসেসরের সঙ্গে চার জিবি র‍্যাম ব্যবহার করা হয়েছে এসেনশিয়াল ফোনটিতে। আর পেছনে রাখা হয়েছে দুইটি ক্যামেরা।
এসেনশিয়ালের ওয়েবসােইটে ফোনটির সবচেয়ে ব্যতিক্রমী ফিচার হিসেবে দাবী করা হয়েছে এর পর্দাকে। ৫.৭ ইঞ্চির পর্দাটি তিন পাশ প্রায় বেজেলহীন। ওপরের দিকে পর্দার মধ্যেই কিছুটা অংশ কেটে সেখানে ক্যামেরা বসানো হয়েছে। আর নিচের দিকে কিছুটা বেজেল দেখা গেছে। তিন পাশে বেজেল না থাকায় ৫.৭ ইঞ্চি পর্দা হলেও ফোনটির আকার রাখা গেছে ছোট।
মডিউলার প্রযুক্তিও রয়েছে নতুন স্মার্টফোনটিতে। চুম্বকের মাধ্যমে ফোনের পেছনে মডিউলার ডিভাইস যোগ করা যাবে। আপাতত ৩৬০ ডিগ্রি একটি ক্যামেরা মডিউল দেখিয়েছে প্রতিষ্ঠানটি।
ধাতু ও গ্লাসের তৈরি এই স্মার্টফোনটিতে অ্যালুমিনিয়ামের পরিবর্তে টাইটেনিয়াম ব্যবহার করা হয়েছে। এতে ফোনটি আরও বেশি মজবুত হবে বলে উল্লেখ করা হয়। ফলে ফোনটিতে বাড়তি কোনো কেইস ব্যবহারের দরকার নেই বলে দাবী করেন রুবিন।
অ্যান্ড্রয়েড অপারেটিং সিস্টেমের ওপর ভিত্তি করেই অ্যাম্বিয়েন্ট ওএস ব্যবহার করা হবে এতে। ডিভাইসটিতে একইসঙ্গে গুগল এবং অ্যামাজনের হোম অ্যাসিস্ট্যান্ট আনা হতে পারে বলেও জানানো হয়।
