অগমেন্টেড রিয়ালিটি প্রযুক্তির এই গেইমটিতে গেইমাররা বিভিন্ন জায়গায় ঘুরে ঘুরে পোকিমন সংগ্রহ করে থাকে। যার ফলে প্রচুর হাঁটতে হয় খেলায়াড়দের। হাঁটার পাশাপাশি শারীরিক পরিশ্রমের কারণে গেইমটি গেইমারদের সুস্বাস্থ্য রক্ষায় গুরুত্বপূর্ণ ভূমিকা পালন করছে বলে, জানিয়েছে ভারতীয় সংবাদ মাধ্যম ইন্দো এশিয়ান নিউজ সার্ভিস (আইএএনএস)।
গেইমস ফোর হেলথ জার্নাল ওয়েবসাইটের একটি নথিতে বলা হয়, "গেইম ডেভেলপাররা এই তথ্যগুলো ব্যবহার করে নতুন গেইম তৈরি করতে পারে, যে গেইমগুলো মজার পাশাপাশি স্বাস্থ্যের উন্নতি ঘটাবে।"
ইতোমধ্যে বেশ কিছু রেকর্ড গড়েছে পোকিমন গো। অ্যান্ড্রয়েড প্লাটফর্মে গেইমটি প্রতিদিন গড়ে ফেইসবুক অ্যাপের তুলনায় দ্বিগুণ ব্যবহৃত হচ্ছে বলা জানানো হয়। আর আইওএস অ্যাপ স্টোরে প্রথম সপ্তাহে সবচেয়ে বেশি ডাউনলোডের রেকর্ড গড়েছে নিনাটেক ল্যাবের তৈরি এই গেইমটি।
