বুধবার নিবন্ধিন ডোমেইনের সংখ্যা প্রকাশ করেছে শীর্ষস্থানীয় ডোমেইন নাম ও ইন্টারনেট সিকিউরিটি প্রতিষ্ঠান ভেরিসাইন। চতুর্থ প্রান্তিকে মোট ডোমেইন নিবন্ধন হয়েছে ১৭ লাখ, বলা হয়েছে আইএএনএস-এর প্রতিবেদনে।
হিসাবে শুধু ‘টপ-লেভেল-ডোমেইনের’ সংখ্যাই জানিয়েছে ভেরিসাইন। এখানে ‘টপ-লেভেল-ডোমেইন’-এর সংখ্যা বলা হয়েছে ৩৩ কোটি ২৪ লাখ।
ভেরিসাইন-এর পক্ষ থেকে এক বিবৃতিতে বলা হয়, ২০১৭ সালে নতুন ‘ডটকম’ ও ‘ডটনেট’ টপ-লেভেল-ডোমেইন নিবন্ধন হয়েছে ৯০ লাখ। ২০১৬ সালে সংখ্যাটি ছিল ৮৮ লাখ।
২০১৭ সালের চতুর্থ প্রান্তিক পর্যন্ত শুধু ডটকম ও ডটনেট মিলে মোট ডোমেইন নিবন্ধন সংখ্যা হয়েছে ১৪ কোটি ৬৪ লাখ। বাকি নিবন্ধনগুলো হয়েছে অন্যান্য ডোমেইনে।
এক বছরে নিবন্ধন সংখ্যা বেড়েছে ২.৯ শতাংশ।
