সম্প্রতি ব্রিটিশ দৈনিক ইন্ডিপেনডেন্ট-এর সঙ্গে এক সাক্ষাৎকারে কুক এআর-কে স্মার্টফোনের সঙ্গে তুলনা করেছেন। তিনি বলেন, “আমি একে স্মার্টফোনের মতো একটি বড় ধারণা হিসেবে বিবেচনা করি। স্মার্টফোন সবার জন্যই। আমাদের এমনটা মনে করতে হয় না যে আইফোন কোনো নির্দিষ্ট শ্রেণির বা দেশের বা কোনো নির্দিষ্ট কোনো বাজারের; এটি সবার জন্য। আমি মনে করি এআর ও এতটাই বড়। এটি বিশাল। এটি যা করতে পারে আর জীবনযাপন ও বিনোদনে যে বিশাল মাত্রার উন্নতি আনতে পারে তা ভেবে অধীর হয়ে যাই।”
অন্যদিকে, অ্যাপল স্মার্টগ্লাস-এর মতো কোনো বিশেষ এআর পণ্য নিয়ে কাজ করছে- সাম্প্রতিক সময়ে চলা এমন গুঞ্জনে পানি ঢেলে দিয়েছেন মার্কিন প্রযুক্তি জায়ান্টটির প্রধান। তিনি বলেন, “আমি আমার আইফোনের সিলিকন যেভাবে দেখি এআর-কেও সেভাবেই দেখি। এটি নিজে কোনো পণ্য নয় - এটি একটি মূল প্রযুক্তি।”
কুক-এর এ কথা থেকে এমনটা ধারণা করা যেতেই পারে যে অ্যাপল হয়ত তাদের ক্যামেরা অ্যাপ-এর মতো কোনো অ্যাপে এআর প্রযুক্তি নিয়ে আসতে পারে, বলা হয়েছে মার্কিন সাইটটির প্রতিবেদনে। শেষ কয়েক বছরে অ্যাপল কয়েকটি এআর স্টার্টআপ কিনে নিয়েছে।
এর আগে ভেঞ্চার ক্যাপিটাল প্রতিষ্ঠান লুপ ভেঞ্চারস প্রতিষ্ঠাতা এ নিয়ে বিজনেস ইনসাইডার-কে বলেন, “আপনি জানেন এটি এমন কিছু যা আসছে। এর আগে তারা (অ্যাপল) এমনটা বলেছে যখন আইফোন আনা হয় তার আগে, তারা বলতে শুরু করে তারা ফোন বাজারে কিছু একটা করতে পারে। অ্যাপল ওয়াচ আসার আগে তারা বলেছিল পরিধানযোগ্য ডিভাইস আর হাতঘড়ি ভালো অপশন হতে পারে।”
