ইমেইলের ইনবক্সে প্রতিনিয়তই আসতে থাকে ইমেইল, যার মধ্যে অনেকগুলোই হয়তো থাকে অপ্রয়োজনীয়। সেসব ইমেইল না খুলে ফেলে রাখার অভ্যাসও রয়েছে অনেকের। কিন্তু না পড়ে ফেলে রাখা এমন ইমেইলের সংখ্যা কতো হতে পারে? কারও ক্ষেত্রে হয়তো ৫০-এর নিচে, কারও হয়তোবা হাজারের মতো।
কোনো সেলিব্রেটির কাছে আসা মেইলের সংখ্যা নিঃসন্দেহে সাধারণ লোকজনের কাছে আসা মেইলের চেয়ে বেশিই হবে। কিন্তু কতো বেশি? প্রিয়াংকা চোপড়ার বেলায় এই সংখ্যা আড়াই লাখেরও বেশি। আরও কাছাকাছি হিসেব দিতে গেলে বলতে হয় দুই লাখ ৫৭ হাজারেরও বেশি।
ভারতে সবচেয়ে বেশি পারিশ্রমিক নেওয়া অভিনেত্রীদের মধ্যে একজন এই সাবেক বিশ্বসুন্দরী। অ্যাকশনভিত্তিক রোমাঞ্চধর্মী মার্কিন টিভি সিরিজ কোয়ানটিকো-তে অভিনয় করছেন তিনি, এতে তার সহশিল্পী হিসেবে আছেন মার্কিন অভিনেতা অ্যালান পাওয়েল।
সম্প্রতি নিজ সহশিল্পীর ফোন হাতে একটি ছবি শেয়ার করেছেন পাওয়েল। এতে দেখা যায়, ভারতীয় নায়িকার ফোনে এখনও খোলা হয়নি এমন ইমেইলে সংখ্যা দেখাচ্ছে ২,৫৭,৬২৩টি।    
অন্য যে কাউকে পারলে নিজ সহশিল্পীর এই না দেখা ইমেইলের সংখ্যা ভেঙ্গে দেখাতে চ্যালেঞ্জও ছুড়ে দিয়েছেন পাওয়েল। কিছুক্ষণের মধ্যেই অনেকে তাদের ইনবক্সে দেখানো এই সংখ্যার ছবি পোস্ট করা শুরু করেন। যার মধ্যে অল্প কিছু সংখ্যক লোক ১০ হাজারের মাইলফলক অতিক্রম করতে পেরেছেন বলে বিবিসি’র প্রতিবেদনে উল্লেখ করা হয়। তবে, রেকর্ডটা খুব বেশিক্ষণ ধরে রাখতে পারেননি প্রিয়াংকা। কিছুক্ষণের মধ্যে পিয়ুস রাখা নামের এক টুইটার ব্যবহারকারী তাকে সিংহাসনচ্যুত করেন। তার মেইলের সংখ্যা ছিল ৩,৮১,৭৫৩।
আইফোন ব্যবহারকারীরা সহজেই তাদের আইফোনের সেটিংসে গিয়ে ইমেইল অ্যাকাউন্টের জন্য থাকা ব্যাজ অ্যাপ আইকন থেকে সুইচ অফ করে দিয়ে এই সংখ্যা দেখানো বন্ধ করে দিতে পারেন।
এদিকে আবার পাওয়েলের পোস্ট করা ছবিটির সত্যতা নিয়েও তৈরি হয়েছে বিতর্ক। কেউ কেউ ছবিতে দেখানো সংখ্যার প্রথম কমার অবস্থান নিয়ে সন্দেহ প্রকাশ করেছেন। ছবিতে দেখানো অংকটি ছিল- ২,৫৭,৬২৩। এক্ষেত্রে ২-এর পরে কমা থাকার কারণে এটি “এটি কোনো সংখ্যাই নয়। বাস্তবও নয়, কাল্পনিকও নয়’ বলে মন্তব্য করেন অ্যান্টোনি ডেলাক্রুজ নামের এক ইনস্টাগ্রাম ব্যবহারকারী। এক্ষেত্রে ব্যাখ্যা হচ্ছে, এই অংকটি ভারতী ধরনের লেখা। পাশ্চাত্যে এক লাখ লিখতে গেলে ‘১০০,০০০’ এভাবে লেখা হলেও, ভারতীয় উপমহাদেশে ‘১,০০,০০০’ ধরনে লেখা হয়।
