হলুদ-সাদা স্কার্ট ও টপ পরে সোফিয়া মঙ্গলবার সন্ধ্যায় ঘুরে গেছে বঙ্গবন্ধু আন্তর্জাতিক সম্মেলন কেন্দ্রের উৎসব প্রাঙ্গণও, যেখানে একদিন বাদেই সবাইকে দর্শন দেবে এটি।
তথ্য ও যোগাযোগ প্রযুক্তি বিভাগের ঊর্ধ্বতন এক কর্মকর্তা বিডিনিউজ টোয়েন্টিফোর ডটকমকে বলেন, “ইন্সটল হওয়ার পর সন্ধ্যা সাড়ে ৭টায় বঙ্গবন্ধু আন্তর্জাতিক সম্মেলন কেন্দ্রের হল অব ফেমে মহড়া দিয়ে গেছে সোফিয়া।”
প্রায় দেড় ঘণ্টা মহড়া শেষে হোটেলে ফিরিয়ে নেওয়া হয় সোফিয়াকে।
তথ্য ও যোগাযোগ প্রযুক্তি প্রতিমন্ত্রী জুনাইদ আহমেদ পলক এসময় সোফিয়ার সঙ্গে কথা বলেন বলেও জানান ওই কর্মকর্তা।
বুধবার সকাল ৯টার দিকে ‘ডিজিটাল ওয়ার্ল্ডে’ যাবে যন্ত্রমানবী সোফিয়া।
প্রধানমন্ত্রী শেখ হাসিনা ওই তথ্য ও প্রযুক্তি উৎসব উদ্বোধন করার পর তার সঙ্গে কথা বলার সুযোগ পাবে এই রোবট। এরপর বেলা আড়াইটা থেকে সাড়ে ৪টা পর্যন্ত বঙ্গবন্ধু আন্তর্জাতিক সম্মেলন কেন্দ্রের হল অব ফেমে থাকবে সোফিয়া।
ডিজিটাল ওয়ার্ল্ডে প্রদর্শনের জন্য হংকং থেকে বাংলাদেশে আনা হয়েছে সোফিয়াকে। তার সাথে একজন অপারেটর রয়েছেন।
বিশেষ এক বাক্সের ভেতরে প্রাণহীন অবস্থায় ঢাকা পৌঁছানো মাত্রই বিমানবন্দরের কাছেই একটি পাঁচ তারকা হোটেলে নেওয়া এটিকে।
খ্যাতনামা হলিউড অভিনেত্রী অড্রে হেপবার্নের চেহারার আদলে হংকংভিত্তিক কোম্পানি হ্যান্সন রোবোটিক্সের তৈরি সোফিয়া মানুষের সঙ্গে কথা বলার পাশাপাশি প্রশ্নেরও জবাব দিতে পারে।
