‘এস পেন’ নামের স্টাইলাস স্যামসাংয়ের নোট সিরিজ স্মার্টফোনগুলোর সঙ্গে ছাড়া হয়। টেক জায়ান্ট প্রতিষ্ঠানটির এক কর্মকর্তার বরাতে দক্ষিণ কোরীয় দৈনিক কোরিয়া টাইমস-এর এক প্রতিবেদনে বলা হয়, স্মার্টফোন দিয়ে রক্তের অ্যালকোহলের মাত্রা মাপার সময় এই স্টাইলাসকে একটি মাইক্রোফোন হিসেবে ব্যবহার করা যেতে পারে।    
স্যামসাংয়ের এক কর্মকর্তা বলেছেন, ২০১৬ সালে প্রতিষ্ঠানটি এ নিয়ে একটি পেটেন্টের জন্য আবেদন করে। সম্প্রতি এই পেটেন্ট ইউএস পেটেন্ট অ্যান্ড ট্রেডমার্ক অফিস থেকে অনুমোদন পেয়েছে। ওই কর্মকর্তা বলেন, নতুন পেটেন্টগুলো সবসময় হুবহু ব্যবহারের জন্যই করা হয় না, খবর মার্কিন সাময়িকী ফরচুন-এর।
এই পেটেন্ট যদি হুবহু ব্যবহার করা হয়, তবে নতুন এই ফিচার অ্যালকোহলের কারণে দুর্ঘটনার সংখ্যা কমাতে সহায়তা করবে।
