এক বিবৃতিতে রুশ কেন্দ্রীয় ব্যাংকের পক্ষ থেকে হ্যাকিং আক্রমণের ফলাফল নিয়ে বলা হয়।  এর আগে দেশটি দাবী করেছিল- এই আক্রমণ রুশ ব্যাংকগুলোকে লক্ষ্য করা হয়েছে, কিন্তু সেটি সফল হয়নি, খবর রয়টার্স-এর।
শুক্রবার কেন্দ্রীয় ব্যাংকের তরফে বলা হয়, তারা ১২ মে ওয়ানাক্রাই আক্রমণের আগে এপ্রিলেই রুশ ব্যাংকগুলোকে উইন্ডোজ আপডেটের পরামর্শ দিয়েছিল।  আক্রমণের পর আবারও ওই পরামর্শ দেওয়া হয়।
কেন্দ্রীয় ব্যাংক বলে, "ক্ষতিকর ওয়ানাক্রাই সফটওয়্যার ছড়িয়ে পড়ার ফলে আমরা লেনদেন সংস্থাওগুলোর বিচ্ছিন্ন অবস্থা দেখতে পেয়েছি।”
রাশিয়ার বাইরে আর কোনো জায়গায় এই হামলার কারণে ব্যাংকিং খাত ক্ষতিগ্রস্থ হওয়ার খবর খুব কমই পাওয়া গেছে, বলা হয়েছে রয়টার্স-এর প্রতিবেদনে।  এশিয়া’র কয়েকটি স্থানে এটিএম-এ মুক্তিপণের দাবি প্রদর্শিত হতে দেখা গেছে বলে খবর শোনা গেলেও তা নিশ্চিত করেনি সংবাদমাধ্যমটি।
রাশিয়ার সবচেয়ে বড় ব্যাংক ইসবারব্যাংক এর পক্ষ থেকে বলা হয়, তারা একটি ভাইরাস আক্রমণের শিকার হয়েছে কিন্তু সিস্টেমগুলো আক্রান্ত হয়নি। কেন্দ্রীয় ব্যাংকের বিবৃতি নিয়ে ব্যাংকটি কোনো মন্তব্য করতে অস্বীকৃতি প্রকাশ করেছে।
দুইজন নিরাপত্তা তদন্তকারী রয়টার্স-কে বলেন, ভিটিবি-ও আক্রান্ত হয়েছে, কিন্তু ব্যাংকটি সিস্টেমে কোনো ক্ষতি হয়েছে কিনা তা অস্পষ্ট। গোপন নিরাপত্তা বিষয় হওয়ায় এই তদন্তকারীরা তাদের পরিচয় প্রকাশ করতে চাননি। 
