টুইটার-এর টুইটডেক বিভাগের পক্ষ থেকে দেওয়া এক টুইটে বলা হয়, “টিমস হচ্ছে পাসওয়ার্ড শেয়ার না করেই অ্যাকাউন্টগুলো চালানোর একটি নিরাপদ উপায়। এটি বর্তমানে টুইটার অ্যাপেই মোবাইল ফোনে ব্যবহার করা যাচ্ছে।”
টুইটডেক-এর মাধ্যমে ব্যবহারকারীরা তাদের একটি ইন্টারফেইসের একাধিক টাইমলাইন দেখার সুযোগ পান, উল্লেখ করা হয়েছে আইএএনএস-এর প্রতিবেদনে।
মিউটিং, সার্চ আর লিস্ট ম্যানেজমেন্ট-এর মতো ‘টুইটডেক’-এর আরও অনেক উন্নত ফিচার রয়েছে। ইতোমধ্যে এই ফিচারগুলো টুইটারেও পাওয়া যাচ্ছে।
শুরুর দিকে শুধু প্রদায়ক ও অ্যাডমিনরা টুইটডেক-এর প্লাটফর্মে ‘টুইটডেক টিমস’ অ্যাকাউন্টগুলো ব্যবহার করতে পারতেন।
