ব্যবসায়িক বা ব্যক্তিগত উভয় ক্ষেত্রেই ব্যক্তিগত প্লেন ব্যবহার করতে হবে কুককে, বলা হয়েছে বিবিসি’র প্রতিবেদনে।
মার্কিন বাজার নীতি নির্ধারকের কাছে পাঠানো এক নথিতে অ্যাপল জানায়, “নিরাপত্তা ও দক্ষতা বাড়াতেই এই নীতি করা হয়েছে।”
প্রতিষ্ঠানটি আরও জানায়, ২০১৭ সালে অ্যাপল প্রধানের ব্যক্তিগত যাতায়াত খরচ ছিল ৯৩১০৯ মার্কিন ডলার। আর এ বছর তার ব্যক্তিগত নিরাপত্তায় খরচ হয়েছে ২২৪২১৬ মার্কিন ডলার।
চলতি বছর কুকের আয় হয়েছে মোট ১২৮২৫০৬৬ মার্কিন ডলার, যা আগের বছরের তুলনায় ৪৬ শতাংশ বেশি।
হিসেবে দেখা যাচ্ছে টিম কুকের আয় ২০১৫ সালে ছিল এক কোটি দুই লাখ ডলার যা গত বছর কমে গিয়ে ৮৭ লাখ ডলারের সামান্য উপরে গিয়ে ঠেকে। সেখান থেকে এ বছর ৪৬ শতাংশ বেড়ে হয়েছে এক কোটি ২৮ লাখ ডলার।
এই হিসেবে গুরুত্বপূর্ণ প্রভাব রেখেছে বাজারে অ্যাপল শেয়ারের মূল্য। এ বছর টিম কুকের মূল বেতন ছিল ৩০ লাখ ডলারের বেশি যা গত বছরের প্রায় সমান।
টিম কুকের বেতনের একটি অংশ, যেটি তার ‘বেস স্যালারি’, সেটি আসে নির্ধারিত অঙ্কে আর বাকিটা আসে বাজারে অ্যাপল শেয়ারমূল্যের সঙ্গে সামঞ্জস্য রেখে। এ বছর অ্যাপল শেয়ারের মূল্য গত বছরের তুলনায় ৩৬.৭ শতাংশ বাড়ার প্রভাব পরেছে টিম কুকের মোট বেতনে।
