এক বিবৃতিতে সফটব্যাংক ভিশন ফান্ড-এর পক্ষ থেকে বলা হয়, “তথ্য বিপ্লবের পরবর্তী ধাপ পার হতে যাচ্ছে, আর এটি সম্ভব করতে যে ব্যবসায়গুলো চালু করতে হবে সেগুলোর জন্য বড় অংকের দীর্ঘমেয়াদী বিনিয়োগ প্রয়োজন।”
জাপানের টেলিযোগাযোগ ও প্রযুক্তি বিনিয়োগ প্রতিষ্ঠান সফটব্যাংক-এর চেয়ারম্যান মাশায়শি সান ২০১৬ সালের অক্টোবরে এই তহবিলের পরিকল্পনা প্রকাশ করেন। এরপর থেকে এটি বিশ্বের বড় বড় বিনিয়োগকারীদের অঙ্গীকার পেয়ে আসছে, বলা হয়েছে রয়টার্স-এর প্রতিবেদনে। 
মার্কিন প্রেসিডেন্ট ডোনাল্ড ট্রাম্প সৌদি আরবের রাজধানী রিয়াদ সফরের সময় তহবিলটির পক্ষ থেকে নতুন এ ঘোষণা দেওয়া হয়। ট্রাম্পের এ সফরে যুক্তরাষ্ট্র আর সৌদি আরবের মধ্যে কয়েকশ’ কোটি ডলারের ব্যবসায় চুক্তি হয়েছে। শনিবার সফটব্যাংক চেয়ারম্যানও রিয়াদে ছিলেন।
রয়টার্স-এর প্রতিবেদনে বলা হয়, তেলের মূল্য পরে যাওয়ায় সৌদি আরবের অর্থনীতি ক্ষতিগ্রস্থ হয়েছে আর দেশটির নীতিনির্ধারকরা এখন নতুন খাতের দিকে নজর দিতে চাচ্ছেন। এই তহবিল সৌদি আরবকে বিদেশি প্রযুক্তি খাতে প্রবেশে সহায়তা করবে।
