গুগল প্রোজেক্ট ‘জিরো’-এর গবেষকদের মতে, সিমেনটেকের এই সফটওয়্যারটিতে বেশ কয়েকটি 'দূর্বল' জায়গা রয়েছে। একে 'যথেষ্ট খারাপ' হিসেবে আখ্যায়িত করেন গবেষকরা।
সিমেনটেক এবং নরটন ব্র্যান্ড-এর নিরাপত্তা সফটওয়্যারগুলোতে এই দূর্বলতাগুলো বিদ্যমান আছে বলে জানিয়েছে বিবিসি।
সিমেনটেক জানিয়েছে, ত্রুটিপূর্ণ অংশগুলোর কথা মাথায় রেখে তারা সমস্যাগুলো সমাধান করেছেন এবং গ্রাহকরা আপডেট ইনস্টল করতে পারবেন। সফটওয়্যারের ত্রুটিগুলো প্রোজেক্ট ‘জিরো’ শুরুর আগে ঠিক করা হয়েছে যেন অপরাধীরা এগুলোকে কাজে লাগিয়ে বড় কোনো ক্ষতি করতে না পারে।
কোম্পানির গবেষক টাভিস অরম্যান্ডি একটি ব্লগপোস্টে বলেন, “তাদের ব্যবহারকারীদের মিথস্ক্রিয়ার প্রয়োজন হয়না, তারা সরাসরি ডিফল্ট কনফিগারেশনকে প্রভাবিত করে এবং সর্বোচ্চ সুবিধা নিয়ে চলে।
সিমেনটেক একটি ব্লগপোস্টে জানিয়েছে, নিরাপত্তা সংক্রান্ত ত্রুটিগুলো কাজে লাগিয়ে কেউ কোনো ক্ষতি করার চেষ্টা করছে এমন প্রমাণ তারা পায়নি।
