আগের বছর উন্মোচিত পোকিমন গো নিয়ে চলতি বছরের শুরুতে বেশ মাতামাতি থাকলেও বছর শেষে শীর্ষ ২০ গেইমের তালিকায় আসতে পারেনি গেইমটি। শুধু পোকিমন গো নয় অন্যান্য অনেক জনপ্রিয় গেইমই দেখা যায়নি এই তালিকায়।
পোকিমন গো তালিকায় না থাকলেও শীর্ষে রয়েছে নিনটেনডো’র আরেক জনপ্রিয় গেইম সুপার মারিও রান। পোকিমন গো-ও তৈরি করেছে গেইম নির্মাতা এই জাপানি প্রতিষ্ঠানটি। জনপ্রিয় কিছু গেইম বাদ গেলেও তালিকায় দেখা গেছে বেশ কিছু নতুন গেইম।
অ্যাপলের প্রকাশিত পুরো তালিকা-
১. সুপার মারিও রান
২. ৮ বল পুল
৩. স্নেইক ভার্সেস ব্লক
৪. বলজ
৫. ওয়ার্ড কুকিজ!
৬. সাবওয়ে সার্ফারস
৭. এপিসোড পিচ পারফেক্ট
৮. রোলিং স্কাই
৯. ব্লক! হেক্সা পাজল
১০. পেপার ডটআইও
১১. সলিটেয়ার
১২. বৌনমাস্টার্স
১৩. কালার সুইচ
১৪. পিয়ানো টাইলস ২
১৫. চয়সেস: স্টরিজ ইউ প্লে
১৬. রোল দ্য বল
১৭. ক্ল্যাশ রয়্যাল
১৮. রোবোলক্স
১৯. ওয়ার্ড কানেক্ট
২০. ক্যান্ডি ক্রাশ সাগা
আরও খবর-
অ্যাপ স্টোরে ২০১৭ সালের সেরা অ্যাপ কোনগুলো?  
