যুক্তরাজ্যের ভোক্তা অধিকার কর্তৃপক্ষের নির্বাহী পরিচালক রিচার্ড লয়েড-এর নেতৃত্বে আর আইনি প্রতিষ্ঠান মিশকন ডে রেয়া’র পরামর্শে একটি দল দাবি করেছে, ২০১১ সালের জুন থেকে ২০১২ সালের ফেব্রুয়ারি পর্যন্ত আইফোনের প্রাইভেসি ডিফল্ট সেটিংস এড়িয়ে বেআইনিভাবে গুগল গ্রাহকদের ব্যক্তিগত তথ্য সংগ্রহ করেছে। এ কারণে আক্রান্তদের জন্য ক্ষতিপূরণ আদায়ের লক্ষ্যে আইনি পদক্ষেপ নিয়েছে দলটি। দলটির নাম দেওয়া হয়েছে ‘গুগল ইউ ও আস (Google You Owe Us)’, বাংলা করলে যার অর্থ দাঁড়ায়- ‘গুগল তুমি আমাদের কাছে ঋণী’। দলটির দাবি, ওই সময়সীমার মধ্যে ব্রিটেনের আনুমানিক ৫৪ লাখ মানুষ আইফোন ব্যবহার করেছেন আর তাদেরকেই এই ক্ষতিপূরণ দেওয়া যেতে পারে।
ব্রিটিশ দৈনিক গার্ডিয়ান-এর প্রতিবেদনে বলা হয়, গুগল যুক্তরাজ্যে আইফোন ব্যবহারকারীদের ‘বিশ্বাসভঙ্গের’ মাধ্যমে ডেটা সুরক্ষা আইনের নীতিমালা লঙ্ঘনে অভিযুক্ত হয়েছে। 
লয়েড বলেন, এই মামলার দৃষ্টান্ত নজিরবিহীন আর এটি ‘আমার জীবনের অন্যতম বড় লড়াই’-এর প্রতিনিধিত্ব করছে। তিনি বলেন, “আমি বিশ্বাস করি গুগল আইনের বিরুদ্ধে কাজ করেছে। তাদের এই কাজ লাখো মানুষকে আক্রান্ত করেছে আর আমরা আদালতকে এই বড় বিশ্বাস লঙ্ঘনের প্রতিকার আনতে আহ্বান জানাবো।”
“এর মাধ্যমে আমরা গুগল আর সিলিকন ভ্যালির অন্যান্য প্রতিষ্ঠানগুলোকে একটি শক্তিশালী বার্তা দেব যে আমরা আমাদের আইন লঙ্ঘন হলে তা নিয়ে লড়াইয়ে ভীত নই।”
