এওএল-এর প্রধান নির্বাহী টিম আর্মস্ট্রং তার ব্যক্তিগত টুইটার অ্যাকাউন্ট থেকে দেওয়া এক পোস্টে এই পদক্ষেপের কথা নিশ্চিত করেছেন। আগেই পরিকল্পিত এক প্রচারণার অংশ হিসেবে এই পোস্ট দেওয়া হয়, বলা হয়েছে বিবিসি’র প্রতিবেদনে। ওই টুইটে বলা হয়, “শতাধিক গ্রাহক, ২০-এর বেশি ব্র্যান্ড, অপ্রতিরোধ্য দল।” টুইটের শেষে ‘টেইক দ্য ওথ’ হ্যাশট্যাগও জুড়ে দেওয়া হয়। সবশেষে লেখা হয়- “সামার (গ্রীষ্ম) ২০১৭”।
এ দিকে নতুন প্রতিষ্ঠানের নামটি নিয়ে ইতোমধ্যে অনলাইনে হাস্যরস সৃষ্টি হয়েছে বলে ওই প্রতিবেদনে বলা হয়। একটি সাইটে বলা হয়, “অন্তত এই নামটি ট্রঙ্ক-এর চেয়ে ভালো।” ট্রঙ্ক আগে ট্রিবিউন পাবলিশিং নামে পরিচিত ছিল, এটি হচ্ছে একটি মার্কিন প্রতিষ্ঠান। এই প্রতিষ্ঠান লস অ্যাঞ্জেলস টাইমস, শিকাগো ট্রিবিউনসহ আরও কিছু মার্কিন সংবাদপত্রের মালিক।
এক সময়কার মার্কিন ইন্টারনেট জায়ান্ট ইয়াহু’র ইন্টারনেট ব্যবসায় ৪৮০ কোটি ডলারের বিনিময়ে কিনে নিয়েছে ভেরাইজন। চুক্তির বাকি প্রক্রিয়া চলতি প্রান্তিকেই শেষ হবে আশা করা হচ্ছে।  
