ইতোমধ্যেই এই অনুষ্ঠানের জন্য আমন্ত্রণ জানানো শুরু করেছে প্রতিষ্ঠানটি। এই অনুষ্ঠানে উইন্ডোজ ১০-এর আপডেট আনা হবে বলে প্রতিশ্রুতি রয়েছে প্রতিষ্ঠানটির, জানিয়েছে ব্যবসা-বাণিজ্যবিষয়ক মার্কিন সাইট বিজনেস ইনসাইডার।
অক্টোবরের ইভেন্টে মাইক্রোসফটের নতুন হার্ডওয়্যার পণ্য উন্মোচনের রীতি রয়েছে। ২০১৫ সালে এই ইভেন্টে সারফেইস প্রো ৪ ট্যাবলেট, সারফেইস বুক ল্যাপটপ, লুমিয়া ৯৫০ আর ৯৫০ এক্সএল উইন্ডোজ স্মার্টফোন আনা প্রতিষ্ঠানটি। 
বাজারে গুঞ্জন রয়েছে এবার মাইক্রোসফট প্রতিদ্বন্দ্বী অ্যাপলের আইম্যাক-এর মতো নতুন মাইক্রোসফট সারফেইস কম্পিউটার আনতে পারে। অন্যদিকে মার্কিন সাইটটির মতে, এবার মাইক্রোসফট তাদের সারফেইস্ন প্রো ৪ আর সারফেইস বুক-এ ছোটখাট আপডেট আনতে পারে আর সারফেইস প্রো ৫ আর সারফেইস বুক ২ আনতে প্রতিষ্ঠানটি হয়তো সামনের বসন্ত পর্যন্ত সময় নেবে। একইভাবে ভালোভাবেই গুঞ্জনের তালিকায় থাকা 'সারফেইস ফোন' আর 'প্রজেক্ট স্করপিও' এক্সবক্স কনসোলও হয়তো এবার আনা হচ্ছে না। 
এদিকে চলতি বছর সেপ্টেম্বরে এক প্রতিবেদনে জানা যায়, উন্মোচনের পর থেকেই বিভিন্ন ধরনের সমস্যার অভিযোগ করে আসছেন উইন্ডোজ ১০ ব্যবহারকারীরা। গত বছরের জুলাইতে উইন্ডোজ ১০ উন্মোচনের পর থেকে গ্রাহকের অসন্তোষ বেড়েই চলেছে।
