রেকর্ড পরিমাণ মূল্য দিয়ে লিংকডইন-এর মালিকানা কেনায় সেই বাস্তবতা এখন সময়ের ব্যাপার মাত্র।
ব্যবসা-বাণিজ্যবিষয়ক প্রকাশনা বিজনেস ইনসাইডার জানায়, ২৬২০ কোটি মার্কিন ডলারে লিংকডইন-এর মালিকানা কিনে নেওয়ায় সাইটটি ক্যারিয়ারের জন্য একটি ফেইসবুকে পরিণত হবে বলে বিশ্বাস করেন বিল গেটস।
হফম্যান সিলিকন ভ্যালির অন্যতম বিজ্ঞ রূপে পরিচিত । ২০১৪ সালে প্রকাশিত তার ‘দ্য এলায়েন্স’ নামের বইটিতে তিনি  ম্যানেজার আর কর্মচারীর মধ্যের সম্পর্ক নিয়ে নতুন ভাবনা প্রকাশ করেন।
বইটিতে হাফম্যান আর উদ্যোক্তা বেন ক্যাসনোকা ও ক্রিস ইয়েই কিভাবে জোট গঠনের মাধ্যমে সবচেয়ে ভালো কর্মচারীদের চাকুরিদাতারা আকর্ষণ আর অর্জন করে তা ব্যাখ্যা করেন।
