বাজারের শীর্ষস্থানীয় মোবাইল হ্যান্ডসেট নির্মাতা প্রতিষ্ঠান, অ্যাপল এবং স্যামসাং ইলেকট্রনিক্স-এর সঙ্গে টেক্কা দিতেই ২০১৪ সালে ফিনল্যান্ডভিত্তিক হ্যান্ডসেট নির্মাতা প্রতিষ্ঠান নোকিয়া-কে কিনেছিল মাইক্রোসফট।
প্রধান নির্বাহী সাত্যিয়া নাদেলা, যিনি চুক্তিটি হওয়ার দুই মাস পর দায়িত্ব নেন, তিনি ধুঁকতে থাকা ফোন ব্যবসায়ের পুনর্গঠনের দিকে নজর দিয়েছেন।
এর আগে নিজেদের মোবাইল ফোন ব্যবসায়ে নতুন অনুপাত আনার প্রচেষ্টার অংশ হিসেবে ১৮৫০ জন কর্মী ছাঁটাইয়ের পরিকল্পনার ঘোষণা দিয়েছিল মার্কিন এই সফটওয়্যার জায়ান্ট। এই ছাঁটাই তালিকার অধিকাংশই ফিনল্যান্ডের। সেই সঙ্গে চাকরী থেকে সরানোর জন্য কর্মীদের ৯৫ কোটি ডলার ক্ষতিপূরণও দিয়েছিল প্রতিষ্ঠানটি।
