গুগলের নতুন ডিভাইসটি দিয়ে ভিডিও কলের পাশাপাশি প্রতিষ্ঠানের অ্যাপ ব্যবহার ও স্মার্ট হোম ডিভাইসগুলো নিয়ন্ত্রণ করা যাবে। এর আগে ইকো শো-তেও একই ধরনের ফিচার দেখা গেছে, বলা হয়েছে মার্কিন সংবাদমাধ্যম সিএনবিসি’র প্রতিবেদনে।
নতুন ডিভাইসটি নিয়ে বেশ কিছু সূত্রের বরাত দিয়ে বৃহস্পতিবার প্রতিবেদন প্রকাশ করেছে প্রযুক্তিবিষয়ক সাইট টেকক্রাঞ্চ। তবে, প্রতিবেদনে কারও নাম প্রকাশ করা হয়নি।
অভ্যন্তরীনভাবে গুগলের ডিভাইসটির ছদ্মনাম দেওয়া হয়েছে ‘ম্যানহাটন’। এতে অ্যামাজনের ইকো শো-এর মতোই সাত ইঞ্চি পর্দা রাখা হবে বলে প্রতিবেদনে জানানো হয়েছে।
এ ব্যাপারে জানতে গুগলের সঙ্গে যোগাযোগ করা হলে প্রতিষ্ঠানের পক্ষ থেকে কোনো মন্তব্য করা হয়নি।
চলতি সপ্তাহের শুরুতে অ্যামাজন জানায় ইকো শোতে এখন আর ইউটিউব ভিডিও দেখা যাবে না, কারণ গুগল এই ডিভাইসে সেবা বন্ধ করেছে।
অ্যামাজনের ভয়েস অ্যাসিস্টেন্ট সেবা অ্যালেক্সা’র মাধ্যমে ইকো শো-তে মিউজিক চালু করা, উবারের ট্যাক্সি ডাকা ও ঘরের বাতি জ্বালানো নেভানো যায়।
