ব্রিটিশ দৈনিক ইন্ডিপেনডেন্ট জানায়, প্রতিষ্ঠানটি আইওএস ১১ আর ম্যাক ওএস-এর একটি নতুন সংস্করণ উন্মোচন করতে যাচ্ছে আর তা অনেকটা ‘নিশ্চিত’। সেই সঙ্গে অ্যাপল ওয়াচ আর টিভি’র মতো হার্ডওয়্যারগুলো নিয়েও নতুন সফটওয়্যার আনা হতে পারে। মাঝে মধ্যে অ্যাপল এই ইভেন্টে নতুন পণ্য বা সেবা উন্মোচনও করে থাকে। 
সাধারণত এই ইভেন্টে সফটওয়্যারের দিকেই জোর দেওয়া হয়। এখানে আসা আইওএস বা আইফোন ও আইপ্যাডের অন্যান্য সফটওয়্যার থেকে পণ্যগুলোতে নতুন কী ফিচার আনা হবে সে সম্পর্কেও আভাস পাওয়া যায়।
যুক্তরাষ্ট্রের স্যান হোসে’র ম্যাকএনেরি কনভেনশন সেন্টারে অনুষ্ঠিতব্য এই ইভেন্টে যোগ দিতে ডেভেলপাররা বসন্ত থেকেই টিকেটের জন্য আবেদন করতে পারবেন।
