‘২১৭০ সেলস’ নামের নলাকার এই ব্যাটারি সেলগুলো টেসলার শক্তি জমা করে এমন পণ্য আর নতুন মডেল ৩ সেডান গাড়িতে ব্যবহৃত হবে। এই ব্যাটারিগুলো টেসলা আর প্যানাসনিক যৌথভাবে বানিয়েছে বলে জানিয়েছে রয়টার্স।
গিগাফ্যাক্টরি প্রাথমিকভাবে প্রতিষ্ঠানটির পাওয়ারওয়াল ২ আর পাওয়ারপ্যাক ২ পণ্যগুলোর জন্য ব্যাটারি সেল তৈরি করবে, জানিয়েছে টেসলা। চলতি বছরের দ্বিতীয় প্রান্তিকে মডেল ৩ গাড়ির জন্য সেল উৎপাদন শুরু করবে।
এর আগে নভেম্বরে টেসলা জানায়, বছরের শেষনাগাদ তারা পাঁচশ' কোটি ডলার মূল্যমানের উৎপাদন কেন্দ্রে ব্যাটারি প্রস্তুত শুরু করার প্রত্যাশা করছে। ব্যাটারিগুলো শুরুর দিকে টেসলার বিভিন্ন পণ্যে ব্যবহৃত হবে এবং এরপর তাদের গাড়ির জন্য ব্যবহার করা হবে। প্যানাসনিক টেসলার জন্য ১৬০ কোটি ডলার ব্যয় করে ব্যাটারি উৎপাদন করার পরিকল্পনা করছে।
