ওই শিক্ষার্থীরা শিশু নিপীড়ন, যৌন হয়রানি, শিশু যৌনাচার আর হত্যাকাণ্ড সম্পর্কিত বিষয়ে বিদ্রুপ করে পোস্ট করেছিল, বলা হয়েছে বিবিসি’র প্রতিবেদনে।
কলেজটির পত্রিকায় আরও বলা হয়, ওই শিক্ষার্থীদের দলটি সংখ্যালঘুদের নিয়ে বর্ণবাদী আচরণও প্রদর্শন করেছে।
অন্যদিকে, হার্ভার্ড কর্তৃপক্ষের দেওয়া এই শাস্তিকে ‘অনেক কঠোর’ হিসেবে আখ্যা দিয়ে সমালোচনা করেছেন মুক্তবাক সমর্থকরা।
মিম আর ‘প্রাপ্তবয়স্ক’ কনটেন্টে আগ্রহী এমন শিক্ষার্থীদের জন্য ওই পেইজ খোলা হয়। এতে কেউ যোগ দিতে চাইলে তাকে একটি ‘উস্কানীমূলক’ মিম তৈরি করে পোস্ট করতে হয়। গ্রুপটি সম্পর্কে জানার পর হার্ভার্ড প্রশাসন এটি খুঁজে বের করে ও এতে শিক্ষার্থীরা কী করছে তা জিজ্ঞাসা করে তদন্ত শুরু করে।
এক সপ্তাহ পর অন্তত ১০ শিক্ষার্থীকে বলা হয় যে হার্ভার্ড-এ ভর্তির জন্য তাদেরকে দেওয়া প্রস্তাব তুলে নেওয়া হয়েছে।
হার্ভার্ড ল’ স্কুল- এর অধ্যাপক অ্যালান ডেরশোয়িটজ বলেন, কলেজটি ভর্তির প্রস্তাব তুলে নেওয়ার মাধ্যমে সীমার বাইরে চলে গেছে। তিনি ব্রিটিশ দৈনিক গার্ডিয়ান-কে বলেন, শিক্ষার্থীদের আলাপে সেন্সর করার মাধ্যমে তাদের ব্যক্তিগত জীবনে “গভীরভাবে অনধিকার প্রবেশ” করেছে। এটি মুক্তবাক আইনের লঙ্ঘন বলেও মত তার। 
