২০১০ সালে ম্যাকাফির সাবেক প্রতিষ্ঠান ম্যাকাফি-কে কেনার ঘোষণা দেয় চিপ নির্মাতা মার্কিন প্রতিষ্ঠান ইনটেল। এরপর প্রতিষ্ঠানটিকে 'ইনটেল সিকিউরিটি' নাম দেওয়া হয়। এরপর জন ম্যাকাফি ডিজিটাল গেইমিং প্রতিষ্ঠান এমজিটি ক্যাপিটাল ইনভেস্টমেন্টস-এ চেয়ারম্যান ও প্রধান নির্বাহী হন। এ পর্যায়ে প্রতিষ্ঠানের নাম 'জন ম্যাকাফি গ্লোবাল টেকনোলজিস ইনকর্পোরেটেড' করার পরিকল্পনা করেন তিনি। কিন্তু এই নাম ব্যবহার করা হলে ২০১০ সালের চুক্তির মাধ্যমে কেনা ট্রেডমার্ক নীতি লঙ্ঘন হবে বলে ইনটেল তাকে সতর্ক করেছে বলে জানিয়েছেন ম্যাকাফি, ম্যানহাটন ফেডারেল আদালতে দায়েরকৃত অভিযোগের নথিতে এই তথ্য পাওয়া যায়।
এই মামলা নিয়ে মন্তব্য চাওয়া হলে ইনটেল-এর একজন মুখপাত্র তাৎক্ষণিকভাবে কোনো সাড়া দেননি বলে জানিয়েছে ব্লুমবার্গ।
ইনটেল তাদের অধিক লাভজনক ডেটা-সেন্টার ব্যবসায় নজর দিতে ম্যাকাফি বিভাগ বিক্রি করে দিতে চাচ্ছে। এই বিভাগ কিনতে আগ্রহী ক্রেতাদের মধ্যে রয়েছে প্রাইভেট ইকুইটি প্রতিষ্ঠান টিপিজি। প্রতিষ্ঠানটি ইতোমধ্যে ইনটেল-এর সঙ্গে এ নিয়ে আলোচনা করেছে, এ ক্ষেত্রে এই বিভাগের দাম ৩০০ কোটি ডলার হতে পারে। ইনটেল আরও অন্যান্য আগ্রহী ক্রেতাদের সঙ্গেও আলোচনা চালাচ্ছে বলে জানিয়েছে। ইনটেল এই বিভাগ প্রায় ৭৭০ কোটি ডলারের বিনিময়ে কিনেছিল।
