ওই প্রান্তিকের শুরুতে আইফোন ৭ উন্মোচন করা হয়েছিল। পুরো প্রান্তিকে অ্যাপলের মোট আয় হয়েছে ৭৮৪০ কোটি ডলার, যা আগের বছরের একই প্রান্তিকের তুলনায় তিন শতাংশ বেশি বলে জানিয়েছে প্রতিষ্ঠানটি।
প্রতিষ্ঠান প্রধান টিম কুক বলেন, অ্যাপল “আগের যে কোনো সময়ের চেয়ে বেশি আইফোন বিক্রি করেছে।” ম্যাক, অ্যাপল ওয়াচ ও সেবা বিভাগ থেকে হওয়া আয়েও নতুন রেকর্ড সৃষ্টি হয়েছে বলে জানান তিনি।
এই আর্থিক প্রতিবেদন প্রকাশের পর অ্যাপলের শেয়ারমূল্য তিন শতাংশ বেড়ে যায় বলে জানিয়েছে বিবিসি।
কুক বলেন, “হলিডে প্রান্তিকে অ্যাপলের সর্বোচ্চ প্রান্তিক আয় ও এমন কয়েকটি রেকর্ড ভাঙ্গার প্রতিবেদন প্রকাশ করতে পেরে আমরা আনন্দিত।”
বছরের সেপ্টেম্বর-ডিসেম্বর প্রান্তিকে বড়দিন আর শীতকালীন ছুটি থাকার কারণে পশ্চিমা দেশগুলোয় একে হলিডে প্রান্তিক বলে বিবেচনা করা হয়। এ সময় কেনাকাটার ধুম পড়ে বলে ব্যবসায় প্রতিষ্ঠানগুলোর আয়ও বাড়ে।
