২০১৫ সালে সেপ্টেম্বরে যুক্তরাষ্ট্রের এক তদন্তে ১ কোটি ১০ লাখ গাড়িতে এই জালিয়াতি করার কথা স্বীকার করে নেয় প্রতিষ্ঠানটি। এই জালিয়াতির ফলে বিশ্বব্যাপী প্রতিষ্ঠানটির ব্যবসায় প্রভাব পড়ে।
সোমবার ইউএস ফেডারেল এনভায়রেনমেন্ট প্রোটেকশন এজেন্সি (ইপিএ) -এর পক্ষ থেকে এই মামলা করা হয় বলে জানিয়েছে বিবিসি।
মামলার নথিতে বলা হয়, “ডিজেলচালিত ৬ লাখ গাড়িতে অবৈধ ডিভাইস ইনস্টল করা হয়, যা নিঃসরণ নিয়ন্ত্রণ ব্যবস্থা দূর্বল করে ও ইপিএ আদর্শের বেশি নিঃসরণ করে, যার ফলে ভয়াবহ বায়ুদূষণ সৃষ্টি হয়।”
ইপিএ থেকে অনুমোদন পাওয়া গাড়ি থেকে ভিন্ন নকশার গাড়ি বিক্রি করে প্রতিষ্ঠানটি স্বচ্ছ বায়ুর আইনও ‘লঙ্ঘন’ করেছে বলে অভিযোগ আনা হয়েছে এতে।
ইপিএ-এর অফিস অফ এনফোর্সমেন্ট অ্যান্ড কমপ্লায়েন্স অ্যাসিওরেন্স এর সহকারী প্রশাসক সিনথিয়া গিলস বলেন, “আজকের এই মামলার মাধ্যমে বেআইনি বায়ু দূষণে অভিযুক্ত ফোকসভাগেনকে ধরার পদক্ষেপ নিয়ে জনস্বাস্থ্য রক্ষায় গুরুত্বপূর্ণ পদক্ষেপ নিয়েছি।”
ফোকসভাগেনকে বিচারের আওতায় আনতে এই মামলা ‘প্রথম পদক্ষেপ’ বলে জানিয়েছে সংশ্লিষ্ট কর্তৃপক্ষ।
বর্তমানে আরও কিছু আলাদা অপরাধের অভিযোগ সামলাতে হচ্ছে এই জার্মান গাড়ি নির্মাতা প্রতিষ্ঠানটিকে।
