স্মার্টফোন অ্যাপগুলোর ক্ষেত্রে বিশ্বের সবচেয়ে বড় সামাজিক মাধ্যম ফেইসবুক ও মার্কিন সার্চ জায়ান্ট গুগল-এর আধিপত্য রয়েছে বলে উল্লেখ করা হয়েছে ব্যবসা-বাণিজ্যবিষয়ক মার্কিন সাইট বিজনেস ইনসাইডার-এর প্রতিবেদনে। যুক্তরাষ্ট্রের প্রাপ্তবয়স্কদের সবচেয়ে বেশি ব্যবহৃত অ্যাপগুলোর তালিকায় প্রথম ১০টির মধ্যে আটটিই এই দুই প্রতিষ্ঠানের মালিকানাধীন, এমনটাই দেখা যায় বিশ্লেষণা প্রতিষ্ঠান কমস্কোর-এর ২০১৭ ইউএস মোবাইল অ্যাপ রিপোর্ট-এ।  
এই প্রতিবেদন অনুযায়ী যুক্তরাষ্ট্রে নিচ থেকে সবচেয়ে বেশি ব্যবহৃত ১০ অ্যাপ ও এর ব্যবহারকারীর হারের তালিকা দেওয়া হল-
১০। পান্ডোরা- ৪১ শতাংশ
০৯। জিমেইল- ৪৪ শতাংশ
০৮। গুগল প্লে- ৪৭ শতাংশ
০৭। স্ন্যাপচ্যাট- ৫০ শতাংশ
০৬। ইনস্টাগ্রাম- ৫০ শতাংশ
০৫। গুগল ম্যাপস- ৫৭ শতাংশ
০৪। গুগল সার্চ- ৬১ শতাংশ
০৩। ফেইসবুক মেসেঞ্জার- ৬৮ শতাংশ
০২। ইউটিউব- ৭১ শতাংশ
০১। ফেইসবুক- ৮১ শতাংশ
