ফেইসবুকের প্রতিবেদন অনুযায়ী চলতি বছর জুলাই থেকে সেপ্টেম্বরে ফেইসবুকের আয় ২৪০ কোটি ডলার, যা ২০১৫ সালের এই প্রান্তিকের চেয়ে ১৬৬ শতাংশ বেশি। প্রধান নির্বাহী মার্ক জাকারবার্গ এই ফলাফলকে ‘আরেকটি ভাল প্রান্তিক’ বলে মন্তব্য করেন। ফেইসবুকে দেওয়া একটি পোস্টে তিনি বলেন, “আমাদের সম্প্রদায়ে এখন ১৮০ কোটি মানুষ আছে। অ্যাপ ব্যবহারের মাইলফলকটি ১২০ কোটি ছাড়িয়ে গেছে।"
তিনি আরও বলেন, “মে মাসের পর থেকে ফেইসবুক লাইভ ফিচারটির ব্যবহার চারগুণ বেড়েছে। আমরা ইনস্টাগ্রাম স্টোরিজ উন্মোচন করেছি ৩ মাস আগে, যা এখন প্রতিদিন প্রায় ১০ কোটি মানুষ ব্যবহার করছে। আমরা অ্যাপের মাধ্যমে একটি নতুন ক্যামেরা তৈরি করছি এবং আমরা আরও ভিজুয়াল মেসেজিং টুল যোগ করছি কিছু মাসের মধ্যেই।"
বিবিসি জানিয়েছে, ফেইসবুকের জন্য এতকিছু সোজা ছিল না। শেষ কয়েক মাসে প্রতিষ্ঠানটি অন্যায়ভাবে কনটেন্ট সরিয়ে ফেলা আর ব্যবহারকারীর ভিডিও দেখার আসল সংখ্যার থেকে বেশি হিসাব দেখানো নিয়ে ক্ষমা চেয়েছে ও দোষ স্বীকার করেছে।
