চলতি বছর জুনে ৫০ কোটি ব্যবহারকারীর মাইলফলক অতিক্রমের ঘোষণা দিয়েছিল প্রতিষ্ঠানটি। জুনের পর থেকে এ পর্যন্ত যোগ হয়েছেন আরও ১০ কোটি নতুন গ্রাহক, খবর রয়টার্স-এর।
এরই মধ্যে প্রতিষ্ঠানটি ইনস্টাগ্রাম স্টোরিজ নামের নতুন ফিচার চালু করে। এটি প্রতিদ্বন্দ্বী প্রতিষ্ঠান স্ন্যাপচ্যাটের একটি বিশেষ ফিচারের সঙ্গে মিলে যায়।
সেপ্টেম্বরে ইনস্টাগ্রাম সেইফটি টুল নামে নতুন আপডেট আনে। এর মাধ্যমে ব্যবহারকারীদের ছবি ও ভিডিও-তে আসা কমেন্ট নিয়ন্ত্রণের সুযোগ দেওয়া হয়। ক্রমবর্ধমান অনলাইন ‘ট্রলিং’ ঠেকাতে এই পদক্ষেপ নেওয়া হয়।
চলতি বছর প্রতিষ্ঠানটি বিজ্ঞাপন থেকে ১৫০ কোটি ডলার আয় করার আশা করছে বলে জানিয়েছে গবেষণা প্রতিষ্ঠান ইমার্কেটিয়ার
