চলতি বছর প্রথম সাত মাসের মধ্যে মোট ৫৭৯৭টি পেটেন্ট নিবন্ধন করেছে কম্পিউটার বাজারে একসময় আধিপত্য বিস্তার করা প্রতিষ্ঠানটি। আইবিএম-এর পরই অবস্থানটা দক্ষিণ কোরীয় টেক জায়ান্ট স্যামসাং ইলেকট্রনিকস-এর, বলা হয়েছে মার্কিন অনলাইন জার্নাল কোয়ার্টজ-এর প্রতিবেদনে। 
যুক্তরাষ্ট্রে প্রতিদিন গড়ে ১৯টি পেটেন্ট নিবন্ধন করেছে স্যামসাং, খবর আইএএনএস-এর।  
প্রতিবেদনে বলা হয়, চলতি বছর ১ অগাস্ট-এর আগ পর্যন্ত স্যামসাং ইলেকট্রনিকস মোট ৪১৪৩টি পেটেন্ট নিবন্ধন করে। সে হিসাবে দৈনিক গড় পেটেন্টের সংখ্যা দাঁড়ায় ১৯.৫। 
পেটেন্ট নিবন্ধনের দিক থেকে তৃতীয় অবস্থানে আছে চিপ নির্মাতা মার্কিন প্রতিষ্ঠান ইনটেল। তাদের নিবন্ধিত পেটেন্ট-এর সংখ্যা ২০৬৪টি।
১৭৭৫টি পেটেন্ট নিয়ে ইনটেল-এর পরের অবস্থানে আছে ওয়েব জায়ান্ট গুগল। আর পঞ্চম স্থানে থাকা সফটওয়্যার জায়ান্ট মাইক্রোসফটের পেটেন্ট সংখ্যা ১৬৭৩টি।
