তিনি বলেন, এমন ব্যক্তিরা “রাশিয়ার বিরুদ্ধে যারা বাজে কথা বলছেন তাদের বিরুদ্ধে  ন্যায্য লড়াইয়ে” যুক্ত হতে পারেন।  এক্ষেত্রে তিনি হ্যাকারদের শিল্পীদের সঙ্গে তুলনা করে বলেন, শিল্পীরা যেমন সারাদিন ছবি আঁকেন, হ্যাকাররাও তাদের প্রতিপক্ষকে আক্রমণের মাধ্যমে দিন পার করেন। 
২০১৬ সালে তার প্রশাসন মার্কিন প্রেসিডেন্ট নির্বাচন হ্যাকড করেছে বলে থাকা অভিযোগ আবারও প্রত্যাখান করেছেন পুতিন, বলা হয়েছে বিবিসি’র প্রতিবেদনে। তিনি বলেন, এই কার্যক্রম কখনোই সরকারি পর্যায়ে হয়নি আর  হ্যাকাররা ভোটারদের মন প্রভাবিত করতে পারেন না বলেই মত প্রকাশ করেন তিনি।
কয়েকজন মার্কিন রাজনীতিবিদ-এর মতে, রাশিয়া মার্কিন প্রেসিডেন্ট নির্বাচন ঘুরিয়ে দেওয়ার চেষ্টায় জড়িত থাকতে পারে। চলতি বছর মার্চে মার্কিন গোয়েন্দা সংস্থা এই অভিযোগ তদন্ত করার কথা নিশ্চিত করেছে।
