তিনি জানান, ডিজিটাল মুদ্রার গোপনীয়তা বিষয়টি সুরাহা হওয়ার প্রয়োজন, এ ছাড়াও এটি সাইবার আক্রমণ ও অপরাধমূলক কার্যক্রমপ্রবণ, যার সম্পর্কে সাবধানতা অবলম্বন করা উচিৎ। 
“কেন্দ্রীয় ব্যাংক কর্তৃক ইসু করা ডিজিটাল মুদ্রা সাইবার আক্রমণ, সাইবার জাল, এবং সাইবার চুরির জন্য একটি বৈশ্বিক লক্ষ্য হতে পারে”- লেনদেন প্রযুক্তির উপর ইয়েল ল’ স্কুল কর্তৃক আয়োজিত এক সম্মেলনে বলেন পাওয়েল।
পাওয়েল আরও জানান, বিটকয়েন-এর মতো ডিজিটাল মুদ্রা মানি লন্ডারিং বা মুদ্রাপাচারসহ বিশ্বব্যাপী অপরাধমূলক কার্যক্রমের ‘প্রধান লক্ষ্য’ হতে পারে। কেন্দ্রীয় ব্যাংকের ডিজিটাল মুদ্রার ইস্যুকৃত খাতের হিসাব রাখা উচিৎ কিন্তু এর ফলে গ্রাহকদের গোপনীয়তা রক্ষার বিষয়ে উদ্বেগ সৃষ্টি হতে পারে এবং এর গ্রহণযোগ্যতা কমতে পারে।
“আবার, অর্থ লেনদেন ও গোপনীয়তার মধ্যে গুরুত্বপূর্ণ বিনিময় প্রথাও হতে পারে” - মন্তব্য করেন পাওয়েল।
