এই হ্যাকের ফলে প্রতিষ্ঠানের ৯০ লাখ গ্রাহকের দুই তৃতীয়াংশই ঝুঁকির মধ্যে পড়বে বলে জানিয়েছে রয়টার্স।
গ্রাহকের জন্য ঝুঁকিপূর্ণ বলা হলেও কিছুটা আস্থার কথা জানিয়েছেন প্রতিষ্ঠানের মুখপাত্র নিকোলাস কার্টার। তিনি বলেন, “এই আপগ্রেড সিস্টেমে গ্রাহকের কোন অর্থ আদান প্রদানের তথ্য, কার্ডের তথ্য অথবা ব্যাংকের তথ্য নেই।”
প্রতিষ্ঠানের পক্ষ থেকে বলা হয়েছে আগের চার সপ্তাহে হ্যান্ডসেট জালিয়াতির সংখ্যা বেড়েছে। “এ পর্যন্ত আমরা নিশ্চিত হয়েছি যে, ৪০০ উচ্চ মূল্যের হ্যান্ডসেট চুরি করা হয়েছে এবং আটটি ডিভাইস বেআইনীভাবে আপগ্রেড অ্যাক্টিভিটির মাধ্যমে অধিগ্রহণ করা হয়েছে।”
