ভার্চুয়াল রিয়ালিটি ডেভেলপারদের সঙ্গে এক সম্মেলনে জাকারবার্গ বলেন, ‘অকুলাস গো’ নামের নতুন এই ডিভাইসের দাম হবে ১৯৯ ডলার। ২০১৮ সালের শুরুতে এটি বাজারে ছাড়া হবে।
এই প্রযুক্তির ব্যবহার বৃদ্ধির আশায় ফেইসবুক ভার্চুয়াল রিয়ালিটি হার্ডওয়্যার খাতে প্রচুর বিনিয়োগ করছে বলে উল্লেখ করা হয়েছে রয়টার্স-এর প্রতিবেদনে। এর মাধ্যমে ভার্চুয়াল জগতে ৩৬০ ডিগ্রি প্যানোরামিক দৃশ্য দেখার সুযোগ দেওয়া হয়। ছোট পরিসর থেকে এর প্রতি আগ্রহ ধীরে ধীরে গেইমিং, যোগাযোগ আর ব্যবসায়িক কাজের ক্ষেত্রগুলোতেও চলে আসবে।
২০১৪ সালে ফেইসবুক তিনশ’ কোটি ডলারের বিনিময়ে অকুলাসকে কিনে নেয়, রেখে দেওয়া হয় ভার্চুয়াল রিয়ালিটি হেডসেটে নির্মাতা প্রতিষ্ঠানটির কর্মীদেরও।
আগের হেডসেট রিফট বা এইচটিসি’র বানানো হেডসেটের চেয়ে অকুলাস গো ব্যবহার সহজ। ভাইভ আর রিফট- দুটি ব্যবহারের ক্ষেত্রেই ডেস্কটপ কম্পিউটার দরকার হয়।
এক সাক্ষাৎকারে অকুলাস গো নিয়ে ফেইসবুকের প্রধান প্রযুক্তি কর্মকর্তা মাইক স্ক্রোফার বলেন, “আমি মনে করি উড়োজাহাজে আপনারা এর অনেক ব্যবহার দেখতে পাবেন, কারণ আমার ফোন বা আসনের পেছনে থাকা মনিটরের চেয়ে এটি অনেক ভালো।”
মার্ক জাকারবার্গ-এর ফেইসবুক অ্যাকাউন্ট থেকে নেওয়া
স্যামসাং স্মার্টফোন নেই এমন লোকদের লক্ষ্য করে এই ডিভাইস বানানো হয়েছে বলে জানান স্ক্রোফার। অকুলাস আর স্যামসাং মিলে ইতোমধ্যে গিয়ার ভিআর নামের একটি হেডসেট বিক্রি করে। নির্দিষ্ট স্যামসাং স্মার্টফোনগুলোর সঙ্গে ব্যবহারে এই গিয়ার ভিআর থেকে অকুলাস গো-এর মতো সেবা পাওয়া যায়। 
মার্কিন প্রযুক্তি জায়ান্ট অ্যালফাবেট ‘গুগল ডেড্রিম’ নামের একটি হেডসেট বিক্রি করে। এটি আরও বেশি সংখ্যক স্মার্টফোনের সঙ্গে কাজ করে।
অকুলাস গো আনার পর এবার ফেইসবুক রিফট-এর দাম ৪৯৯ ডলার থেকে কমিয়ে ৩৯৯ ডলারে নিয়ে আসবে বলে জানিয়েছে।
চলতি বছর ফেইসবুক ২,১৩,০০০টি রিফট সিস্টেম বিক্রি করবে বলে আশা করা হচ্ছে। এইচটিসি’র ভাইভ-এর ক্ষেত্রে অংকটা ৩,০৫,০০০ বলে জানিয়েছে গবেষণা প্রতিষ্ঠান সুপার ডেটা। 
দাম কমানো ছাড়াও আরও বেশি গ্রাহক টানতে ফেইসবুক নতুন নতুন প্রযুক্তির দিকেও ঝুঁকছে। প্রতিষ্ঠানটি ফেইসবুক স্পেইসেস নামের একটি সফটওয়্যার আরও উন্নত করছে। এর মাধ্যমে বন্ধুরা একটি ভার্চুয়াল কক্ষে সাক্ষাৎ করতে পারবেন। সেই সঙ্গে শীঘ্রই এর সঙ্গে সরাসরি ভিডিও ব্যবস্থা আনা হবে বলে জানিয়েছে প্রতিষ্ঠানটি।
