গ্রাহককে ‘আরও ভালো অভিজ্ঞতা দিতে’ একটি প্ল্যাটফর্মে বিভিন্ন অ্যাপের নোটিফিকেশন চালুর কথা ‘ভাবছে’ প্রতিষ্ঠানটি। নতুন ফিচার চালু হলে ফেইসবুক অ্যাপের মধ্যেই মেসেঞ্জার ও ইনস্টাগ্রাম-এর নোটিফিকেশন পাওয়া যাবে, বলা হয়েছে প্রযুক্তিবিষয়ক সাইট সিনেট-এর প্রতিবেদনে।
গ্রাহক যাতে আরও বেশি সময় ফেইসবুকে থাকেন সে লক্ষ্যেই নতুন এই ফিচার চালু করতে যাচ্ছে প্রতিষ্ঠানটি। এতে নোটিফিকেশন চেক করা গ্রাহকের জন্য সহজ হবে বলে উল্লেখ করা হয়।
নতুন ফেইসবুক অ্যাপের আপডেট দেওয়া হলে নিউজ ফিডের ওপরে ডান দিকে গোলাকার আইকন দেখতে পাবেন গ্রাহক। এতে নোটিফিকেশনের সংখ্যা দেখানো হবে। আইকনটিতে চাপলে গ্রাহক ফেইসবুক, মেসেঞ্জার এবং ইনস্টাগ্রাম যে কোনো একটিতে সুইচ করতে পারবেন।
সিনেট-কে এক বিবৃতিতে ফেইসবুকের পক্ষ থেকে বলা হয়, “গ্রাহকের জন্য ফেইসবুক, মেসেঞ্জার এবং ইনস্টাগ্রাম অ্যাকাউন্টের মধ্যে সুইচ করাটা আরও সহজ করতে একটি খুব ছোট পরীক্ষা চালানো হচ্ছে।”
