লেজার-নির্দেশিত এই 'গেটা' (গেট এ কার) রোবট যানবাহনের নিচে 'স্লাইড' করতে পারে। গাড়ির নিচে থাকা রোবট 'স্লাইড'গুলো পার্কিং লটে একটি পার্কিং স্পেস খুঁজে বের করে এবং কম জায়গায় গাড়ি পার্ক করে।
"রোবট একটি গাড়ির পার্কিং করার জন্য মাত্র দুই মিনিট সময় নেয়। এর জন্য কোনো নির্দিষ্ট গতিপথ মেনে চলে না বরং ৩৬০ ডিগ্রিতেই গতিশীল থাকতে পারে এই রোবট। এভাবে মানুষের চেয়ে ভালভাবে জায়গার সদ্ব্যবহার করতে পারে", রয়টার্স-কে এভাবেই বলেন দক্ষিণ চীনের শেনজেন শহরে অবস্থিত 'ইয়ে ফাং অটোমেশন' প্রযুক্তি -এর প্রধান নির্বাহী এবং 'গেটা' এর উদ্ভাবক মার্কো উ।
"পার্কিং রোবট মূলত পার্কিং স্পেস-এর সর্ব্বোচ্চ ব্যবহারের জন্য ডিজাইন করা হয়েছে।" তিনি আরও বলেন, "রোবটটি সর্বত্র যেতে পারে এবং ভবিষ্যতে এই রোবট পার্কিং সংস্কারে ব্যবহার করা হবে।"
২০২০ সালের মধ্যে চীনে ২০০ কোটি নতুন গাড়ি রাস্তায় নামবে বলে ধারণা করা হচ্ছে। ফলে পার্কিংয়ের জন্য পর্যাপ্ত জায়গা পাওয়া কঠিন হবে বলে আশঙ্কা প্রকাশ করেছে দেশটির সরকার, জানিয়েছে রয়টার্স।
উ বলেন 'গেটা' একটি কম্পিউটারে রাখা একটি মানচিত্র থেকে সংকেত প্রেরণের মাধ্যমে ফাঁকা জায়গা খুঁজে বের করে এবং পরে সেই ফাঁকা স্থানে রোবটকে চলতে নির্দেশ দেয়।
বেগুনী আর হালকা সবুজ রোবট কিনতে ১০ লাখেরও বেশি ইউয়ান খরচ হবে এবং উ জানান, শহরের যেসব জায়গায় জমির দাম বেশি সেখানের মানুষ এই রোবট কিনতে বেশি আগ্রহী।
