এই যন্ত্রটির আরও কিছু ফিচার রয়েছে। এর মধ্যে উল্লেখযোগ্য হচ্ছে ফাইভ স্টেপ এইচইপিএ ফিল্টারেশন সিস্টেম, ১৪০ এডাব্লিউ অফ সাকশন, ধূলা খুঁজে বের করার জন্য ‘এক্সিয়াল টার্বো সাইক্লোন এবং অ্যান্টি-ট্যাঙ্গল ব্রাশ রোল।
ধূলা পরিষ্কারকারী এই যন্ত্রটির ব্যাটারি একবার চার্জ দিলে ৮০ মিনিট কাজ করবে এবং যন্ত্রটি পুরো সময় ধরে দক্ষতার সঙ্গে পরিষ্কার করতে সক্ষম।
এলজি এখনও এই পণ্যের দাম সম্পর্কে কিছু জানায়নি।
এর আগে সিইএস-এ শূন্যে ভাসমান স্পিকার উন্মোচন করা হবে বলে জানায় প্রতিষ্ঠানটি। প্রতিষ্ঠানটির তৈরি এই ‘লেভিটেটিং পোর্টেবল স্পিকার’ শূন্যের উপর ভাসতে থাকবে এবং মিউজিক বাজতে থাকবে। চুম্বক ক্ষেত্রের মাধ্যমে স্পিকারটি ভাসিয়ে রাখা হবে বলে জানানো হয়। ‘পিজে৯’ স্পিকারটি এর ‘লেভিটেশন স্ট্যান্ডের’ মধ্যে থাকা শক্তিশালী চুম্বকের সাহায্যে ভেসে থাকে। একবার পূর্ণ চার্জে এটি ১০ ঘন্টা ভাসমান অবস্থায় মিউজিক বাজাতে পারে।
