প্রতিশ্রুতিশীল স্মার্টফোন বাজার ইন্দোনেশিয়ায় অ্যাপল সম্প্রতি এক চুক্তি করেছে, যার মাধ্যমে স্থানীয় বাজারে প্রতিষ্ঠানটির অন্তত ৩০ শতাংশ পণ্য বিক্রি হবে। সব ধরনের সফটওয়্যার, হার্ডওয়্যার আর বিনিয়োগে এই চুক্তি অনুসরণ করা হবে বলে জানিয়েছে রয়টার্স।
চলতি বছরের নভেম্বর মাসে অ্যাপল ‘লোকাল কনটেন্ট সার্টিফিকেশন’ পেয়েছে বলে এক এসএমএস বার্তায় জানিয়েছেন ধাতু, মেশিন, পরিবহন সরঞ্জাম এবং শিল্প মন্ত্রণালয়ের মহাপরিচালক আই গুসটি পুটু সুরিয়াইয়ুইরাওয়ান।
“আরঅ্যান্ডডি চুক্তির মাধ্যমে তিন বছরে অ্যাপল চার কোটি ৪০ লাখ মার্কিন ডলার বিনিয়োগ করতে প্রতিশ্রুতিবদ্ধ হয়েছে।” জানান  সুরিয়াইয়ুইরাওয়ান। “এভাবে তারা ৬০ লাখ রুপিয়া বা তার বেশি মূল্যের ডিভাইস বিক্রি করতে পারবে। অর্থাৎ আইফোন বিতরণ করতে পারবে প্রতিষ্ঠানটি।”
