ওই ভিডিওতে দেখা যায়, আইএসএস-এর বাইরে পৃথিবীর নীল কক্ষপথের ব্যাকগ্রাউন্ডে নভোচারীরা স্পেস সুট পরে কাজ করছেন। 'ইউনিল্যাড' নামের ফেইসবুক পেইজ থেকে দেওয়া ওই ভিডিও প্রায় ১৭ মিলিয়ন দর্শক দেখেছেন আর 'ভাইরাল ইউএসএ' নামের পেইজ থেকে সংখ্যাটা প্রায় ২৬ মিলিয়ন, জানিয়েছে বিবিসি। বাংলাদেশসহ বিশ্বের বিভিন্ন দেশের ফেইসবুক ব্যবহারকারী এই ভিডিও দেখেন ও এতে লাইক, কমেন্ট দেন, কেউ কেউ আবার শেয়ারও করেন।
ভাইরাল ইউএসএ-তে দেখানো এই ভিডিও'র কিছু অংশ নভোচারী টেরি ভার্টস-এর ২০১৫ সালের ফেব্রুয়ারিতে করা মহাকাশযাত্রা থেকে নেওয়া। আর ইউনিল্যাড পেইজে দেখানো ভিডিও'র ফুটেজ নেওয়া হয় ২০১৩ সালে রুশ নভোচারীদের অভিযান থেকে নেওয়া।   
নাসা জানিয়েছে, মানুষ যখন মহাকাশ নিয়ে আগ্রহী হয়ে উঠে তখন মহাকাশ সংস্থাগুলোও "আনন্দিত" হয়। আর এই ভিডিও দেখতেও মানুষের আগ্রহের কমতি ছিল না তা তো ভিডিও'র দর্শক আর কমেন্ট করা ব্যবহারকারিদের সংখ্যা দেখলেই বোঝা যায়। 
