২০১১ সালে সর্বপ্রথম নোট সিরিজ নিয়ে আসে স্যামসাং। এবার বাজারে আসা সম্পূর্ণ নতুন গ্যালাক্সি নোট৮ সাজানো হয়েছে ইনফিনিটি ডিসপ্লে, উন্নত এস পেন এবং অপটিক্যাল ইমেজ স্ট্যাবিলাইজেশনসহ ডুয়াল ক্যামেরা  দিয়ে।
ইতোমধ্যে দেশের বাজারে গ্যালাক্সি নোট ৮-এর প্রি-অর্ডার চালু করেছে স্যামসাং।  টেলিকম অপারেটর গ্রামীণফোন-এর বান্ডল অফারের সঙ্গে নোট ৮-এর প্রি-অর্ডার চলবে ২৭ অগাস্ট থেকে ২১ সেপ্টেম্বর পর্যন্ত। গ্রাহকরা প্রিঅর্ডারনোট৮ ডটকম বা গ্রামীণফোন ডটকম থেকে ডিভাইসটি প্রি-অর্ডার করতে পারবেন।
বাংলাদেশে স্যামসাং-এর সকল অনুমোদিত স্টোর ও গ্রামীনফোন সেন্টারে গ্যালাক্সি নোট ৮ হ্যান্ডসেটটি পাওয়া যাবে।
গ্যালাক্সি নোট ৮-এর মূল্য রাখা হয়েছে ৯৪,৯০০ টাকা। ৪,৯০০ টাকা জমা দিয়ে সর্বনিম্ন ২,৫০০ টাকা করে ৩৬ মাসের ইএমআই-এর মাধ্যমেও ডিভাইসটি কেনা যাবে।
