ফেইসবুক প্রধান নির্বাহী মার্ক জাকারবার্গ বলেন, প্লাটফর্মটির নিউজ ফিডে এখন থেকে ‘সংশ্লিষ্ট কনটেন্ট’-এর চেয়ে ‘অর্থপূর্ণ সামাজিক যোগাযোগ’ সম্পর্কিত কনটেন্টে বেশি প্রাধান্য দেওয়া হবে। এর ফলে সামাজিক মাধ্যমে মানুষের সময় ব্যয় কমবে বলে আশা প্রকাশ করেন তিনি।
জাকারবার্গ বলেন, “কিন্তু আমি আশা করি ফেইসবুকে আপনি যে সময় ব্যয় করবেন তা আরও মূল্যবান হবে। আর আমরা যদি সঠিক কাজটি করে থাকি, আমি বিশ্বাস করি এটি দীর্ঘ মেয়াদে আমাদের সমাজ আর আমাদের ব্যবসায়ের জন্য ভালো হবে।”
যদিও এই পরিবর্তন আসতে সময় লাগবে বলে জানিয়েছেন জাকারবার্গ, তবে ব্যবহারকারীরা এখন থেকেই তাদের নিউজ ফিডে প্রকাশনা আর ব্যবসায় প্রতিষ্ঠানগুলোর পোস্ট কম আর বন্ধু ও পরিবারের লোকদের কনটেন্ট বেশি আসা দেখতে শুরু করবেন।
ফেইসবুক পেইজগুলোকে সতর্ক করে জানিয়েছে, পেইজগুলোর পোস্ট পৌঁছানো আর ভিডিও দেখার সময় কমে যাবে।
