রোববার প্রযুক্তি সাইট সিনেটের প্রতিবেদনে বলা হয়, গুগল মুখপাত্র ম্যাগি শিয়েলস বলেছেন, “আমরা আয়ের বিষয়ে এখনও কোনো চূড়ান্ত সিদ্ধান্তে আসিনি।”
“আমরা এখনও সাবস্ক্রিপশন নিয়ে কোনো সিদ্ধান্তে আসিনি আর এ নিয়ে প্রকাশকদের সঙ্গে আমাদের কথা বলা উচিৎ।” 
সংবাদ প্রকাশকদের সঙ্গে আয় ভাগ করে নেওয়ার খবরকে ‘পুরোপুরি মিথ্যা’ বলে আখ্যা দিয়েছে গুগল।
এর আগে কিছু প্রতিবেদনে বলা হয়, গুগল ইউটিউব ব্যক্তিত্ব আর তৃতীয় পক্ষের বিজ্ঞাপনদাতাদের সঙ্গে যেভাবে আয় ভাগ করে ঠিক সেভাবে সংবাদ প্রকাশকদের সঙ্গে আয় ভাগ করবে। এর মাধ্যমে সংবাদ প্রকাশকদের একটি গ্রাহক ভিত্তির সঙ্গে যুক্ত করতে সহায়তা করা হবে বলেও খবর বের হয়- বলা হয়েছে আইএএনএস-এর প্রতিবেদনে।
ফিন্যান্সিয়াল টাইমস-এর প্রতিবেদনে রিচার্ড গিংরাস-এর উদ্ধৃতি দিয়ে বলা হয়, “গুগল সাবস্ক্রিপশন থেকে হওয়া আয়ের ৩০ শতাংশের কম কেটে রাখতে পারে।”
