বুধবার এ বিষয়ের সঙ্গে সংশ্লিষ্ট সূত্রের বরাতে এ খবর প্রকাশ করে মার্কিন সংবাদমাধ্যম সিএনবিসি। সংবাদমাধ্যমটির প্রতিবেদনে বলা হয়,এএমডি’র অঙ্গপ্রতিষ্ঠান গ্লোবালফাউন্ড্রিজ-এর প্রধান নির্বাহী সাঞ্জায় ঝা বলেছেন তার প্রতিষ্ঠান সরাসরি টেসলার সঙ্গে কাজ করছে।
ওই সূত্রের তথ্যমতে, টেসলা পুরোপুরি একা এই চিপ বানাবে না। এই চিপ এএমডি’র মেধাসত্ত্ব ব্যবহার করে বানানো হবে।
টেসলার অটোপাইলট হার্ডওয়্যার অ্যান্ড সফটওয়্যার প্রধান ও চিপ নির্মাতা জিম কিলার-এর অধীনে এই প্রকল্পে ৫০ জনেরও বেশি লোক কাজ করছেন।
এ খবর প্রকাশের পর এএমডি’র শেয়ারমূল্য ২.২ শতাংশ বেড়ে যায়।
