স্পর্শকাতর তথ্যের মধ্যে ব্যবহারকারীদের আয়, তারা কোন রেস্টুরেন্টে বেশি যান এমনকি তারা কতগুলো ক্রেডিট কার্ড ব্যবহার করেন, তাও সংরক্ষণ করা হয়, জানিয়েছে ব্যবসা-বাণিজ্যবিষয়ক মার্কিন সাইট বিজনেস ইনসাইডার।
জনতার আগ্রহে তদন্তমূলক সাংবাদিকতা করার দাবি করা অলাভজনক মার্কিন প্রতিষ্ঠান প্রোপাবলিকা ২০১৬ সালের সেপ্টেম্বর থেকে ফেইসবুক ব্যবহারকারীদের তাদের আগ্রহের কথা জানানোর উৎসাহ দিয়ে আসছে। 
ফেইসবুক জানিয়েছে, তারা ব্যবহারকারীদের সম্পর্কে “নতুন ভিন্ন ভিন্ন উৎস” থেকে তথ্য সংগ্রহ করছে। কিন্তু তারা যা বলেনি তা হচ্ছে ওই উৎসগুলোর মধ্যে ব্যবহারকারীদের অফলাইন জীবনের নানা তথ্য রাখে এমন বাণিজ্যিক ডেটা ব্যবসায়গুলোর বিস্তারিত দলিলও রয়েছে। এসব উৎস থেকে ফেইসবুক উল্লেখযোগ্য যে বিস্তারিত তথ্য পায় তা অধিকাংশ সময়ই ব্যবহারকারীদের দেখায় না, বলা হয়েছে বিজনেস ইনসাইডার-এর প্রতিবেদনে।
সেন্টার ফোর ডিজিটাল ডেমোক্রেসি’র নির্বাহী পরিচালক জেফরি চেস্টার বলেন, “তারা সৎ থাকছে না। একজন গ্রাহককে লক্ষ্য করতে ফেইসবুক এক ডজন ভিন্ন ডেটা প্রতিষ্ঠানকে এক করছে, আর একজন ব্যক্তিরও ওই জোটে অ্যাকসেস থাকা উচিৎ।”
মার্কিন সাইটটি জানায়, প্রকাশের অভাব নিয়ে চলতি সপ্তাহে জিজ্ঞাসা করা হলে ফেইসবুক জানিয়েছে, তারা ব্যবহারকারীদের থার্ড-পার্টি থেকে ডেটা সম্পর্কে জানায় না কারণ এটি বিস্তৃতভাবে পাওয়া যায় আর এই তথ্য ফেইসবুকের সংগ্রহ করা নয়। 
ফেইসবুকের প্রাইভেসি ও জননীতিবিষয়ক ব্যবস্থাপক স্টিভ স্যাটারফিল্ড বলেন, “থার্ড-পার্টি খাতগুলো নিয়ন্ত্রণে আমাদের পথ, ফেইসবুক-নির্দিষ্ট খাতগুলোতে আমাদের পথের তুলনায় ভিন্ন। এর কারণ হচ্ছে যেসব ডেটা সরবরাহকারীদের সঙ্গে আমরা কাজ করছি তারা সাধারণত তাদের খাতগুলো শুধু ফেইসবুকই নয়, আরও অনেক বিজ্ঞাপনী প্লাটফর্মের জন্যও দেয়।”
তিনি জানান, যেসব ব্যবহারকারী তাদের ও তথ্য ফেইসবুকের কাছে রাখতে চান না, তাদের উচিৎ সরাসরি ওই ডেটা সরবরাহকারীদের সঙ্গে যোগাযোগ করা। ব্যবহারকারীদের এ জন্য ফেইসবুকের হেল্প সেন্টার-এর পেইজ ভিজিটের পরামর্শ দেন তিনি। ফেইসবুকের কাছে ব্যক্তিগত ডেটা বিক্রি করে এমন ছয় ডেটা সরবরাহকারীর লিংক বেছে নেওয়া যাবে বলে জানান তিনি।
