নতুন এই দুইটি অ্যাপ দিয়ে আইফোনের সঙ্গে দক্ষিণ কোরীয় প্রতিষ্ঠানটির ওই পরিধেয় ডিভাইসগুলো যুক্ত করা যাবে। আর আগের মতোই এগুলো অ্যান্ড্রয়েড ডিভাইসের সঙ্গে ব্যবহার করার সুবিধা তো রয়েছেই। 
স্যামসাং জানিয়েছে, স্মার্টওয়াচে ‘গিয়ার এস’ নামের অ্যাপটি ডাউনলোড এবং ইনস্টল করে ব্যবহারকারী ডিভাইসের স্বাস্থ্য এবং ফিটনেসবিষয়ক তথ্যের নোটিফিকেশন ফোনে পেতে পারেন। এখন প্রতিদ্বন্দ্বী অ্যাপলের আইফোন থেকেও নোটিফিকেশন ডিভাইসে যাবে এবং স্বাস্থ্যবিষয়ক তথ্য সংগ্রহ করা যাবে।
নতুন এই অ্যাপগুলো প্রথমবারের মতো স্যামসাংয়ের পরিধেয় ডিভাইসগুলোতে আইওএস-এর সমন্বয় আনলেও, এখনও এই প্রতিষ্ঠানের সব ডিভাইসের (যেমন- তারবিহীন ইয়ারবাড আইকন এক্স) জন্য এই অ্যাপ চালু করা হয়নি।
২০১৩ সালে গিয়ার ওয়াচ উদ্বোধনের মাধ্যমে স্যামসাং স্মার্টওয়াচের বাজারে প্রথম প্রবেশ করে।
