ব্যাতিক্রমী এই স্মার্টওয়াচটির শুধু স্ক্রিনই নয় এর রিস্ট ব্যান্ডও পরিবর্তনশীল। অর্থাৎ এর রিস্ট ব্যান্ডটিও স্ক্রিনের মতই কাজ করবে। ব্যবহারকারী তার ইচ্ছামত অ্যাপের মাধ্যমে ব্যান্ডের ডিজাইন পরিবর্তন করতে পারবে, জানিয়েছে ফক্সনিউজ।
গ্রাহক তার চাহিদা অনুযায়ী ২৪ রকমভাবে স্মার্টওয়াচটির ব্যান্ড পরিবর্তন করতে পারবে। তারিখ সময়ের পাশাপাশি এতে ক্যালেন্ডারের তথ্য দেখানো যাবে বলে জানানো হয়।
সনির পক্ষ থেকে দাবি করা হয় স্মার্টওয়াচটির ব্যাটারি অন্তত তিন সপ্তাহ স্থায়ী হবে। এ ছাড়াও এটি সম্পূর্ণ পানিনিরোধী বলেও জানিয়েছে প্রতিষ্ঠানটি।
এর আগেও এমন ধরনের আরেকটি স্মার্টওয়াচ বাজারে আনে সনি। তবে, তেমন জনপ্রিয়তা না পাওয়ায় স্মার্টওয়াচটি মার্কিন যুক্তরাষ্ট্রের বাজারে ছাড়া হলেও যুক্তরাজ্যে এটি উন্মোচন করা হয়নি। আগের তুলনায় নতুন স্মার্টওয়াচ নিয়ে বেশ আশাবাদী প্রতিষ্ঠানটি। আপাতত জাপানের বাজারে স্মার্টওয়াচটি উন্মোচন করবে সনি।
