পাঞ্জাব ইনফরমেশন টেকনোলজি বোর্ড-এর চেয়ারম্যান ড. ওমর সাইফ জানান, এ প্রকল্পে প্রথম স্মার্টফোনগুলো চলতি বছর অক্টোবরে দেওয়া হবে। 
এই ডিভাইসগুলোর মাধ্যমে বিশেষজ্ঞদের পরামর্শও দেওয়া হবে বলে জানিয়েছে বিবিসি।
ড. সাইফ বলেন, "কৃষকরা তাদের ফসলের জন্য কীটনাশক ব্যবহারের বিষয়ে বিনামূল্যে বার্তা পাবেন।" ভারত ও কেনিয়া'র মতো দেশে সাম্প্রতিককালে এই স্মার্টফোন প্রযুক্তির পরীক্ষা চালানো হয়েছে বলে জানিয়েছে ব্রিটিশ সংবাদমাধ্যমটি।
ডেনমার্ক-এর আলবর্গ ইউনিভার্সিটি-এর হেন্ডরিক নচে সম্প্রতি এক বিশেষ স্মার্টফোন ইন্টারফেইস বানানোর প্রকল্পে জড়িত ছিলেন। নিরক্ষর কৃষকরাও ওই স্মার্টফোন ব্যবহার করতে পারবেন।
