এমন পরিস্থতিতে রোবটের ব্যবহার হয়তো অপারেশনগুলো কার্যকর করতে নিরাপত্তা বাহিনীদের সহায়তা করতে পারে। এই ধারণা মাথায় রেখে আয়োজন করা হচ্ছে এ ধরনের পরিস্থিতে সহায়তা করবে এমন রোবট তৈরির প্রতিযোগিতা।   
২১-২২ ডিসেম্বর সিলেট এ অবস্থিত নর্থ ইস্ট বিশ্ববিদ্যালয়ের সিএসই সোসাইটির আয়োজনে অনুষ্ঠিত হতে যাচ্ছে ‘পূবালী ব্যাংক টেকহান্ট-২০১৭’ উৎসব। এই আয়োজনের প্রথম দিন ২১ ডিসেম্বর সকাল ৯টা থেকে শুরু হবে এ রোবট তৈরির প্রতিযোগিতা, বলা হয়েছে আয়োজকদের পাঠানো এক প্রেস বিজ্ঞপ্তিতে।  
এতে একটি অ্যারেনা দেওয়া হবে যেখানে ‘রাফ-টেরেইন জোন’, ‘ল্যান্ডমাইন জোন’, সিঁড়ি , বোমা-নির্দিষ্ট স্থানে সরানো, দরজা খোলার মতো বিভিন্ন চ্যালেঞ্জ থাকবে। রাফ-টেরেইন জোনে কিছু ভাঙ্গা ইট-সুরকির মত জায়গা রোবটকে পার হয়ে যেতে হবে। ল্যান্ডমাইন জোনে মাইন এড়িয়ে নিরাপদে পার হতে হবে। সিঁড়ি দিয়ে উঠে দরজার সামনে রাখা লাল রঙের বোমা ধরে উঠিয়ে একটু দূরে রাখা বালুভর্তি বালতিতে ফেলতে হবে।
প্রত্যেক দলকে দুটি রাউন্ড খেলতে হবে। পয়েন্ট এর ভিত্তিতে প্রথম, দ্বিতীয়, তৃতীয় বিজয়ী নির্বাচিত হবে। পুরস্কার হিসেবে থাকবে ৪০ হাজার, ৩০ হাজার এবং ২০ হাজার টাকা। এছাড়া চ্যাম্পিয়ন দলকে ক্রেস্ট প্রদান করা হবে।
