মঙ্গলবার ফেইসবুক নতুন তিন ফিচার উন্মোচন করে। এগুলো হচ্ছে ফেইসবুক ক্যামেরা ইফেক্টস, ফেইসবুক ডিরেক্ট আর ফেইসবুক স্টোরিজ। এই ফিচারগুলো ফেইসবুক ব্যবহারকারীদের তাদের ছবির সঙ্গে ফ্রেইম যোগ করা আর স্টোরি সেইভ করে রাখার মতো সুযোগ দেয়। এই সেইভ করা স্টোরি শেয়ারও করা যায়। ইতোমধ্যেই স্ন্যাপচ্যাট ব্যবহারকারীদের এসব ফিচার দিয়ে আসছে।
ওই দিন স্ন্যাপচ্যাটের মালিকানাধীন প্রতিষ্ঠান স্ন্যাপের প্রতি শেয়ার মূল্য প্রায় ২২ ডলারে নেমে যায়। এর আগে সোমবার এর শেয়ার মূল্য পাঁচ শতাংশ বেড়ে প্রতি শেয়ার মূল্য প্রায় ২৪ ডলার হয়েছিল। 
এ নিয়ে সিএনবিসি’র পক্ষ থেকে অনুরোধ করা হলেও স্ন্যাপ-এর পক্ষ থেকে তাৎক্ষণিকভাবে কোনো সাড়া পাওয়া যায়নি, বলা হয়েছে সংবাদমাধ্যমটির প্রতিবেদনে।
অন্যদিকে, মঙ্গলবার ফেইসবুকের শেয়ার মূল্য এক শতাংশ বেড়ে যায়, প্রতি শেয়ার মূল্য হয়েছিল প্রায় ১৪২ ডলার।
চলতি মাসের শুরুতে প্রতি শেয়ার ১৭ ডলার দামে মার্কিন শেয়ারবাজারে যাত্রা শুরু করে স্ন্যাপ। শেয়ারমূল্যের হিসাবে প্রতিষ্ঠানটির সে সময়ের বাজারমূল্য ছিল দুই হাজার চারশ’ কোটি ডলার।
২০১৬ সালের শেষ দিকে মার্কিন সিকিউরিটিস অ্যান্ড এক্সচেঞ্জ কমিশন-এ আইপিও অনুমোদন পেতে নিবন্ধন করে স্ন্যাপ। ২০১২ সালে প্রথমবারের মতো চালু হয় স্ন্যাপচ্যাট। শুরু থেকেই এর মূল বিশেষত্ব হচ্ছে- এতে ছবি পাঠানো হলে তা কয়েক সেকেন্ডের মধ্যে গায়েব হয়ে যায়। এখন টুইটার এবং ফেইসবুকের সঙ্গে পাল্লা দিয়ে এগোচ্ছে অ্যাপটি।
