ওয়েবসাইটে এক বিবৃতিতে গুগলের পক্ষ থেকে বলা হয়, “অ্যান্ড্রয়েড বেটা প্রোগ্রামে আপনাদের আগ্রহের জন্য ধন্যবাদ। অ্যান্ড্রয়েড নুগাট-এর বেটা শেষ করা হয়েছে, আর এজন্য যত ডিভাইসে এটি দেওয়া হয়েছিল সেগুলো বর্তমানে থাকা পাবলিক সংস্করণে আপডেট হয়ে যাবে।”
এতে আরও বলা হয়, “যদি আপনি এখনও নুগাট-এর বেটা সংস্করণ ব্যবহার করে থাকেন তবে আপনি আপনার ডিভাইসের জন্য সর্বশেষ পুরো ওটিএ ইমেইজ ডাউনলোড করতে পারেন। এটি আপনার ডিভাইস মুছে দেবে না। আমরা অ্যান্ড্রয়েড ও বেটা প্রোগ্রাম শুরুর পর এটি আপডেট করে দেব। 
এখন পর্যন্ত গুগল অ্যান্ড্রয়েড নুগাট-এর বেটা সংস্করণের সঙ্গে অ্যান্ড্রয়েড ও-এর ‘ডেভেলপার প্রিভিউ’ সংস্করণ দিয়ে আসছিল। অ্যান্ড্রয়েড ও এই অপারেটিং সিস্টেমের পরবর্তী সংস্করণ হবে বলেই শোনা যাচ্ছে, বলা হয়েছে আইএএনএস-এর প্রতিবেদনে।
