সারা বিশ্ব থেকে ভালোভাবেই বিচ্ছিন্ন উত্তর কোরিয়া। নানা বিধি মোতাবেক এর সঙ্গে নেই অধিকাংশ দেশের বাণিজ্য সম্পর্ক। এমনকি সামীবদ্ধ করে রাখা হয়েছে দেশটির নাগরিকদের ইন্টারনেট অ্যাকসেস করার সুযোগও।
উত্তর কোরিয়া সম্পর্কিত সংবাদদাতা মার্কিন সাইট এনকে নিউজ-এর বরাতে প্রযুক্তি সাইট ভার্জ জানিয়েছে, দেশটির বাসিন্দাদের জন্য আনা হয়েছে নিজস্ব ভিডিও সম্প্রচার সেবা।
ম্যানবাং নামের এই স্ট্রিমিং সার্ভিস উন্মোচন করেছে কোরিয়া সেন্ট্রাল টেলিভিশন। এই 'ম্যানবাং' শব্দের অর্থ হচ্ছে 'সবখানে' বা 'সর্বত্র'। এর মাধ্যমে দেশের দর্শকরা ডকুমেন্টারি বা অন্যান্য অনুষ্ঠান পুনরায় চালিয়ে দেখতে পাবেন। সেই সঙ্গে যারা রুশ বা ইংরেজি ভাষা শিখতে চান, তাদের জন্য ভাষা শিক্ষা কার্যক্রমও পরিচালনা করা হবে এতে। 
এই ডিভাইসে একটি ইন্টারনেট প্রটোকল টেলিভিশন ব্যবহার করা হয়েছে, যা পুরোপুরি আলাদা একটি বক্স হিসেবে কাজ করে, অনেকটা অ্যাপল টিভি'র মতো। এটি কয়েকটি উত্তর কোরীয় নেটওয়ার্কে সরাসরি অ্যাকসেস দেয়।
এর আগে চলতি বছর মে মাসে উত্তর কোরিয়াতেই ফেইসবুকের একটি প্রতিরূপ বানানো হয়। বেস্ট কোরিয়া'স সোশাল নেটওয়ার্ক নামের এই সামাজিক যোগাযোগের মাধ্যমে বিশ্বের যে কোনো দেশের যে কোনো মানুষ অ্যাকাউন্ট খুলতে পারেন।
ডাইন-এর গবেষক ডাগ ম্যাডোরি এই ওয়েবসাইটের সার্ভার শনাক্ত করেছেন, এবং এটি উত্তর কোরিয়া থেকে চালানো হচ্ছে বলে তিনি জানান। ডাইন একটি মার্কিন প্রতিষ্ঠান, যারা বিশ্বব্যাপী ইন্টারনেট ব্যবহার আর অ্যাকসেস নিয়ে পর্যবেক্ষণ করে থাকে।
