রয়টার্স-এর প্রতিবেদনে বলা হয়, অ্যাপলের ভয়েস অ্যাসিস্টেন্ট সেবা সিরি’র সঙ্গে চুক্তি বাতিল হওয়ার পর এমন সিদ্ধান্ত নিয়েছে মাইক্রোসফট। সিরি’র সার্চ ইঞ্জিন হিসেবে বিং-কে হটিয়ে বসানো হয়েছে গুগল।
এখন থেকে সিরি, আইওএস এবং ম্যাক স্পটলাইট সার্চে কাজ করবে গুগল। আগে এ সেবাগুলোতে ডিফল্ট সার্চ হিসেবে কাজ করতো বিং।
অ্যাপলের এমন সিদ্ধান্তের পর নিউ ইয়র্কে রয়টার্স নিউজমেকার ইভেন্টে নাদেলা বলেন, “বিং বড় ব্যবসা হিসেবে দুই অংকের হারে জোরালোভাবে বৃদ্ধি পাচ্ছে। আর পিসির দিকেও আমরা লক্ষ্য করার মতো সম্ভাবনা দেখতে পাচ্ছি।”
মার্কিন যুক্তরাষ্ট্রে ব্যবহৃত দ্বিতীয় বৃহত্তম সার্চ ইঞ্জিন হলো বিং। ২০১৩ সাল থেকে অ্যাপল সিরি’র ডিফল্ট সার্চ ইঞ্জিন ছিল এটি। এখনও ইয়াহু, এওএল ও অ্যামাজনের-এর মতো বেশ কিছু অংশীদার প্রতিষ্ঠানের সার্চে সহায়তা করে বিং। টুইটারের বহুভাষী ফিচারেও সহায়ক বিং।
সম্প্রতি বিংয়ের প্রান্তিকের আয়ের হিসাব প্রকাশ করেছে মাইক্রোসফট। এক বছরে সার্চ ইঞ্জিনটির বিজ্ঞাপনী আয় বেড়েছে আট শতাংশ।
আগে থেকেই ম্যাক এবং আইওএস-এর সাফারি ব্রাউজারে গুগল সার্চ ব্যবহার করে আসছে মার্কিন টেক জায়ান্ট প্রতিষ্ঠানটি। এজন্য আগের দশকে প্রতিষ্ঠান দুটি’র মধ্যে শত কোটি মার্কিন ডলারের চুক্তিও হয়েছে। এবারের অ্যাপলের অন্যান্য সেবাতেও যোগ হচ্ছে গুগল।
