টুইটারে দেখা গেছে কেউ তার প্রশংসায় পঞ্চমুখ তো কেউ সমালোচনায় সরব। মূলত কাস্ত্রোর মৃত্যুর সংবাদ ঘোষণার পরপরই তাকে নিয়ে শুরু হয় টুইটের ঝড়। 
মার্কিন প্রেসিডেন্ট বারাক ওবামা-কে ব্যাক্তি কাস্ত্রো ও তার কর্মজীবন নিয়ে মন্তব্য করতে খুব একটা উৎসাহী মনে হয়নি বলেই জানিয়েছে সাইটটি। "কিউবান সম্প্রদায়ের প্রতি বন্ধুত্বের হাত"- এভাবেই টুইট করেন তিনি।
কানাডার প্রধানমন্ত্রী জাস্টিন ট্রুডো তার টুইটে বলেন, "গভীর দুঃখজনক। ফিদেল কাস্ত্রো ছিলেন একজন বড় মাপের নেতা, যিনি প্রায় অর্ধ শতাব্দী ধরে তার জনগণকে সেবা করে গেছেন। কিংবদন্তী বিপ্লবী এবং বক্তা কাস্ত্রো তার দ্বীপরাষ্ট্রটিতে শিক্ষা ও চিকিৎসা সেবায় উল্লেখযোগ্য উন্নতি সাধন করেছেন।"
সর্বশেষ মার্কিন প্রেসিডেন্ট নির্বাচনে ইলেকটোরাল কলেজ ভোটে জয়ী ডোনাল্ড ট্রাম্প টুইটারে এই ঘটনায় তার অনুভূতি প্রকাশ করেছেন খুবই সাদামাটাভাবে বিস্ময়বোধক চিহ্ন ব্যবহার করে- "ফিদেল কাস্ত্রো মৃত!"।
যুক্তরাষ্ট্রের হাউস অফ রিপ্রেজেন্টেটিভ-এর রিপাবলিকান স্পিকার পল রায়ান মন্তব্য করেন, "এখন ফিদেল কাস্ত্রো মৃত, তার মৃত্যুর সঙ্গে তার শাসনকালের নিষ্ঠুরতা ও নিপীড়নের অবসান হয়েছে।"
সরাসরি অভিজ্ঞতা থেকেও মন্তব্য করেছেন অনেকেই। টরোন্টো স্টার স্পোর্টস-এর কলাম লেখক ব্রুস আর্থার তার দৃষ্টিকোণ থেকে টুইট করেন, "আমি যতবারই কিউবা গিয়েছি দেখেছি মানুষ যখনই ফিদেল কাস্ত্রো-কে নিয়ে কথা বলে তখন তারা ভয়ে ফিসফিস করে, এমনকি নিজের বাড়িতে থাকা অবস্থায়ও। তিনি কোনো নায়ক নন।"
গ্যারি কাসপারভ টুইট করেন, "ফিদেল ক্যাস্ট্রো বিংশ শতাব্দীর দানবদের একজন। আমাদের শুধু এই কারণে আফসোস করা প্রয়োজন যে তিনি দীর্ঘদিন কিউবার উপর অত্যাচার করেছেন। ইতিহাস কখনও একনায়কদের অনুসারী বা রক্ষাকারীদের দৃষ্টিকোণ থেকে বিচার করে না, করে তাদের শিকারদের দৃষ্টিকোণ হতে।"
