সোমবার প্রতিষ্ঠানের শেষ প্রান্তিকের আর্থিক প্রতিবেদন প্রকাশের পর সাংবাদিক ও বিশ্লেষকদের উদ্দেশ্যে তিনি বলেন, “আমরা উবারের সঙ্গে আলোচনা করতে আগ্রহী, আমরা লিফট-এর সঙ্গেও আলোচনা করতেও আগ্রহী, তবে সেটা কীভাবে তা নিয়ে আমরা এখনও সিদ্ধান্ত নেইনি।”
“উবার বা লিফট-এর সঙ্গে আমরা অংশীদারিত্বে যাব নাকি বিনিয়োগ করব তা নিয়ে সিদ্ধান্ত নিতে হবে, আমি জানি না শেষ ফলাফল কী হবে।”
এর আগে চলতি বছর জুলাইয়ে এক প্রতিবেদনে বলা হয়, সফটব্যাংকের কাছে শেয়ার বিক্রি করতে উবার-এর শেয়ারধারী ও পরিচালনা পর্ষদ সদস্যরা আলোচনা করেছেন।
ওই প্রতিবেদনে বলা হয়, নতুন চুক্তির মাধ্যমে মার্কিন প্রতিষ্ঠানটিতে নতুন অর্থ বিনিয়োগের বিষয় অন্তর্ভূক্ত হতে পারে। সেই সঙ্গে শেয়ারের মূল্য কত ধরা হবে আর সফটব্যাংক বা অন্যান্য বিনিয়োগকারীরা কী পরিমাণ শেয়ার কিনবে তা অস্পষ্ট।
অন্যদিকে সে সময় মার্কিন সংবাদমাধ্যম সিএনবিসি’র এক প্রতিবেদনে বলা হয়, সফটব্যাংক উবারের শেয়ার কেনা নিয়ে কোনো আলোচনা করেনি।
