এই অনুদানের মধ্যে ফেইসবুকের ৮৮০০০০ ‘ক্লাস এ’ শেয়ার রয়েছে বলে জানিয়েছে রয়টার্স। নভেম্বরের ২১ তারিখ এই অনুদান দেওয়া হয়েছে বলে বুধবার ফেইসবুকের এক নথিতে জানানো হয়।
আগের মাসেই ফেইসবুক প্রতিষ্ঠাতা মার্ক জাকারবার্গ এবং তার স্ত্রী প্রিসিলা চ্যান জানান, তারা “রোগ নিরাময়, প্রতিরোধ এবং নিয়ন্ত্রণ” পরিকল্পনার জন্য তিনশ’ কোটি ডলার অনুদান করতে পারেন। ২০১৫ সালের ডিসেম্বরে জাকারবার্গ ইতিহাসে সবচেয়ে বড় অনুদানের অঙ্গীকার করেন।
স্যান্ডবার্গের দান করা ১০ কোটি ডলার তার অলাভজনক নারীর ক্ষমতায়ন সংস্থা লিয়ানলন ডট অর্গ এর সঙ্গে অপশনবি ডট অর্গ সংস্থায় খরচ করা হবে বলে জানানো হয়। তার এই সংস্থা যে সব নারী প্রিয়জন বা মূল্যবান কিছু হারিয়েছেন তাদেরকে পুনরায় সজাগ করতে সহায়তা করে থাকে।
