“‘হিপনোগার্ড’ নামের শক্তিশালী সফটওয়্যারটি মূলত স্লিপ মোডে থাকা অবস্থায় ডেটা রক্ষার জন্য নকশা করা হয়েছে” -বলেন কানাডার কিউবেক-এ অবস্থিত কনকর্ডিয়া ইউনিভার্সিটি-র ডক্টরেট শিক্ষার্থী লিয়ানিং ঝাও। “ডেটা রক্ষা করা বিশেষ করে সেই সময় অনেক কঠিন যখন কম্পিউটার স্লিপ মোডে যায় আর এটি হয় যখন কোনো ল্যাপটপের স্ক্রিন বন্ধ করা হয় বা একটি নির্দিষ্ট সময় ধরে ব্যবহারকারী নিস্ক্রিয় থাকলে।”
গবেষকদের মতে, এমন অবস্থায় কোনো কম্পিউটার ভুল হাতে পড়লে বিদ্বেষপরায়ণ যে কোনো ব্যাক্তি কিছু প্রযুক্তিগত উপায় অবলম্বন করে র‍্যান্ডম অ্যাকসেস মেমোরি বা র‍্যাম থেকে ডেটা হাতিয়ে নিতে পারে।
ইনস্টল করার পর ‘হিপনোগার্ড’ কম্পিউটার স্লিপ মোডে যাওয়ার আগে এর র‍্যামকে এনক্রিপ্ট বা সংকেতায়িত করে এবং পুনরায় ব্যবহারকারী কর্তৃক পরিচয় নিশ্চিতকরণের পর ডেটা অসংকেতায়িত করে। আধুনিক প্রযুক্তি ও গ্রাহকের চাহিদার সঙ্গে তাল মিলিয়ে এতে পাসওয়ার্ডভিত্তিক পরিচয় নিশ্চিতকরণ ব্যবস্থার সঙ্গে হার্ডওয়্যারের নিরাপত্তা সংক্রান্ত বৈশিষ্ট্যও অন্তর্ভুক্ত করা হয়েছে।
“সমগ্র প্রক্রিয়াটি গ্রাহকদের কাছে স্বচ্ছ করা হয়েছে। তাদের কেবল যা করতে হবে তা হচ্ছে প্রতিবার কম্পিউটার স্লিপ মোড থেকে জেগে উঠার সময় একটি পাসওয়ার্ড প্রবেশ করাতে হবে”- এভাবেই ব্যাখ্যা করেন কনকর্ডিয়া ইউনিভার্সিটির সহযোগী অধ্যাপক মোহাম্মদ মান্নান। “এতে কম্পিউটারের কার্যকারিতার উপর কোনো প্রভাব পরবে না। আট গিগাবাইট র‍্যাম বিশিষ্ট একটি কম্পিউটারের ক্ষেত্রে এই প্রক্রিয়াটি সম্পন্ন হতে সময় লাগবে প্রায় এক সেকেন্ড”- যোগ করেন মান্নান।
পেশাদার যাদের জন্য নিরাপত্তাই প্রধান যেমন সরকারী এজেন্ট, সাংবাদিক ও ব্যবসায়ী তারা র‍্যামের গোপনীয়তা রক্ষায় সবছইয়ে বেশি উপকৃত হবেন।
যদি কখনও কম্পিউটার হারিয়ে যায় বা চুরি হয়ে যায় আর কেউ যদি জোরপূর্বক পাসওয়ার্ড উদ্ধারের চেষ্টা করে সেক্ষেত্রে ‘হিপনোগার্ড’ অতিরিক্ত স্তরের নিরাপত্তা প্রদান করবে বলেও জানান ঝাও।
