সমালোচকদের মতে, সরকার কেবল নরওয়েভিত্তিক ট্যাবলয়েড ড্যাগব্ল্যাডেট-এর জরিপ থেকে এই সিদ্ধান্ত নিয়েছে, ওই জরিপে নরওয়ের প্রায় ৬৬ শতাংশ নাগরিকই এফএম রেডিওর বিরুদ্ধে।
অন্যদিকে, কোনো কোনো বিশেষজ্ঞ বলছেন ডিজিটাল রেডিও’র আরও চ্যানেল যোগ করতে আর পরিষ্কার শব্দ পেতে এই পরিবর্তনের প্রয়োজন। 
সুইজারল্যান্ড, ডেনমার্ক ও যুক্তরাজ্যেও এফ এম নেটওয়ার্ক বন্ধের বিষয়টি বিবেচনা করছে।
চলতি বছরের ১১ জানুয়ারি থেকে বোডো শহরের উত্তরাঞ্চলে এফএম (ফ্রিকোয়েন্সি মডিউলেশন) নেটওয়ার্ক বন্ধ করে দেওয়া হবে। বছরের শেষ নাগাদ সব জাতীয় এফএম সম্প্রচার করা বন্ধ করা হবে বলে জানিয়েছে বিবিসি।
নরওয়েতে গাড়ি একটি বড় চ্যালেঞ্জ, যেখানে প্রায় ২০ লাখ গাড়িতেই ডিজিটাল অডিও ব্রডকাস্টিং (ডিএবি) রিসিভার নেই। তাই এখন ব্যবহারকারীদেরকে ১৫০০ নরওয়েইয়ান ক্রোনার ব্যয়ে অ্যাডাপটর কিনে নিতে বলা হচ্ছে। 
