চীনে আগের বছরের চেয়ে চার কোটির বেশি গ্রাহক অনলাইনে এসেছেন বলে প্রতিবেদনে জানিয়েছে ভারতীয় সংবাদমাধ্যম আইএএনএস।
চায়না ইন্টারনেট নেটওয়ার্ক ইনফরমেশন সেন্টার জানায়, আগের বছর দেশটিতে ইন্টারনেট ব্যবহারকারীর সংখ্যা হয়েছে ৫৫.৮ শতাংশ, যা বৈশ্বিক গড়ের চেয়ে ৪.১ শতাংশ বেশি।
২০১৭ সালে দেশটির পল্লী অঞ্চলের ইন্টারনেট ব্যবহারকারীর সংখ্যা বলা হয়েছে ২০ কোটি ৯০ লাখ, ২০১৬ সালের চেয়ে ৭৯ লাখ ৩০ হাজার বেশি।
প্রতিবেদনে আরও বলা হয়, দেশটির ৭৫ কোটি ৩০ লাখ মানুষ মোবাইল ফোনে ইন্টারনেট ব্যবহার করেন, যা মোট ইন্টারনেট ব্যবহারকারীর ৯৭.৫ শতাংশ।
