মঙ্গলবার ইউএসএ টুডে’র এক প্রতিবেদনে রোমেত্তি জানান, “যেকোনো মূহুর্তে আমাদের হাজারো চাকুরির পদ খালি হতে পারে এবং সামনের চার বছরে মার্কিন যুক্তরাষ্ট্রে ২৫ হাজার কর্মী নিয়োগের পরিকল্পনা রয়েছে আমাদের।”
যুক্তরাষ্ট্রে কর্মী ছাঁটাই করে নতুন কর্মী নিয়োগ দেওয়া হবে কিনা সে বিষয়ে মন্তব্য করতে রাজী হননি আইবিএম মুখপাত্র অ্যাডাম প্র্যাট।
বুধবার মার্কিন প্রেসিডেন্ট নির্বাচিত ডোনাল্ড ট্রাম্প-এর সঙ্গে সাক্ষাৎ করতে যাচ্ছেন প্রযুক্তি প্রতিষ্ঠানগুলোর নির্বাহী কর্মকর্তাগণ। এই সাক্ষাৎকারকে সামনে রেখেই নতুন কর্মী নিয়োগের কথা জানিয়েছেন গিনি।
প্র্যাট বলেন, “আমারা আমাদের মার্কিন কর্মশক্তি নিয়ে ২০১৬ শেষ করতে চাই, যেমন সংখ্যা বছরের শুরুতে ছিল তেমন জনশক্তি নিয়ে। ২০২০ সালের মধ্যে সংখ্যা আরও বাড়বে বলে আশা করছি। ”
প্রতিষ্ঠানটিতে বর্তমানে কতজন মার্কিন কর্মী রয়েছেন তা প্রকাশ করেনি আইবিএম। বার্ষিক কর্মীর নথিতে আইবিএম জানিয়েছে প্রতিষ্ঠানটির ৪০১(কে) পেনশন প্ল্যান-এ অংশগ্রহণকারীর সংখ্যা ২০১০ সালের ১১০৮৭৬ থেকে আগের বছর ৮৪৩৫০ জনে নেমেছে।
কেন নতুন কর্মী নেওয়া হচ্ছে এমন প্রশ্নের জবাবে প্রতিষ্ঠানের মুখপাত্র ইয়ান কোলে বলেন, “আমরা নিয়োগ দিচ্ছি কারণ কাজের ধরন বর্ধিত হচ্ছে।”
তিনি আরও বলেন, “যেহেতু নির্মাতা থেকে কৃষি প্রতিষ্ঠান সবই ডেটা সায়েন্স এবং ক্লাউড কম্পিউটিংয়ের দ্বারা নতুন আকার নিচ্ছে, চাকুরি তৈরি হচ্ছে যেখানে নতুন দক্ষতার প্রয়োজন রয়েছে।”
