যুক্তরাষ্ট্রের আদালতে আনা অভিযোগে কিম ডটকম দোষী কি না তা এই রায়ের উপর নির্ভর করছে না। এই রায় শুধু নিউজিল্যান্ড থেকে তাকে যুক্তরাষ্ট্রে পাঠানো যাবে কি না তা ঠিক করছে। তবে এই রায়ের বিপরীতে কিম ডটকম উচ্চ আদালতে আপিল করবেন বলে জানিয়েছে প্রযুক্তিবিষয়ক সাইট ওয়্যার্ড ডটকম।
রায় নিয়ে নিজের প্রতিক্রিয়ায় ইতিবাচক মনোভাব প্রকাশ করেছেন ডটকম। এক টুইটার পোস্টে তিনি বলেন, “আমি আর আমার সহকর্মীরা আজকের রায় ভালোভাবে পড়লাম। এটা দুর্বল আর ক্রিসমাসের লুকানো উপহারের মতো!”
এখন এই মামলা নিউজিল্যান্ডের উচ্চ আদালত পর্যন্ত গড়াবে। ২০১২ সালের ১৯ জানুয়ারি বন্ধ করে দেওয়া হয় মেগাআপলোড। ওই সময় থেকেই কিম ডটকমকে কপিরাইট লঙ্ঘনের মামলায় বিচারের মুখোমুখী করার চেষ্টা করে যাচ্ছে যুক্তরাষ্ট্রের বিচার বিভাগ।
চলতি বছর নভেম্বরে নিউজিল্যান্ডের মামলার শুনানি শেষ হয়। সে সময় যুক্তরাষ্ট্র পক্ষের আইনজীবি ক্রিস গর্ডন দাবি করেন, মেগাআপলোড ছিল “বৈধভাবে উপস্থাপিত একটি বড় ধোঁকাবাজি।”
অন্যদিকে ‘বিচারক আইনি ভুল করেছেন’ দাবি করে রায়ের বিরুদ্ধে আপিল করা হয়েছে বলে জানিয়েছেন কিম ডটকমের আইনজীবি রন ম্যানসফিল্ড। ওই রায়ে তারা ‘বেশ হতাশ’ বলে জানিয়েছেন ডটকমের যুক্তরাষ্ট্রের আইনজীবি ইরা রথকিন। ওই রায়ে ডটকমের সঙ্গে তার তিন সহকর্মীও অন্তর্ভূক্ত।
