ভুয়া সংবাদের মতো বিতর্কিত বিষয়গুলো কীভাবে সামলানো হচ্ছে, তা নিয়ে নিজেদের পরিকল্পনার বিস্তারিত তথ্য প্রকাশের উদ্দেশ্যে দেওয়া এক বিবৃতিতে মঙ্গলবার এই তথ্য প্রকাশ করে সোশাল জায়ান্টটি, খবর আইএএনএস-এর।
ফেইসবুকের পাবলিক পলিসি ফোর ইউরোপ, মিডল ইস্ট অ্যান্ড আফ্রিকা-এর ভাইস প্রেসিডেন্ট রিচার্ড অ্যালেন বলেন, “আমরা সব ধরনের ঘৃণামূলক বিবৃতির বিরুদ্ধে, আর আমাদের প্লাটফর্মে এগুলো থাকতে দেব না।”
তিনি আরও বলেন, “আমাদের কাছে ঘৃণামূলক বিবৃতির সংজ্ঞা হচ্ছে যা সরাসরি মানুষকে তাদের ‘সুরক্ষিত বৈশিষ্ট্য’গুলোতে আঘাত করে, যেমন-- বর্ণ, জাতি, জাতীয়তা, ধর্মীয় সম্পৃক্ততা, যৌনতা, লিঙ্গ, লিঙ্গ পরিচয় বা গুরুতর অক্ষমতা বা রোগ।”  
যদিও মাঝেমধ্যে ঘৃণামূলক বিবৃতি শনাক্ত করা যায় না। কারণ, এগুলোতে থাকা শব্দগুলো অস্পষ্ট থাকে, এগুলোর পেছনে থাকা উদ্দেশ্য অজানা বা কী বোঝানো হয়েছে তা অস্পষ্ট থাকে। এমন ক্ষেত্রে ফেইসবুক অভ্যন্তরীণভাবে এই পোস্টগুলো যাচাই করে ও এগুলো মুছে ফেলা উচিৎ কিনা তা নির্ধারণ করে।
