মডিউলার ফোন বলতে এমন স্মার্টফোন বুঝায় যেগুলোর বিভিন্ন যন্ত্রাংশগুলো পরিবর্তন করে ব্যবহার করা যাবে। অর্থাৎ ব্যাটারি, ক্যামেরা, স্পিকারের মতো যন্ত্রাংশগুলো বদল করা সম্ভব এই ফোনে।
মডিউলারে ফোনে সাফল্য পেতেই চলতি বছরের জুনে জি৫ উন্মোচন করে এলজি। ফোনটি নিয়ে বেশ পরিকল্পনা থাকলেও শেষমেষ ঠিক পথে যায়নি কিছুই। মডিউলার ডিজাইনের কারণে অনেক কিছুই বাদ দিতে হয়েছে এই ফোন থেকে। জি৫-এর ব্যর্থতায় এবার তাই সাধারণ স্মার্টফোন তৈরিতেই ফিরছে এলজি, জানিয়েছে ভার্জ।
শুধু এলজি নয় মডিউলার ফোন নিয়ে এর আগে ব্যর্থতার শিকার হয়েছে গুগল। এ বছরের সেপ্টেম্বরে মডিউলার ফোন তৈরির প্রকল্প ‘প্রজেক্ট আরা’ বাতিল করে প্রতিষ্ঠানটি।
মডিউলার ফোন তৈরির দৌড়ে এখন কিছুটা এগিয়ে আছে মোটোরলা। প্রতিষ্ঠানটির নতুন স্মার্টফোন ‘মোটো জেড’ বর্তমানে বাজারে কিছুটা হলেও ভালো অবস্থানে রয়েছে।
