রেসিপি দিয়েছেন ইসরাত জাহান বীথি।
উপকরণ
লাচ্ছা সেমাই ২০০ গ্রামের ১ প্যাকেট। কেওড়ার জল ১ চা-চামচ। যে কোনো ধরনের বাদামকুচি আধা কাপ। কিশমিশ ৪ টেবিল-চামচ। শুকনা নারিকেলগুঁড়া ৩ টেবিল-চামচ। ঘি ২ টেবিল-চামচ। কনডেন্সড মিল্ক আধা কাপ। এলাচগুঁড়া আধা চা-চামচ।
পদ্ধতি
প্রথমে একটা কড়াইয়ে সেমাই আর ঘি দিয়ে অল্প আঁচে সোনালি এবং মচমচে করে ভাজতে হবে। খেয়াল রাখতে হবে যেন সেমাই পুড়ে না যায়।
সেমাই সোনালি করে ভাজা হলে এর মধ্যে বাদামকুচি, কিশমিশ, এলাচগুঁড়া, শুকনা নারিকেলগুঁড়া দিয়ে এক, দুই মিনিট ভাজতে হবে।
তারপর ভাজা সেমাইয়ের মধ্যে কনডেন্সড মিল্ক এবং কেওড়ার জল দিয়ে নেড়ে ভালো করে মিশিয়ে দিন এবং চুলার আঁচ কিছুটা বাড়িয়ে দুতিন মিনিট ভাজুন।
যখন কনডেন্সড মিল্ক কিছুটা শুকিয়ে সেমাইয়ের মিশ্রণ আঠালো হয়ে আসবে তখন নামিয়ে ফেলুন।

