এই বিষয়ে প্রকাশিত খাদ্য ও পুষ্টিবিষয়ক একটি ওয়েবসাইটের প্রতিবেদন থেকে এমন কয়েকটি পানীয় সম্পর্কে জানা যায়, যেগুলো একাধারে স্বাস্থ্যকর ও মেদ কমায়।
পানি: শরীরের জন্য পানির প্রয়োজনীয়তা নতুন করে বলার কিছু নেই। ইফতারের সময় প্রচুর পরিমানে পানি পান করতে হবে। এছাড়া পানি ওজন নিয়ন্ত্রণে রাখতেও সাহায্য করে। উপকারিতা বাড়াতে পানিতে খানিকটা লেবুর রস মিশিয়ে নিতে পারেন। যা আরও বেশি চর্বি পোড়াবে।


গ্রিন টি: অ্যান্টিঅক্সিডেন্টে ভরপুর গ্রিন টি ওজন নিয়ন্ত্রণে রাখার পাশাপাশি শরীরের গ্লুকোজের মাত্রা নিয়ন্ত্রণে রাখতে সাহায্য করে। শারীরিক নানান সমস্যা দূর করতেও গ্রিন টি বেশ উপকারী। রোগ প্রতিরোধ ক্ষমতা বৃদ্ধিতে এই চা বেশ সহায়ক।

