কিছু জিনিস ব্যবহারের ক্ষেত্রে অসতর্কতার কারণেও অ্যালার্জি বেড়ে যেতে পারে।
- চোখের আরামের জন্য অনেকে নরম কন্টাক্ট লেন্স ব্যবহার করেন। তবে নরম কন্টাক্ট লেন্স ভেদ করে ধোঁয়া বা ফুলের রেণু চোখে যাওয়ার সম্ভাবনা থাকে। এর থেকে চোখে অ্যালার্জি হতে পারে।
- অ্যালার্জির কারণে নাক দিয়ে পানি পড়ে। শুনতে অবাক লাগলেও সত্যি যে, মানসিক চাপের কারণে এই পানি পড়ার পরিমাণ বেড়ে যেতে পারে। তাই মানসিক চাপ এড়িয়ে চলা উচিত। তাহলে যারা অ্যালার্জিতে ভুগছেন তারা কিছুটা ভালো থাকতে পারবেন।
- অ্যালকোহল যুক্ত পানীয় পান করলে অ্যালার্জির পরিমাণ বাড়তে পারে। এক্ষেত্রে বিয়ার বা ওয়াইন উল্লেখযোগ্য।
- হাঁচি বা এ ধরনের অ্যালার্জি থেকে মুক্তির জন্য অনেক ধরনের ওষুধ পাওয়া যায়। তবে কিছু কিছু ওষুধ ব্যবহারের ফলে অ্যালার্জি কমার বদলে বেড়ে যেতে পারে। তাই শুধু অ্যালার্জি নয় অন্য যে কোনো অসুখের জন্য ওষুধ নির্বাচনের ক্ষেত্রে ডাক্তারকে নিজের অ্যালার্জির বিষয় জানানো উচিত।
