রেসিপি দিয়েছেন নদী সিনা
উপকরণ
রুই মাছ টুকরা করা ৮টি। ফুলকাপি ১টি। আলু ২টি। পেঁয়াজকুচি ২ টেবিল-চামচ। রসুনবাটা ১ চা-চামচ। আদাবাটা ১ চা-চামচ। হলুদগুঁড়া চা-চামচ। ধনেগুঁড়া বা বাটাআধা চা-চামচ। কাঁচামরিচ ৫টি। মরিচগুঁড়া আধা চা-চামচ। জিরাগুঁড়া আধা চা-চামচ। তেল ২ টেবিল-চামচ। পানি পরিমাণমতো। লবণ পরিমাণমতো।
পদ্ধতি
মাছ কেটে টুকরা করে লবণ ও হলুদ মাখিয়ে ভেজে পাত্রে রাখুন। ফুলকপি ও আলু টুকরা করে কেটে ধুয়ে নিন। কড়াইতে তেল দিয়ে পেঁয়াজ লালচে করে ভাজুন। এখন ফুলকপি ও আলু দিয়ে দিন।
একে একে মরিচগুঁড়া, রসুনবাটা, আদাবাটা, হলুদগুঁড়া, ধনেগুঁড়া বা বাটা এবং লবণ দিয়ে অল্প পানিসহ কষিয়ে আবার পানি দিন।
পানি ফুটে উঠলে উপরে মাছ দিয়ে ঢেকে রান্না করুন।
নামানোর কিছুক্ষণ আগে কাঁচামরিচ দিন। পানি শুকিয়ে এলে জিরাগুঁড়া ছিটিয়ে নামিয়ে নিন।
আলু-ফুলকপির তরকারি
ফুলকপির উপকারিতা
ফুলকপির পাকোড়া
ফুলকপির নানান পদ
