সম্প্রতি এক গবেষণায় দেখা গেছে, বেশি সময় রোদে থাকলে চোখে জ্বালাপোড়া থেকে শুরু করে ভবিষ্যতে গ্লুকোমা এবং ছানিপড়ার মতো রোগ হবার সম্ভাবনা বেড়ে যেতে পারে। তাই চোখে যেন সরাসরি দীর্ঘ সময় রোদ না পড়ে সেদিকে নজর রাখা দরকার। এই কারণে সানগ্লাস পরার অভ্যাস চোখের জন্য উপকারি।
তাছাড়া বয়স বাড়ার সঙ্গে চোখের দৃষ্টিশক্তি কমে যাওয়া ছাড়াও নানান ধরনের সমস্যা দেখা দিতে পারে। আর এগুলোর সম্ভাবনা কমিয়ে আনার জন্য সানগ্লাস ব্যবহার করা দরকার।
হারভার্ড মেডিকেল স্কুলের অফথ্যমোলজির অধ্যাপক লুই পাসকোয়ালে বলেন, “সাধারণত ঘরের বাইরে থাকার ফলে সূর্যের অতি বেগুনি রশ্মি সরাসরি চোখের ক্ষতি করতে পারে। আর তাই ইউভি রশ্মি আটকাতে পারে এমন চশমা পরা উচিত। তাহলে বয়স বাড়লেও চোখের সমস্যা কম হবে।”
গবেষকরা ক্লিনিক-বেইজ কিছু কেইস স্টাডির উপর ভিত্তি করে গবেষণাটি চালান।
তারা বেশ কিছু মানুষের সপ্তাহে গড়ে ঠিক কতটা সময় রোদে কাটিয়েছে, এ বিষয়গুলো হিসাব করেন।
গবেষণায় দেখা গেছে চোখের সমস্যা কখনও কখনও বংশগত হতে পারে। তবে বেশিরভাগ ক্ষেত্রেই সূর্যের ক্ষতিকর রশ্মিই এর জন্য দায়ী।
