বসন্তের বাতাস ছুঁয়ে আছে লেকের নীল জল, পাহাড় পেরিয়ে কাছে-দূরে কেবল নীল জলরাশি। জলরাশির মধ্যভাগে জেগে আছে ছোট ছোট সবুজ দ্বীপ।
ছোট ছোট ডিঙি নৌকা ছুটে চলছে জলের বুকে। আর দূরে যাত্রী বোঝাই করা দোতলা কাঠের লঞ্চ।
হরিনা, জুরিছড়ি, মাইনী, লংগদু, বাঘাইছড়ি, বিলাইছড়ি পথে ছুটছে পাহাড়ের মানুষ। ৭২৫ বর্গকিলোমিটারের কাপ্তাই ছড়িয়ে আছে পাহাড়ের নানা প্রান্তে। জলযোগে যাওয়া যায় রাঙামাটি সর্বপ্রান্তে।


সামনে যেতে যেতে চোখে পড়বে মাছ ধরে ঘরে ফেরা মানুষ, ছোট ছোট টিলায় মানু্ষের বসতি। সাধারণত লেকের পাড়ে আদিবাসীদের বসবাস এ অঞ্চলে। পাহাড়ের কোল ঘেষে দাঁড়িয়ে থাকা জুমঘরগু্লো সাজানো চিত্রপটের মতো।


বিলাইছড়ি'র পথ পেরিয়ে বসন্তের নতুন দিনের সকালে স্নিগ্ধতা প্রকৃতিজুড়ে। পাতা ঝরা সময়ের পর্ব শেষ। পাহাড়-প্রকৃতি বৃক্ষরাজিতে নতুনের আগমন। কচিপাতায় ভর করে আছে গাছের শাখা-প্রশাখা। লংগদু ঘাটে পৌঁছাতে সকাল ৮টা।


পবদা, রুই, চিতল, বড় বোয়াল, শিং, মাগুর, চাপিলাসহ বহু রকমের তাজা মাছে সমাহার, দামও বেশ সস্তা।


বাঘাইছড়ি-মাইনী এবং লংগদু অঞ্চলে সঙ্গে রাঙামাটির যোগাযোগের প্রধানতম মাধ্যম হল পাকিস্তান আমলের কাঠের তৈরি দোতলা লঞ্চগুলো। লঞ্চের ছাদে নিজেদের জায়গা করে নিলাম। কিছুক্ষণের বিরতি শেষে লঞ্চ যাত্রা করল রাঙামাটির পথে।


লঞ্চের এবারের যাত্রামুখ রাঙামাটির রংরাং পাহাড়ের দিকে। রংরাং শব্দের অর্থ ধনেশ পাখি, একটা সময়ে কাপ্তাই লেক কেন্দ্রিক পাহাড়গুলোতে ধনেশ পাখির বিচরণ ছিল। এখনও গভীর পাহাড়ে মাঝে মধ্যে ধনেশ পাখির দেখা মেলে।


কাট্টলি বিল বাজারের চারপাশে জলের সীমারেখা, বাজারের ঘাটে পাঁচ মিনিটের লঞ্চ বিরতি। সাপ্তাহিক বাজার হওয়ায় দূর-দূরান্তের বাসিন্দারা নৌকায় বোঝাই করে নিয়ে এসেছে নিজেদের চাষকৃত পণ্য।


রংরাং পাহাড়ে পথে ছুটে চলছে আমাদের লঞ্চ। ছোট ছোট ডিঙি নৌকায় করে মাছ ধরার প্রতিযোগিতায় নেমেছে জেলেরা। দিগন্তবিস্তৃত নীল আকাশের নিচে গভীর লেকে মাছ ধরার ছোট ছোট নৌকাগুলোকে বেশ অদ্ভুত লাগছিল।


কাপ্তাই লেকের নীল ঢেউ ছাপিয়ে ক্রমশ অগ্রসর হচ্ছিলাম রংরাংয়ের পথে, দুপুর নাগাদ লঞ্চ নোঙর করে শুভলং বাজারে। শুভলং বাজারে কোল ঘেষে দাঁড়িয়ে আছে রাঙামাটির রংরাং পাহাড়। অনেকে একে টিএন্ডটি পাহাড় নামে চেনে। শুভলং ঘাটে নেমে দেরি না করে হাঁটা শুরু করলাম পাহাড়ের চূড়ার দিকে, পথ যেন শেষই হয় না।
সিঁড়ির পথে ছেড়ে সরু ট্রেক রুট ধরে এগুতে থাকলাম চূড়ার দিকে। সবুজে ঢাকা পথ ছুঁয়ে চলতে চলতে যেদিকে চোখ পড়ে কেবল বড় বড় বৃক্ষরাজি, পাহাড়ের সরু পথ বেয়ে উপরে উঠতেই চোখ পড়ে নিচে দিকে, রংরাং পাহাড় থেকে দেখা কাপ্তাই লেক বড়ই অন্যন্য।


ভাড়া বোট বা নৌকা ভেদে পার্থক্য রয়েছে। ছোট-মাঝারি প্রতি ঘণ্টা ১৫০ টাকা।
