লাইফস্টাইল-বিষয়ক একটি ওয়েবসাইটে ঘুরতে যাওয়ার সময় ব্যাগে কী ধরনের রূপসামগ্রী রাখা উচিত তারই কিছু নমুনা উল্লেখ করা হয়। এখানে সেগুলো তুলে ধরা হল।
রাতের ফেইস মাস্ক: রাতে ঘুমানোর আগে ব্যবহৃত সাধারণ নাইট ক্রিম বা ময়েশ্চারাইজার বাদ দিয়ে ঘুরতে গিয়ে ব্যবহার করতে পারেন রাতে ব্যবহারের জন্য বিশেষ ‘ওভার নাইট মাস্ক’। এই নতুন ধরনের মাস্কগুলো ত্বকের ক্ষতি পুষিয়ে নিতে সাহায্য করে রাতে ঘুমানোর সময়। যেহেতু বেড়াতে গিয়ে বাড়তি সময় বের করা সম্ভব হয় না তাই এই ধরনের মাস্ক বেশ উপযোগী। চাইলে শিট মাস্কও নিয়ে যাওয়া যেতে পারে। ওই মাস্কগুলোও নির্ভেজাল এবং ১৫ থেকে ২০ মিনিট ব্যবহারেই উপকার পাওয়া যাবে।
ড্রাই শ্যাম্পু: ছুটি কাটাতে গেলে অনেক সময় পানির কারণে বা অযত্নে চুল নিস্তেজ লাগতে পারে। সেক্ষেত্রে সঙ্গে ড্রাই শ্যাম্পু রাখা যেতে পারে। প্রয়োজন মতো চুলের গোড়ায় ছড়িয়ে নিলেই চুল ঝটপট পরিষ্কার হয়ে যাবে এবং নিস্তেজভাবও দূর হবে।


চুলের ক্লিপ: ঘুরতে যাওয়ার আগে ছোট একটি ব্যাগ বা পাউচে বাড়তি ববি পিন, পাঞ্চ ক্লিপ ও চুলের ব্যান্ড গুছিয়ে নিন। যেন বেড়াতে গিয়ে এই ছোট জিনিস খোঁজার ঝামেলায় পরতে না হয়।
