ফাস্ট কেয়ার হাসপাতালের মেডিসিন বিশেষজ্ঞ ডা. মোহাম্মদ কামরুল হাসান বলেন, “বন্যার সময় অস্বাস্থ্যকর পরিবেশ, চারিদিকে নোংরা পানি, বিশুদ্ধ পানির অভাব, স্বাস্থ্যকর খাদ্যের অভাব ইত্যাদি নানা কারণে ডায়রিয়া, কলেরা, নিউমোনিয়া, হাঁপানি, জ্বর, বমি, যক্ষা ইত্যাদি প্রকোপ বেড়ে যায়। তবে এদের মধ্যে ডায়রিয়ার প্রকোপটাই সবচাইতে বেশি।”
তিনি আরও বলেন, “বড় বিপদ হল, বন্যার সময় রোগীর পরিচর্যা, চিকিৎসা সবকিছুই হয় দুষ্কর। পানিবন্দী হওয়ার কারণে ডাক্তারের কাছে যাওয়া সুযোগ কম থাকে। ওষুধ কেনার সমস্যা। ব্যক্তিগত পরিষ্কার-পরিচ্ছন্নতা বজার রাখাও সম্ভব হয়না। এছাড়া বিশুদ্ধ পানির সমস্যা পরিস্থিতি আরও জটিল করে তোলে। পান করার পানি, রান্না-গোসলের পানি না থাকায় রোগের তীব্রতা আরও বাড়ে।”
“শিশুদের নিয়ে সমস্যাটা আরও বেশি। সুযোগ পেলেই এরা নোংরা পানিতে নেমে পড়ে। ফলে চুলকানি, খোসপাঁচড়া, ঘা ইত্যাদি দেখা দেয়। বেশিক্ষণ পানিতে থাকার কারণে ঠাণ্ডা-জ্বর লেগেই থাকে। অনেকসময় তা নিউমোনিয়া পর্যন্ত গড়ায়।”


