রূপচর্চাবিষয়ক একটি ওয়েবসাইটে দাঁত দিয়ে নখ কাটার অভ্যাস কীভাবে ত্যাগ করা যায় তারই কিছু টিপস উল্লেথ করা হয়। এখানে সেগুলো তুলে ধরা হল।
- নিয়ম করে নখ কেটে রাখুন। এতে নখ ছোট থাকবে এবং দাঁত দিয়ে নখ কাটা সম্ভব হবে না।
- কোন অভ্যাস ত্যাগ করতে হলে সে বিষয়ে দৃঢ়ভাবে মনস্থির করতে হবে। সব সময় মনে রাখতে হবে, ‘আমাকে পারতে হবে’। প্রয়োজনে ফোনে ‘রিমাইন্ডার’ সেট করে নিন। অথবা সবসময় চোখ যাবে এমেন জায়গায় একটি নোট লিখে রাখতে পারেন, এতে ভুলে গেলেও ওই কাগজের দিকে চোখ গেলে মনে পড়বে।
- নিয়ম করে ম্যানিকিওর করান। সুন্দর করে কাটা ও নেইল পলিশ লাগানো নখ দাঁত দিয়ে কামড়ে নষ্ট করতে নিজেরই মায়া লাগবে।
- ক্যালসিয়ামের অভাবের কারণে অনেকের ক্ষেত্রে দাঁত কামড়ানোর প্রবণতা দেখা দেয়। তাই প্রতিদিনের খাবারের তালিকায় ক্যালসিয়াম সমৃদ্ধ খাবার রাখতে হবে।
- যখনই দাঁত কামড়ানোর ইচ্ছা জেগে উঠবে তখন মনোযোগ অন্যদিকে সরিয়ে নিন। যেমন, অন্যকিছু খান বা অন্য কাজে নিজেকে ব্যস্ত থাকুন।
