সাজসজ্জাবিষয়ক একটি ওয়েবসাইটে এই বিষয়ে প্রকাশিত প্রতিবেদন থেকে এমন কিছু ফ্যাশন টিপস এখানে দেওয়া হল।


তন্তু নির্বাচন: ঠিক পোশাক নির্বাচন করার পরেও কেবল ভুল তন্তুর জন্য আপনাকে মোটা দেখাতে পারে। হালকা তন্তু যেমন- সুতি, ক্রেপ বা অন্য শীতল তন্তু ব্যবহার করুন। ব্রোকার, সার্টিন, পশম ইত্যাদি তন্তু এড়িয়ে চলুন। কারণ এতে দেখতে ফোলা লাগে।
বডি শেইপার: যদিও সবসময় এটা ব্যবহার করা ঠিক নয়। তবে মাঝেমধ্যে নিজেকে সুন্দরভাবে উপস্থাপন করার জন্য বডি শেইপার ব্যবহার করতেই পারেন।
মাপ মতো পোশাক পরা: চিকন দেখানোর জন্য দুটি বিষয় এড়িয়ে চলতে হবে- তা হল খুব বেশি টাইট ও খুব বেশি ঢিলা পোশাক পরা যাবে না। সবসময় নিজের আকার অনুযায়ী পোশাক পরতে হবে। আপনি যদি লম্বা পোশাক পরেন তাহলে তার সঙ্গে আঁটসাঁট প্যান্ট ও ভালো এক জোড়া জুতা পরুন। আর যদি ঢিলেঢালা প্যান্ট পরেন তাহলে উপরে ঢিলা টপস পরা থেকে বিরত থাকুন।
লম্বা জ্যাকেট: পাতলা দেখাতে সবসময় ঠিক মাপের কোট বা ব্লেজার ব্যবহার করুন। লম্বা জ্যাকেট বা কার্ডিগেন বেছে নিতে পারেন। এতে দেখতে চিকন লাগে।
ছবি সৌজন্যে: লা রিভ।
আরও পড়ুন
শরীরের আকার ভেদে ফ্যাশন  
পোশাকে ‘স্লিম’ দেখানোর উপায়  
চিকন মেয়েদের যেমন পোশাক  
পেটের মেদ ঢাকতে মানানসই পোশাক
