রেসিপি দিয়েছেন বীথি জগলুল।
উপকরণ: মসুর ডাল আধা কাপ। চালের গুঁড়া ২ মুঠ। বাঁধাকপি-কুচি ১ কাপ। গাজরকুচি ১টি। আলুকুচি ১টি। পেঁয়াজকুচি ১/৩ কাপ। কাঁচামরিচ-কুচি ৮ থেকে ১০টি। আদা ও রসুন বাটা ১ টেবিল-চামচ করে। হলুদ ও জিরা গুঁড়া ১ চা-চামচ করে। মরিচগুঁড়া আধা চা-চামচ। লবণ স্বাদ মতো। তেল পরিমাণ মতো।
পদ্ধতি: ডাল ভিজিয়ে রেখে ফুলে উঠলে পানি ঝরিয়ে আধা বাটা করে নিন। মাঝারি আঁচে তেল গরম করে নিন। এবার ডালের সঙ্গে বাকি সব উপকরণ মাখিয়ে নিন।
