অনেক সময় ঠিক কোন উপহার পেলে প্রিয় মানুষটি খুশি হবে তা অনেকেই বুঝে উঠতে পারেন না। তবে সত্যি বলতে ভালোবেসে দেওয়া ছোট উপহারগুলোই খুশির খোরাক হয়ে উঠতে পারে।
তবে উপহার দেওয়ার ক্ষেত্রে প্রয়োজনীয়তার বিষয়টিও মাথায় রাখতে হবে। এমন কিছু উপহার বেছে নিতে পারেন যা প্রিয় মানুষটি ব্যবহার করতে পারবে। তাই উপহার কেনার আগে কিছুটা চিন্তা-ভাবনা করে এবং ভালোবাসার মানুষটির পছন্দের বিষয় মাথায় রেখে উপহার বাছাই করা যেতে পারে।
ছেলেদের জন্য উপহার বাছাই করা কিছুটা কঠিন। এক্ষেত্রে মানিব্যাগ, বেল্ট, টাই, চাবির রিং, শার্ট বা টি-শার্ট, ঘড়ি অথবা পাঞ্জাবি হতে পারে ভালো উপহার।
তাছাড়া ছেলেদের জন্য উপহার বাছাইয়ে বেশ জনপ্রিয় হল সুগন্ধি। ভালোবাসার মানুষটি কোন ব্র্যান্ডের পারফিউম ব্যবহার করে তা জানা থাকলে কিনে দিতে পারেন। অথবা নিজের পছন্দসই সুগন্ধি উপহার দিলেও খুশি হবে সে।


ব্র্যান্ডের উপর নির্ভর করে এই জিনিসগুলোর দাম ওঠানামা করে। চায়না এবং নন-ব্র্যান্ডের ট্রিমার পাওয়া যাবে ৮শ’ থেকে ১ হাজার ৫শ’ টাকার মধ্যেই। তবে বিভিন্ন ব্র্যান্ডের ট্রিমার কিনতে খরচ পরবে পাঁচ থেকে ৩০ হাজার টাকা।
লেভিস, গুচি, মন্টব্ল্যাক ইত্যাদি ব্র্যান্ডের উন্নত মানের রেপ্লিকা মানি ব্যাগগুলোর দাম পরবে ৬শ’ টাকা থেকে ১ হাজার ৫শ’ টাকার মধ্যে।
প্রেমিক যদি ক্রিকেট বা ফুটবলের প্রতি আগ্রহী হয় তবে উপহার হিসেবে বেছে নিতে পারেন তার প্রিয় দলের জার্সি। বেশ ভিন্ন ধাঁচের এই উপহার ভালোবাসার মানুষকে খানিকটা অবাক করে দিবে।
বিভিন্ন ধরনের বাহারি ডায়েরি উপহার দেওয়া যেতে পারে। ধরন ভেদে এসব ডায়রির দাম পড়বে- ১শ’ থেকে সাড়ে ৩শ’ টাকা।
মেয়েদের জন্য সব থেকে আদর্শ উপহার একগুচ্ছ লাল গোলাপ। তবে প্রেমিকার পছন্দের ফুল তার হাতে তুলে দিয়ে এই রীতিতে ভিন্নতা আনতে পারেন।


তাছাড়া পোশাক, মেইকআপ সামগ্রী, সানগ্লাস, হেয়ার স্ট্রেইটনার, ব্যাগ, প্রিয় ব্র্যান্ডের লিপস্টিক, দুল, আংটি বা কানের দুল যে কোনো কিছু বেছে নেওয়া যেতে পারে উপহার হিসেবে।
বিভিন্ন দোকানে পাওয়া উপহার সামগ্রীগুলো। সানগ্লাসের দাম ২৫০ থেকে ১০ হাজার টাকা, মগ ৩শ’ থেকে ১ হাজার টাকা, মেইকআপের সামগ্রীর দাম নির্ভর করবে ব্র্যান্ডের উপর। স্ট্রেইটনার ও কার্লারের দাম পরবে ১ হাজার থেকে ১০ হাজার টাকা।
নকশা করা আয়নাও দিতে পারেন প্রেমিকাকে। দাম পরবে দেড়শ থেকে ৮শ’ টাকা।
আপনার উপহারের পাশাপাশি উপহারের বক্সটিও আকর্ষণীয় হতে পারে। বক্সের আকার ও ধরনভেদে দাম পরবে ৫০ থেকে ৫শ’ টাকা।
চলছে বই মেলা, ভালোবাসার মানুষটির বই পড়ার অভ্যাস থাকে তাহলে তার পছন্দের লেখক বা যে ধরনের বই পড়ে থাকেন সে ধরনের বই কিনে দিতে পারেন।
ভালোবাসার দিনের প্রেমিক বা প্রেমিকা দুজনের জন্যই দারুণ উপহার অনুষঙ্গ কার্ড। ভ্যালেন্টাইন্স ডে’র কার্ডগুলো ‘লাভ কার্ড’ নামেও পরিচিত। আকার ও ধরন বুঝে কার্ডের দাম পড়বে ৫০ থেকে ২ হাজার টাকা।
কোথায় পাবেন


এছাড়াও যেতে পারেন দেশীদশ, ইনফিনিটি, এক্সটেসি, বসুন্ধরা সিটি, যমুনা ফিউচার পার্ক ইত্যাদি শপিং মলগুলোতে। পাশাপাশি নিউমার্কেট, মৌচাক ইত্যাদি মার্কেটেও খুজলে হাতের নাগালে সাশ্রয়ী দামে উপহার কিনতে পারবেন।
