খুব সহজেই এখন আপনিও তৈরি করে নিতে পারেন মজার এই পিনাট বার। রেসিপি দিয়েছেন মুহসিনা তাবাসসুম।
উপকরণ: ভাজা ফ্রেশ চীনাবাদাম পরিমাণ মতো। সুগার ১ কাপ। লবণ ১ চিমটি (ইচ্ছা)।
চকোলেট লেয়ারের জন্য: যেকোনো মিল্ক চকলেট গলানো, পরিমাণ মতো। বাদাম কুচি, সামান্য। কমলা লেবুর খোসা শুকিয়ে মিহিকুচি করা, অল্প।
পদ্ধতি: ননস্টিক ফ্রাইপ্যানে চিনি অল্প আঁচে গলিয়ে নিন। কোনো পানি দেবেন না। ধীরে ধীরে কাঠের চামচা দিয়ে নেড়ে গলাতে হবে। একবারে গলাতে গেলে কেরামেল পুড়ে যাবে।
ভালোভাবে সব চিনি গলে গেলেই বাদাম দিয়ে ট্রেতে ঢেলে ফেলুন। বাদাম ক্যারামেলের সঙ্গে মাখা মাখা হবে। এই কেরামেলের সঙ্গে বাদাম মেশানো আর আকার ঠিক করার অংশটি খুব দ্রুত করতে হবে।
ট্রেতে আগে থেকে সামান্য বাটার বা ঘি মাখিয়ে রাখুন। এবার কাঠের চামচ দিয়েই চারকোণা আকার দিন। চিনি গলতে থাকা অবস্থায় চকলেট গলিয়ে নিন। সঙ্গে কমলার খোসা দিয়ে মিশিয়ে নিন।


পুরোপুরি ঠাণ্ডা হলে পরিবেশন করুন। বাক্স বা বয়ামে ভরে অনেকদিন রেখেও দিতে পারেন।
টিপস
