রাজধানী ঢাকার মোহাম্মাদপুরে ১৫তম শোরুম উদ্বোধন করেছে দেশের জনপ্রিয় ফ্যাশন হাউস লা রিভ। 
১৭ ফেব্রুয়ারি(শনিবার) মোহাম্মাদপুরের শোরুম উদ্বোধন করেন লা রিভের ডিরেক্টর ক্রিয়েটিভ অ্যান্ড ডিজাইন মন্নুজান নার্গিস। 
তিনি বলেন, লা রিভ বাংলাদেশের সমসাময়িক ফ্যাশন ব্র্যান্ডগুলোর একটি। সারাদেশে মোট ১৫টি শোরুম আছে লা রিভের। এর মধ্যে ১৩টি ঢাকার মধ্যে আর ঢাকার বাইরে সিলেটে ২টি। বিশ্বের সাথে তাল মিলিয়ে নতুন নতুন পোশাক নিয়ে মোহাম্মাদপুরবাসীর জন্য সাজবে লা রিভ।
নতুন শোরুম উদ্বোধন উপলক্ষে র‌্যাম্প শো আয়োজন করে প্রতিষ্ঠানটি। র‌্যাম্প শো'র মাধ্যমে লা রিভ তার বসন্ত/গ্রীষ্মকালীন ২০১৮ কালেকশন প্রদর্শন করে। 
মোহাম্মাদপুরের শোরুম আয়তনে ৯ হাজার ৩'শ স্কয়ার ফিট। নারী, পুরুষ এবং ছোট সোনামনিদের পোশাক নিয়ে সাজানো হয়েছে শোরুমটি। এছাড়া লা রিভের অন্যান্য আয়োজন যেমন- ব্যাগ, ঘড়ি, বেল্ট, জুয়েলারিও পাবেন ক্রেতারা।
