রেসিপি দিয়েছেন আনিসা হোসেন।
টমেটো দিয়ে কইমাছ


পদ্ধতি: কইমাছ ধুয়ে ২০ মিনিট লবণ, মরিচ, একটু হলুদ এবং তেলে দিয়ে মাখিয়ে রাখুন। ২০ মিনিট পর মাছগুলো ভেজে ফেলুন৷
কড়াইতে তেল দিয়ে পেঁয়াজ হালকা রং করে ভাজুন। পাকাটমেটো কুচি করে তেলে দিয়ে ভাজতে থাকুন। এরপর একে একে সব মসলা আর অল্প অল্প পানি দিয়ে দুই তিনবার কষাতে হবে।
এখন মাছ, কাঁচাটমেটো, মটরশুঁটি ও কাঁচামরিচ দিয়ে ঢেকে ২০ মিনিট রান্না করুন। পানি শুকিয়ে তেল উপরে উঠে এলে, ধনেপাতা ছিটিয়ে নামিয়ে ফেলুন।
কাঁচাটোমেটো শুটকি ঝাল ভুনা


পদ্ধতি: শুটকিগুলো ছোট ছোট টুকরা করে নিন এবং শুকনা কড়াইতে টেলে নিন৷ শুটকিগুলো যখন পোড়া পোড়া হয়ে যাবে, টালা বন্ধ করে দিন এবং হালকা গরম পানিতে পাঁচ থেকে ছয় মিনিট ভিজিয়ে রাখুন৷
ভেজানোর পর শুটকি নরম হয়ে যাবে তখন শুটকির ভেতরের কাঁটা খুলে ফেলে দিন এবং শুটকিগুলো খুব ভালো করে ধুয়ে রাখুন৷ আলুগুলো পাতলা লম্বা করে কেটে রাখুন৷
কড়াইতে তেল গরম করে শুটকি, পেঁয়াজ এবং রসুনকুচি দিয়ে বাদামি করে ভেজে সঙ্গে রসুনবাটা আর অল্প লবণ দিয়ে ভেজে নিন।
একটু পানি, মরিচ ও হলুদ দিয়ে মসলা কষিয়ে নিন। তারপর মসলার সঙ্গে আলু দিয়ে ঢেকে রান্না করুন দুই মিনিট।
এবার কাটা কাঁচাটোমেটো দিয়ে লবণ পরখ করুন। লাগলে লবণ দিতে পারেন স্বাদ মতো। তারপর ঢেকে দিন শুটকিভুনা৷
