প্রসাধনীবিষয়ক একটি ওয়েবসাইটে কন্ডিশনারের বিকল্প ব্যবহারের কথা জানানো হয়।
শেইভিং ক্রিম: অবাঞ্ছিত লোম থেকে মুক্তি পেতে অনেকেই নানান ব্র্যান্ডের শেইভিং ফোম ব্যবহার করেন। আবার অনেকে বেছে নেন শাওয়ার জেল বা শ্যাম্পু। তবে এগুলোর বদলে কন্ডিশনার হতে পারে বেশ কার্যকর বিকল্প। কন্ডিশনার ব্যবহারের ফলে শেইভিংয়ের পরেও ত্বক কোমল থাকবে।
কিউটিকল ক্রিম: নখের চারপাশের চামড়া প্রায়ই শুষ্ক হয়ে যায়, এই অংশকেই কিউটিকল বলে। অল্প পরিমাণে কন্ডিশনার নিয়ে নখের চারপাশে ভালোভাবে মালিশ করুন। কন্ডিশনার শুষ্ক ত্বকেও আর্দ্রতা যোগাবে।
কাপড় সুরভিত রাখতে: কন্ডিশনারের হালকা গন্ধ প্রায় সবারই পছন্ধ। কাপড়েও ওই হালকা সুবাস স্নিগ্ধতা ধরে রাখবে। একটি স্প্রে বোতলে এক ভাগ কন্ডিশনার এবং নয় ভাগ পানি ভরে ভালোভাবে ঝাঁকিয়ে নিন। ওই মিশ্রণ কাপড়ে স্প্রে করুন, কন্ডিশনার কাপড়কে সুরভিত রাখবে।
