ভারতের 'হেইঞ্জ নিউট্রিশন ফাউন্ডেশন'য়ের পুষ্টি বিশেষজ্ঞ নীলাঞ্জনা সিং জানান, অন্যান্য গুণাগুণের পাশাপাশি এসব ফল ত্বক ও চুলের যত্নে বিশেষ উপকারী। আর ক্যালরিও কম।
আনারস: আঁশবহুল ও কম ক্যালরি যুক্ত ফল। এটা কোলাজেন বৃদ্ধি করে এবং ত্বকের ক্ষয় পূরণ করে পরিষ্কার ও স্বাস্থ্যোজ্জ্বল ত্বক পেতে সাহায্য করে। এর অ্যান্টিঅক্সিডেন্ট ত্বকের ক্ষয় রোধ করে। তাছাড়া প্রতিদিন এই ফল খেলে বয়সের ছাপ ও ত্বকের বলিরেখা দূর করতে সাহায্য করে।
পেঁপে: ত্বকের যত্নে পেঁপে বেশ সুপরিচিত। ভিটামিন সি’র ভালো উৎস হওয়ায় রূপচর্চার প্রায় প্রতিটি প্রসাধনীতেই এটা ব্যবহার করা হয়। এছাড়াও এর বিটা ক্যারোটিন এবং লাইপোসিন একসঙ্গে ত্বকের জন্য জাদুকরী কাজ করে। এরা ত্বকের ক্ষয় রোধ করে বলিরেখা ও বয়সের অন্যান্য ছাপ দূর করতে সাহায্য করে। পেঁপে ত্বকে সরাসরি ব্যবহার করলে ত্বকের গঠন ও কাঠামো সুন্দর হয়।
সুন্দর ও উজ্জ্বল ত্বকের জন্য ফল ব্যবহারের পাশাপাশি অন্যান্য আরও কিছু করণীয় আছে বলে জানান, অর্গানিক হারভেস্ট এর রূপবিশেষজ্ঞ ও প্রধান প্রশিক্ষক সোনিয়া মাথুর।
পানি: একবারে বেশি নয়, ধীরে ধীরে বাড়িয়ে পানি পান করা স্বাস্থ্যের জন্য ভালো। এটা শরীরকে ভেতর থেকে আর্দ্র রাখে এবং ত্বকের আর্দ্রতা ধরে রাখে। পানি দীর্ঘমেয়াদে বলিরেখা দূর করতে পারে। ত্বক সুন্দর রাখতে দৈনিক আট থেকে নয় গ্লাস পানি পান করুন।


নাইট ক্রিম: ত্বকের আর্দ্রতা রক্ষার জন্য রাত সবচেয়ে ভালো সময়। নাইট ক্রিমগুলোতে সানব্লক যুক্ত না থাকায় তা হালকা হয় এবং ত্বকের আর্দ্রতা রক্ষা করায় সাহায্য করে। নাইটক্রিমগুলো এমনভাবে তৈরি করা হয় যা ত্বকের বলিরেখা, বয়সের ছাপ এবং ত্বকের অন্যান্য অসঙ্গতি নিয়ন্ত্রণে সাহায্য করে। তাই ত্বকের ধরন অনুযায়ী নাইটক্রিম নির্বাচন করা ও তা নিয়মিত ব্যবহার করা উচিত।
