সাজসজ্জাবিষয়ক একটি ওয়েবসাইটে প্রকাশিত প্রতিবেদন অবলম্বনে লিপস্টিকের মাধ্যমে ভরাট ঠোঁট পাওয়ার উপায় সম্পর্কে জানা যায়।   
* মুখ পরিষ্কার করে ময়েশ্চারাইজার লাগিয়ে নিন। কিছুক্ষণ অপেক্ষা করে মুখ ও গলায় ফোঁটা ফোঁটা করে ফাউন্ডাশন লাগিয়ে নিন।
* ভালো মতো বেইজ তৈরি করার জন্য ব্রাশের সাহায্যে ফাউন্ডেশন ত্বকে মিশিয়ে নিন।
* চোখের নিচে কালো দাগ ঢাকতে কন্সিলার ব্যবহার করুন।
* ঠোঁটের রংয়ের চেয়ে এক শেইড গাঢ় রংয়ের লিপ লাইনারের সাহায্যে ঠোঁট এঁকে নিন।
* ঠোঁট বেশি চিকন হলে সামান্য বাড়িয়ে ঠোঁট এঁকে নিন। 
* এরপর ঠোঁটে গাঢ় গোলাপি রংয়ের লিপস্টিক লাগান।  
* সবশেষে, ঠোঁটের মাঝামাঝি অংশে সামান্য হাইলাইটার লাগান। 
এভাবেই কোনোরকম কাটাছেঁড়া ছাড়াই আপনি মনের মতো ভরাট ঠোঁট পেতে পারেন।
ছবির প্রতীকী মডেল: অহনা। ছবি: ই স্টুডিও।
আরও পড়ুন
রং বুঝে ঠোঁট রাঙান
