মানসিক স্বাস্থ্যবিষয়ক এক ওয়েবসাইটের মতে, সামাজিক যোগাযোগের অভাব মানুষের রোগ প্রতিরোধ ক্ষমতার উপর ক্ষতিকর প্রভাব ফেলে। তাই নিঃসঙ্গ মানুষের অকাল মৃত্যু হওয়ার সম্ভাবনা অনেকাংশেই বেশি।
বিস্ময়করভাবে, নিঃসঙ্গ মানুষ সময়ে সঙ্গে আরও বেশি নিঃসঙ্গ হতে থাকেন। সামাজিক যোগাযোগ যাদের কম, তাদের মস্তিষ্কে এমন পরিবর্তন আসে যে, অন্য মানুষের চেহারা দেখলে তাদের মনে ভয়ের সৃষ্টি হয়। ফলে অন্যদের সঙ্গে আলাপচারিতা ও সম্পর্ক গড়ে ওঠা ক্রমেই আরও দুষ্কর হয়ে দাঁড়ায়, এমনটাই মন্তব্য করেন যৃক্তরাষ্ট্রের ইউনিভার্সিটি অফ শিকাগোর মনোবিজ্ঞানী জন কাসিওপ্পো।
নিঃসঙ্গতা নিয়ে গবেষণা থাকা এই মনোরোগ বিশেষজ্ঞ বলেন, “নিসঃঙ্গতা মানে একা থাকা নয়, নিজেকে অনুভব করা। ক্ষুধার মতো নিঃসঙ্গতারও একটি উদ্দেশ্য আছে। ক্ষুধা নেয় শারীরিক যত্ন আর নিঃসঙ্গতা আমাদের লৌকিক সত্তার যত্ন নেয়।” 
তিনি আরও বলেন, “হাসপাতালে পড়ে থাকা রোগীদের কথাই ধরুন। তারা মোটেই একা নন। তাদের যতটুকু সাহায্য সহমর্মীতা প্রয়োজন তার সবটাই আছে। তবুও তারা একা অনুভব করেন। একজন বিবাহিত ব্যক্তি তার পরিবারের সঙ্গে যোগাযোগ করতে না পারলে নিঃসঙ্গতা অনুভব করেন। 
পরামর্শ
অনলাইনিভিত্তিক সামাজিক যোগাযোগ মাধ্যমগুলো নিঃসঙ্গতা দূর করতে কোনো ভূমিকা রাখে না।
এ বিষয়ে জন কাসিওপ্পো বলেন, “আপনার একমাত্র গ্রহণযোগ্যতা যদি হয় নিজের ইন্টারনেট ভিত্তিক ভুয়া উপস্থাপনা, তবে তা কখনও সমাজের সঙ্গে সম্পর্কযুক্ত হওয়ার অনুভূতি দিতে পারেনা।”
জোর করে কারও সঙ্গে কথা বলার চেষ্টাও বৃথা। বার বার চেষ্টা করার পরও ব্যর্থ হলে আপনার মনে হবে, ‘আমাকে দিয়ে এসব কখনও সম্ভব হবে না। আমি একটা অপদার্থ।’ তাহলে উপায় কী?
কাসিওপ্পোর পরামর্শ হল, নিজের পছন্দের কাজে সেচ্ছাসেবক হওয়া।
ধীরে ধীরে সমাজে নিজেকে অন্তর্ভুক্ত করতে হবে। নিজেকে অল্প অল্প করে অপরের জন্য বিলিয়ে দিতে হবে। এটা প্রাথমিক পর্যায়ে বেশ কঠিন হবে, কারণ অনেকেই আপনাকে পছন্দ করবে না আর এটাই স্বাভাবিক।
