নানইয়াং টেকনোলজিকাল ইউনিভার্সিটি সিঙ্গাপুরের গবেষকরা জানান, সেলফি তোলার ভঙ্গি, স্থান, এমনকি সেলফির ‘অ্যাঙ্গেল’ থেকে ছবির ব্যক্তির ব্যক্তিত্বের বিভিন্ন ‍দিক তুলে ধরতে পারে।   
গবেষকরা আরও জানান, মুখের ভঙ্গি, আবেগ এবং অন্যান্য ব্যক্তিত্ববিষয়ক গোপন বিষয়গুলোও সেলফির মাধ্যমে বিবেচনা করা সম্ভব।
উদাহরণ হিসেবে গবেষকরা বলেন, “একজন ব্যক্তিকে সেলফিতে হাসিখুশি দেখা গেলে, ওই ব্যক্তি দয়ালু এবং সহযোগীতাশীল মনোভাবের হতে পারে।”
তারা আরও বলেন, “যারা মুখের নিচ থেকে সেলফি তোলেন, তারা যেকোনো পরিস্থিতির সঙ্গে নিজেকে মানিয়ে নিতে পারেন। পাশাপাশি, যারা জনসম্মুখে সেলফি তোলায় আগ্রহী, তারা সৎ হয়ে থাকেন।”
গবেষকরা মনে করেন, অন্যান্য ছবির তুলনায় সেলফি একজন মানুষের ব্যক্তিত্ব সম্পর্কে অনেক বেশি তথ্য প্রকাশ করে। কারণ, সেলফি তোলার সময় ক্যামেরা নিয়ন্ত্রণ করতে হয় নিজেকেই।
ছবি: রয়টার্স।
