তৈরি করতে সময় লাগবে ১০ মিনিট বা তারও কম। রেসিপি দিয়েছেন পাপন শ্রাবণ।
উপকরণ
বান-লম্বাগুলো ২ টি, সেদ্ধ ডিম ১ টা, গাজর কুঁচি ২ টেবিল-চামচ, মেয়োনেজ ৪ টেবিল-চামচ, জিরা গুঁড়া ১ চা-চামচ, সালাদ ড্রেসিং ১ টেবিল-চামচ, বিট লবণ ১ চা-চামচ, পুদিনা পাতা অল্প।
