মনের মতো নেইল আর্ট আর বিভিন্ন ধরনের স্টোন এবং স্টিকারের ব্যবহার হাল ফ্যাশনে বেশ জনপ্রিয়।
দিল্লির বিউটি এক্সপার্ট পূজা গোয়েল নখে নকশা করার ক্ষেত্রে কিছু টিপস দিয়েছেন।
- নখে নকশা করার আগে ‘বেইস কালার’ নির্ধারণ করা দরকার। এটি নখকে নকশার জন্য প্রস্তুত করে এবং তা দীর্ঘস্থায়ী করতেও সাহায্য করে। তাই সবসময় ভালো মানের বেইজ কোট বেছে নেওয়া উচিত।
- নখের নকশায় এখন বিভিন্ন আকারের এবং রংয়ের পাথর ব্যবহৃত হয়ে থাকে। তাই নিজের সংগ্রহে কিছু পুথি বা পাথর এবং এর আঠা রাখা যেতে পারে।
- যেকোনো আর্টে ব্রাশ যেমন জরুরি, নেইল আর্টের ক্ষেত্রেও তাই। নেইল আর্টের জন্য বিশেষ ধরনের ব্রাশ এখন বাজারে পাওয়া যায়। তবে চাইলে বিকল্প হিসেবে চিকন রং তুলিও ব্যবহার করা যায়। তাছাড়া রং নিয়ে খেলা করতে চাইলে আইশ্যাডো এপ্লিকেটরও ব্যবহার করা যেতে পারে।


- নখে নকশা করতে দারুণ সহায়ক ফয়েল পেপার বা স্কচটেইপ। ‘বেইস কালার’ শুকিয়ে গেলে মনের মতো ফয়েল পেপার বসিয়ে অন্য রং দিয়ে নকশা করা যায়।
- নেইল পলিশ উঠাতে তুলা প্রয়োজন। তাছাড়া নখের নকশা ঠিক করতে হাতের কাছে কটন বাড রাখা উচিত। রিমুভারে ডুবিয়ে নখের আশপাশে লেগে থাকা নেইল পলিশ বা নকশা ঠিক করতে কটন বাড বেশ উপকারী।
ছবি: রয়টার্স।
নখের হলদেভাব কমাতে
