খাদ্য ও পুষ্টিবিষয়ক একটি ওয়েবসাইটের প্রতিবেদনে জানানো হয়, তাজা ফল শারীরিক ও মানসিক স্বাস্থ্যের জন্য উপকারী। তবে ফল খাওয়ার সঠিক উপায় অনেকেরই অজানা।
এমন ছয়টি ফলের নাম এখনে দেওয়া হল যা খোসা ছাড়িয়ে খাওয়া উচিত না।


আপেলের খোসায় থাকা অ্যান্টি-অক্সিডেন্ট উপাদান আলৎঝাইমার’স রোগ ও অন্যান্য ক্ষয়জনীত সমস্যার বিরুদ্ধে লড়াই করে। খোসাতে আঁশ ও ভিটামিনও থাকে প্রচুর, যা স্বাস্থ্যের জন্য অপরিহার্য। আপেলের খোসাতে থাকা আরেকটি উপাদানের নাম ‘ট্রাইটারপেনোইডস’, যা ক্যান্সারের ঝুঁকি কমায়। 










মনে রাখতে হবে, খোসাসহ খাওয়ার আগে ফলটি অবশ্যই ভালোভাবে ধুয়ে নিতে হবে।
সিল্কি চুলের জন্য ফল
ফল আর সবজিতে বাড়ে সুখ
পাথর গলাতে টক ফল
যেসব ফল ওজম কমায় না
ঝলমলে ত্বকের জন্য ফল
কাটা ফল সংরক্ষণের উপায়
