আধুনিক ফ্যাশনের সঙ্গে তাল মেলাতে গিয়ে চুলের উপর অনেক সময় অত্যাচার করা হয়। নিজেকে ভিন্ন আর সুন্দরভাবে উপস্থাপনের জন্য ব্লিচ, রং, তাপ ইত্যাদির ব্যবহার কেশ হয়ে যায় রুক্ষ। ফলাফল চুলের আগা ফাটা।
ভারতের ‘অ্যাডভান্সড হেয়ার স্টুডিও’র কুশলীরা জানিয়েছেন, এই সমস্যা রোধের জন্য ডিমের মাস্ক ও মধু অনেক কার্যকর।
ডিমের মাস্ক: প্রোটিন এবং এসেনশিয়াল ফ্যাটি অ্যাসিডের অন্যতম উৎস ডিম। চুলের জন্য তৈরি মাস্ক বা প্যাক’য়ে ডিম থাকলে তা চুলের গোড়া শক্ত করার পাশাপাশি কন্ডিশনারের কাজ করে, ফলাফল চুলের আগা ফাটা রোধ। পাশাপাশি টক দই ব্যবহার করলে চুল হবে স্বাস্থ্যোজ্জ্বল ও মসৃণ।
মধু: টক দইয়ের সঙ্গে মধু মিশিয়ে চুলের প্রান্তে ব্যবহার করলে আগা ফাটা রোধে চমৎকার কাজ করে।
প্রশস্ত দাঁতের চিড়ুনি: শাওয়ারে কন্ডিশনার ব্যবহার করার পরে এই ধরনের চিড়ুনি দিয়ে যতক্ষণ না জট খুলছে ততক্ষণ চুলের গোড়া থেকে প্রান্ত পর্যন্ত ধীরে আঁচড়ে নিন।
