ফল স্বাস্থ্যের জন্য যেমন উপকারী তেমনি ত্বকের সৌন্দর্য ধরে রাখার জন্যও জরুরি। রূপচর্চায় ফলের ব্যবহার নতুন নয়। তবে শুধু ত্বকের উপরের যত্নে নয়, ভিতর থেকে সৌন্দর্য ফুটিয়ে তুলতে নিয়মিত ফল খাওয়া উচিত।
স্বাস্থ্য ও রূপচর্চাবিষয়ক একটি ওয়েবসাইটে ত্বক ঝলমলে রাখতে সাহায্য করবে এমনই কিছু ফলের উপকারীতা বর্ণনা করা হয়। কমলা: ভিটামিন সি’য়ের অন্যতম উৎস কমলা। ত্বকের কোলাজেন গঠনে এই ভিটামিন বিশেষভাবে জরুরি। তাছাড়া বয়সের ছাপ ঠেকাতে সাহায্য করে কমলার রস। ত্বকে তাজা কমলার রস নিয়মিত ব্যবহারে ব্রণ, বলিরেখা দূর হয় এবং বন্ধ হয়ে যাওয়া লোমকূপগুলো ভিতর থেকে পরিষ্কার হয়। শুধু রস নয় কমলার খোসাও ত্বকের জন্য উপকারী।
আপেল: ত্বকে উজ্জ্বলতা ফিরিয়ে আনতে এই ফলের জুড়ি নেই। এই ফলে আছে ত্বকের জন্য উপকারী উপাদান কপার এবং ভিটামিন সি। আরও আছে পটাশিয়াম, যা ত্বক সুস্থ রাখতে সাহায্য করে।
পেঁপে: পুষ্টিকর এই ফলে রয়েছে বিশেষ কিছু এনজাইম। যা ওজন কমানোর পাশাপাশি হৃদপিণ্ড সুস্থ রাখতেও সাহায্য করে। তাছাড়া ত্বকের তারুণ্য ধরে রেখে উজ্জ্বল করতে সাহায্য করে পেঁপে। বিভিন্ন ফেইস-প্যাকে পেঁপে ব্যবহার করা যায়। আর পেঁপের কালো দানাও ফেলনা নয়।
