আর ৫৫ বছরের কম বয়সী মহিলাদের মধ্যে যারা অতিমাত্রায় বিষণ্নতায় ভুগছেন তাদের 'হার্ট অ্যাটাক' হওয়ার সম্ভাবনা অন্যদের থেকে দ্বিগুণ।
আমেরিকান হার্ট আসোসিয়েশনের এক গবেষণার বরাত দিয়ে এমনই জানিয়েছে ওমেনসহেলথ ডট কম।    
প্রায় ৩ হাজার ২শ' ৩৭ জন পুরুষ ও মহিলার উপর এই গবেষণা চালানো হয়। এদের সবারই কোনো না কোনো ধরনের কার্ডিওভাসকুলার বা হৃদযন্ত্রের সমস্যার ইতিহাস আছে।
এদের মধ্যে যাদের অতিমাত্রায় বিষণ্নতার লক্ষণ আছে, তাদের তিন বছর ধরে পর্যবক্ষণ করা হয়। গবেষণার ফলাফল: ৫৫ বছরের নিচের মহিলাদের হৃদরোগ হওয়ার সম্ভবনা দ্বিগুনেরও বেশি।
