প্রযুক্তির ছোঁয়ায় বিশ্বের অন্যান্য দেশের মতো কলকাতার যোগাযোগমাধ্যমেও এসেছে বৈপ্লবিক পরিবর্তন। তবে কলকাতায় বংশের ধারা ও ঐতিহ্য ধরে রাখতে হাতে টানা রিকশা চালিয়ে জীবিকা নির্বাহ করছেন অনেকে।
প্যাডেল ও ব্যাটারিচালিত রিকশা, মেট্রোরেল, পাতাল রেল, স্কুটার ও উবার সেবার ভিড়ে শোভাবর্ধন ও ঐতিহ্যের ধারক হিসেবে এখনো টিকে আছে কলকাতার হাতে টানা রিকশা। কলকাতা নগরের পার্ক স্ট্রিট, কলেজ স্ট্রিট, নিউমার্কেটসহ বিভিন্ন এলাকা হাতে টানা রিকশা। হাতে টানা রিকশার বেশির ভাগ চালক বয়সে প্রবীণ।
আসুন ছবিতে দেখে নেই কলকতার হাতে টানা রিকশা
রিকশায় চড়ে স্কুলে যাচ্ছে দুই শিশু
কলকাতা শহরে ঘুরে বেড়াচ্ছে এক অতিথি
রিকশার গ্যারেজে চাকা ঠিক করছেন এক চালক
রিকশায় বসে বিশ্রাম নিচ্ছেন এক চালক
বাজার করে রিকশায় চড়ে বাড়ি ফিরছেন এক নারী
