অনেকের বয়সের কারণে আবার অনেকের ঘুম কম হওয়ার কারণে চোখের নিচে কালো দাগ পড়ে। চোখের নিচের কালো দাগ আপনার চেহারা সৌন্দর্য নষ্ট করে। তাই একটু বাড়তি যত্ন এবং সাবধানতা এই সমস্যার সমাধান করতে পারে খুব সহজেই। চোখ অনেক স্পর্শকাতর একটি জায়গা। তাই প্রাকৃতিক উপায়ে চোখের পরিচর্যা করলে এই দাগ দূর হওয়ার পাশাপাশি এর কোনো পার্শ্বপ্রতিক্রিয়াও থাকবে না এবং চোখের চারপাশ হবে আরো উজ্জ্বল ও প্রাণবন্ত।
আসুন দেখে নেই কীভাবে দূর করবেন চোখের নিচের কালো দাগ।
হারবাল আইস কুবেস
ম্যাসেজ অ্যান্ড এক্সসারসাইজ
টমেটো জুস
মিল্ক অ্যান্ড ব্রেড ম্যাকস
ট্রি কমপ্রেস
কিউকামবার কমপ্রেস
পটেটো জুস
সুইট অ্যান্ড অ্যালমন্ড ওয়েল
রোজ ওয়াটার
