

‘অল সেইন্টস ডে’র স্মরণে বিভিন্ন মজাদার কর্মকাণ্ডের মাধ্যমে এই দিন উদযাপন হয়। ভৌতিক পোশাক পরা, ভূতুড়ে বাড়িতে ভ্রমণ, শিশুদের চকলেট খাওয়ানো ইত্যাদি আয়োজন হ্যালোউইন উৎসবের অংশ।
এই উৎসবের আনন্দকে আমাদের শিশুদের মধ্যে ছড়িয়ে দিতে লা মেরিডিয়ান ঢাকা ভূতুড়ে বাড়ি, চলচ্চিত্র প্রদর্শনী এবং নানারকম খেলার আয়োজনের মাধ্যমে এ উৎসব আয়োজনের প্রস্তুতি নিয়েছে। 
হ্যালোইনের এ উৎসবে অংশ নেওয়া যাবে জনপ্রতি ১,৭০০++ টাকায়। যার মধ্যে হ্যালোইন উৎসবে অংশগ্রহণ ছাড়াও থাকছে বিশেষ বুফে ডিনার ‘গৌলস মিস্ট্রি বুফে’। 
