মচমচে এই পিঠা তৈরির পদ্ধতি জানিয়েছেন লুবনা নোমান।
উপকরণ: ডিম ১টি। চালের গুঁড়া দেড় কাপ। ময়দা ২ টেবিল-চামচ। চিনি আধা কাপ বা স্বাদ মতো। লবণ ১ চিমটি। পিঠার ছাঁচ ১টি(বাজারে পাবেন)। হালকা গরম পানি পরিমাণ মতো। তেল ভাজার জন্য পরিমাণ মতো।
পদ্ধতি: ডিম ফেটিয়ে নিন। তারপর ডিম, ময়দা, চালের গুঁড়া, লবণ, চিনি ও গরম পানি দিয়ে মেখে রেখে দিন এক ঘণ্টার জন্য। মিশ্রণটি বেশি পাতলা বা ঘন হবে না।
কড়ইতে বেশি করে তেল নিন যাতে ডুবো ভাবে ভাজা যায়। তেল গরম হলে, ফুলঝুরি পিঠার ছাঁচ তেলে ডুবিয়ে রেখে তুলে ফেলুন।
এবার গরম ছাঁচটি গোলার মধ্যে ছাঁচের অর্ধেকের বেশি ডুবিয়ে নিয়ে আবার তেলের কড়াইয়ে দিয়ে ঝাঁকাতে হবে যতক্ষণ না ছাঁচ থেকে পিঠা ছুটে না আসে।
এভাবে একটা পিঠা হতে হতে পুনরায় ছাঁচটি গরম তেলে ডুবিয়ে রাখতে হবে ও আগের নিয়ম অনুযায়ী করতে হবে। পিঠা এপিঠ ওপিঠ হালকা বাদামি করে ভেজে তুলে ফেলতে হবে।
পিঠা তোলার সময় নরম থাকলে কোনো সমস্যা নেই। কারণ যত ঠাণ্ডা হবে তত মচমচে হবে। সব পিঠা ভালো করে ঠাণ্ডা হলে বয়ামে ভরে অনেকদিন রেখে খাওয়া যাবে।
