প্রাকৃতিক উপায়ে ঘর থেকে পিঁপড়া দূর করার প্রচলিত ও প্রতিষ্ঠিত পন্থাগুলো নিয়ে গৃহস্থালীবিষয়ক একটি ওয়েবসাইটে প্রকাশিত প্রতিবেদন অবলম্বনে কয়েকটি কার্যকর উপায় এখানে দেওয়া হল।
ভিনিগার: ঘরে যে কোনো কিছু প্রতিকারের রাজা হল ভিনিগার। তাই বাড়িতে এটা থাকা আবশ্যক। সমপরিমাণ পানি ও ভিনিগার মিশিয়ে তা দিয়ে রান্না ঘরের কোণা, তাক ও অন্যান্য যেসব জায়গায় পিঁপড়া দেখা যায় সেখানে মুছে নিন। একদিন পর পর এই পদ্ধতি অনুসরণ করুন। পিঁপড়া ভিনিগারের গন্ধ সহ্য করতে পারে না। তাই তারা এটা এড়িয়ে চলে।
বোর‌্যাক্স: চিনি ও বোর‌্যাক্স একসঙ্গে মিশিয়ে এমন জায়গায় রেখে দিন যেখানে পিঁপড়ার যাতায়াত হয়। এটা বিষাক্ত তাই বাড়িতে ছোট শিশু বা পোষাপ্রাণি থাকলে সাবধান হন। বোর‌্যাক্স হজম প্রক্রিয়া নষ্ট করে দেয় যার ফলে পিঁপড়ার মৃত্যু হয়।
টক ফলের খোসা: জানা মতে যেসব জায়গায় পিঁপড়া চলাচল করে সেখানে লেবুর খোসা রেখে দিন। এই খোসা পিঁপড়ার জন্য বিষাক্ত, তাই যতটা সম্ভব তারা এড়িয়ে চলে। লেবু ছাড়াও কমলালেবুর খোসাও ব্যবহার করতে পারেন। 
ময়দা: ময়দা পিঁপড়ার অপছন্দের বস্তু। রান্নাঘরের তাক ও যেসব স্থানে পিঁপড়ার চলাফেরা বেশি সেখানে ময়দা ছিটিয়ে রাখুন, পিঁপড়া দূর হয়ে যাবে। 
লবণ: দরজার ফ্রেম অথবা পিঁপড়া চলার রাস্তায় লবণ ছিটিয়ে দিন এবং নিজেই পার্থক্য লক্ষ্য করুন। পিপড়া লবণের এই বাধা অতিক্রম করতে পছন্দ করে না।
আরও পড়ুন
লবণ দিয়ে ঘর পরিষ্কার
পোকার উপদ্রব কমাতে
