রেসিপি দিয়েছেন বীথি জগলুল।
উপকরণ: জলপাই ১ কেজি। আদা ও রসুন বাটা দেড় টেবিল-চামচ করে। সরিষাবাটা ৩,৪ টেবিল-চামচ। হলুদগুঁড়া ১ চা-চামচ। মরিচগুঁড়া ২ চা-চামচ। লবণ স্বাদ মতো। চিনি ১ চা-চামচ। সরিষার তেল দেড় কাপ। সিরকা বা ভিনিগার ৩০০ মিলি। আস্ত পাঁচফোড়ন ২ চা-চামচ। রসুনের কোঁয়া ৩টি। আস্ত শুকনামরিচ ইচ্ছা মতো। শুকনা মরিচকুচি ২,৩ টেবিল-চামচ।
পদ্ধতি: জলপাই ধুয়ে, পানি মুছে দুপাশ দিয়ে কেটে নিন। হাঁড়িতে তেল গরম করে আস্ত পাঁচফোড়ন, আদা-রসুন ও সরিষাবাটা দিয়ে কষিয়ে নিন। অল্প ভিনিগার দিয়ে, গুঁড়া মসলাগুলো কষিয়ে নিন খুব ভালো ভাবে।


চিনি ও লবণ দিন। আঁচ কমিয়ে রান্না করুন। জলপাই সিদ্ধ হয়ে তেল ছেড়ে আসলে নামিয়ে নিন।
