রেসিপি দিয়েছেন নাজিয়া ফারহানা।
উপকরণ: ডিম ৪টি। ময়দা ১ কাপ। বেইকিং পাওডার ১ চা চামচ। চিনি গুঁড়া করা ১ কাপ। তেল আধা কাপ। গুঁড়াদুধ আধা কাপ। খাবার রং লাল, নীল, সবুজ ও হলুদ- ১ চা-চামচ করে। ভ্যানিলা এসেন্স ১ চা চামচ।
পদ্ধতি: প্রথমে ডিমের সাদা অংশ ভালো করে বিট করে ফোম করুন। চিনি দিয়ে বিট করতে হবে দুতিন মিনিট। তারপর ডিমের কুসুম দিয়ে দুতিন মিনিট বিট করে তেল দিয়ে বিট করতে হবে।

