লেক টেরেস: চারটি প্ল্যাটার। ‘আশা’ প্ল্যাটারে মিলবে ফ্রেঞ্চ রোস্টেড চিকেন, জাফরান রাইস, হার্ব রোস্টেড ভেজিটেবল, জন ডোরি পারমেসান। দাম ৯শ’ টাকা। ‘রহমত’ প্ল্যাটারে মিলবে বিফ লাসানিয়া, কিং ফিশ সাসলিক, চিকেন পারমেসান, হার্ব রোস্টেড ভেজিটেবল, জাফরান রাইস, ক্রিম ক্যারামেল। দাম ১ হাজার টাকা। ‘হামেঘ’ প্ল্যাটারে মিলবে বোনলেস বিবিকিউ চিকেন, গ্রিলড জাম্বো প্রন, মিনি স্টেক উইথ মাশরুম সস, লায়োনাইজ পটেটো, রোস্টজ ভেজিটেবল, ক্রিম ক্যারামেল। দাম ১ হাজার ২শ’ টাকা। ‘বাউন্টি’ প্ল্যাটারে মিলবে গ্রিলড লবস্টার, গ্রিলড কালামারি, ফিশ উইথ সালসা সস, চিকেন সসেজ, ফ্রেঞ্চ রোস্টেড চিকেন, জাফরান রাইস, ভেজিটেবল সত্তে, ক্রিম ক্যারামেল।
এছাড়া সবগুলো প্ল্যাটারের সঙ্গেই থাকবে আলাদা প্লেটে খেজুর, হালিম, সবজি পাকোড়া, চিকেন কাটালেট/ফিশ কাটালেট, ডিমের চপ, জিলাপি, পেঁয়াজু, সাসলিক, ভেজিটেবল রোল, ছোলা ইত্যাদি প্রচলিত ইফতার আইটেম।


প্ল্যাটফর্ম নাইন অ্যান্ড থ্রি কোয়ার্টার: দুটি প্ল্যাটার। ৩শ’ টাকার প্ল্যাটারে থাকছে থাই অথবা কর্ন সুপ, থাই ফ্রাইড চিকেন, ফ্রাইড রাইস, চিকেন উইথ ক্যাপসিকাম, স্প্রিং রোল, ফ্রেঞ্চ ফ্রাই, ভেজিটেবল সত্তে, খেজুর, আমের সরবত, পানি। ৪শ’ টাকার প্ল্যাটারে থাকবে স্প্রিং রোল, চিজ বল, চিকেন ললিপপ, ওভেন বেইকড পাস্তা, ফ্রেঞ্চ ফ্রাই, ভেজিটেবল সত্তে, খেজুর, আমের সরবত ও পানি।
ভেনি ভিদি ভিচি: ১ হাজার টাকায় ইফতার ও ডিনার বাফেট মিলবে এই রেস্তোরাঁয়। ইফতারে থাকছে পিৎজা, পাস্তা, আমের সরবত, লাসানিয়া, সালাদ, সুপ, রেড ভেলভেট কেকসহ আরও অনেক কিছু।

