পুষ্টিবিজ্ঞানে এরকম খাবারগুলোকে বলা হয় ‘ইনসমনিয়া’ বা অনিদ্রার খাবার।
খাদ্য ও পুষ্টিবিষয়ক একটি ওয়েবসাইটে এই বিষয়ের উপর প্রকাশিত প্রতিবেদন অবলম্বনে নিদ্রা হারানোর খাবারের শ্রেণিগুলো দেওয়া হল।
মিষ্টি খাবার


লেবুজাতীয় ফল


অ্যালকোহল


ঝাল খাবার


ডার্ক চকলেট


কফি


আর আপনি নিশ্চয় ঘুমিয়ে ঘুমিয়ে টয়লেট যাবেন না।
তাই কর্মব্যস্ত দিন শেষে শান্তির ঘুম দিতে রাতে এই ধরনের খাবারগুলো এড়িয়ে চলাই ভালো।
ছবি: রয়টার্স ও নিজস্ব।
আরও পড়ুন
অনিদ্রা কাটানোর খাবার  
দিনের শুরুতে লেবুর উপকারিতা  
বাদামি চিনি বনাম সাদা চিনি  
