সন্তান লালনপালন-বিষয়ক একটি ওয়েবসাইটে প্রকাশিত প্রতিবেদনে সন্তান নিয়ে বেশি চিন্তা করা কমানোর কিছু উপায় দেওয়া হয়।
বিশেষ কারণে ভয়: যদি সবসময় সন্তানের ফলাফল ও স্বাস্থ্য নিয়ে আতঙ্কিত থাকেন তাহলে নিজেকে একটু পরীক্ষা করে নিন, এই ভয়ের মূল কারণ আসলে কী?
যেমন- সন্তান যদি অংকে খারাপ করে তবে আপনি কি তার ফলাফল নিয়ে চিন্তিত? নাকি ছোটবেলা এই বিষয়ে নিজেই কাঁচা ছিলেন বলে সেই ভয়টা এখনও কাজ করে?
উদ্বেগের কারণগুলো লিখে রাখুন: সন্তানের বিষয়ে আপনার উদ্বেগের কারণগুলো লিখে রাখুন। তখন নিজেই বুঝতে পারবেন আপনি সন্তানের বিষয়ে অতিরিক্ত রক্ষণশীল কিনা।
উদাহরণ স্বরূপ, অপরিচিত কেউ খারাপ কিছু করতে পারে এই শংকায় আপনি হয়ত সন্তানকে বাইরে যেতে দিতে চান না। অভিভাবক হিসেবে সন্তানের নিরাপত্তা নিয়ে আপনি সতর্ক থাকেন, ফলে শিশুর স্বাভাবিক উন্নয়ন ঘটবে।
সন্তানকে যথার্থ জ্ঞান দিন: সন্তানের জন্য উদ্বেগ কমাতে তাকে পরিবেশের সঙ্গে তাল মিলিয়ে চলতে শিক্ষা দিন।
যেমন- সবসময় তো আর সন্তানকে আগলে রাখতে পারবেন না। তাই অপরিচিত মানুষের সঙ্গে কীভাবে কথা বলতে হবে এবং অস্বস্তিকর পরিবেশ কীভাবে সামাল দিতে হবে সে সম্পর্কে ছোটবেলা থেকেই শিক্ষা দিন।
শান্ত থাকার চর্চা করুন: গভীর নিঃশ্বাস, ধ্যান এবং সন্তানকে সঙ্গে নিয়ে পার্কে হাঁটতে যাওয়া- এসব করে উদ্বেগ কমিয়ে আনতে পারবেন। ফলে আপনি কেবল শান্ত থাকবেন তা নয় পাশাপাশি সন্তানকেও মনোযোগ সহকারে শেখাতে পারবেন।  
