রেসিপি দিয়েছেন মনিরা মোস্তফা মিতা।
উপকরণ: ১ কাপ লেবুর রস। ১ কাপ পানি। স্বাদ মতো চিনি। যে কোনো খাবার রং। সাদা কোমল পানীয়।
পদ্ধতি: লেবুর রস, পানি আর চিনি একসঙ্গে ব্লেন্ড করতে হবে।
গ্লাসে বরফকুচি দিয়ে এই মিশ্রণ ঢেলে কিছুক্ষণ ফ্রিজে এ রেখে দিন।
