জমে উঠেছে ঢাকা আন্তর্জাতিক বাণিজ্য মেলার ২৩তম আসর। মেলায় বিভিন্ন পণ্যের পসরা সাজিয়ে বসেছেন বিক্রেতারা। প্রতিদিনই মেলায় বাড়ছে ক্রেতাসমাগম, তার সঙ্গে পাল্লা দিয়ে বাড়ছে বেচাবিক্রি। মেলায় ক্রেসমাগম বাড়ায় খুশি বিক্রেতারা। সকাল থেকে রাত পর্যন্ত ক্রেতা-দর্শনার্থীদের পদচারণামুখর থাকে মেলা প্রাঙ্গণ। তাই এবারের মেলা ব্যবসা সফল হবে বলে প্রত্যাশা ব্যবসায়ীদের।
যমুনা ইলেকট্রনিকস ক্রেতাদের জন্য রয়েছে বিভিন্ন পণ্যের ওপর বিশেষ ছাড় ও নগদ মূল্যের অফরের ছড়াছড়ি। সকাল থেকে রাত অবধি লোকে লোকারণ্য থাকে যমুনা ইলেকট্রনিকসের প্যাভিলিয়ন। বাংলাদেশে এই প্রথম যমুনা ফ্রিজে থাকছে ২০ বছরের ওয়ারেন্টি, টিভিতে নগদ মূল্যছাড়। এ ছাড়া শতাধিক পণ্যের ওপর থাকছে নিশ্চিত পুরস্কার।
বাণিজ্য মন্ত্রণালয় ও রফতানি উন্নয়ন ব্যুরোর (ইপিবি) আয়োজনে মেলা চলবে ৩১ জানুয়ারি পর্যন্ত। কোনো সাপ্তাহিক ছুটি ছাড়াই মেলা সকাল ১০ থেকে রাত ১০ পর্যন্ত দর্শনার্থীদের জন্য খোলা থাকবে। প্রবেশ ফি ধরা হয়েছে জনপ্রতি ৩০ টাকা। ছোটদের জন্য ২০ টাকা।
আসুন ছবিতে দেখে নেই বাণিজ্য মেলায় যমুনার প্যাভিলিয়ন।
যমুনার প্যাভিলিয়ন বাইরের অংশ
যমুনার পণ্য কিনতে প্যাভিলিয়নে ভিড় করছে ক্রেতারা
যমুনার ফ্রিজে ২০ বছরের ওয়ারেন্টি
যমুনা প্যাভিলিয়নের কাস্টমর কেয়ার
যমুনা প্যাভিলিয়নে মোটরসাইকেল দেখছেন ক্রেতারা
যমুনার স্টলে টিভি কিনছেন এক দম্পতি
যমুনার পণ্য সম্পর্কে ক্রেতাদের বিভিন্ন তথ্য দিচ্ছিন এক বিক্রেতা
যমুনার প্যাভিলিয়নে পাবেন সংসারের টুকিটাকি
[প্রিয় পাঠক, আপনিও দৈনিক যুগান্তর অনলাইনের অংশ হয়ে উঠুন। লাইফস্টাইলবিষয়ক ফ্যাশন, স্বাস্থ্য, ভ্রমণ, নারী, ক্যারিয়ার, পরামর্শ, এখন আমি কী করব, খাবার, রূপচর্চা ও ঘরোয়া টিপস নিয়ে লিখুন এবং সংশ্লিষ্ট বিষয়ে ছবিসহ মেইল করুন[email protected]এ ঠিকানায়। লেখা আপনার নামে প্রকাশ করা হবে।]
