রেসিপি দিয়েছেন তাসনুভা রোজ নওরিন।
উপকরণ: যে কোনো এগ নুডলস ২ প্যেকেট। পেঁয়াজ-কুচি আধা কাপ। কাঁচামরিচ কুচি ২ টেবিল-চামচ। মিক্সড স্পাইসি মসলাগুঁড়া আধা চা-চামচ। ময়দা ২ টেবিল-চামচ। পাউরুটি ১৩ পিস। ডিম ২টি। ব্রেডক্রাম পরিমাণ মতো। তেল ভাজার জন্য।
পদ্ধতি: পরিমাণ মতো পানি দিয়ে নুডলস একটু বেশি নরম করে সিদ্ধ করে নিন। এবার পানি ভালো মতো ঝরিয়ে তাতে পেঁয়াজকুচি, কাঁচামরিচ-কুচি, প্যাকেট মাসালা, মিক্সড স্পাইসি মসলা ও ময়দা দিয়ে ভালো মতো চটকিয়ে মিক্স করে নিন।
একটা প্লেটে ডিম ফেটে রাখুন আর এক প্লেটে ব্রেডক্রাম রাখুন। পাউরুটির পাশগুলো কেটে নিন।
