পুষ্টিবিষয়ক একটি ওয়েবসাইটে ড্রাগন ফলের উপর প্রকাশিত প্রতিবেদনে জানানো হয়, এতে ক্যালোরির পরিমাণ কম থাকে বলে ‘ডায়েট’ করার সময় এটি খাদ্য তালিকায় অন্তর্ভুক্ত করা যায়।
ড্রাগন ফলের স্বাদ ও পুষ্টিগুণ ঠিক রাখার জন্য সাধারণত এটি কাঁচা অবস্থাতেই খাওয়া হয়।


১০০ গ্রাম ড্রাগন ফলে যে পরিমাণ ভিটামিন সি পাওয়া যায় তা একটি কমলার সমান বা তিনটি গাজরের চেয়ে বেশি ভিটামিন সি সরবারহ করতে সক্ষম।
ভিটামিন সি’র মাত্রা বেশি থাকায় এই ফল রোগ প্রতিরোধ ক্ষমতা বাড়ায়, মানসিক অবসাদ দূর করে এবং ত্বক সুন্দর রাখতে সাহায্য করে।


এই ফলের কালো বীজে থাকে ল্যাক্সেটিভ ও পলিআনস্যাচুরেইটেড ফ্যাটি অ্যাসিড যা হজমে সাহায্য করে ফলে কোষ্ঠকাঠিন্য প্রতিরোধের সহায়ক।
প্রতি ১০০ গ্রাম ড্রাগন ফলে জলীয় শতাংশ থাকে ৮৭ গ্রাম, প্রোটিন ১.১ গ্রাম, ফ্যাট ০.৪ গ্রাম (বলতে গেলে ফ্যাট নাই) এবং কার্বোহাইড্রেট ১১.০ গ্রাম।


প্রতি ১০০ গ্রাম ড্রাগন ফলে ০.০৪ মি.গ্রা. ভিটামিন বি ১, ০.০৫ মি.গ্রা. ভিটামিন বি ২, ০.০১৬ মি.গ্রা ভিটামিন বি ৩ এবং ২০.০৫ মি.গ্রা. ভিটামিন সি পাওয়া যায়।
