আমাদের প্রতিবেশী রাষ্ট্র ভারত সফটওয়্যার ডেভেলপমেন্টের ক্ষেত্রে বিশ্ব জুড়ে সুনাম অর্জন করেছে। প্রতি বছর সফটওয়্যার রপ্তানি করে বিলিয়ন ডলার আয় করছে। বর্তমানে বাংলাদেশেও বেশ কিছু সফটওয়্যার প্রতিষ্ঠান রপ্তানির ক্ষেত্রে উল্লেখযোগ্য ভূমিকা রাখছে। সফটওয়্যার শিল্পের বিকাশ ও রপ্তানির ক্ষেত্রে সাফল্যের ভিত্তি হচ্ছে মানসম্পন্ন বা কোয়ালিটি সফটওয়্যার ডেভেলাপমেন্টের বিশেষ দক্ষতা। 
একটি সফটওয়্যার ডেভেলপ করার পর তার মান যাচাইয়ের জন্য সফটওয়্যার টেস্টিং করতে হয়। সফটওয়্যার টেস্টিং এর মূল উদ্দেশ্য হলো সফটওয়্যারটির কার্যকারিতা যাচাই, মানের উন্নয়ন করা ও ব্যবহারের উপযোগীতা বাড়ানো। ভারতসহ পৃথিবীর সব উন্নত দেশেই সফটওয়্যার ডেভেলপমেন্টের পর অভিজ্ঞ সফটওয়্যার টেস্ট ইঞ্জিনিয়ারদের মাধ্যমে টেস্টিং এর পর সফটওয়্যারটির মান সম্পর্কে নিশ্চিত হলে তবেই তা বাজারজাত বা রপ্তানি করা হয়। প্রতিটি ধাপে আন্তর্জাতিক অঙ্গনে সাফল্য অর্জনের জন্য বাংলাদেশের সফটওয়্যার প্রতিষ্ঠানগুলোকেও সফটওয়্যার টেস্টিং এ আরো গুরুত্ব দিতে হবে। উন্নত দেশগুলোতে সফটওয়্যারর মানের নিশ্চয়তার জন্য সার্টিফায়েড টেস্টারদের সফটওয়্যার টেস্টিং এর দায়িত্ব দেওয়া হয়। বর্তমানে ইন্টারন্যাশনাল সফটওয়্যার টেস্টিং কোয়ালিফিকেশন বোর্ড এর সফটওয়্যার টেস্টিং সার্টিফিকেট প্রাপ্তদের সার্টিফায়েড সফটওয়্যার টেস্টার ইঞ্জিনিয়ার হিসাবে গণ্য করা হয়। 
এবিষয়ে আরো জানতে কল করতে পারেন ০১৭১৩-৪৯৩১৬৬ এই নম্বরে। বেলজিয়ামের রাজধানী ব্রাসেলস ভিত্তিক ইন্টারন্যাশনাল সফটওয়্যার টেস্টিং বোর্ড সফটওয়্যার টেস্টিং এ ‘আইএসটিকিউবি সার্টিফায়েড ফাউন্ডেশন লেভেল (সিটি এফ এল)’ ও ‘আইএসটিকিউবি সার্টিফায়েড টেস্টার অ্যাডভান্সড লেভেল’ এবং ‘সার্টিফায়েড টেস্টার এক্সপার্ট লেভেল’ কোর্স প্রবতন করে উত্তীর্ণদের সার্টিফায়েড টেস্টারের সার্টিফিকেট প্রদান করে যা আন্তর্জাতিক বাজারে অনেক দিন ধরেই স্বীকৃতি পেয়ে আসছে। বর্তমানে সারা পৃথিবীতে এ ধরনের সাত লক্ষাধিক সার্টিফায়েড এবং শুধুমাত্র ভারতের সার্টিফায়েড সফটওয়্যার প্রফেশনালের সংখ্যা প্রায় ১০০০০০। 
কিন্তু দুঃখজনক হলেও সত্যি বাংলাদেশে সফটওয়্যার অঙ্গনে মাত্র ৪৭ জন সার্টিফায়েড সফটওয়্যার প্রফেশনাল টেস্টার রয়েছে। ভারতের যেসব সফটওয়্যার প্রতিষ্ঠান আন্তর্জাতিক বাজারে সফটওয়্যার কার্যক্রম পরিচালনা করছে সেই সব দেশের সফটওয়্যার প্রতিষ্ঠানগুলোর সুপারিশ থাকে যে তাদের জন্য ভারতে যে সফটওয়্যারগুলো তৈরি হচ্ছে সেগুলোর মান যেন সার্টিফায়েড সফটওয়্যার টেস্টিং প্রফেশনালদের মাধ্যমে যাচায়ের পর পাঠানো হয়। এই কারনে ভারতে সার্টিফায়েড টেস্টিং প্রফেশনালদের চাহিদা অত্যন্ত বেশি। সফটওয়্যার রপ্তানির পরিমানও বাড়বে। আন্তর্জাতিক মানসম্পন্ন সফটওয়্যার টেস্ট ইঞ্জিনিয়ার তৈরি করার লক্ষ্যে ইন্টারন্যাশনাল সফটওয়্যার টেস্টিং বোর্ডের অধিভূক্ত ড্যাফোডিল ইনস্টিটিউট অব আইটি আগামী ৮ অক্টোবর থেকে ২ মাসব্যাপী প্রশিক্ষণের অয়োজন করেছে। 
কোর্স শেষে ইন্টারন্যাশনাল সফটওয়্যার কোয়ালিটি ইনস্টিটিউট (www.isqi.org), জার্মানী কর্তৃক আয়োজিত পরীক্ষার মাধ্যমে ইন্টারন্যাশনাল সফটওয়্যার টেস্টিং কোয়ালিফিকেশন বোর্ড কর্তৃক সাটিফিকেট অর্জন করা যাবে। সফটওয়্যার টেস্টিং ও কোয়ালিটি রক্ষণাবেক্ষণের সাথে জড়িত ও সংশ্লিষ্ট বিষয়ের ফ্রেস গ্র্যাজুয়েটরা এবং যারা সফটওয়্যার টেষ্টিংকে পেশা হিসেবে নিতে চায়, তারা এ কোর্সে অংশ নিতে পারবে। রেজিষ্ট্রেশনের শেষ তারিখ: ২৮ সেপ্টেম্বর ২০১৭।
ইত্তেফাক/কেকে
