রেসিপি দিয়েছেন সামিয়া রহমান
উপকরণ
বড় মাছ (আইড়, বোয়াল, রুই ইত্যাদি) ৪ টুকরা। গোলবেগুন ৩টি। আলু ১টি। ডিম ২টি। পেঁয়াজকুচি আধা কাপ। পেঁয়াজবাটা ১ টেবিল-চামচ। মরিচগুঁড়া আধা চা-চামচ। ধনেগুঁড়া আধা চা-চামচ। হলুদ ৩ চা-চামচ। আদাবাটা আধা চা-চামচ। জিরাগুঁড়া ৩ চা-চামচ। ময়দা ১ চা-চামচ। কাঁচামরিচ-কুচি ৫টি। ধনেপাতা-কুচি সামান্য।
পদ্ধতি
ডাটাসহ বেগুন দুই ভাগ করে বেশি পানিতে সিদ্ধ করুন। এরপর খোসা রেখে বাকি অংশ চামচ দিয়ে তুলে নিন।
বড় মাছ ও আলু সিদ্ধ করে বেগুন সিদ্ধর সঙ্গে মিশিয়ে নিন। তেলের মধ্যে পেঁয়াজ ভেজে সব মসলা দিয়ে কিছুক্ষণ রাখুন।
