রেসিপি দিয়েছেন ফেইসবুকের ‘রকমারি রান্না শিখুন’ পেইজের মুহসিনা তাবাসসুম।
লেমন ললি
উপকরণ: ১টি এলাচি-লেবু রস। চিনি পরিমাণ মতো। পানি ১ মগ। সবুজ খাবার রং ৩,৪ ফোঁটা। লেমন এসেন্স ৪,৫ ফোঁটা (ইচ্ছা)।
পদ্ধতি: সব উপকারণ মিশিয়ে নিন। চিনি বা লেবুর রস নিজের স্বাদ অনুযায়ী দিতে পারেন। ললির বক্সে ঢেলে চার থেকে পাঁচ ঘণ্টা ফ্রিজে রাখুন।
কোকোনাট ললি
