শিবানি’জ অ্যারোমা’র কর্নধার শিবানি দে জানান, বাড়িতে ফাটা গোড়ালির পরিচর্যার চাবিকাঠি হল রাতে শোবার আগে ময়েশ্চারাইজার লাগানো, তারপর আর্দ্রতা যাতে উবে না যায় সেজন্য মোজা পরে রাতে ঘুমাতে যাওয়া।
এরপরও যদি উন্নতি না দেখা  দেয় তাহলে চিকিৎসকের পরামর্শ নেওয়া উচিত। আর ঘরোয়া পরিচর্যার জন্য নিচের ব্যবস্থাগুলো গ্রহণ করার পরামর্শ দেন তিনি।
* পা ফাটা প্রতিরোধের জন্য প্রতিদিন সকালে গোসলের আগে পায়ে ভালো করে এক চা-চামচ তিলের তেল বা নারিকেল তেলের সঙ্গে তিন-চার ফোঁটা ল্যাভেন্ডার অয়েল বা আমন্ড অয়েল, এক চা-চামচ গ্লিসারিন, এক চা-চামচ গোলাপ পানি, সিকি চামচ ভিনিগার মিশিয়ে পুরো হাতে, পায়ে, পায়ের পাতায় লাগিয়ে দশ মিনিট অপেক্ষা করুন। এরপর সামান্য গরম পানিতে হাত-পা ধুয়ে আলতো করে ময়েশ্চারাইজার মালিশ করে নিন।
* রাতে শোবার সময় হালকা গরম পানিতে পা ধোয়ার পর ১০০ গ্রাম নারিকেল তেলের সঙ্গে ৫ গ্রাম কর্পুর, ২০ গ্রাম প্যারাফিনওয়্যাক্স মিশিয়ে গরম করে একটি পাত্রে রেখে দিন। এই মিশ্রণ পায়ের ফাটা জায়গায় লাগিয়ে কোনো সুতির মোজা পরে নিন।
* বাড়িতে সবসময় স্লিপার বা সুতির মোজা পরা অভ্যাস করুন।
