গবেষণায় বলা হয়, “মানুষের বৃক্কে হওয়া পাথরের একটি উপাদান হল ক্যালসিয়াম অক্সালেট ক্রিস্টাল্স। লেবুজাতীয় ফলে থাকা হাইড্রক্সিসাইট্রেট (এইচসিএ) উপাদান ক্যালসিয়াম অক্সালেট ক্রিস্টালস গলিয়ে দিতে সক্ষম।” এই গবেষণার উপর ভিত্তি করে যন্ত্রণাদায়ক এই সমস্যার ওষুধ তৈরি প্রাথমিক কাজও শুরু হয়েছে।
অনলাইনভিত্তিক জার্নাল ‘নেচার’য়ে প্রকাশিত এ গবেষণার গবেষকরা বলেন, “বৃক্কে পাথরের চিকিৎসায় আশার আলো দেখিয়েছে এইচসিএ উপাদানটি।”
গবেষণার প্রধান গবেষক, যুক্তরাষ্ট্রের ইউনিভার্সিটি অফ হিউস্টোনের সহযোগী অধ্যাপক জেফরি রাইমার বলেন, “এটি কয়েকটি পরীক্ষাভিত্তিক, গণনাভিত্তিক এবং মানুষভিত্তিক গবেষণার সমন্নীত ফলাফল।”
বৃক্কের ভিতর খনিজ পদার্থ জমে ছোট্ট, শক্ত পাথর তৈরি হয়। উচ্চ রক্তচাপ, ডায়াবেটিস, স্থূলতা ইত্যাদি বৃক্কে পাথর হওয়ার ঝুঁকি বাড়ায় এবং প্রাপ্ত তথ্যানুসারে এর প্রকোপ ক্রমেই বাড়ছে।
তিন দশক ধরে এই রোগের প্রতিষেধকে খুব একটা পরিবর্তন আসেনি। সম্ভাব্য রোগীদের ডাক্তাররা প্রচুর পানি পান করার পরামর্শ দেন। পাশাপাশি প্রচুর ‘অক্সালেট’ আছে এমন খাবার যেমন ঢেড়শ, পালংশাক, কাজুবাদাম ইত্যাদি পরিমাণে কম খাওয়ারও নির্দেশ দেন চিকিৎসকরা।
এক্ষেত্রে চিকিৎসকরা প্রায়ই ‘সিট্রেইট’ নেওয়ার পরামর্শ দেন। যেমন পটাশিয়াম সিট্রেইট। এই সাপ্লিমেন্ট পাথরের বৃদ্ধি কমায়, তবে কিছু রোগী এর পার্শ্ব প্রতিক্রিয়া সহ্য করতে পারেন না।
গবেষকরা বলেন, “এইচসিএ’য়ের চিকিৎসা পটাশিয়াম সিট্রেইট (সিএ) তুলনায় উত্তম।”
এইচসিএ এবং সিএ উভয়ই রাসায়নিকভাবে একই এবং ডায়েটারি সাপ্লিমেন্ট হিসেবেও পাওয়া যায়।
দুই উপাদানের পর্যবেক্ষণে দেখা যায় উভয়েই ক্যালসিয়াম অক্সালেট পাথরের বৃদ্ধি কমায়। এর মধ্যে এইচসিএ বেশি কার্যকরী এবং নতুন চিকিৎসা পদ্ধতি বের করতে সহায়ক।
