ফেইসবুক আইকিউ এক ব্লগ পোস্টে জানায়, সন্তান হওয়ার পর বাবা-মায়ের জীবনে অনেক পরিবর্তন আসে। পরিবর্তনের হাওয়া লাগে মোবাইল ফোনের সঙ্গে তাদের সম্পর্কের মাঝেও। সারাদিনের কাজকর্মের রুটিন ঠিক রাখা, শিশুর রুটিন ঠিক রাখা, সন্তানের উল্লেখযোগ্য মুহূর্তগুলোর ছবি ফেইসবুকে আপলোড করা একমাত্র উপায় হয়ে দাঁড়ায় বাবা-মায়ের মোবাইল ফোন।
আরও বলা হয়, বাবা-মায়েদের ফেইসবুক ব্যবহারের অভ্যাস থেকে দেখা গেছে, বিশ্বব্যপি যারা এখনও বাবা-মা হননি তাদের তুলনায় বাবা-মায়েরা ফেইসবুকে ১.৩ গুণ বেশি সময় ব্যয় করেন।
ফেইসবুকের পরিসংখ্যান বিভাগটি অস্ট্রেলিয়া, ব্রাজিল, কানাডা, জার্মানি, মেক্সিকো, স্পেইন, ব্রিটেন ও যুক্তরাষ্ট্রের ২৫ থেকে ৬৫ বছর বয়সি বাবা-মায়েদের সাক্ষাৎকার নেয়। পরে ইপসোস মিডিয়া সিটি এবং সাইন্ড রিসার্চ নামক দুইটি প্রতিষ্ঠানের সহযোগিতায় ফেইসবুক ও ইন্সটাগ্রামের তথ্যাদি পর্যালোচনা করে।
৫০ থেকে ৬৫ বছর বয়সি মা-বাবাদের তুলনায় ১৮ থেকে ৩৪ বছর বয়সি মা-বাবারা কেনাকাটার সিদ্ধান্ত নিতে মোবাইল ব্যবহার করেন প্রায় ৩০ শতাংশ বেশি।
জরিপ অনুযায়ী, ৮৩ শতাংশ মা-বাবাই বলছেন, আমাদের মা-বাবার চাইতে বেশি তথ্য সংগ্রহ করার সুযোগ আছে আমাদের হাতে।
অপরদিকে ৫০ থেকে ৬৫ বছর বয়সি বাবা-মায়েদের ৭৬ শতাংশ বলছেন, তারা ইন্টারনেট ও মোবাইল ব্যবহারের সুযোগ পেয়েছেন শেষ বয়সে।
