এরকমই কিছু ভিন্নরকম ব্যবহার সম্পর্কে জানিয়েছে জীবনযাপনবিষয়ক একটি ওয়েবসাইট।
মুখ ও চুলের মাস্ক: কয়েক চা-চামচ মধুর সঙ্গে ডিমের কুসুম মিশিয়ে নিতে হবে। মিশ্রণটি মুখে ১০ থেকে ১৫ মিনিট মাখিয়ে রাখতে হবে। ডিমের কুসুমে থাকা ‘লেসিথিন’ নামক উপাদান ময়েশ্চারাইজার হিসেবে কাজ করে। অপরদিকে মধুতে থাকা প্রদাহরোধী উপাদান ত্বক মসৃণ করে। চুলের কন্ডিশনার হিসেবে ও চুল শক্ত করতে ডিমের কুসুমের সঙ্গে অলিভ অয়েল মিশিয়ে চুলে মাখাতে পারেন।
সার: ডিমের খোসা বা ডিম সিদ্ধ করা পানিতেও প্রচুর ক্যালসিয়াম থাকে, যা উদ্ভিদের পুষ্টি যোগায়। ক্ষতিকর কীটপতঙ্গ দূর করতে কীটনাশক হিসেবেও ডিমের খোসা কার্যকর। তাই গাছের কাছাকাছি ডিমের খোসা ফেলে রাখতে পারেন।
চামড়ার পণ্য পরিষ্কার করতে: পরিষ্কারক হিসেবে ঘন এবং আঠাল ডিমের সাদা অংশ অত্যন্ত কার্যকর। ময়লা চামড়ার পণ্যের ‍উপর ডিমের সাদা অংশ মাখিয়ে পরে ভেজা কাপড় দিয়ে মুছে নিতে হবে। পরিষ্কার করার পাশাপাশি চামড়ার উপর রক্ষাকবচও তৈরি করে এটি।
