রূপচর্চাবিষয়ক একটি ওয়েবসাইটে মেইকআপের সাহায্যে ত্বকের লালচেভাব এবং ব্রণ লুকিয়ে রাখার কিছু উপায় উল্লেখ করা হয়। -  মেইকআপ শুরুর আগে অবশ্যই মুখ ধুয়ে ভালোভাবে পরিষ্কার করে নিতে হবে। এরপর ত্বক যেনো শুষ্ক হয়ে না যায় তার জন্য ময়েশ্চারাইজার লাগিয়ে নিতে হবে।
- কিছুক্ষণ অপেক্ষা করে পুরো ত্বকে বিশেষত যে যে স্থানে সমস্যা আছে সেখানে প্রাইমার লাগিয়ে নিতে হবে।
- এবার আসা যাক লালচেভাব এবং ব্রণ ঢেকে নেওয়ার ধাপে।
ত্বকের লালচেভাব ঢেকে দিতে এর বিপরিত রংয়ের কনসিলার অর্থাৎ সবুজ কনসিলার ব্যবহার করতে  হবে। খুব অল্প পরিমাণ কনসিলার শুধুমাত্র আক্রান্ত স্থানে লাগিয়ে আঙুল বা ব্রাশ দিয়ে চেপে চেপে বসিয়ে দিতে হবে। যদি লালচেভাব কম হয় তাহলে হলুদ কনসিলারও বেছে নেওয়া যেতে পারে। তবে অবশ্যই এমন রং বেছে নিতে হবে যা ত্বকের রংয়ের সঙ্গে মানানসই এবং ত্বকের রং থেকে হালকা নয়।
- কনসিলার ত্বকের সঙ্গে ভালোভাবে যেন বসে যায় তার জন্য কিছুক্ষণ অপেক্ষা করতে হবে। এরপর ফাউন্ডেশন লাগিয়ে নিতে হবে। ফাউন্ডেশন লাগানোর সময় বেশি ঘষাঘষি করা যাবে না, এতে কনসিলার সরে যেতে পারে। ভেজা স্পঞ্জ দিয়ে চেপেচেপে ফাউন্ডেশন ত্বকের সঙ্গে বসিয়ে দিতে হবে।
- সবশেষে পাউডার দিয়ে ফাউন্ডেশন সেট করে নিতে হবে, এতে মেইকআপ দীর্ঘস্থায়ী হবে।
প্রতীকী ছবির মডেল: সারাহ ফারহানা। ছবি: ই স্টুডিও।
গ্রীষ্মে ব্রণ মুক্ত থাকার উপায়
