তবে এসব মুখরোচক খাবারে স্বাদ নিতে হলে যেতে হবে এই প্রতিষ্ঠানের গুলশান এক, দুই বা উত্তরার শাখায়।
প্রিমিয়াম সুইটসের ডিরেক্টর অপারেশনশ ফ্লোরা এ. ফাতেমার সঙ্গে কথা বলে জানা গেল, মিষ্টির বাজারে অভিজাত এই প্রতিষ্ঠান ২০০১ সালের মে মাসে প্রথম কারখানা চালু করেছিল। আর প্রথম শাখাটি ছিল গুলশানে। সারাদেশে বর্তমানে কারখানা রয়েছে তিনটি, শাখা আছে মোট ১৬টি।


নানান পদের মিষ্টি বিক্রির পাশাপাশি গুলশান এক, দুই ও উত্তরার শাখায় রয়েছে পুরোদস্তুর রেস্তেরাঁ।
এই প্রসঙ্গে ফ্লোরা বলেন, “দুপুরে আর রাতে ক্রেতাদের চাপ বেশি। সবচাইতে বেশি জনপ্রিয় খাবার আচারি-খিচুড়ি, দাম ২২৫ টাকা। মুরগি বা গরুর পদ মিলিয়ে নিতে চাইলে গুনতে হবে সাড়ে ৫শ’ থেকে ৬শ’ টাকা।”
“এছাড়াও আছে খুশবু পোলাও, পরোটা, নানরুটি, মাছভাজা ও দোপেঁয়াজা।” বলেলেন ফ্লোরা।


