স্ট্রোক আক্রান্ত রোগীর চিকিৎসায় কার্যকর ভূমিকা রাখতে পারে জিঙ্কো বিলোবা নামে একটি গাছের ভেষজ নির্যাস। গবেষণায় দেখা গেছে, এটি মস্তিষ্ককে আবার কার্যক্ষম করে তুলতে সাহায্য করতে পারে।
চীনে ৩৩০জন স্ট্রোক আক্রান্ত রোগীর ওপর ছয় মাস ধরে এক পরীক্ষামূলক চিকিৎসা চালিয়ে গবেষকরা দেখেছেন অসুখের পর যাদের এই ওষুধ দেয়া হয়েছে তাদের মস্তিষ্ক ভাল কাজ করতে পারছে। তবে কোনো কোনো বিশেষজ্ঞের মত, ওই রোগীদের মস্তিষ্কের সক্ষমতা বৃদ্ধির জন্য জিঙ্কো বিলোবা একা কাজ করেছে কীনা তা খুব জোর দিয়ে এখুনি বলা সম্ভব নয়।
অনলাইন সাময়িকী স্ট্রোক অ্যান্ড ভাস্কুলার নিউরোলজিতে এই গবেষণার খবর ছাপা হয়েছে। তারা অবশ্য স্বীকার করেছে এ ব্যাপারে আরো ব্যাপক ও আরো দীর্ঘ সময় নিয়ে পরীক্ষামূলক চিকিত্সা ও গবেষণা চালানো দরকার।
ইত্তেফাক/এএম।
