সাজের প্রথম কথা হচ্ছে বৈচিত্র্য যোগ করা। নকশাদার কাজলরেখা একে কীভাবে সাজটি অনন্য করে ফেলা যায় তাই জানিয়েছে সাজসজ্জাবিষয়ক একটি ওয়েবসাইট।


তীক্ষ্ণ প্রান্তের কাজলরেখা: যারা জ্যামিতিক নকশা সমঝদার এই কাজলরেখা তাদের জন্য একদম উপযুক্ত। এক্ষেত্রে নরম চ্যাপ্টা মুখের একটা পেন লাইনার প্রয়োজন হবে। তীক্ষ্ণ প্রান্তের কাজলরেখা টানতে প্রথমে উপরের পাপড়ির পাড় ঘেঁষে রেখা টেনে চোখের প্রান্তে এসে থেমে যেতে হবে। এরপর নিচের পাপড়ির প্রান্ত ঘেঁষে কাজল রেখা টেনে চোখের সীমানার বাইরে উপর দিকে টেনে নিতে হবে। উপরের রেখা সামান্য আগিয়ে নিচের রেখার সঙ্গে মিলিয়ে দিলেই হয়ে যাবে তীক্ষ্ণ প্রান্তের কাজলরেখা।


প্রচ্ছদের ছবির মডেল: তাসমিয়া মীম। ছবি: দিপ্ত।
আরও পড়ুন
রঙিন কাজলের ছোঁয়া
