ধনু (23 Nov - 21 Dec) পরধন প্রাপ্তির সম্ভাবনা আছে। ট্যাক্স-সংক্রান্ত কোনো ঝামেলা হতে পারে। শরীর হঠাৎ অসুস্থ হতে পারে। শরীর-স্বাস্থ্যের ব্যাপারে ঝুঁকি নেওয়া ঠিক হবে না। প্রয়োজনে চিকিৎসকের পরামর্শ নিন।
মকর (22 Dec - 20 Jan) সামাজিক অগ্রগতি অব্যাহত থাকবে। আজ ইচ্ছা করলে লটারি বা প্রাইজবন্ড ক্রয় করতে পারেন। কোনো আশা পূরণ হতে পারে। কাজকর্মে ভাগ্যের আনুকূল্য পাবেন। পেশাগত দিক ভালো যেতে পারে।
কুম্ভ (22 Jan - 18 Feb) সামাজিক অবস্থান সুদৃঢ় হতে পারে। পাবলিক ইমেজ বৃদ্ধি পাবে। পিতৃস্বাস্থ্য ভালো যেতে পারে। অসুস্থ পিতার আরোগ্য লাভের সম্ভাবনা আছে। কোনো উচ্চাশা পূরণ হতে পারে।
মীন (19 Feb - 20 Mar) আর্থিক দিক ভালো যাবে। আয়-উপার্জন বৃদ্ধি পেতে পারে। বড় ভাই-বোনের সঙ্গে সম্পর্ক ভালো থাকতে পারে। প্রয়োজনে তাদের সহযোগিতা পেতে পারেন। কোনো আশা পূরণ হতে পারে।
মেষ (21Mar - 20 Apr) আইনগত ঝামেলা এড়িয়ে চলতে পারলে ভালো করবেন। গোপন শত্রুরা ক্ষতি করার চেষ্টা করতে পারে। শত্রুকে দুর্বল ভাবা ঠিক হবে না। অনভিপ্রেত কোনো সংবাদ পেতে পারেন। সম্ভাব্য ক্ষেত্রে বিদেশযাত্রার যোগ আছে।
বৃষ (21 Apr - 20 May) আত্মপ্রতিষ্ঠার চেষ্টায় সাফল্য পেতে পারেন। শরীর ভালো থাকবে। মানসিক প্রশান্তি বজায় থাকতে পারে। ব্যক্তিত্ব দিয়ে অন্যকে প্রভাবিত করতে পারবেন। সবার সঙ্গে সদ্ভাব বজায় রাখার চেষ্টা করুন।
মিথুন (22 May - 21 Jun) আজ কাউকে কোনো ব্যাপারে প্রতিশ্রুতি দিতে হতে পারে। মূল্যবোধ বজায় রাখুন। পাওনা টাকা আদায়ের জন্য তাগাদা দিন। পড়াশোনায় আনন্দ পাবেন। অধীনদের কাজে লাগানো সহজ হতে পারে।
কর্কট (22 Jun - 22 Jul) ছোট ভাই-বোনের সঙ্গে সুসম্পর্ক বজায় থাকতে পারে। প্রয়োজনে তাদের সহযোগিতা পাবেন। কাজকর্মে প্রত্যাশিত অগ্রগতি হতে পারে। কোনো কারণে মনে আঘাত পেতে পারেন। ঠাণ্ডা থেকে সতর্ক থাকুন।
সিংহ (23 Jul - 23 Aug) মাতৃস্বাস্থ্য ভালো যাবে। পারিবারিক পরিবেশ অনুকূল থাকতে পারে। মন ভালো থাকবে। কোনো আশা পূরণ হতে পারে। পড়াশোনায় আগ্রহ বোধ করবেন।
কন্যা (24 Aug - 23 Sep) বিদ্যার্থীদের জন্য দিনটি শুভ। পড়াশোনায় মন বসানো সহজ হতে পারে। ধর্মীয় কাজে আনন্দ পাবেন। সন্তানের কোনো সাফল্য আনন্দদায়ক হতে পারে। রোমান্স ও বিনোদন শুভ।
তুলা (24 Sep - 23 Oct) শরীর খুব একটা ভালো নাও যেতে পারে। শত্রুরা ক্ষতি করার চেষ্টা করতে পারে। শত্রু সম্পর্কে সতর্ক থাকুন। সীমা লঙ্ঘন করা থেকে বিরত থাকুন। কর্মস্থলে কোনো ঝামেলা হতে পারে।
বৃশ্চিক (24 Oct - 22 Nov) ব্যবসায়িক দিক ভালো যাবে। যৌথ ও অংশীদারি ব্যবসায় কর্তৃত্ব বজায় রাখতে পারবেন। দাম্পত্য সম্পর্ক ভালো থাকতে পারে। প্রেম-ভালোবাসার জন্য সময় অনুকূল থাকবে। প্রণয় প্রস্তাবে সাড়া পেতে পারেন।
