স্বাস্থ্যবিষয়ক ওয়েবসাইটের এক প্রতিবেদন থেকে ঠাণ্ডাজনিত সমস্যা থেকে মুক্তি পাওয়ার ঘরোয়া কিছু পন্থা সম্পর্কে জানা যায়।
মধু ও আদার রস: মধুতে আছে গলা সুস্থ রাখার ক্ষমতা এবং আদা অ্যান্টিবায়োটিক উপাদান সম্পন্ন।
সমপরিমাণ আদার রস ও মধু মিশিয়ে খেলে উপকার পাওয়া যায়। যদি কারও এভাবে খেতে পছন্দ না হয় তাহলে সঙ্গে আধা গ্লাস গরম দুধ মিশিয়ে খেতে পারেন। এটি প্রায় সঙ্গে সঙ্গেই গলা পরিষ্কার করতে সাহায্য কর।
হলুদ: হলুদের রয়েছে নানামুখি ব্যবহার। একটি গোটা হলুদের সামনের অংশ পুড়িয়ে তার ধোঁয়া শ্বাস টেনে ফুসফুসের নিতে হবে। এটি প্রায় সঙ্গে সঙ্গেই আরাম দেবে। এছাড়া দুধের সঙ্গে হলুদের গুঁড়া মিশিয়ে তা একটু ফুটিয়ে পান করলেও উপকার পাওয়া যায়।
তিসির বীজ, লেবুর রস ও মধু: তিসির বীজ ঠাণ্ডার জন্য খুব ভালো কাজ করে। ঘন না হওয়া পর্যন্ত তিসির বীজ পানিতে ফুটাতে হবে। এর মধ্যে স্বাদ মতো লেবু ও মধু মিশিয়ে দিনে দুই বার পান করতে হবে। এটি দ্রুত ঠাণ্ডা দূর করতে সাহায্য করে।
