রেসিপি দিয়েছেন আফরোজ সাইদা।
উপকরণ
চালতা ৪টি। তেল আধা কাপ। পাঁচফোড়ন-গুঁড়া ১ চা-চামচ। শুকনামরিচ-গুঁড়া ৪টি। সরিষাবাটা ২ চা-চামচ। হলুদ ১ চা-চামচ। মৌরি ৩ চা-চামচ। লবণ স্বাদমতো। গুড় ১ কাপ। চিনি ১ কাপ। লাল খাবার রং  অল্প (নাও দিতে পারেন)। সিরকা ১ কাপ।
পদ্ধতি
চালতা ধুয়ে কেটে লম্বা লম্বাফালি করে কাটতে হবে। কাটা চলতা পানি দিয়ে সিদ্ধ করে পানি ঝরিয়ে নিন।
বড় টুকরাগুলো শিল-পাটায় ভালো করে ছেঁচে নিন।
কড়াইতে তেল গরম হলে পাঁচফোড়ন গুঁড়া, মৌরি, লবণ, গুঁড় ও বাকি মসলাগুলো দিয়ে দিন। গুড় গলে গেলে চালতা দিয়ে নাড়তে থাকুন।
ইচ্ছা হলে একটু খাবার রং দিতে পারেন। এখন সিরকা দিয়ে আরও কিছুক্ষণ নাড়ুন। চালতা সিদ্ধ হয়ে আঠালো হলে চুলা থেকে নামিয়ে নেবেন।
