পুরুষদের প্রসাধনী ব্র্যান্ড ‘ব্রিকেল মেন’স প্রোডাক্টস’য়ের কর্ণধার এবং প্রধান নির্বাহি কর্মকর্তা জস মেয়ার পুরুষদের পরিপাটির বিষয়ে কিছু ভুল ও সেগুলো ঠিক করার উপায় তুলে ধরেন।
একই সাবান সব কাজে ব্যবহার: পুরুষরা ত্বকের যত্ন নিয়ে বরাবরই উদাসীন। আর এ কারণে দেখা যায় গায়ে মাখার সাবানই তারা ব্যবহার করে মুখ ধোয়ার জন্য। তবে মেয়েদের মতো পুরুষদের মুখের ত্বকও সংবেদনশীল, তাই মুখ পরিষ্কারের জন্য আলাদা ক্ষারহীন সাবান ব্যবহার করা প্রয়োজন।
পুরুষদের ত্বকের জন্য ‘অ্যাক্টিভেটেড চারকোল’ সমৃদ্ধ ফেইসওয়াশ ব্যবহার করা সব থেকে উপযোগী। কারণ এই প্রাকৃতিক উপাদান ত্বকে জমে থাকা দূষিত উপাদান ও ব্যাক্টেরিয়া ধুয়ে ফেলতে সাহায্য করে। আর শরীরের অন্যান্য অংশের ত্বকের জন্যও কোমল সাবান বা বডি ওয়াশ বেছে নিতে হবে।
শেইভিং ফোম ব্যবহার: শেইভ করার জন্য অনেক ফেনা তৈরি করে এমন ফোম বা ক্রিম সবারই পছন্দের তালিকায় শীর্ষে থাকে। তবে এই ফোম ত্বককে কোনোভাবেই সুরক্ষিত রাখতে পারে না। এ কারণেই শেইভ করার পর ফোম ব্যবহারের পরও জ্বালাপোড়া অনুভূত হতে পারে।
তাই শেইভ করার জন্য লোশনজাতীয় শেইভিং ক্রিম যেগুলোতে খুব একটা ফোম তৈরি হয় না তেমন শেইভিং ক্রিম ব্যবহার শুরু করতে হবে। ভালো মানের শেইভিং ক্রিম ব্যবহার করলে ত্বকের ক্ষতি হবে কম এবং ত্বকে লালচেভাবও কম দেখা দেয়।
শেইভের পর অবশ্যই আফটার শেইভ ব্যবহার করতে হবে। খেয়াল রাখতে হবে যেন আফটার শেইভে অ্যালকোহল না থাকে। কারণ এই উপাদান ত্বকের জন্য ক্ষতিকর।
