বিশাল আকারের তথ্য নিয়ে বৈজ্ঞানিক পর্যালচনায় দেখা গেছে, ওটস খাবারে তৃপ্তি বাড়ায়, খাদ্যের গুণগতমান রক্ষা করে, হজম প্রক্রিয়ায় সহায়তা করাসহ হৃদপিণ্ড সম্বন্ধীয় এবং সাধারণ বিপাকীয় ব্যবস্থা ভালো রাখতে গুরুত্বপূর্ণ ভূমিকা রাখে।
গবেষণায় দেখা গেছে ওটমিলের বেটা-গ্লুক্যান আঁশ খাবারে পরিতৃপ্তি থাকতে সাহায্য করে এবং উপকারী 'গাট' ব্যাকটেরিয়া বৃদ্ধিতে সহায়তা করে।
২৯টি গবেষণা পর্যবেক্ষণ করে দেখা গেছে ওটস এবং ওটসের ভুসি অন্ত্রের কিছু রোগের ক্ষেত্রে উপকারী হতে পারে। যেমন কোষ্ঠকাঠিন্য এবং প্রদাহজনীত পেটের রোগ।
ওটস এবং ওটসের ভুসি এবং কার্ডিওভাসকুলার রোগের ঝুঁকি সম্বন্ধীয় সাম্প্রতিক এক আকর্ষণীয় গবেষণায় দেখা গেছে এটা সার্বিকভাবে কোলেস্টেরল কমায় এবং খারাপ কোলেস্টেরলের ঘনত্ব কমিয়ে দেয়।
গবেষণায় বলা হয়, বিশেষভাবে উচ্চ কোলেস্টেরল যুক্ত মানুষের উপর এই প্রভাব পরিলক্ষিত হয়।
ব্রিটেনের স্কটল্যান্ডের ইউনিভার্সিটি অফ আবেরডিনের গবেষণার প্রধান লেখক ফ্র্যাঙ্ক থিস বলেন, “সার্ভিং হিসেবে ৬০ গ্রাম ওটমিল খেলে উল্লেখযোগ্যভাবে কোলেস্টেরল কমাতে পারে।”
গবেষণার পরিপ্রেক্ষিতে উল্লেখ করা যায়, খারাপ কোলেস্টেরল আনুমানিক ৪ থেকে ৬ শতাংশ কমার জন্য হৃদপিণ্ডের ধমনীর রোগের হার ৬ থেকে ১৮ শতাংশ কমিয়ে দেয়।
