শরীরে ভিটামিন বি১২-এর অভাবে অবসাদ, ক্লান্তি, বিরক্তি, মানসিক চাপ, হতাশা ইত্যাদি সমস্যা বৃদ্ধি পায়। তাই নিয়ম করে এই ভিটামিন সমৃদ্ধ খাবার খেতে হবে যেন এর অভাবজনিত সমস্যাগুলো থেকে মুক্তি পাওয়া যায়।
স্বাস্থ্যবিষক একটি ওয়েবসাইটে ভারতের ডায়াগনসটিক ক্লিনিক এসআরএল ল্যাব-এর পরিচালক লিনা চ্যাটার্জি প্রতিদিনের ভিটামিন বি১২-এর চাহিদা পূরণের জন্য দুগ্ধজাত খাবার খাওয়ার পরামর্শ দেন।
শরীরে প্রতিদিন ২.৪ মাইক্রোগ্রাম পরিমাণ ভিটামিন বি১২ প্রয়োজন যা নিচের খাবারগুলো থেকে অনায়াসেই পাওয়া যায়।
পনির: বিশেষজ্ঞদের মতে প্রায় সব ধরনের পনিরেই ভিটামিন বি ১২ পাওয়া যায়। তাই মোৎজেরেল্লা, ফেটা বা সুইস চিজ যেটাই পছন্দ সেই চিজই খেতে পারেন। তবে ঠিক কতটুকু চিজ খাওয়া স্বাস্থ্যের জন্য উপকারী তা ব্যক্তি ভেদে তারতম্য হতে পারে। তাই এই বিষয়ে ‍পুষ্টিবিদের পরামর্শ নিতে হবে।
ডিম: ভিটামিন বি ১২-এর অন্যতম একটি উৎস ডিম, এমনটাই বলেন অনেক বিশেষজ্ঞ। একশ গ্রাম ডিমে ০.৮ থেকে ০.৯ মাইক্রোগ্রাম পরিমাণ ভিটামিন বি ১২ থাকে। তবে যাদের কোলেস্টেরলের সমস্যা আছে তাদের পুষ্টিবিদের পরামর্শ নিয়ে তবেই ডিম খাওয়া উচিত।
