ভারতীয় পোশাক ব্রান্ড ‘এসএস হোম’য়ের সহ-প্রতিষ্ঠাতা সন্দিপ গোনজালভেস ও ডিজাইনার কুনাল রাওয়াল জানিয়েছে বর্ষাকালে পুরুষের ফ্যাশনবিষয়ক টিপস।


* হালকা কাপড়ের আরামদায়ক প্যান্ট পরতে হবে। খেয়াল রাখতে হবে, প্যান্টের নিচের অংশ যাবে গোড়ালির উপর বরাবর কিংবা ঠিক উপরে। এতে রাস্তার কাদা, পানি থেকে কিছুটা রক্ষা পাওয়া যাবে। সাদা ও অন্যান্য হালকা রংয়ের পোশাক এড়িয়ে চলাই ভালো। কারণ এগুলোতে দাগ বেশি বোঝা যায় এবং পানিতে ভিজলে স্বচ্ছ হয়ে যায়, যা আপনাকে বিব্রতকর পরিস্থিতিতে ফেলতে পারে।
* শীতকাল নয়, তবে আবহাওয়া ঠাণ্ডা থাকার ফলে অফিসিয়াল বেশভূষা হিসেবে হালকা কোট বা ব্লেজার পরার সুযোগ রয়েছে এই ঋতুতে। পানিরোধক ট্রেঞ্চ কোট যে কোনো অফিসিয়াল মিটিংয়ে মানাবে বেশ।  
* বর্ষায় পোশাক পরিচ্ছদের ক্ষেত্রে প্রধান বিষয় হল বৃষ্টিতে ভেজার হাত থেকে বাঁচা। তাই পানিরোধক কাপড়ে তৈরি রেইনকোট হতে পারে আদর্শ। প্যান্টের পা ছোট রাখতে হবে, প্রয়োজনে প্যান্টের পা সুন্দরভাবে ভাঁজ করে গুটিয়ে নিতে হবে।
* শখ করে কেনা দামি হ্যাট বা ক্যাপটা ব্যবহার করার এখনই সুবর্ণ সুযোগ। তবে খেয়াল রাখতে হবে হ্যাট বা ক্যাপ যাতে বাকি পোশাকের সঙ্গে মানানসই হয়।
* বৃষ্টিতে নিজে ভিজে যাওয়ার পাশপাশি ব্যাগ ভিজে যাওয়ার আশঙ্কা মনের মধ্যে কাজ করে। ল্যাপটপ, ক্যামেরা, প্রয়োজনীয় কাগজপত্র ইত্যাদি বিভিন্ন আনুষঙ্গিক জিনিসপত্র থাকে ব্যাগে।
