রেসেপি দিয়েছেন রীপা হক
উপকরণ: পাউরুটি ৪টি। লেটুসপাতা ও টমেটো ফালি করে কাটা। ডিমসিদ্ধ ফালি করা কাটা।
স্যান্ডউইচ-এর পুরের জন্য: মাছ পাতলা টুকরা বা ফিশ ফিলে ৪ টুকরা। ব্রেড ক্রাম্ব পরিমাণ মতো। লবণ স্বাদ মতো। গোলমরিচ-গুঁড়া পরিমাণ মতো। ময়দা পরিমাণ মতো। পারমেজান চিজ ১ টেবিল-চামচ (ইচ্ছা)। পার্সলে পরিমাণ মতো। ডিম ১টি।
সসের জন্য: বড় ১টি পেঁয়াজ মিহিকুচি। (পেঁয়াজ কেটে পানিতে ১০ মিনিট ভিজায়ে রেখে ছেঁকে ফেলতে হবে)। সিদ্ধডিম ১টি কুচি করে কাটা বা ভাঙা। শসা মিহিকুচি। মেয়নেইজ ৭,৮ টেবিল-চামচ। লেবুর রস ১ চা-চামচ। লবণ স্বাদ মতো। গোলমরিচ গুঁড়া।
সব উপকরণ মিশিয়ে নিয়ে সস বানিয়ে রাখুন।


ফ্রাইপ্যানে তেল দিয়ে মাছে পর্যায়ক্রমে ময়দা, ডিম, ব্রেডক্রাম্ব মাখিয়ে ভেজে নিতে হবে। পাউরুটিগুলো টোস্ট করে নিয়ে সবগুলোর একপাশে মাখন লাগিয়ে নিন।
