তাপমাত্রার এই ওঠা-নামার খেলায় এখন প্রায় সব বয়সী মানুষই ভুগছেন ঠান্ডা জ্বরে।
কুর্মিটোলা হাসপাতালের মেডিসিন বিশেষজ্ঞ ডা. মোহাম্মদ কামরুল হাসান বলেন, “এই ঋতু পরিবর্তনের সময়ে ভাইরাস এবং ব্যাক্টেরিয়ার কারণে ভাইরাল ফ্লু, ইনফ্লুয়েঞ্জা, গলাব্যথা, জ্বর, মাথাব্যথা, গা-ব্যথা ইত্যাদি সমস্যা হয়ে থাকে।”
হালকা বৃষ্টিতে ভিজলে বা রাতে হুট করে ঠান্ডা পড়ার কারণে জ্বর বা ঠান্ডা লাগতে পারে। সে থেকে গলা ব্যথা, গা-ব্যথা, মাথাব্যথা ইত্যাদি সমস্যা হতে পারে।
ডা. কামরুল হাসান বলেন, “ইনফ্লুয়েঞ্জা, নিউমনিয়া, প্যারা-ইনফ্লুয়েঞ্জা ইত্যাদি বিভিন্ন ধরনের ভাইরাস এবং ব্যাক্টেরিয়া এই মৌসুমে বেশি সংক্রমণ করে থাকে শরীরে। আর শিশুরা বেশি আক্রান্ত হয় এডিনো ভাইরাসে।”
এ সময়ের জ্বর তিন থেকে পাঁচদিন পর্যন্ত স্থায়ী হয়। এরপর ভালো হয়ে যায়। আর জ্বর উঠলেও তাপমাত্রা ১০০ থেকে ১০১ সে. এর বেশি হয় না।
