ক্যাফে দ্রুম: দ্রুমের ইফতার আয়োজনে থাকছে বেশ কিছু প্ল্যাটার। ‘টেক অ্যাওয়ে’র জন্য থাকছে আলাদা আয়োজন এবং দ্রুমে বসে ইফতার করার জন্য থাকছে ভিন্ন প্ল্যাটার। ‘টেক অ্যাওয়ে’র জন্য থাকছে ২শ’ টাকা, আড়াইশ টাকা এবং ৩শ’ টাকার আলাদা প্ল্যাটার। এছাড়া রেস্তোরাঁয় বসে খাওয়ার জন্য থাকছে সাড়ে ৩শ’ থেকে ৬শ’ টাকা মূল্যের সাতটি সেট মেন্যু।


সেট ২: থাই সুপ, চাওমিন, খেজুর, ফ্রুট সাসলিক, বেগুনি, জিলাপি, জ্যাম রোল, স্যান্ডুইচ এবং পানি। দাম ৪শ’ টাকা।
সেট ৩: থাই সুপ, চিকেন সালাদ, খেজুর, ফ্রুট সাসলিক, বেগুনি, জিলাপি, জ্যাম রোল, স্যান্ডুইচ এবং পানি। দাম সাড়ে ৪শ’ টাকা।
সেট ৪: থাই সুপ, খেজুর, ফ্রুট সাসলিক, বেগুনি, জিলাপি, জ্যাম রোল, স্যান্ডুইচ এবং পানির সঙ্গে যুক্ত হবে ফ্রাইড রাইস ও বিবিকিউ চিকেন। দাম ৫শ’ টাকা।
সেট ৫: নান ও রেসমি কাবাবের সঙ্গে থাই সুপ, খেজুর, ফ্রুট সাসলিক, বেগুনি, জিলাপি, জ্যাম রোল, স্যান্ডুইচ এবং পানি। দাম ৫শ’ টাকা।
সেট ৬: স্প্যাগেডি বলনেইজ সঙ্গে থাই সুপ, খেজুর, ফ্রুট সাসলিক, বেগুনি, জিলাপি, জ্যাম রোল, স্যান্ডুইচ এবং পানি। দাম সাড়ে ৫শ’ টাকা।
সেট ৭: থাই সুপ, খেজুর, ফ্রুট সাসলিক, বেগুনি, জিলাপি, জ্যাম রোল, স্যান্ডুইচ এবং পানির সঙ্গে পাওয়া যাবে পেরি পেরি চিকেন। দাম ৬শ’ টাকা।


বৃহস্পতিবার ও শুক্রবার থাকছে সেহেরির আয়োজন। একটি প্ল্যাটারে আরেকটি বিনামূল্যে পাওয়ার অফারও। সাড়ে ৬শ’ টাকার প্ল্যাটারে থাকবে সাদা ভাত, চিংড়ির তরকারি, ডাল-মাখন ভাজা, সবজি, সালাদ ও ক্রিম ক্যারামেল। ৬শ’ টাকার প্ল্যাটারে মিলবে সাদা ভাত, চিকেন মাসালা, ডাল-মাখন ভাজা, সবজি, সালাদ ও ক্রিম ক্যারামেল।


সাব্রোসো: দুইটি প্ল্যাটার মিলবে রেস্তোরাঁটিতে। ১ হাজার টাকার প্ল্যাটারে আছে বিবিকিউ চিকেন, ডোনার চিকেন, চিকেন সাসলিক, ফিশ বল, বাফেলো উইঙস, স্প্রিং রোল, ডোনার রাইস, খেজুর, ফ্রুট সালাদ, পানি। ৬শ’ টাকার প্ল্যাটারে মিলবে বিবিকিউ চিকেন অথবা ডোনার চিকেন, রাইস অনিয়ন রিংস, সত্তে পটেটো, পাকোড়া, ফ্রুট সালাদ, পানি।
ক্রিস কার্ডিয়াক গ্রিল: ৫শ’ টাকায় ইফতার প্ল্যাটার মিলবে রেস্তোরাঁটিতে। থাকবে গ্রিল চিকেন, প্রন তেম্পুরা, কাশ্মিরি রাইস, আফগানি ব্রেড, কেশুনাট সালাদ, খেজুর, জিলাপি, লাচ্ছি, পানি।
