ত্বকে কালো ছোপ মানে তিল, মেচেতা বা বয়সজনীত দাগ। যেভাবেই হোক না কেনো, এগুলো সত্যিই বিরক্তিকর।
রূপচর্চা বিষয়ক একটি ওয়েবসাইটে প্রাকৃতিক উপাদানের মাধ্যমে ঘরে বসেই কীভাবে ত্বকের কালো দাগ দূর করা যায় সে সম্পর্কে জানানো হয়।
লেবুর রস
প্রাকৃতিক 'হোয়াইটিং এজেন্ট' হিসেবে লেবু বেশ জনপ্রিয়। এর রস ব্যবহারে দ্রুত ত্বকের কালো দাগ দূর করা সম্ভব।
প্রথমে লেবু চিপে পরিমাণ মতো রস বের করে নিতে হবে। তারপর একটি তুলার বলে লেবুর রস নিয়ে সরাসরি ত্বকের কালো দাগে লাগিয়ে কয়েক মিনিট রেখে দিতে হবে।
এছাড়া চাইলে আক্রান্ত জায়গায় লেবুর মাস্ক এবং স্ক্রাব ব্যবহার করা যাবে। লেবুতে থাকা সাইট্রিক এসিড ত্বকের মৃতকোষ তুলতে এবং ত্বকের রং ফিরিয়ে আনতে সাহায্য করে।
তবে, রোদে বের হওয়ার আগে লেবুর রস লাগানো উচিত নয়।


অ্যালোভেরা বা ঘৃতকুমারী
ত্বকের কালো দাগের উপর অ্যালোভেরার রস লাগিয়ে ত্বক শুষে না নেওয়া পর্যন্ত ঘষতে হবে। এতে ত্বকের কালো দাগ হালকা হয়ে যাবে এবং ত্বক উজ্জ্বল দেখাবে। প্রতিদিন ব্যবহারে উপকার পাওয়া যায়।
পেঁপে
একটি পাকাপেঁপে ভালোভাবে চটকে নিয়ে ত্বকের আক্রান্ত স্থানে ঘষে কিছুক্ষণ পরে ঠান্ডা পানি দিয়ে ধুয়ে ফেলতে হবে। সপ্তাহে ৩ থেকে ৪ দিন এই পদ্ধতিতে ত্বকে পেঁপে ব্যবহার করা যাবে। পেঁপেতে থাকা পাপাইন উপাদান মৃতকোষ তুলে ত্বক উজ্জ্বল করতে সাহায্য করে।


পেঁয়াজ
বয়সের ছাপ বা দাগ কমাতে পেঁয়াজের জুড়ি নেই। একটি পেঁয়াজ কুচি কুচি করে কেটে ত্বকের কালো দাগের উপর ৫ মিনিট ধরে ঘষতে হবে। চাইলে প্রতিদিনই এটি ব্যবহার করা যায়।
কলা এবং লেবু
প্রথমে একটি কলা চটকে নির্দিষ্ট পরিমাণ লেবুর রসের সঙ্গে ভালোভাবে মেশাতে হবে। তারপর ত্বকের কালোদাগের উপর এই মিশ্রণ লাগালেই দাগ হালকা হয়ে আসবে।
 
