রেসিপি দিয়েছেন আফরোজা মেরী।
উপকরণ
ডার্ক চকলেট ১০০ থেকে ১৫০ গ্রাম। তরল দুধ ২ কাপ। কোকোয়া পাউডার ২,৩ টেবিল-চামচ। লবণ ১/৪ চা-চামচ। কর্নফ্লাওয়ার ২,৩ টেবিল-চামচ। মাখন ২,৩ টেবিল-চামচ। ভ্যানিলা এসেন্স ১ চা-চামচ। চিনি ৩/৪ কাপ (কিংবা আপনার স্বাদ মতো)।
পদ্ধতি
দুতিন টেবিল-চামচ দুধের সাঙ্গে কর্নফ্লাওয়ার মিশিয়ে রেখে দিন একপাশে।
চুলায় প্যান কিংবা হাঁড়ি বসিয়ে বাকি সব উপকরণগুলো (মাখন আর ভ্যানিলা এসেন্স বাদে) একসঙ্গে জ্বাল দিন এবং নাড়ুন। তিন থেকে চার মিনিট এভাবে জ্বাল দিন।
এবার দুধ আর কর্নফ্লাওয়ারের মিশ্রণ দিয়ে ভালো করে নাড়তে থাকুন। যখন এই মিশ্রণ বেশ ঘন হয়ে আসবে তখন মাখন দিয়ে নেড়ে মিশিয়ে দিন।


