ত্বকের শুষ্কতা, ঠোঁট ফাটা, পা ফাটার মতো ছোটোখাটো ত্বকের সমস্যাই সুবিধাবঞ্চিত এলাকার মানুষের জন্য হয়ে উঠতে পারে ভয়াবহ। এই ভাবনা থেকেই গত বছর থেকে ইউনিলিভার বাংলাদেশ লিমিটেড’য়ের স্কিন কেয়ার ব্র্যান্ড ভ্যাসলিন সুবিধাবঞ্চিত এলাকার মানুষের ত্বকের সুস্থতায় সাহায্য করতে শুরু করেছে ‘ভ্যাসলিন হিলিং প্রোজেক্ট’।
‘ভ্যাসলিন হিলিং প্রোজেক্ট’য়ের মাধ্যমে এই বছরও উত্তরাঞ্চলের সুবিধাবঞ্চিত মানুষের ত্বকের সুস্থতায় সাহায্য করাতে ভ্যাসলিন পেট্রোলিয়াম জেলি ডোনেট করার উদ্যোগ নিয়েছে ভ্যাসলিন। এবারে প্রায় এক লক্ষ মানুষের কাছে এই সাহায্য পৌঁছে দেওয়ার লক্ষ্যে কাজ করা হচ্ছে। এছাড়াও সুবিধাবঞ্চিত মানুষকে ত্বক সংক্রান্ত প্রাথমিক চিকিৎসা-সেবা প্রদানের উদ্দেশ্যে এবার ৩শ’ জন ডাক্তার এবং ৬শ’ জন নার্সকে প্রশিক্ষণ দেওয়া হবে।
ভ্যাসলিন আয়োজিত এই সামাজিক সচেতনতামূলক কার্যক্রমের গুরুত্ব বুঝে প্রথম থেকেই ‘ভ্যাসলিন হিলিং প্রোজেক্ট’য়ের সাথে আছেন অভিনেত্রী ও চিত্রশিল্পী বিপাশা হায়াত।
ভ্যাসলিনের সাথে এই প্রোজেক্টে মর্ডান ট্রেড পার্টনার হিসেবে আছে ইউনিমার্ট। ১৯ নভেম্বর বিপাশা হায়াত ঢাকার গুলশান ২-এ অবস্থিত ইউনিমার্ট’য়ে উপস্থিত হয়ে ‘ভ্যাসলিন হিলিং প্রোজেক্ট’য়ের কিয়স্ক উদ্বোধন করেন। সুবিধাবঞ্চিত মানুষকে ভ্যাসলিন পেট্রোলিয়াম জেলি ডোনেট করার জন্য এই কিয়স্ক সর্বসাধারণের জন্য উন্মুক্ত।
এই অনুষ্ঠানে ইউনিলিভার বাংলাদেশ লিমিটেড’য়ের উর্ধ্বতন কর্মকর্তাবৃন্দ এবং ইউনিমার্ট’য়ের সংশ্লিষ্ট প্রতিনিধিবৃন্দ উপস্থিত ছিলেন।
