রেসিপি দিয়েছেন গৃহিনী সায়মা জাহান।
উপকরণ
ডিম ২টি। ময়দা আধা কাপ। চিনি আধা কাপ। ভ্যানিলা আধা চা-চামচ। গুঁড়া দুধ ১ টেবিল-চামচ। বেকিং পাউডার আধা চা-চামচ। মাখন বা তেল আধা কাপ।
পদ্ধতি
ডিমের সাদা অংশ ভালো করে ফেটিয়ে ফোম করতে হবে এমনভাবে, যেন পাত্র উল্টালেও ফোম নিচে না পড়ে। এরমধ্যে চিনি, ভ্যানিলা ও তেল বা মাখন দিয়ে ৫ থেকে ৬ মিনিট ভালো করে ফেটিয়ে মেশান।
এরপর কুসুম দিয়ে ৩ মিনিট আবারও ফেটিয়ে এতে দুধ, ময়দা ও বেকিং পাউডার অল্প অল্প করে দিয়ে ফেটিয়ে মেশাতে থাকুন।
বেকিং ট্রের মধ্যে তেল ব্রাশ করে ময়দা মেখে মিশ্রণটি ঢেলে দিন। ওভেনে ১৬০ ডিগ্রিতে ৩০ থেকে ৩৫ মিনিট বেইক করুন।
