ত্রয়ী গ্রুমিং অ্যান্ড স্টাইল স্টুডিও যাত্রা শুরু করেছিল গত ২৫ অক্টোবর ২০১৭। মডেলিং করতে আসা ছেলে মেয়েদের পরিপূর্ণ ভাবে প্রশিক্ষণের মাধ্যমে তৈরি করাই এই স্কুলের উদ্দেশ্য। বর্তমানে দেশে মডেলিং পেশা হিসেবে নেওয়ার ক্ষেত্রে তরুণ তরুণীরা এগিয়ে আসছে। তবে যথাযথ প্রশিক্ষণের অভাবে তাদের টিকে থাকা কষ্টকর হয়ে যাচ্ছে। ত্রয়ীতে এসকল ছেলে মেয়েদের প্রোফেসনাল মডেলিং প্রশিক্ষণ যেমন-  ফটোশুট এবং রাম্প’য়ে হাঁটার পাশাপাশি শেখানো হয় ব্যবহার, শুদ্ধ করে কথা বলা, নিজেকে উপস্থাপন করা, পোশাক পরিচ্ছদ জ্ঞান, ভদ্রতা জ্ঞান ইত্যাদি।
দ্বিতীয় ব্যাচের ভর্তির আবেদন করা যাবে ২০ জানুয়ারির মধ্যে। ঠিকান- ত্রয়ী গ্রুমিং অ্যান্ড স্টাইল স্টুডিও, বাড়ি ৫৩-৫৫, রোড ৩, ব্লক বি, লেভেল ৮, নিকেতন, গুলশান ১।
-বিজ্ঞপ্তি
