এ বছরের নারী দিবসের প্রতিপাদ্য বিষয় হল— অধিকার, মর্যাদায় নারী-পুরুষ সমানে সমান। তবে বাস্তবে তা হয় না। পরিবারের মধ্যেই হোক আর পরিবার গঠনের সময়, নারীকেই পাশ করতে হয় কঠিন সব যোগ্যতার পরীক্ষা। সেই পরীক্ষার মধ্যে তার বাহ্যিক সৌন্দর্য থেকে শুরু করে পরিবার গঠনের পরের আত্মত্যাগ সব কিছু যুক্ত হয়।
নাওমি ওলফ নামের একজন আমেরিকান লেখক এবং পলিসি বিশ্লেষক তার বহুল প্রচারিত ‘দ্য বিউটি মিথ’ নামক বইয়ে একটি কৌতূহলোদ্দীপক ধারণা তুলে ধরেন যার নাম তিনি দেন, ‘দ্যা আইডিয়াল অফ থিননেস’।
নাওমি বলেন, “মেয়েদের শুকনা থাকতে হবে, যাকে আজকাল জিরো ফিগার বলে সেটা থাকলে সুন্দর দেখায় এই ধারণার পেছনে একটি স্বার্থ কাজ করেছে। যারা এই ধারণার প্রবর্তক তারা আসলে চেয়েছে মেয়েরা সমাজে তাদের মূল পরিশ্রম দেবে তাদের বাহ্যিক অবয়বের দিকে এবং ভুলে যাবে তাদের অধিকারের কথা।”
তিনি আরও বলেন, “এখনকার দিনে সুন্দর মেয়ে বলতে যা বোঝায় তা এতটাই শুকনা যে, সেরকম হওয়া প্রায় অসম্ভব। আর এই চেষ্টায় মেয়েদের অন্য সকল সফল প্রাপ্তিই গৌণ হয়ে যায়।”
শামীম আহমেদ, একজন উন্নয়ন অর্থনীতিবিদ এবং জনস্বাস্থ্য বিশেষজ্ঞ এই বিষয়ে বলেন, “আমি এ বিষয়ে নাওমির সঙ্গে কথা বলেছি। আমি তার সঙ্গে একমত। নারীদেরকে এতটাই অন্ধ করে দেওয়া হয় কিছু ক্ষেত্রে যে, তারা ওজন কমানোর চিন্তায় পুষ্টিহীন হয়ে পড়ে, কসমেটিক্স সার্জারির প্রভাবে স্বাভাবিক দিনযাপন ভুলে যান। ফলে সমাজে তাদের স্বাভাবিক কাজগুলো গুছিয়ে উঠতে সময় পান না।”
মেয়েদের আগেভাগে বিয়ে দিয়ে দেওয়ার ব্যাপারে শামীম আহমেদ বলেন, “আমাদের সমাজে এসিড নিক্ষেপ, ধর্ষণের মতো বিষয়গুলোর যথোপযুক্ত বিচার হয় না বলে বাবা-মা’রা তাড়াতাড়ি মেয়ের বিয়ে দিয়ে নিজের দায় এড়াতে চান। মেয়েদের নিরাপত্তা প্রদানে রাষ্ট্রের ব্যর্থতাকে এই ক্ষেত্রে কম করে দেখার সুযোগ নেই।”
“অল্প বয়সে বিয়ে হওয়া মেয়েটি যেমন বিয়ের পর একটি মানসিক অস্বস্তিতে থাকে তেমনি তার পুষ্টি, শিক্ষা-দীক্ষাও পিছিয়ে যায় অনেকাংশে। এর প্রভাব পরবর্তী প্রজন্মেও পড়ে।” বললেন শামীম।
তিনি আরও বলেন, “আমাদের দেশে ফেমিনিজমের একটা ভুল ধারণা আছে। যারা নারী নেতৃত্বে আছেন এমন কারও কারও আচরণে মনে হয় ফেমিনিজম হচ্ছে ‘পুরুষের মুখোমুখি দাঁড়ানো’ যা একটি ভুল কনসেপ্ট। মেয়েদের অধিকার রক্ষায় নারী পুরুষ সবার ভূমিকা রাখা উচিৎ, বিশেষত অন্য নারীদেরও, রাষ্ট্রের উচিত কঠোর আইন করা যাতে নারীরা বঞ্চিত এবং নির্যাতিত না হয়। পাশাপাশি স্কুল-কলেজ এবং মাদ্রাসায় সঠিক মানবিক শিক্ষাও নিশ্চিত করা দরকার।”
মনোবিজ্ঞানী ফরিদা আক্তার মনে করেন, সমাজ ব্যবস্থা নারীদের এমন এক অবস্থানে নিয়ে গেছে যা দেখে মনে হবে একজন নারী প্রাকৃতিকভাবে দুর্বল। তাই তাকে যত দ্রুত সম্ভব একজন পুরুষের কাছে সঁপে দিতে হবে। কারণ সমাজ বলে পুরুষ সবল, সে নারীটিকে রক্ষা করবে। তাই যখনই নারীর নিরাপত্তা বিঘ্নিত হওয়ার সম্ভাবনা তৈরি হয় অথবা কেউ ভেবে নেয় যে সম্ভাবনা তৈরি হতে পারে তখন বিয়ে দেওয়াটাই হয়ে উঠে একমাত্র সমাধান।
বছরের পর বছর এই মানসিক ধারণা সমাজের ভিতরে এভাবে ঢুকে গিয়েছে যে নারী যখন অর্থে, বিত্তে এবং শারীরিক বলেও শক্তিশালী তখনও তাকে এভাবেই বিয়ে দিয়ে দেওয়া হচ্ছে। তবে সমস্যা মিটাতে গিয়ে সেই নারীকে আরও কত সমস্যার মধ্যে পড়তে হয় সে হিসাব কেউ নেয় না।
এর চেয়েও ভয়ানক ব্যাপার ঘটে যখন নারী নিজেই বিশ্বাস করা শুরু করে পরিবারের জন্য সে আসলেই একটি সমস্যা এবং সে নিজে থেকেই চায় যে তার বিয়ে হয়ে যাক। এমন অবস্থায় তার কোনো শক্তিই সে কাজে লাগাতে পারে না। 
সমস্যাটা আরও গুরুতর হয় বিয়ের পরে। কেননা একজন নারী যখন প্রেমিকা তখন সে রাঁধতে পারে কিনা অথবা সে চাকরি করবে কিনা এই বিষয়ে সঙ্গী মোটেই মাথা ঘামান না। একসঙ্গে থাকা শুরু করলে সমাজ ও জৈবিক চাহিদা তাদের মধ্যে এই প্রশ্নগুলো দাঁড় করায়।
এছাড়াও পুরুষ সঙ্গী সারা জীবন হয়ত তার মাকে ঘরের সব কাজ করতে দেখে অভ্যস্ত, আবার মায়েরাও ছেলেদের ঘরের কাজের কুটোটিও নাড়ানো শেখায়নি তাই চাইলেও সে কোনো কাজ করতে পারে না। ফলাফল, দিন শেষে বিকালে পুরুষ ও নারীর উভয়ের কাজই যখন শেষ হয়, পুরুষটি বাড়িতে বিশ্রাম নেন আর নারীকে নতুন করে আবার আরেকটা চাকরি শুরু করতে হয়। যেটা আসলে অপ্রত্যাশিত তো বটেই অমানবিকও।
ঘরকন্নার সে চাকরিতেও খুঁটিনাটি ভুল ত্রুটির মাপজোক চলে। কেউ এতটুকুও ভাবেন না অন্য একটা পরিবেশে অন্য এক ধরণের চাহিদায় অন্যরকম মূল্যবোধে বড় হওয়া একজন নারীকে কাজ করতে কী রকমের সমস্যা পোহাতে হয়। প্রতিনিয়ত এইসব কঠিন মূল্যায়নের যাঁতায় পৃষ্ঠ হয়ে জীবনে কোনো পরীক্ষায় দ্বিতীয় না হওয়া মেয়েটিও বিশ্বাস করা শুরু করে যে সে কোনো কিছু করার ‘যোগ্য’ নয় এবং ক্রমশ সব কিছুতেই হেরে যেতে থাকে।
কেউ কেউ হয়ত নিজের বাবা-মাকে দোষারোপ শুরু করে যে কেনো তারা তাকে ‘যোগ্য’ করে তুলতে পারেনি। অনেকে রুখে দাঁড়ায়, ফলে সারাজীবন চুপ করে থাকা সহনশীল মেয়েটিও এক পর্যায় কঠিন বাক্য ব্যবহার করা শুরু করে।
এই অযাচিত প্রত্যাশার প্রভাব শুধু যে নারীর মনে পড়ে তা নয়। নারী ও পুরুষের সম্পর্কেও পড়ে। অনেকক্ষেত্রে বিবাহ বিচ্ছেদ পর্যন্ত ঘটনাটি গড়ায়। কোনো কোনো নারী শুধুই মনের মধ্যে পুষে রাখা ক্ষোভের বহিঃপ্রকাশ ঘটান সন্তান ধারণের সিদ্ধান্তে, কিছু ক্ষেত্রে সন্তান লালন পালনের চর্চায়ও।   
নারীকেই কেনো এতসব ঝামেলার মধ্য দিয়ে যেতে হয় এই বিষয়ে সংস্কৃতিক ব্যক্তিত্ব সারা যাকের বলেন, “আমাদের দেশে নারীকে আসলে নারী হিসেবে তো দূরে থাক, মানুষ হিসেবেও গণ্য করা হয়না। তাদের গণ্য করা হয় একটি বস্তু হিসেবে। সে শিক্ষিতই হোক অথবা অশিক্ষিত।”
তিনি আরও বলেন, “মেয়েরা কোনো ভোগ্যপণ্য নয়। শারীরিক কিংবা মানসিক সম্পর্ক যে একটি পারস্পরিক বোঝাপড়ার বিষয় তা নিয়ে আমাদের নৈতিক শিক্ষার অভাব রয়েছে।”
নিজের মত জানাতে গিয়ে সারা যাকের আরও বলেন, “আমাদের দেশে বাল্যবিবাহের রীতিকে এখনও আমরা প্রাচীন বা সেকেলে বলতে পারি না। গ্রামাঞ্চলে আজও একটা বিশাল সংখ্যাক মেয়ে ১২ বছর বয়স পার করতে পারে না, তাদের বিয়ে দিয়ে দেওয়া হয়। এইসব মেয়েদের নিজেদের সমস্যা নিয়ে কথা বলার বা ভাবার মতো পরিপক্বতাও তৈরি হতে পারে না। তারাও জানে না তাদের কী অধিকার আছে অথবা আদৌ কোনো অধিকার আছে কি-না।”
“এসব মেয়েদের নিজেদের চাওয়া-পাওয়ার বিষয় সেভাবেই কখনও সামনে আসতে পারে না। অনেকেই বছরের পর বছর দিব্যি ‘বস্তু’ জীবন পার করে এবং অন্যের প্রত্যাশা পূরণ করে যেতে থাকে। যেহেতু এমন মেয়ে পাওয়া নেহায়েত কঠিন কিছু নয়, তাই যারা নিজেদের বস্তু নয় মানুষ ভাবে তাদের কাছেও সমানভাবে এই বস্তু মানসিকতা দাবী করে বসে।” কথার ফাঁকে বললেন তিনি।
সারা যাকের মনে করেন সঠিক শিক্ষার মাধ্যমে এই সমস্যার সমাধান করা সম্ভব। পাঠ্য বইয়ে বা অন্য কোনো উপায়ে যদি পরিবারে নারীর মতামতকে সম্মান করার বিষয়টি তুলে আনা যায় তাহলে হয়ত এই সমস্যা থেকে কিছুটা হলেও উত্তরণ পাওয়া সম্ভব।
নারীকে নিজের জানতে হবে সে পণ্য নয়। এবং যাদের কঠিন মূল্যায়নের মধ্য দিয়ে নারীকে যেতে হয় তারাও জানবে পৃথিবীতে সমাজে নারীর অবস্থান সৌন্দর্য দেখিয়ে কারও মনকে খুশি করা নয়, নিজের চাওয়া পাওয়া বিসর্জন দিয়ে অন্যের সেবা করাও নয় অথবা কারও মনোমতো নিজেকে গড়ে তোলাও নয়।
