দিয়েছেন তাবাসসুম মুমু।
উপকরণ
ডিম ৩টি। কমলার রস ৪ টেবিল-চামচ। আদা বা ময়দা ১ কাপ। চিনি ১ কাপ। তেল ১ টেবিল-চামচ। দুধ ১ টেবিল-চামচ। বেকিং পাউডার ১ চা-চামচ। অরেঞ্জ এসেন্স ১ চা-চামচ। লবণ ১ চিমটি। কমলার খোসাকুচি আধা কাপ। কমলা খাবার রং ১ ফোঁটা।
পদ্ধতি
প্রথমে ডিম ফেটে নিন। কমলার রস, কমলার এসেন্স, লবণ আর চিনি দিয়ে খুব ভালো করে মেশান।
এবার দুধ, বেকিং পাউডার, ময়দা একসঙ্গে মিশিয়ে দিন এবং তেল আর খাবার রং দিয়ে ভালো করে বিট করুন। 
এখন এতে কমলার মিশ্রণ দিয়ে চামচ দিয়ে মিশিয়ে নিন ভালো করে। কেক’য়ের যে মোলড আছে তাতে তেল ব্রাশ করে নিন আর মিশ্রণটি ঢেলে দিন।
এবার ১৮০ ডিগ্রি প্রিহিটেড ওভেনে ৪০ মিনিটের জন্য কেক বেইক করুন।
ওভেন ছাড়া তৈরি পদ্ধতি


এবার কেক’য়ের মোলডটি প্লেটের উপর রাখুন এবং প্রেসারের কুকারের ঢাকনা দিয়ে ঢেকে দিন। হুইসেলে রাখবেন না।
চুলায় মাঝারি আঁচে ৩০ থেকে ৩৫ মিনিট রাখুন। এবার কেক হয়ে যাবে।
কেক চুলা বা ওভেন থেকে নামিয়ে ঠাণ্ডা হতে দিন ।
ক্যারামেলের জন্য
কমলার রস আধা কাপ। চিনি ৪ টেবিল-চামচ।
চিনি আর রস একসঙ্গে মিশিয়ে আর ফুটিয়ে নিন। ঘন হয়ে গেলে নামিয়ে ফেলুন। এবার কেকের উপর ঢেলে দিন। ঠাণ্ডা হতে দিন আর সেট হতে দিন। হয়ে গেল অরেঞ্জ কেক।
গাজরের হালুয়া এবং রেড ভেলভেট কেক
