রঙ বাংলাদেশ’য়ের পোশাকে ফাল্গুন


মূলত ঐতিহ্যবাহী পোশাকই থাকছে এই আয়োজনে। আছে শাড়ি, সালোয়ার-কামিজ, সিঙ্গেল কামিজ, টপস, আনস্টিচ, সিঙ্গেল ওড়না ও ব্লাউজ। জমিন অলঙ্করণে ব্যবহৃত হয়েছে ব্লক প্রিন্ট, স্ক্রিন প্রিন্ট, হাতের কাজ, প্যাচওয়ার্ক।


বড়দের পাশাপাশি রয়েছে শিশুদের ফাল্গুনের পোশাক। এই সংগ্রহে রয়েছে ফ্রক, লং-স্কার্ট-টপস, পাঞ্জাবি, ধুতি, ফুলহাতা ও হাফহাতা শাট, টি-শার্ট, পোলো-শার্র্ট।
- বিজ্ঞপ্তি।
বসন্ত ভালোবাসায় কে ক্রাফট


সময় ও পরিবেশ অনুযায়ী পোশাকে রয়েছে ট্রাডিশন ও ট্রেন্ডসের সমন্বয়।


আর এই আইটেমগুলো পাওয়া যাবে কে ক্র্যাফ্টের সকল শোরুম এবং অনলাইন স্টোর Kaykraft.com এ।
- বিজ্ঞপ্তি।
