রেসিপি দিয়েছেন সাইমা সৈয়দ।
উপকরণ
বাইন মাছ। নারিকেলের দুধ ১ কাপ। মরিচগুঁড়া ১ চা-চামচ। হলুদগুঁড়া ১ চা-চামচ। আদাবাটা আধা চা-চামচ। রসুনবাটা ১ চা-চামচ। পেঁয়াজবাটা ১ কাপ। দারুচিনি ২ টুকরা। লেবু ১টি। তেল আধা কাপ। লালমরিচ (শুকনা নয়) ৬টি। লবণ স্বাদমতো।
পদ্ধতি
