রেসিপি দিয়েছেন সামিয়া রহমান


উপকরণ: ২ কাপ মুরগির বুকের মাংস বা রানের মাংস। ৩ টেবিল-চামচ সয়াসস। ১ টেবিল-চামচ ব্রাউন সুগার। ১ টেবিল-চামচ আদা। ১ টেবিল-চামচ রসুনকুচি। গোলমরিচের গুঁড়া ১ চা-চামচ। তিলের তেল আধা চা-চামচ। তেল ৪ টেবিল-চামচ। পেঁয়াজ ফালি করে কাটা ১ কাপ। রোস্টেড তিল (সাজানোর জন্য)।
পদ্ধতি: মুরগির বুকের মাংস বা রানের মাংস কেটে টুকরা করে নিন। ননস্টিক প্যানে তেল দিয়ে আদা, রসুনকুচি দিন। একটু বাদামি রং হলে মুরগির মাংস দিয়ে বাদামি করে ভাজুন। তারপর সয়াসস, ব্রাউন সুগার, গোলমরিচের গুঁড়া, তিলের তেল,পেঁয়াজফালি দিয়ে ফ্রাই করুন।  ২ থেকে ৩ মিনিট ভাজার পর, রোস্টেড তিল ছিটিয়ে নামিয়ে নিন।


উপকরণ: বিস্কুট (চা দিয়ে খাওয়ার জন্য মেরি বিস্কুট ধরনের) ৩০টি। ক্রিমচিজ ১ কাপ। হেভিক্রিম ২ কাপ। চিনি ১ কাপ। কোকো পাউডার ২ টেবিল-চামচ।
পদ্ধতি: ক্রিমচিজ, হেভিক্রিম ও চিনি একসঙ্গে বিট করুন। সব মিশে তরল ঘন ক্রিইমি হতে হবে। এখন এই মিশ্রণ দুইভাগে ভাগ করে একভাগের সঙ্গে কোকো পাউডার মিশিয়ে চকোলেটক্রিম তৈরি করুন।
এখন কেক প্যানে চামচ দিয়ে এক লেয়ার হোয়াইট ক্রিমের মিশ্রণ সমান করে লাগিয়ে নিন। এর উপর বিস্কুট বিছিয়ে আবার এক লেয়ার চকোলেটক্রিম তার উপর বিস্কুট আবার এক লেয়ার হোয়াইটক্রিমের  মিশ্রণ দিন।
