এই সমস্যা সমাধানে সহায়ক পাঁচটি খাবারের কথা জানিয়েছে স্বাস্থ্যবিষয়ক এক ওয়েবসাইট।
শুকনা ফল ও বাদাম: কাঠবাদাম, পেস্তা, কিশমিশ, ওয়ালনাট ইত্যাদি আমিষে ভরপুর। বীজজাতীয় খাবার যেমন তিসিও অনেক উপকারী কারণ এতে থাকে আনস্যাচুরেইটেড চর্বি।
প্রতিদিন একমুঠ বাদাম বা বীজ খেলে নিশ্চিত হবে শরীরের জন্য প্রতিদিনের প্রয়োজনীয় আঁশ, ভিটামিন, আমিষ এবং আয়রন। 
ডিম ও দুগ্ধজাত খাবার: ডিম ও দুধ থেকে তৈরি খাবারে মিলবে আমিষ। যা মাংসবিহীন খাদ্যাভ্যাসে পাওয়া সম্ভব নয়। দুধ ও দুগ্ধজাত খাবারে আরও থাকে ক্যালসিয়াম ও ভিটামিন ডি।
ডাল: নিরামিষ খাদ্যাভ্যাসের একটি গুরুত্বপূর্ণ অংশ হল মটরশুঁটি, শিমের দানা, ডাল ইত্যাদি। এগুলো আমিষের একটি ভালো উৎস। পাশাপাশি শরীরের প্রয়োজনীয় আঁশ, ভিটামিন ও খনিজও থাকে।
