হার্ট অ্যাটাক বা ‘করোনারি আর্টারি ডিজিস’য়ের পূর্বাভাস সম্পর্কে ‘হার্ট ফেইলিআর সোসাইটি অফ আমেরিকা’ FACES বিষয়ে সাবধান থাকতে পরামর্শ দিয়েছে।
সংক্ষিপ্ত এই রূপের ব্যাখ্যা দিয়েছেন রাজধানীর সম্মিলিত সামরিক হাসপাতালের নিউরোলজি বিভাগের সাবেক বিভাগীয় প্রধান এবং বাংলাদেশ স্ট্রোক অ্যাসোসিয়েশনের প্রধান উপদেষ্টা ডা. মেজর জেনারেল কেএম ওমর হাসান।
- এখানে ‘এফ’ হল অবসাদ বা ‘ফাটিগ’য়ের সংক্ষিপ্ত রূপ। হৃদযন্ত্র যখন শরীরের চাহিদা অনুযায়ী অক্সিজেন-সমৃদ্ধ রক্ত সরবরাহ করতে পারে না, তখনই শরীর ক্লান্ত এবং অবসাদগ্রস্ত হয়ে পড়ে।
- ‘এ’ দিয়ে বোঝায় ‘অ্যাকটিভিটি লিমিটেইশন’ অর্থাৎ শরীরের স্বাভাবিক কার্যক্ষমতা হারানো। এক্ষেত্রেও ক্লান্তি ঘিরে ধরে এবং দম ফুরিয়ে আসে।
- ‘সি’ হল ‘কনজেসচন’ অর্থাৎ ফুসফুসে পানি জমা হওয়া। যার ফলাফল হতে পারে কাশি, হাঁচি, শ্বাসকষ্ট ইত্যাদি।
- ‘এডিমা’ বা পা ফুলে যাওয়া বোঝাতে ব্যবহার করা হয়েছে ‘ই’। হৃদযন্ত্র যখন শরীরের নিম্নাংশ থেকে ব্যবহৃত রক্ত উপরে ঠেলে দেওয়ার শক্তি কমে যায়, তখন পা, উরু এবং তলপেটে তরল জমা হতে থাকে। অতিরিক্ত তরল জমা হওয়ার কারণে দ্রুত ওজন বাড়ে।
- ‘এস’ দিয়ে বোঝানো হয়েছে ‘শর্টনেস অফ ব্রেথ’ অর্থাৎ হাঁসফাঁস করা। ফুসফুসে পানি জমে থাকলে ব্যবহৃত রক্তের কার্বন-ডাই-অক্সাইডকে অক্সিজেনের সঙ্গে অদল-বদল করা কঠিন হয়ে যায়। ফলে শ্বাস-প্রশ্বাসের সমস্যা হয়। দৈনন্দিন কাজ করার সময়, বিশ্রামের সময় এমনকি বিছানায় শোয়া অবস্থায়ও এমনটা হতে পারে।


“বুকে ব্যথা বা অস্বস্তি হার্ট অ্যাটাকের সবচাইতে প্রচলিত লক্ষণ। হৃদযন্ত্রের একটি বন্ধ হয়ে যাওয়া রক্তনালী এই ব্যথার সুত্রপাত ঘটাতে পারে। বুকে প্রচণ্ড চাপ অনুভূত হতে পারে। এই অনুভূতি যে কেনো অবস্থাতেই হতে পারে এবং স্থায়ী হতে পারে কয়েক মিনিট। তাই বুকব্যথা কখনও অবহেলা করা যাবে না।” 
“এছাড়াও বমিভাব, বদহজম, বুক জ্বালাপোড়া, পেটব্যথা ইত্যাদি হতে পারে হার্ট অ্যাটাকের কারণে। এই সমস্যাগুলো নারীদের ক্ষেত্রে বেশি হয়। তবে মনে রাখতে হবে, যে কোনো কারণেই এই সমস্যাগুলো হতে পারে। দীর্ঘদিন ধরে সমস্যা চলতে থাকলে চিকিৎসকের পরামর্শ নিতে হবে।”
হাত ব্যথা: হার্ট অ্যাটাকের এই পূর্বাভাসের সুত্রপাত হয় শরীরের বাম পাশ থেকে। ব্যথাটা বুক থেকে শুরু হয়ে ক্রমশ হাতের দিকে ছড়াতে থাকে। অনেকসময় রোগী তার বাম হাতে বিরতিহীন ব্যথা অনুভব করতে থাকেন, যা পরে হার্ট অ্যাটাক হিসেবে চিহ্নিত হয়।
মাথা ঘোরা ও ঝিমঝিম ভাব: বিভিন্ন স্বাস্থ্য সমস্যার কারণে মাথা ঘোরাতে পারে। তবে মাথা ঘোরার সঙ্গে শরীর বেসামাল লাগা, বুকে অস্বস্তি এবং হাঁসফাঁস লাগলে চিকিৎসকের পরামর্শ নিতে হতে হবে। এর মানে হল রক্তচাপ কমে গেছে। কারণ হৃদযন্ত্র চাহিদা মাফিক রক্ত সরবরাহ করতে পারছে না।
গলা কিংবা চোয়ালে ব্যথা: সরাসরি গলা কিংবা চোয়ালে ব্যথা শুরু হওয়ার সঙ্গে হৃদরোগের সম্পর্ক নেই। তবে ব্যথা যদি বুক থেকে শুরু হয়ে চোয়াল কিংবা গলায় ছড়ায় তবে সতর্ক হতে হবে।
দ্রুত ক্লান্ত হওয়া: সিঁড়ি বেয়ে ওঠার সময় কিংবা হাঁটতে হাঁটতেই যদি দ্রুত হাঁপিয়ে ওঠেন তবে ডাক্তার দেখান। অল্প পরিশ্রমে প্রচণ্ড ক্লান্তি কিংবা দুর্বলতা হার্ট অ্যাটাকের লক্ষণ, বিশেষত নারীদের ক্ষেত্রে।
নাক ডাকা: বিষয়টা স্বাভাবিক মনে হলেও বিকট শব্দে নাকা ডাকা, সেই সঙ্গে দম বন্ধ হয়ে যাওয়ার মতো শব্দ হওয়া ‘স্লিপ অ্যাপনিয়া’র লক্ষণ। অর্থাৎ ঘুমের মধ্যে দমবন্ধ হয়ে যাওয়ার সমস্যা রয়েছে। এতে হৃদযন্ত্রের উপর প্রচণ্ড চাপ পড়ে, যার ফলে হার্ট অ্যাটাক হতে পারে। 
অতিরিক্ত ঘাম: স্বাভাবিক তাপমাত্রায় কোনো কারণ ছাড়াই ঘাম হওয়া হার্ট অ্যাটাকের লক্ষণ হতে পারে। এরসঙ্গে যদি হার্ট অ্যাটাকের অন্য কোনো উপসর্গ দেখা দেয় তবে দ্রুত চিকিৎসকের শরণাপন্ন হওয়া উচিত।
দীর্ঘদিন ধরে কফ জমা: সাধারণত এর সঙ্গে হৃদরোগের সম্পর্ক নেই। তবে যাদের হৃদযন্ত্রের সমস্যা আছে কিংবা হৃদরোগের ঝুঁকি আছে তাদের কফ জমাকে অবহেলা করা উচিত নয়। কাশির সঙ্গে যদি সাদা কিংবা গোলাপি রংয়ের কফ যায় তবে তা হৃদপিণ্ডের কর্মক্ষমতা হারানোর লক্ষণ হতে পারে।
পা ফোলা: হৃদযন্ত্র সঠিকভাবে রক্ত সরবরাহ করতে না পারলে শরীরের বিভিন্ন অংশ ফুলতে পারে। আর যখন হৃদপিণ্ড প্রয়োজন মতো দ্রুত ‘পাম্প’ করতে পারে না তখন রক্তনালীতে রক্ত ফেরত আসে। ফলে পাকস্থলি ফোলে। হৃদযন্ত্রের সমস্যা থাকলে শরীর থেকে বাড়তি পানি ও সোডিয়াম অপসারণ করতেও হিমশিম খায় কিডনি বা বৃক্ক।


এই রোগে প্রাথমিকভাবে বুকে মৃদু ব্যথা হতে পারে। তবে পরবর্তী সময়ে আরও বেশি যন্ত্রণাদায়ক উপসর্গ দেখা দেবে। কিছু ক্ষেত্রে হার্ট অ্যাটাক কোনো পূর্বাভাসই দেয় না, যাকে বলা হয় ‘সাইলেন্ট হার্ট অ্যাটাক’। ডায়বেটিস রোগীদের এই পরিস্থিতে পড়ার আশঙ্কা বেশি।
হার্ট অ্যাটাকের লক্ষণ আধা ঘণ্টা কিংবা তারও বেশি সময় স্থায়ী হতে পারে। বিশ্রাম নিয়ে কিংবা ওষুধ খেয়েও অনেক সময় উপকার মেলে না।
হার্ট অ্যাটাক এবং কার্ডিয়াক অ্যারেস্ট এক নয়
আমেরিকান হার্ট অ্যাসোসিয়েশ’য়ের ব্যাখ্যায়-
যখন উচ্চমাত্রার অক্সিজেন মিশ্রিত রক্ত বন্ধ হয়ে যাওয়া ধমনীর মধ্যে দিয়ে হৃদপিণ্ডের কোনো অংশে যেতে বাধা পায়, আর সেই ধমনী নুতনভাবে কাজ করতে পারে না, তখন মরে যেতে থাকে। যা থেকে হয় হার্ট অ্যাটাক।
