পদ্ধতি দিয়েছেন ফেইসবুকের ‘নওরিন’স কুকিং ওয়ার্ল্ড’ পেইজের তাসনুভা রোজ নওরিন।
উপকরণ: আস্তধনে ১/৪ কাপ। আস্তজিরা ২ টেবিল-চামচ। আস্ত গোলমরিচ ১ চা-চামচ। স্টার অ্যানিস ফুল ১টি ( যদি পাওয়া যায়)। লং ১০টি। দারুচিনি ৩ ইঞ্চির মতো। জায়ফল একটির অর্ধেক। জয়ত্রী সামান্য টুকরা। এলাচ ১৩টি। মিষ্টিজিরা ২ চা-চামচ। তেজপাতা ৪/৫টি।
পদ্ধতি: প্রথমে একটা তাওয়া গরম করে নিয়ে তাতে সব গোটা মসলা দিয়ে এক মিনিট গরম করে নেবেন। তবে কোনোভাবেই যেন মসলা পুড়ে না যায়। তাহলে মসলার স্বাদ নষ্ট হয়ে যাবে।
