এ মাস্কে একটি কাগজের মতো অংশ আছে। যা মুখের আকারে কাটা থাকে। এই মাস্ক ডুবানো থাকে ত্বকের জন্য উপকারী জেলজাতীয় উপাদানে। ওই জেলে ভেজা মাস্কটি মুখের উপর দিয়ে অপেক্ষা করতে হয় এতে ত্বক তার জরুরি উপাদান শুষে নেয়।
তবে এই সহজ ব্যবহার্য মাস্কটি সঠিকভাবে ব্যবহার করার ক্ষেত্রেও কিছু বিষয় জানা থাকা দরকার।
রূপচর্চাবিষয়ক একটি ওয়েবসাইটে এই মাস্ক ব্যবহারের ক্ষেত্রে কিছু বিষয় উল্লেখ করা হয়।
- অনেকেই মনে করেন যত বেশি সময় মাস্ক রাখা যায় ততটাই বেশি উপকারী। এটা মোটেও ঠিক নয়। বরং এতে ত্বক শুষ্ক হয়ে যাওয়ার ঝুঁকি থাকে। তাছাড়া মাস্ক তুলে ফেলার পর বাড়তি জেল ত্বকে মালিশ করে নিলে ভালো। তবে জেল যখন পুরোপুরি শুকিয়ে যায় তখন ত্বক শুষ্ক হয়ে উঠবে। তাই ত্বক কোমল রাখতে অবশ্যই ময়েশ্চারাইজার ব্যবহার করতে হবে। এতে ত্বকে আলাদা উজ্জ্বলতা আসবে।
