রূপচর্চাবিষয়ক একটি ওয়েবসাইটে নিমপাতা ব্যবহারের কিছু সহজ উপায় তুলের ধরা হয়। ত্বকের সমস্যা বুঝে নিমপাতার সঙ্গে বিভিন্ন উপাদান মিশিয়ে ব্যবহার করা উচিত।
ব্রণের সমস্যার সমাধানে: কয়েকটি নিমপাতা গুঁড়া করে সঙ্গে দুই চা-চামচ গোলাপ জল এবং এক চা-চামচ লেবুর রস মিশিয়ে পেস্ট তৈরি করে নিতে হবে। ত্বকে মেখে ১৫ মিনিট অপেক্ষা করে ধুয়ে ফেলুন।
লোমকূপের সমস্যায়: তিনটি শুকনা নিমপাতা গুঁড়া এবং ১ চা-চামচ কমলা লেবুর খোসা গুঁড়া নিয়ে ১ চা-চামচ মধু, ১ চা-চামচ দুধ ও ১ চা-চামচ টক দইয়ের সঙ্গে মিশিয়ে পেস্ট তৈরি করতে হবে। ত্বকে ওই মিশ্রণ লাগিয়ে ২০ থেকে ২৫ মিনিট অপেক্ষা করে ধুয়ে ফেলতে হবে। ভালো ফলাফলের জন্য সপ্তাহে দুবার ব্যবহার করুন।
জ্বালাভাব কমাতে: কয়েক ফোঁট নিমতেল ও নারিকেল-তেল সমপরিমাণে মিশিয়ে ত্বকে লাল হয়ে যাওয়া বা জ্বালা করা স্থানে হালকা হাতে মালিশ করুন। কিছুক্ষণ অপেক্ষা করুন যেন তেল ত্বকের সঙ্গে মিশে যায়। এরপর কুসুম গরম পানি দিয়ে ধুয়ে ফেলুন।
